project/matlab/project_exp3/450 Hz/NewFile1.csv

X,CH1,CH2,Start,Increment,
Sequence,Volt,Volt,-2.280000e-03,5.000000e-06
0,2.64e+00,4.88e+00,
1,2.88e+00,5.12e+00,
2,2.88e+00,4.88e+00,
3,2.72e+00,5.20e+00,
4,2.80e+00,4.88e+00,
5,2.96e+00,5.20e+00,
6,2.88e+00,4.88e+00,
7,3.04e+00,5.20e+00,
8,2.96e+00,5.20e+00,
9,3.12e+00,4.88e+00,
10,2.96e+00,4.88e+00,
11,3.20e+00,5.20e+00,
12,3.20e+00,4.88e+00,
13,3.04e+00,5.20e+00,
14,3.28e+00,4.96e+00,
15,3.12e+00,5.20e+00,
16,3.28e+00,5.20e+00,
17,3.44e+00,4.88e+00,
18,3.28e+00,5.20e+00,
19,3.52e+00,4.88e+00,
20,3.36e+00,4.88e+00,
21,3.52e+00,5.20e+00,
22,3.44e+00,4.88e+00,
23,3.60e+00,5.20e+00,
24,3.44e+00,5.20e+00,
25,3.68e+00,4.88e+00,
26,3.52e+00,5.20e+00,
27,3.76e+00,4.88e+00,
28,3.60e+00,4.88e+00,
29,3.76e+00,5.20e+00,
30,3.68e+00,4.88e+00,
31,3.84e+00,5.20e+00,
32,3.84e+00,4.88e+00,
33,3.68e+00,5.20e+00,
34,3.92e+00,4.96e+00,
35,3.76e+00,5.20e+00,
36,3.84e+00,5.20e+00,
37,4.00e+00,4.88e+00,
38,3.84e+00,5.20e+00,
39,4.08e+00,4.88e+00,
40,3.92e+00,4.88e+00,
41,4.08e+00,5.20e+00,
42,3.92e+00,5.20e+00,
43,4.16e+00,4.88e+00,
44,4.16e+00,4.88e+00,
45,4.00e+00,5.20e+00,
46,4.24e+00,5.20e+00,
47,4.00e+00,4.88e+00,
48,4.08e+00,5.20e+00,
49,4.32e+00,4.88e+00,
50,4.24e+00,4.88e+00,
51,4.40e+00,5.20e+00,
52,4.24e+00,4.88e+00,
53,4.48e+00,5.20e+00,
54,4.32e+00,4.88e+00,
55,4.48e+00,5.20e+00,
56,4.32e+00,5.12e+00,
57,4.56e+00,4.88e+00,
58,4.56e+00,4.88e+00,
59,4.40e+00,5.20e+00,
60,4.56e+00,5.20e+00,
61,4.40e+00,4.88e+00,
62,4.40e+00,4.88e+00,
63,4.64e+00,5.20e+00,
64,4.64e+00,4.88e+00,
65,4.48e+00,5.20e+00,
66,4.48e+00,4.88e+00,
67,4.72e+00,5.20e+00,
68,4.72e+00,5.20e+00,
69,4.56e+00,4.88e+00,
70,4.72e+00,5.20e+00,
71,4.56e+00,4.88e+00,
72,4.56e+00,4.88e+00,
73,4.80e+00,5.20e+00,
74,4.80e+00,5.20e+00,
75,4.64e+00,4.88e+00,
76,4.80e+00,5.12e+00,
77,4.64e+00,4.88e+00,
78,4.64e+00,5.20e+00,
79,4.88e+00,4.88e+00,
80,4.88e+00,4.88e+00,
81,4.72e+00,5.20e+00,
82,4.88e+00,5.20e+00,
83,4.72e+00,4.88e+00,
84,4.88e+00,5.12e+00,
85,4.72e+00,4.88e+00,
86,4.88e+00,5.20e+00,
87,4.72e+00,4.88e+00,
88,4.72e+00,4.88e+00,
89,4.96e+00,5.20e+00,
90,4.96e+00,4.88e+00,
91,4.80e+00,5.20e+00,
92,4.96e+00,4.88e+00,
93,4.80e+00,5.20e+00,
94,4.96e+00,4.88e+00,
95,4.80e+00,5.20e+00,
96,4.96e+00,4.88e+00,
97,4.80e+00,5.20e+00,
98,4.96e+00,4.88e+00,
99,4.80e+00,5.20e+00,
100,4.80e+00,4.88e+00,
101,4.96e+00,5.20e+00,
102,4.96e+00,4.88e+00,
103,4.80e+00,5.20e+00,
104,4.96e+00,4.88e+00,
105,4.80e+00,5.20e+00,
106,4.96e+00,4.88e+00,
107,4.80e+00,5.20e+00,
108,4.96e+00,4.88e+00,
109,4.80e+00,5.20e+00,
110,4.96e+00,5.12e+00,
111,4.80e+00,4.88e+00,
112,4.96e+00,4.88e+00,
113,4.80e+00,5.20e+00,
114,4.96e+00,5.20e+00,
115,4.72e+00,4.88e+00,
116,4.72e+00,5.20e+00,
117,4.96e+00,4.88e+00,
118,4.72e+00,4.96e+00,
119,4.88e+00,5.20e+00,
120,4.72e+00,4.96e+00,
121,4.88e+00,5.20e+00,
122,4.72e+00,4.88e+00,
123,4.88e+00,5.20e+00,
124,4.88e+00,5.20e+00,
125,4.64e+00,4.88e+00,
126,4.64e+00,5.20e+00,
127,4.80e+00,4.88e+00,
128,4.64e+00,4.88e+00,
129,4.80e+00,5.20e+00,
130,4.80e+00,4.88e+00,
131,4.64e+00,5.20e+00,
132,4.80e+00,4.88e+00,
133,4.56e+00,5.20e+00,
134,4.56e+00,4.88e+00,
135,4.72e+00,5.20e+00,
136,4.72e+00,5.20e+00,
137,4.56e+00,4.88e+00,
138,4.48e+00,5.20e+00,
139,4.64e+00,4.88e+00,
140,4.48e+00,4.88e+00,
141,4.64e+00,5.12e+00,
142,4.64e+00,5.20e+00,
143,4.40e+00,4.88e+00,
144,4.40e+00,5.20e+00,
145,4.56e+00,4.88e+00,
146,4.56e+00,5.20e+00,
147,4.32e+00,4.88e+00,
148,4.32e+00,4.88e+00,
149,4.48e+00,5.20e+00,
150,4.48e+00,4.88e+00,
151,4.24e+00,5.20e+00,
152,4.16e+00,5.12e+00,
153,4.40e+00,4.88e+00,
154,4.40e+00,5.20e+00,
155,4.08e+00,4.88e+00,
156,4.08e+00,4.88e+00,
157,4.24e+00,5.20e+00,
158,4.24e+00,4.88e+00,
159,4.00e+00,5.20e+00,
160,4.16e+00,4.88e+00,
161,4.00e+00,5.20e+00,
162,4.16e+00,4.88e+00,
163,3.92e+00,5.20e+00,
164,4.08e+00,4.88e+00,
165,3.84e+00,5.20e+00,
166,3.84e+00,4.88e+00,
167,4.00e+00,5.20e+00,
168,4.00e+00,4.88e+00,
169,3.76e+00,5.20e+00,
170,3.92e+00,4.88e+00,
171,3.68e+00,5.20e+00,
172,3.84e+00,4.88e+00,
173,3.68e+00,5.20e+00,
174,3.84e+00,4.88e+00,
175,3.60e+00,5.20e+00,
176,3.60e+00,5.20e+00,
177,3.76e+00,4.88e+00,
178,3.52e+00,4.88e+00,
179,3.68e+00,5.20e+00,
180,3.68e+00,4.88e+00,
181,3.44e+00,5.20e+00,
182,3.60e+00,4.88e+00,
183,3.36e+00,5.20e+00,
184,3.36e+00,5.20e+00,
185,3.52e+00,4.88e+00,
186,3.44e+00,4.88e+00,
187,3.20e+00,5.20e+00,
188,3.44e+00,4.88e+00,
189,3.12e+00,5.20e+00,
190,3.28e+00,5.20e+00,
191,3.04e+00,4.88e+00,
192,3.20e+00,4.88e+00,
193,3.04e+00,5.20e+00,
194,3.12e+00,4.88e+00,
195,2.96e+00,5.20e+00,
196,3.12e+00,4.88e+00,
197,2.88e+00,5.20e+00,
198,3.04e+00,4.88e+00,
199,2.80e+00,5.20e+00,
200,2.80e+00,4.88e+00,
201,2.96e+00,5.20e+00,
202,2.88e+00,4.88e+00,
203,2.72e+00,5.20e+00,
204,2.80e+00,5.20e+00,
205,2.64e+00,4.88e+00,
206,2.80e+00,5.20e+00,
207,2.56e+00,4.88e+00,
208,2.72e+00,5.20e+00,
209,2.48e+00,4.88e+00,
210,2.48e+00,4.88e+00,
211,2.64e+00,5.20e+00,
212,2.56e+00,4.88e+00,
213,2.40e+00,5.20e+00,
214,2.48e+00,4.88e+00,
215,2.24e+00,5.20e+00,
216,2.40e+00,4.88e+00,
217,2.24e+00,5.20e+00,
218,2.32e+00,4.88e+00,
219,2.08e+00,5.20e+00,
220,2.24e+00,4.88e+00,
221,2.08e+00,5.20e+00,
222,2.16e+00,4.88e+00,
223,2.00e+00,5.20e+00,
224,2.08e+00,4.88e+00,
225,1.92e+00,5.20e+00,
226,2.08e+00,5.20e+00,
227,1.84e+00,4.88e+00,
228,2.00e+00,4.88e+00,
229,1.84e+00,5.20e+00,
230,1.92e+00,5.12e+00,
231,1.76e+00,4.88e+00,
232,1.84e+00,4.88e+00,
233,1.68e+00,5.20e+00,
234,1.76e+00,5.20e+00,
235,1.60e+00,4.88e+00,
236,1.68e+00,4.88e+00,
237,1.52e+00,5.20e+00,
238,1.52e+00,5.12e+00,
239,1.68e+00,4.88e+00,
240,1.60e+00,4.88e+00,
241,1.44e+00,5.20e+00,
242,1.52e+00,5.20e+00,
243,1.36e+00,4.88e+00,
244,1.44e+00,4.88e+00,
245,1.28e+00,5.20e+00,
246,1.36e+00,4.88e+00,
247,1.20e+00,5.20e+00,
248,1.28e+00,5.20e+00,
249,1.12e+00,4.88e+00,
250,1.20e+00,5.20e+00,
251,1.12e+00,4.88e+00,
252,1.20e+00,4.88e+00,
253,1.04e+00,5.20e+00,
254,1.12e+00,5.20e+00,
255,9.60e-01,4.88e+00,
256,1.04e+00,5.20e+00,
257,8.80e-01,4.88e+00,
258,1.04e+00,4.88e+00,
259,8.80e-01,5.20e+00,
260,9.60e-01,5.20e+00,
261,8.00e-01,4.88e+00,
262,8.00e-01,5.20e+00,
263,8.80e-01,4.88e+00,
264,8.80e-01,4.88e+00,
265,7.20e-01,5.20e+00,
266,8.00e-01,5.20e+00,
267,6.40e-01,4.88e+00,
268,7.20e-01,4.88e+00,
269,6.40e-01,5.20e+00,
270,7.20e-01,4.88e+00,
271,5.60e-01,5.20e+00,
272,5.60e-01,5.20e+00,
273,6.40e-01,4.88e+00,
274,6.40e-01,5.20e+00,
275,4.80e-01,4.88e+00,
276,4.80e-01,4.88e+00,
277,5.60e-01,5.20e+00,
278,5.60e-01,4.88e+00,
279,4.00e-01,5.20e+00,
280,4.00e-01,4.88e+00,
281,4.00e-01,5.20e+00,
282,4.00e-01,4.88e+00,
283,3.20e-01,5.20e+00,
284,3.20e-01,5.20e+00,
285,2.40e-01,8.00e-02,
286,3.20e-01,2.40e-01,
287,1.60e-01,8.00e-02,
288,3.20e-01,2.40e-01,
289,1.60e-01,8.00e-02,
290,2.40e-01,2.40e-01,
291,1.60e-01,8.00e-02,
292,2.40e-01,2.40e-01,
293,8.00e-02,8.00e-02,
294,1.60e-01,8.00e-02,
295,8.00e-02,2.40e-01,
296,1.60e-01,2.40e-01,
297,8.00e-02,8.00e-02,
298,1.60e-01,8.00e-02,
299,0.00e+00,2.40e-01,
300,1.60e-01,2.40e-01,
301,0.00e+00,8.00e-02,
302,8.00e-02,8.00e-02,
303,0.00e+00,2.40e-01,
304,8.00e-02,8.00e-02,
305,0.00e+00,2.40e-01,
306,8.00e-02,8.00e-02,
307,-8.00e-02,2.40e-01,
308,8.00e-02,1.60e-01,
309,-8.00e-02,8.00e-02,
310,-8.00e-02,2.40e-01,
311,0.00e+00,8.00e-02,
312,0.00e+00,8.00e-02,
313,-8.00e-02,2.40e-01,
314,-8.00e-02,1.60e-01,
315,0.00e+00,8.00e-02,
316,0.00e+00,8.00e-02,
317,-8.00e-02,2.40e-01,
318,0.00e+00,8.00e-02,
319,-8.00e-02,1.60e-01,
320,-8.00e-02,8.00e-02,
321,0.00e+00,2.40e-01,
322,-8.00e-02,8.00e-02,
323,0.00e+00,2.40e-01,
324,-8.00e-02,1.60e-01,
325,0.00e+00,8.00e-02,
326,0.00e+00,8.00e-02,
327,-8.00e-02,1.60e-01,
328,0.00e+00,1.60e-01,
329,-8.00e-02,8.00e-02,
330,-8.00e-02,1.60e-01,
331,0.00e+00,8.00e-02,
332,0.00e+00,8.00e-02,
333,-8.00e-02,2.40e-01,
334,0.00e+00,1.60e-01,
335,-8.00e-02,0.00e+00,
336,0.00e+00,1.60e-01,
337,-8.00e-02,8.00e-02,
338,-8.00e-02,8.00e-02,
339,8.00e-02,2.40e-01,
340,8.00e-02,8.00e-02,
341,-8.00e-02,2.40e-01,
342,-8.00e-02,1.60e-01,
343,8.00e-02,8.00e-02,
344,8.00e-02,1.60e-01,
345,0.00e+00,8.00e-02,
346,8.00e-02,8.00e-02,
347,0.00e+00,1.60e-01,
348,0.00e+00,1.60e-01,
349,1.60e-01,8.00e-02,
350,1.60e-01,0.00e+00,
351,0.00e+00,2.40e-01,
352,1.60e-01,1.60e-01,
353,8.00e-02,8.00e-02,
354,8.00e-02,1.60e-01,
355,2.40e-01,8.00e-02,
356,8.00e-02,1.60e-01,
357,2.40e-01,8.00e-02,
358,2.40e-01,8.00e-02,
359,1.60e-01,1.60e-01,
360,1.60e-01,0.00e+00,
361,3.20e-01,2.40e-01,
362,2.40e-01,2.40e-01,
363,3.20e-01,0.00e+00,
364,2.40e-01,8.00e-02,
365,4.00e-01,1.60e-01,
366,2.40e-01,8.00e-02,
367,4.00e-01,2.40e-01,
368,3.20e-01,8.00e-02,
369,4.80e-01,2.40e-01,
370,4.00e-01,1.60e-01,
371,5.60e-01,8.00e-02,
372,4.80e-01,1.60e-01,
373,6.40e-01,8.00e-02,
374,6.40e-01,1.60e-01,
375,4.80e-01,8.00e-02,
376,5.60e-01,1.60e-01,
377,7.20e-01,0.00e+00,
378,5.60e-01,8.00e-02,
379,7.20e-01,2.40e-01,
380,6.40e-01,8.00e-02,
381,8.00e-01,2.40e-01,
382,6.40e-01,8.00e-02,
383,8.00e-01,2.40e-01,
384,7.20e-01,1.60e-01,
385,8.80e-01,5.04e+00,
386,8.00e-01,5.04e+00,
387,8.80e-01,4.88e+00,
388,9.60e-01,5.04e+00,
389,8.00e-01,4.88e+00,
390,8.80e-01,5.04e+00,
391,1.04e+00,4.88e+00,
392,1.04e+00,5.04e+00,
393,9.60e-01,4.88e+00,
394,9.60e-01,5.04e+00,
395,1.12e+00,4.88e+00,
396,1.04e+00,5.04e+00,
397,1.20e+00,4.88e+00,
398,1.12e+00,5.04e+00,
399,1.28e+00,4.88e+00,
400,1.28e+00,5.04e+00,
401,1.12e+00,4.88e+00,
402,1.20e+00,5.12e+00,
403,1.36e+00,4.88e+00,
404,1.36e+00,4.96e+00,
405,1.44e+00,5.12e+00,
406,1.36e+00,4.96e+00,
407,1.52e+00,5.12e+00,
408,1.44e+00,5.20e+00,
409,1.60e+00,4.96e+00,
410,1.52e+00,5.12e+00,
411,1.68e+00,4.88e+00,
412,1.60e+00,5.12e+00,
413,1.76e+00,4.96e+00,
414,1.60e+00,5.20e+00,
415,1.76e+00,4.96e+00,
416,1.68e+00,5.20e+00,
417,1.84e+00,4.88e+00,
418,1.76e+00,5.20e+00,
419,1.92e+00,4.88e+00,
420,1.84e+00,4.88e+00,
421,2.00e+00,5.20e+00,
422,1.92e+00,4.88e+00,
423,2.08e+00,5.20e+00,
424,2.08e+00,4.88e+00,
425,1.92e+00,5.20e+00,
426,2.00e+00,4.88e+00,
427,2.16e+00,5.20e+00,
428,2.08e+00,5.20e+00,
429,2.24e+00,4.88e+00,
430,2.16e+00,4.88e+00,
431,2.32e+00,5.20e+00,
432,2.24e+00,5.20e+00,
433,2.40e+00,4.88e+00,
434,2.32e+00,4.88e+00,
435,2.48e+00,5.20e+00,
436,2.40e+00,5.20e+00,
437,2.56e+00,4.88e+00,
438,2.48e+00,5.20e+00,
439,2.64e+00,4.88e+00,
440,2.56e+00,5.20e+00,
441,2.72e+00,4.88e+00,
442,2.56e+00,4.88e+00,
443,2.80e+00,5.20e+00,
444,2.80e+00,4.88e+00,
445,2.64e+00,5.20e+00,
446,2.88e+00,5.20e+00,
447,2.72e+00,4.88e+00,
448,2.80e+00,5.20e+00,
449,2.96e+00,4.88e+00,
450,2.88e+00,4.88e+00,
451,3.04e+00,5.20e+00,
452,2.88e+00,4.88e+00,
453,3.12e+00,5.20e+00,
454,3.12e+00,4.88e+00,
455,2.96e+00,5.20e+00,
456,3.20e+00,5.20e+00,
457,3.04e+00,4.88e+00,
458,3.20e+00,5.20e+00,
459,3.28e+00,4.88e+00,
460,3.20e+00,5.20e+00,
461,3.44e+00,4.88e+00,
462,3.28e+00,4.88e+00,
463,3.44e+00,5.20e+00,
464,3.36e+00,4.88e+00,
465,3.52e+00,5.20e+00,
466,3.44e+00,4.88e+00,
467,3.60e+00,5.20e+00,
468,3.44e+00,4.88e+00,
469,3.68e+00,5.20e+00,
470,3.68e+00,4.88e+00,
471,3.52e+00,5.20e+00,
472,3.60e+00,5.20e+00,
473,3.76e+00,4.88e+00,
474,3.60e+00,5.12e+00,
475,3.84e+00,4.88e+00,
476,3.84e+00,4.88e+00,
477,3.68e+00,5.20e+00,
478,3.92e+00,5.12e+00,
479,3.76e+00,4.88e+00,
480,3.76e+00,4.88e+00,
481,4.00e+00,5.20e+00,
482,4.00e+00,5.12e+00,
483,3.84e+00,4.88e+00,
484,4.08e+00,4.88e+00,
485,3.92e+00,5.20e+00,
486,3.92e+00,4.88e+00,
487,4.16e+00,5.20e+00,
488,4.16e+00,4.88e+00,
489,4.00e+00,5.20e+00,
490,4.00e+00,4.88e+00,
491,4.24e+00,5.20e+00,
492,4.24e+00,5.20e+00,
493,4.08e+00,4.88e+00,
494,4.16e+00,5.12e+00,
495,4.40e+00,4.88e+00,
496,4.24e+00,5.20e+00,
497,4.40e+00,4.88e+00,
498,4.32e+00,5.20e+00,
499,4.48e+00,4.88e+00,
500,4.32e+00,4.96e+00,
501,4.56e+00,5.20e+00,
502,4.32e+00,5.12e+00,
503,4.56e+00,4.88e+00,
504,4.40e+00,4.88e+00,
505,4.56e+00,5.20e+00,
506,4.40e+00,5.20e+00,
507,4.64e+00,4.88e+00,
508,4.48e+00,4.88e+00,
509,4.64e+00,5.20e+00,
510,4.48e+00,4.88e+00,
511,4.72e+00,5.20e+00,
512,4.72e+00,4.88e+00,
513,4.56e+00,5.20e+00,
514,4.56e+00,4.88e+00,
515,4.72e+00,5.20e+00,
516,4.56e+00,5.20e+00,
517,4.80e+00,4.88e+00,
518,4.80e+00,5.20e+00,
519,4.64e+00,4.88e+00,
520,4.80e+00,5.20e+00,
521,4.64e+00,4.88e+00,
522,4.80e+00,5.20e+00,
523,4.64e+00,4.88e+00,
524,4.64e+00,5.20e+00,
525,4.88e+00,4.88e+00,
526,4.88e+00,4.88e+00,
527,4.80e+00,5.20e+00,
528,4.88e+00,5.20e+00,
529,4.72e+00,4.88e+00,
530,4.72e+00,5.12e+00,
531,4.88e+00,4.88e+00,
532,4.72e+00,5.20e+00,
533,4.96e+00,4.88e+00,
534,4.96e+00,4.88e+00,
535,4.72e+00,5.20e+00,
536,4.96e+00,4.88e+00,
537,4.80e+00,5.20e+00,
538,4.96e+00,4.88e+00,
539,4.88e+00,5.20e+00,
540,4.96e+00,5.20e+00,
541,4.88e+00,4.88e+00,
542,4.96e+00,5.20e+00,
543,4.88e+00,4.88e+00,
544,4.96e+00,4.88e+00,
545,4.80e+00,5.20e+00,
546,4.96e+00,4.88e+00,
547,4.88e+00,5.20e+00,
548,4.96e+00,5.20e+00,
549,4.88e+00,4.88e+00,
550,4.96e+00,5.20e+00,
551,4.88e+00,4.88e+00,
552,4.88e+00,5.20e+00,
553,4.96e+00,4.88e+00,
554,4.96e+00,5.20e+00,
555,4.88e+00,4.88e+00,
556,4.96e+00,5.20e+00,
557,4.72e+00,4.88e+00,
558,4.96e+00,5.12e+00,
559,4.72e+00,4.88e+00,
560,4.96e+00,4.88e+00,
561,4.72e+00,5.20e+00,
562,4.72e+00,4.88e+00,
563,4.88e+00,5.20e+00,
564,4.72e+00,4.88e+00,
565,4.88e+00,5.20e+00,
566,4.88e+00,5.12e+00,
567,4.72e+00,4.88e+00,
568,4.88e+00,4.88e+00,
569,4.64e+00,5.20e+00,
570,4.88e+00,4.88e+00,
571,4.64e+00,5.20e+00,
572,4.64e+00,4.88e+00,
573,4.80e+00,5.12e+00,
574,4.80e+00,4.88e+00,
575,4.64e+00,5.20e+00,
576,4.80e+00,4.88e+00,
577,4.56e+00,5.20e+00,
578,4.56e+00,5.12e+00,
579,4.72e+00,4.88e+00,
580,4.56e+00,5.20e+00,
581,4.72e+00,4.88e+00,
582,4.72e+00,5.20e+00,
583,4.48e+00,4.88e+00,
584,4.64e+00,5.20e+00,
585,4.48e+00,4.88e+00,
586,4.64e+00,5.12e+00,
587,4.40e+00,4.88e+00,
588,4.40e+00,4.88e+00,
589,4.56e+00,5.20e+00,
590,4.56e+00,4.88e+00,
591,4.32e+00,5.20e+00,
592,4.32e+00,4.88e+00,
593,4.48e+00,5.20e+00,
594,4.48e+00,4.88e+00,
595,4.32e+00,5.20e+00,
596,4.48e+00,4.88e+00,
597,4.24e+00,5.20e+00,
598,4.40e+00,5.20e+00,
599,4.16e+00,4.88e+00,
600,4.24e+00,5.20e+00,
601,4.08e+00,4.88e+00,
602,4.24e+00,5.12e+00,
603,4.08e+00,4.88e+00,
604,4.00e+00,5.20e+00,
605,4.16e+00,4.88e+00,
606,4.16e+00,5.20e+00,
607,3.92e+00,4.88e+00,
608,4.08e+00,5.20e+00,
609,3.92e+00,4.88e+00,
610,4.00e+00,4.88e+00,
611,3.84e+00,5.20e+00,
612,4.00e+00,4.88e+00,
613,3.76e+00,5.20e+00,
614,3.76e+00,4.88e+00,
615,3.92e+00,5.20e+00,
616,3.84e+00,5.12e+00,
617,3.68e+00,4.88e+00,
618,3.84e+00,5.20e+00,
619,3.60e+00,4.88e+00,
620,3.60e+00,4.88e+00,
621,3.76e+00,5.20e+00,
622,3.68e+00,4.88e+00,
623,3.52e+00,5.20e+00,
624,3.68e+00,5.12e+00,
625,3.44e+00,4.88e+00,
626,3.60e+00,5.20e+00,
627,3.44e+00,4.88e+00,
628,3.36e+00,5.20e+00,
629,3.52e+00,4.88e+00,
630,3.44e+00,4.88e+00,
631,3.20e+00,5.20e+00,
632,3.36e+00,4.88e+00,
633,3.12e+00,5.20e+00,
634,3.28e+00,5.20e+00,
635,3.04e+00,4.88e+00,
636,3.20e+00,4.88e+00,
637,3.04e+00,5.20e+00,
638,3.20e+00,5.20e+00,
639,2.96e+00,4.88e+00,
640,3.12e+00,4.88e+00,
641,2.88e+00,5.20e+00,
642,3.04e+00,4.88e+00,
643,2.80e+00,5.20e+00,
644,2.96e+00,4.96e+00,
645,2.80e+00,5.20e+00,
646,2.88e+00,4.88e+00,
647,2.72e+00,5.20e+00,
648,2.88e+00,5.20e+00,
649,2.64e+00,4.88e+00,
650,2.80e+00,4.88e+00,
651,2.56e+00,5.20e+00,
652,2.72e+00,5.20e+00,
653,2.48e+00,4.88e+00,
654,2.64e+00,5.20e+00,
655,2.48e+00,4.88e+00,
656,2.56e+00,4.88e+00,
657,2.40e+00,5.20e+00,
658,2.48e+00,4.88e+00,
659,2.32e+00,5.20e+00,
660,2.48e+00,4.88e+00,
661,2.24e+00,5.20e+00,
662,2.16e+00,5.12e+00,
663,2.32e+00,4.88e+00,
664,2.24e+00,5.20e+00,
665,2.08e+00,4.88e+00,
666,2.16e+00,5.20e+00,
667,2.00e+00,4.88e+00,
668,2.08e+00,4.88e+00,
669,1.92e+00,5.20e+00,
670,2.08e+00,5.12e+00,
671,1.84e+00,4.88e+00,
672,2.00e+00,4.88e+00,
673,1.84e+00,5.20e+00,
674,1.92e+00,4.88e+00,
675,1.76e+00,5.20e+00,
676,1.84e+00,4.88e+00,
677,1.68e+00,5.20e+00,
678,1.76e+00,5.20e+00,
679,1.60e+00,4.88e+00,
680,1.76e+00,5.20e+00,
681,1.60e+00,4.88e+00,
682,1.68e+00,4.88e+00,
683,1.52e+00,5.20e+00,
684,1.60e+00,5.12e+00,
685,1.44e+00,4.88e+00,
686,1.52e+00,5.12e+00,
687,1.36e+00,4.88e+00,
688,1.36e+00,5.20e+00,
689,1.52e+00,4.88e+00,
690,1.36e+00,5.20e+00,
691,1.20e+00,4.88e+00,
692,1.28e+00,5.12e+00,
693,1.12e+00,4.88e+00,
694,1.28e+00,4.88e+00,
695,1.04e+00,5.20e+00,
696,1.20e+00,5.20e+00,
697,1.04e+00,4.88e+00,
698,1.12e+00,4.88e+00,
699,9.60e-01,5.20e+00,
700,1.04e+00,4.88e+00,
701,8.80e-01,5.20e+00,
702,1.04e+00,4.88e+00,
703,8.80e-01,5.20e+00,
704,9.60e-01,4.88e+00,
705,8.00e-01,5.20e+00,
706,8.80e-01,5.20e+00,
707,8.00e-01,4.88e+00,
708,8.80e-01,4.96e+00,
709,7.20e-01,5.20e+00,
710,7.20e-01,5.20e+00,
711,8.00e-01,4.88e+00,
712,6.40e-01,5.20e+00,
713,8.00e-01,4.88e+00,
714,7.20e-01,4.88e+00,
715,5.60e-01,5.20e+00,
716,5.60e-01,4.88e+00,
717,6.40e-01,5.20e+00,
718,6.40e-01,5.12e+00,
719,4.80e-01,4.88e+00,
720,4.80e-01,5.20e+00,
721,5.60e-01,4.88e+00,
722,5.60e-01,4.88e+00,
723,4.00e-01,5.20e+00,
724,4.80e-01,5.20e+00,
725,4.00e-01,4.88e+00,
726,4.00e-01,4.88e+00,
727,2.40e-01,5.20e+00,
728,4.00e-01,5.20e+00,
729,2.40e-01,8.00e-02,
730,3.20e-01,8.00e-02,
731,1.60e-01,2.40e-01,
732,3.20e-01,2.40e-01,
733,1.60e-01,8.00e-02,
734,2.40e-01,2.40e-01,
735,1.60e-01,8.00e-02,
736,2.40e-01,2.40e-01,
737,8.00e-02,1.60e-01,
738,8.00e-02,2.40e-01,
739,2.40e-01,8.00e-02,
740,1.60e-01,2.40e-01,
741,8.00e-02,8.00e-02,
742,1.60e-01,2.40e-01,
743,0.00e+00,8.00e-02,
744,0.00e+00,8.00e-02,
745,1.60e-01,2.40e-01,
746,0.00e+00,2.40e-01,
747,8.00e-02,8.00e-02,
748,8.00e-02,8.00e-02,
749,0.00e+00,2.40e-01,
750,8.00e-02,1.60e-01,
751,-8.00e-02,8.00e-02,
752,-8.00e-02,8.00e-02,
753,8.00e-02,2.40e-01,
754,-8.00e-02,1.60e-01,
755,0.00e+00,8.00e-02,
756,0.00e+00,2.40e-01,
757,-8.00e-02,8.00e-02,
758,-8.00e-02,8.00e-02,
759,0.00e+00,2.40e-01,
760,0.00e+00,8.00e-02,
761,-8.00e-02,2.40e-01,
762,-8.00e-02,8.00e-02,
763,0.00e+00,2.40e-01,
764,0.00e+00,2.40e-01,
765,-8.00e-02,0.00e+00,
766,-8.00e-02,8.00e-02,
767,0.00e+00,2.40e-01,
768,0.00e+00,8.00e-02,
769,-1.60e-01,1.60e-01,
770,0.00e+00,8.00e-02,
771,-1.60e-01,2.40e-01,
772,0.00e+00,1.60e-01,
773,-8.00e-02,8.00e-02,
774,-8.00e-02,8.00e-02,
775,0.00e+00,2.40e-01,
776,-8.00e-02,0.00e+00,
777,0.00e+00,2.40e-01,
778,0.00e+00,8.00e-02,
779,-8.00e-02,2.40e-01,
780,0.00e+00,8.00e-02,
781,-8.00e-02,2.40e-01,
782,-8.00e-02,0.00e+00,
783,0.00e+00,2.40e-01,
784,-8.00e-02,1.60e-01,
785,8.00e-02,8.00e-02,
786,8.00e-02,2.40e-01,
787,-8.00e-02,8.00e-02,
788,8.00e-02,1.60e-01,
789,0.00e+00,8.00e-02,
790,8.00e-02,8.00e-02,
791,0.00e+00,1.60e-01,
792,0.00e+00,8.00e-02,
793,1.60e-01,2.40e-01,
794,1.60e-01,8.00e-02,
795,0.00e+00,2.40e-01,
796,1.60e-01,1.60e-01,
797,8.00e-02,8.00e-02,
798,8.00e-02,1.60e-01,
799,2.40e-01,8.00e-02,
800,2.40e-01,1.60e-01,
801,8.00e-02,8.00e-02,
802,2.40e-01,1.60e-01,
803,1.60e-01,0.00e+00,
804,1.60e-01,1.60e-01,
805,3.20e-01,0.00e+00,
806,3.20e-01,8.00e-02,
807,1.60e-01,2.40e-01,
808,3.20e-01,8.00e-02,
809,2.40e-01,2.40e-01,
810,2.40e-01,1.60e-01,
811,4.00e-01,8.00e-02,
812,4.00e-01,1.60e-01,
813,4.00e-01,0.00e+00,
814,4.00e-01,1.60e-01,
815,5.60e-01,8.00e-02,
816,4.80e-01,8.00e-02,
817,5.60e-01,2.40e-01,
818,4.80e-01,1.60e-01,
819,6.40e-01,8.00e-02,
820,5.60e-01,1.60e-01,
821,6.40e-01,0.00e+00,
822,5.60e-01,0.00e+00,
823,7.20e-01,2.40e-01,
824,6.40e-01,1.60e-01,
825,8.00e-01,8.00e-02,
826,6.40e-01,1.60e-01,
827,8.00e-01,8.00e-02,
828,7.20e-01,8.00e-02,
829,8.80e-01,5.04e+00,
830,8.80e-01,5.04e+00,
831,8.00e-01,5.04e+00,
832,8.00e-01,5.04e+00,
833,9.60e-01,5.04e+00,
834,8.80e-01,5.04e+00,
835,1.04e+00,4.96e+00,
836,1.04e+00,5.04e+00,
837,9.60e-01,4.96e+00,
838,9.60e-01,5.04e+00,
839,1.12e+00,4.88e+00,
840,1.04e+00,5.04e+00,
841,1.20e+00,4.88e+00,
842,1.20e+00,5.04e+00,
843,1.12e+00,4.88e+00,
844,1.28e+00,5.04e+00,
845,1.12e+00,4.88e+00,
846,1.20e+00,5.04e+00,
847,1.36e+00,4.88e+00,
848,1.36e+00,5.04e+00,
849,1.52e+00,4.88e+00,
850,1.44e+00,5.04e+00,
851,1.36e+00,4.88e+00,
852,1.44e+00,4.88e+00,
853,1.60e+00,5.12e+00,
854,1.52e+00,5.12e+00,
855,1.68e+00,4.88e+00,
856,1.60e+00,5.12e+00,
857,1.76e+00,4.88e+00,
858,1.76e+00,4.88e+00,
859,1.60e+00,5.20e+00,
860,1.68e+00,5.12e+00,
861,1.84e+00,4.88e+00,
862,1.76e+00,4.88e+00,
863,1.92e+00,5.20e+00,
864,1.84e+00,4.88e+00,
865,2.00e+00,5.20e+00,
866,2.00e+00,4.88e+00,
867,1.84e+00,5.20e+00,
868,1.92e+00,4.88e+00,
