project/matlab/project_exp3/50 kHz/NewFile1.csv

X,CH1,CH2,Start,Increment,
Sequence,Volt,Volt,6.900000e-04,5.000000e-08
0,1.76e+00,5.04e+00,
1,1.60e+00,4.88e+00,
2,1.68e+00,4.88e+00,
3,1.52e+00,5.12e+00,
4,1.52e+00,4.96e+00,
5,1.52e+00,5.04e+00,
6,1.52e+00,4.88e+00,
7,1.36e+00,5.04e+00,
8,1.44e+00,5.04e+00,
9,1.28e+00,4.88e+00,
10,1.36e+00,4.88e+00,
11,1.20e+00,5.12e+00,
12,1.28e+00,5.04e+00,
13,1.12e+00,4.88e+00,
14,1.12e+00,5.04e+00,
15,1.20e+00,4.88e+00,
16,1.04e+00,5.04e+00,
17,1.20e+00,4.88e+00,
18,1.12e+00,4.96e+00,
19,9.60e-01,5.12e+00,
20,1.04e+00,4.96e+00,
21,8.80e-01,5.04e+00,
22,8.80e-01,5.04e+00,
23,9.60e-01,4.88e+00,
24,9.60e-01,4.96e+00,
25,8.00e-01,5.04e+00,
26,8.80e-01,4.88e+00,
27,7.20e-01,5.12e+00,
28,7.20e-01,5.04e+00,
29,8.00e-01,4.96e+00,
30,8.00e-01,4.88e+00,
31,6.40e-01,5.04e+00,
32,7.20e-01,5.04e+00,
33,5.60e-01,4.88e+00,
34,5.60e-01,4.88e+00,
35,6.40e-01,5.20e+00,
36,6.40e-01,5.04e+00,
37,4.80e-01,4.88e+00,
38,4.80e-01,5.04e+00,
39,4.00e-01,4.88e+00,
40,4.80e-01,5.04e+00,
41,4.00e-01,4.88e+00,
42,4.00e-01,4.88e+00,
43,3.20e-01,5.12e+00,
44,4.00e-01,5.04e+00,
45,2.40e-01,4.88e+00,
46,3.20e-01,5.04e+00,
47,2.40e-01,4.88e+00,
48,3.20e-01,5.04e+00,
49,1.60e-01,4.88e+00,
50,2.40e-01,4.88e+00,
51,1.60e-01,5.12e+00,
52,2.40e-01,5.04e+00,
53,8.00e-02,4.88e+00,
54,2.40e-01,5.04e+00,
55,8.00e-02,4.88e+00,
56,1.60e-01,5.04e+00,
57,8.00e-02,4.88e+00,
58,1.60e-01,5.12e+00,
59,0.00e+00,4.88e+00,
60,1.60e-01,5.04e+00,
61,0.00e+00,4.72e+00,
62,8.00e-02,4.88e+00,
63,0.00e+00,3.84e+00,
64,8.00e-02,3.84e+00,
65,0.00e+00,2.24e+00,
66,8.00e-02,2.16e+00,
67,-8.00e-02,8.00e-01,
68,-8.00e-02,8.00e-01,
69,8.00e-02,2.40e-01,
70,-8.00e-02,2.40e-01,
71,0.00e+00,1.60e-01,
72,0.00e+00,2.40e-01,
73,-8.00e-02,2.40e-01,
74,-8.00e-02,2.40e-01,
75,0.00e+00,1.60e-01,
76,0.00e+00,2.40e-01,
77,-8.00e-02,1.60e-01,
78,0.00e+00,2.40e-01,
79,-8.00e-02,1.60e-01,
80,0.00e+00,2.40e-01,
81,-8.00e-02,1.60e-01,
82,0.00e+00,1.60e-01,
83,-8.00e-02,2.40e-01,
84,-8.00e-02,2.40e-01,
85,0.00e+00,1.60e-01,
86,0.00e+00,2.40e-01,
87,-8.00e-02,1.60e-01,
88,0.00e+00,2.40e-01,
89,-8.00e-02,1.60e-01,
90,0.00e+00,2.40e-01,
91,-8.00e-02,1.60e-01,
92,-8.00e-02,2.40e-01,
93,8.00e-02,1.60e-01,
94,8.00e-02,2.40e-01,
95,-8.00e-02,1.60e-01,
96,0.00e+00,2.40e-01,
97,8.00e-02,8.00e-02,
98,8.00e-02,2.40e-01,
99,0.00e+00,1.60e-01,
100,0.00e+00,2.40e-01,
101,1.60e-01,1.60e-01,
102,1.60e-01,2.40e-01,
103,0.00e+00,8.00e-02,
104,8.00e-02,2.40e-01,
105,1.60e-01,8.00e-02,
106,8.00e-02,2.40e-01,
107,2.40e-01,8.00e-02,
108,2.40e-01,2.40e-01,
109,1.60e-01,1.60e-01,
110,2.40e-01,2.40e-01,
111,1.60e-01,8.00e-02,
112,2.40e-01,2.40e-01,
113,3.20e-01,1.60e-01,
114,2.40e-01,2.40e-01,
115,3.20e-01,1.60e-01,
116,4.00e-01,2.40e-01,
117,2.40e-01,8.00e-02,
118,4.00e-01,2.40e-01,
119,3.20e-01,1.60e-01,
120,4.00e-01,2.40e-01,
121,4.80e-01,8.00e-02,
122,4.80e-01,2.40e-01,
123,4.80e-01,8.00e-02,
124,4.00e-01,2.40e-01,
125,5.60e-01,8.00e-02,
126,5.60e-01,8.00e-02,
127,7.20e-01,2.40e-01,
128,6.40e-01,2.40e-01,
129,7.20e-01,8.00e-02,
130,6.40e-01,2.40e-01,
131,8.00e-01,8.00e-02,
132,7.20e-01,2.40e-01,
133,8.80e-01,8.00e-02,
134,8.80e-01,2.40e-01,
135,8.00e-01,8.00e-02,
136,8.00e-01,2.40e-01,
137,9.60e-01,1.60e-01,
138,8.80e-01,2.40e-01,
139,1.04e+00,1.60e-01,
140,9.60e-01,2.40e-01,
141,1.04e+00,1.60e-01,
142,1.04e+00,2.40e-01,
143,1.12e+00,1.60e-01,
144,1.04e+00,2.40e-01,
145,1.20e+00,1.60e-01,
146,1.12e+00,1.60e-01,
147,1.28e+00,4.00e-01,
148,1.20e+00,3.20e-01,
149,1.36e+00,4.80e-01,
150,1.20e+00,4.00e-01,
151,1.36e+00,8.80e-01,
152,1.36e+00,8.00e-01,
153,1.44e+00,1.44e+00,
154,1.44e+00,1.36e+00,
155,1.60e+00,2.00e+00,
156,1.52e+00,1.92e+00,
157,1.68e+00,2.48e+00,
158,1.60e+00,2.48e+00,
159,1.76e+00,2.96e+00,
160,1.68e+00,2.96e+00,
161,1.84e+00,3.36e+00,
162,1.76e+00,3.28e+00,
163,1.84e+00,3.76e+00,
164,1.76e+00,3.68e+00,
165,1.92e+00,4.08e+00,
166,1.84e+00,4.08e+00,
167,2.00e+00,4.40e+00,
168,1.92e+00,4.32e+00,
169,2.08e+00,4.64e+00,
170,2.00e+00,4.56e+00,
171,2.16e+00,4.88e+00,
172,2.08e+00,4.72e+00,
173,2.24e+00,4.96e+00,
174,2.16e+00,5.04e+00,
175,2.32e+00,4.88e+00,
176,2.24e+00,4.88e+00,
177,2.40e+00,5.04e+00,
178,2.40e+00,5.04e+00,
179,2.56e+00,4.88e+00,
180,2.48e+00,5.04e+00,
181,2.56e+00,4.88e+00,
182,2.48e+00,5.04e+00,
183,2.64e+00,4.88e+00,
184,2.56e+00,4.96e+00,
185,2.72e+00,5.04e+00,
186,2.64e+00,5.04e+00,
187,2.80e+00,4.88e+00,
188,2.72e+00,5.04e+00,
189,2.88e+00,4.88e+00,
190,2.80e+00,5.04e+00,
191,2.96e+00,4.88e+00,
192,2.88e+00,5.04e+00,
193,3.04e+00,4.88e+00,
194,2.96e+00,5.04e+00,
195,3.12e+00,4.88e+00,
196,3.04e+00,5.04e+00,
197,3.20e+00,4.88e+00,
198,3.04e+00,4.96e+00,
199,3.28e+00,5.04e+00,
200,3.28e+00,5.04e+00,
201,3.20e+00,4.88e+00,
202,3.28e+00,4.88e+00,
203,3.36e+00,5.04e+00,
204,3.36e+00,5.04e+00,
205,3.52e+00,4.88e+00,
206,3.44e+00,5.04e+00,
207,3.60e+00,4.88e+00,
208,3.52e+00,5.04e+00,
209,3.60e+00,4.88e+00,
210,3.52e+00,5.04e+00,
211,3.76e+00,4.88e+00,
212,3.60e+00,5.04e+00,
213,3.76e+00,4.88e+00,
214,3.68e+00,5.04e+00,
215,3.84e+00,4.88e+00,
216,3.76e+00,5.04e+00,
217,3.92e+00,4.88e+00,
218,3.84e+00,4.88e+00,
219,4.00e+00,5.20e+00,
220,4.00e+00,5.04e+00,
221,3.84e+00,4.88e+00,
222,3.92e+00,5.04e+00,
223,4.08e+00,4.88e+00,
224,4.00e+00,5.04e+00,
225,4.16e+00,4.88e+00,
226,4.16e+00,5.12e+00,
227,4.00e+00,4.88e+00,
228,4.24e+00,5.04e+00,
229,4.08e+00,4.88e+00,
230,4.16e+00,5.04e+00,
231,4.32e+00,4.88e+00,
232,4.32e+00,5.04e+00,
233,4.24e+00,4.88e+00,
234,4.32e+00,5.04e+00,
235,4.40e+00,4.88e+00,
236,4.40e+00,4.96e+00,
237,4.48e+00,5.04e+00,
238,4.40e+00,4.96e+00,
239,4.56e+00,5.04e+00,
240,4.48e+00,5.04e+00,
241,4.64e+00,4.88e+00,
242,4.64e+00,4.96e+00,
243,4.48e+00,5.12e+00,
244,4.56e+00,5.04e+00,
245,4.72e+00,4.88e+00,
246,4.56e+00,4.88e+00,
247,4.72e+00,5.04e+00,
248,4.64e+00,5.04e+00,
249,4.72e+00,4.88e+00,
250,4.64e+00,5.12e+00,
251,4.80e+00,4.88e+00,
252,4.80e+00,4.96e+00,
253,4.72e+00,5.04e+00,
254,4.72e+00,5.04e+00,
255,4.88e+00,4.88e+00,
256,4.72e+00,4.88e+00,
257,4.88e+00,5.04e+00,
258,4.72e+00,5.12e+00,
259,4.88e+00,4.88e+00,
260,4.88e+00,5.04e+00,
261,4.80e+00,4.88e+00,
262,4.80e+00,5.04e+00,
263,4.96e+00,4.88e+00,
264,4.96e+00,5.04e+00,
265,4.80e+00,4.88e+00,
266,4.96e+00,4.88e+00,
267,4.80e+00,5.12e+00,
268,4.96e+00,5.04e+00,
269,4.88e+00,4.88e+00,
270,4.96e+00,5.04e+00,
271,4.88e+00,4.88e+00,
272,4.88e+00,5.04e+00,
273,5.04e+00,4.88e+00,
274,4.88e+00,4.88e+00,
275,5.04e+00,5.12e+00,
276,5.04e+00,5.04e+00,
277,4.88e+00,4.88e+00,
278,4.88e+00,5.04e+00,
279,5.04e+00,4.88e+00,
280,5.04e+00,5.04e+00,
281,4.88e+00,4.88e+00,
282,4.88e+00,4.96e+00,
283,5.04e+00,5.12e+00,
284,5.04e+00,5.04e+00,
285,4.88e+00,4.88e+00,
286,4.88e+00,4.96e+00,
287,5.04e+00,5.04e+00,
288,4.88e+00,5.04e+00,
289,5.04e+00,4.88e+00,
290,4.96e+00,4.88e+00,
291,4.88e+00,5.12e+00,
292,4.88e+00,5.04e+00,
293,4.96e+00,4.88e+00,
294,4.80e+00,5.04e+00,
295,4.96e+00,4.88e+00,
296,4.96e+00,4.96e+00,
297,4.80e+00,5.04e+00,
298,4.96e+00,4.88e+00,
299,4.80e+00,5.12e+00,
300,4.80e+00,5.04e+00,
301,4.88e+00,4.88e+00,
302,4.88e+00,5.04e+00,
303,4.72e+00,4.88e+00,
304,4.88e+00,5.04e+00,
305,4.72e+00,4.88e+00,
306,4.80e+00,4.88e+00,
307,4.64e+00,5.12e+00,
308,4.80e+00,5.04e+00,
309,4.64e+00,4.88e+00,
310,4.64e+00,5.04e+00,
311,4.80e+00,4.88e+00,
312,4.72e+00,5.04e+00,
313,4.56e+00,4.96e+00,
314,4.56e+00,4.88e+00,
315,4.72e+00,5.12e+00,
316,4.64e+00,5.04e+00,
317,4.48e+00,4.88e+00,
318,4.48e+00,5.04e+00,
319,4.64e+00,4.88e+00,
320,4.56e+00,5.04e+00,
321,4.40e+00,4.88e+00,
322,4.40e+00,5.12e+00,
323,4.56e+00,4.88e+00,
324,4.32e+00,5.04e+00,
325,4.48e+00,4.96e+00,
326,4.32e+00,5.04e+00,
327,4.48e+00,4.88e+00,
328,4.32e+00,5.04e+00,
329,4.16e+00,4.96e+00,
330,4.24e+00,5.20e+00,
331,4.08e+00,4.88e+00,
332,4.24e+00,5.04e+00,
333,4.08e+00,4.88e+00,
334,4.16e+00,5.04e+00,
335,4.00e+00,4.88e+00,
336,4.08e+00,5.04e+00,
337,3.92e+00,4.88e+00,
338,4.08e+00,5.12e+00,
339,3.92e+00,4.88e+00,
340,4.00e+00,5.04e+00,
341,3.84e+00,4.88e+00,
342,3.92e+00,5.04e+00,
343,3.76e+00,4.88e+00,
344,3.84e+00,5.04e+00,
345,3.68e+00,4.88e+00,
346,3.68e+00,5.12e+00,
347,3.84e+00,4.88e+00,
348,3.76e+00,5.04e+00,
349,3.60e+00,4.88e+00,
350,3.68e+00,5.04e+00,
351,3.52e+00,4.96e+00,
352,3.60e+00,5.04e+00,
353,3.44e+00,4.88e+00,
354,3.52e+00,4.88e+00,
355,3.36e+00,5.12e+00,
356,3.36e+00,5.04e+00,
357,3.52e+00,4.88e+00,
358,3.36e+00,4.88e+00,
359,3.20e+00,5.04e+00,
360,3.28e+00,5.04e+00,
361,3.12e+00,4.88e+00,
362,3.20e+00,5.12e+00,
363,3.04e+00,4.88e+00,
364,3.12e+00,5.04e+00,
365,2.96e+00,4.88e+00,
366,3.04e+00,5.04e+00,
367,2.88e+00,4.88e+00,
368,2.88e+00,5.04e+00,
369,2.96e+00,4.88e+00,
370,2.80e+00,4.88e+00,
371,2.96e+00,5.20e+00,
372,2.88e+00,4.96e+00,
373,2.72e+00,5.04e+00,
374,2.64e+00,5.04e+00,
375,2.80e+00,4.88e+00,
376,2.64e+00,5.04e+00,
377,2.56e+00,4.88e+00,
378,2.64e+00,4.96e+00,
379,2.48e+00,5.20e+00,
380,2.56e+00,5.04e+00,
381,2.32e+00,4.88e+00,
382,2.40e+00,5.04e+00,
383,2.24e+00,4.88e+00,
384,2.32e+00,4.96e+00,
385,2.16e+00,5.04e+00,
386,2.24e+00,4.88e+00,
387,2.08e+00,5.12e+00,
388,2.16e+00,5.04e+00,
389,2.00e+00,4.88e+00,
390,2.08e+00,5.04e+00,
391,2.00e+00,4.88e+00,
392,2.08e+00,4.96e+00,
393,1.92e+00,5.04e+00,
394,2.00e+00,4.88e+00,
395,1.84e+00,5.12e+00,
396,1.92e+00,5.04e+00,
397,1.76e+00,4.88e+00,
398,1.84e+00,5.04e+00,
399,1.68e+00,4.88e+00,
400,1.76e+00,5.04e+00,
401,1.60e+00,4.88e+00,
402,1.68e+00,5.12e+00,
403,1.52e+00,4.88e+00,
404,1.52e+00,4.96e+00,
405,1.60e+00,5.04e+00,
406,1.44e+00,4.96e+00,
407,1.52e+00,5.04e+00,
408,1.44e+00,4.88e+00,
409,1.28e+00,5.04e+00,
410,1.36e+00,4.88e+00,
411,1.20e+00,5.12e+00,
412,1.28e+00,4.96e+00,
413,1.12e+00,5.04e+00,
414,1.20e+00,5.04e+00,
415,1.04e+00,4.88e+00,
416,1.20e+00,4.96e+00,
417,1.04e+00,5.04e+00,
418,1.12e+00,4.88e+00,
419,9.60e-01,5.12e+00,
420,1.04e+00,5.04e+00,
421,8.80e-01,4.88e+00,
422,9.60e-01,4.96e+00,
423,8.80e-01,5.04e+00,
424,9.60e-01,4.96e+00,
425,8.00e-01,5.04e+00,
426,8.80e-01,4.88e+00,
427,7.20e-01,5.12e+00,
428,8.00e-01,5.04e+00,
429,6.40e-01,4.88e+00,
430,6.40e-01,5.04e+00,
431,8.00e-01,4.88e+00,
432,7.20e-01,5.04e+00,
433,5.60e-01,4.88e+00,
434,5.60e-01,5.12e+00,
435,6.40e-01,4.88e+00,
436,4.80e-01,4.96e+00,
437,6.40e-01,5.04e+00,
438,4.80e-01,5.04e+00,
439,4.80e-01,4.88e+00,
440,4.80e-01,5.04e+00,
441,3.20e-01,4.88e+00,
442,4.00e-01,4.88e+00,
443,3.20e-01,5.12e+00,
444,4.00e-01,5.04e+00,
445,2.40e-01,4.88e+00,
446,3.20e-01,4.96e+00,
447,2.40e-01,5.04e+00,
448,3.20e-01,5.04e+00,
449,1.60e-01,4.88e+00,
450,2.40e-01,4.96e+00,
451,1.60e-01,5.12e+00,
452,2.40e-01,4.88e+00,
453,8.00e-02,5.04e+00,
454,2.40e-01,5.04e+00,
455,8.00e-02,4.88e+00,
456,1.60e-01,5.04e+00,
457,8.00e-02,4.88e+00,
458,1.60e-01,5.12e+00,
459,0.00e+00,4.88e+00,
460,0.00e+00,5.04e+00,
461,8.00e-02,4.88e+00,
462,8.00e-02,4.80e+00,
463,0.00e+00,3.76e+00,
464,0.00e+00,3.76e+00,
465,8.00e-02,2.24e+00,
466,8.00e-02,2.16e+00,
467,-8.00e-02,7.20e-01,
468,-8.00e-02,8.00e-01,
469,8.00e-02,2.40e-01,
470,-8.00e-02,2.40e-01,
471,0.00e+00,1.60e-01,
472,0.00e+00,1.60e-01,
473,-8.00e-02,2.40e-01,
474,0.00e+00,2.40e-01,
475,-8.00e-02,1.60e-01,
476,-8.00e-02,2.40e-01,
477,0.00e+00,1.60e-01,
478,-8.00e-02,2.40e-01,
479,0.00e+00,8.00e-02,
480,0.00e+00,2.40e-01,
481,-8.00e-02,1.60e-01,
482,-8.00e-02,2.40e-01,
483,0.00e+00,8.00e-02,
484,-8.00e-02,2.40e-01,
485,0.00e+00,1.60e-01,
486,-8.00e-02,2.40e-01,
487,0.00e+00,1.60e-01,
488,-8.00e-02,2.40e-01,
489,0.00e+00,1.60e-01,
490,-8.00e-02,2.40e-01,
491,0.00e+00,1.60e-01,
492,-8.00e-02,2.40e-01,
493,8.00e-02,1.60e-01,
494,8.00e-02,2.40e-01,
495,-8.00e-02,1.60e-01,
496,0.00e+00,2.40e-01,
497,8.00e-02,1.60e-01,
498,8.00e-02,2.40e-01,
499,0.00e+00,1.60e-01,
500,0.00e+00,2.40e-01,
501,1.60e-01,8.00e-02,
502,8.00e-02,2.40e-01,
503,1.60e-01,8.00e-02,
504,1.60e-01,2.40e-01,
505,8.00e-02,1.60e-01,
506,8.00e-02,2.40e-01,
507,2.40e-01,8.00e-02,
508,1.60e-01,2.40e-01,
509,2.40e-01,8.00e-02,
510,1.60e-01,2.40e-01,
511,2.40e-01,8.00e-02,
512,1.60e-01,2.40e-01,
513,3.20e-01,8.00e-02,
514,3.20e-01,2.40e-01,
515,2.40e-01,8.00e-02,
516,2.40e-01,1.60e-01,
517,4.00e-01,2.40e-01,
518,4.00e-01,2.40e-01,
519,3.20e-01,8.00e-02,
520,4.00e-01,2.40e-01,
521,4.80e-01,8.00e-02,
522,4.80e-01,2.40e-01,
523,5.60e-01,8.00e-02,
524,4.80e-01,2.40e-01,
525,6.40e-01,8.00e-02,
526,5.60e-01,2.40e-01,
527,6.40e-01,8.00e-02,
528,6.40e-01,2.40e-01,
529,7.20e-01,1.60e-01,
530,6.40e-01,2.40e-01,
531,8.00e-01,8.00e-02,
532,7.20e-01,2.40e-01,
533,8.80e-01,8.00e-02,
534,8.80e-01,2.40e-01,
535,8.00e-01,8.00e-02,
536,8.00e-01,2.40e-01,
537,9.60e-01,1.60e-01,
538,8.80e-01,2.40e-01,
539,1.04e+00,1.60e-01,
540,9.60e-01,2.40e-01,
541,1.12e+00,1.60e-01,
542,9.60e-01,2.40e-01,
543,1.12e+00,1.60e-01,
544,1.04e+00,1.60e-01,
545,1.20e+00,2.40e-01,
546,1.12e+00,1.60e-01,
547,1.28e+00,3.20e-01,
548,1.20e+00,3.20e-01,
549,1.36e+00,4.80e-01,
550,1.28e+00,4.00e-01,
551,1.36e+00,8.80e-01,
552,1.36e+00,8.00e-01,
553,1.44e+00,1.36e+00,
554,1.44e+00,1.36e+00,
555,1.52e+00,2.00e+00,
556,1.52e+00,1.92e+00,
557,1.68e+00,2.48e+00,
558,1.60e+00,2.40e+00,
559,1.76e+00,2.96e+00,
560,1.68e+00,2.88e+00,
561,1.84e+00,3.36e+00,
562,1.76e+00,3.36e+00,
563,1.84e+00,3.76e+00,
564,1.84e+00,3.68e+00,
565,1.92e+00,4.08e+00,
566,1.84e+00,4.08e+00,
567,2.00e+00,4.48e+00,
568,1.92e+00,4.32e+00,
569,2.08e+00,4.64e+00,
570,2.00e+00,4.56e+00,
571,2.16e+00,4.88e+00,
572,2.08e+00,4.72e+00,
573,2.24e+00,4.96e+00,
574,2.16e+00,4.88e+00,
575,2.32e+00,5.04e+00,
576,2.24e+00,5.04e+00,
577,2.40e+00,4.88e+00,
578,2.40e+00,5.04e+00,
579,2.48e+00,4.88e+00,
580,2.48e+00,4.96e+00,
581,2.56e+00,5.04e+00,
582,2.48e+00,5.04e+00,
583,2.64e+00,4.88e+00,
584,2.56e+00,5.04e+00,
585,2.72e+00,4.88e+00,
586,2.64e+00,5.04e+00,
587,2.80e+00,4.88e+00,
588,2.72e+00,4.88e+00,
589,2.88e+00,5.04e+00,
590,2.80e+00,5.04e+00,
591,2.96e+00,4.88e+00,
592,2.88e+00,5.04e+00,
593,3.04e+00,4.88e+00,
594,2.96e+00,4.88e+00,
595,3.12e+00,5.04e+00,
596,3.04e+00,5.04e+00,
597,3.20e+00,4.88e+00,
598,3.04e+00,5.04e+00,
599,3.28e+00,4.88e+00,
600,3.28e+00,5.04e+00,
601,3.20e+00,4.88e+00,
602,3.28e+00,4.96e+00,
603,3.36e+00,5.12e+00,
604,3.36e+00,5.04e+00,
605,3.52e+00,4.88e+00,
606,3.44e+00,5.04e+00,
607,3.60e+00,4.88e+00,
608,3.52e+00,5.04e+00,
609,3.68e+00,4.88e+00,
610,3.52e+00,5.12e+00,
611,3.76e+00,4.88e+00,
612,3.76e+00,4.88e+00,
613,3.60e+00,5.04e+00,
614,3.68e+00,5.04e+00,
615,3.84e+00,4.88e+00,
616,3.76e+00,4.96e+00,
617,3.92e+00,5.04e+00,
618,3.84e+00,4.88e+00,
619,4.00e+00,5.12e+00,
620,4.00e+00,5.04e+00,
621,3.84e+00,4.88e+00,
622,4.08e+00,5.04e+00,
623,3.92e+00,4.88e+00,
624,4.00e+00,5.04e+00,
625,4.16e+00,4.88e+00,
626,4.00e+00,4.88e+00,
627,4.16e+00,5.12e+00,
628,4.24e+00,5.04e+00,
629,4.08e+00,4.88e+00,
630,4.16e+00,5.04e+00,
631,4.32e+00,4.88e+00,
632,4.32e+00,4.88e+00,
633,4.24e+00,5.04e+00,
634,4.32e+00,4.88e+00,
635,4.48e+00,5.12e+00,
636,4.40e+00,4.88e+00,
637,4.48e+00,5.04e+00,
638,4.40e+00,4.88e+00,
639,4.56e+00,5.04e+00,
640,4.48e+00,4.96e+00,
641,4.56e+00,5.04e+00,
642,4.48e+00,5.12e+00,
643,4.64e+00,4.88e+00,
644,4.56e+00,5.04e+00,
645,4.72e+00,4.88e+00,
646,4.56e+00,5.04e+00,
647,4.72e+00,4.88e+00,
648,4.64e+00,5.04e+00,
649,4.72e+00,4.88e+00,
650,4.64e+00,4.88e+00,
651,4.80e+00,5.12e+00,
652,4.64e+00,5.04e+00,
653,4.80e+00,4.88e+00,
654,4.72e+00,4.96e+00,
655,4.88e+00,5.04e+00,
656,4.88e+00,5.04e+00,
657,4.72e+00,4.88e+00,
658,4.72e+00,4.96e+00,
659,4.88e+00,5.12e+00,
660,4.80e+00,5.04e+00,
661,4.88e+00,4.88e+00,
662,4.80e+00,4.96e+00,
663,4.96e+00,5.04e+00,
664,4.96e+00,5.04e+00,
665,4.80e+00,4.88e+00,
666,4.96e+00,4.88e+00,
667,4.80e+00,5.12e+00,
668,4.96e+00,4.96e+00,
669,4.88e+00,5.04e+00,
670,4.88e+00,5.04e+00,
671,5.04e+00,4.88e+00,
672,4.88e+00,5.04e+00,
673,5.04e+00,4.88e+00,
674,4.88e+00,5.12e+00,
675,5.04e+00,4.88e+00,
676,5.04e+00,5.04e+00,
677,4.88e+00,4.88e+00,
678,5.04e+00,5.04e+00,
679,4.88e+00,4.88e+00,
680,5.04e+00,4.88e+00,
681,4.88e+00,5.04e+00,
682,4.88e+00,4.88e+00,
683,5.04e+00,5.12e+00,
684,5.04e+00,5.04e+00,
685,4.88e+00,4.88e+00,
686,5.04e+00,5.04e+00,
687,4.88e+00,4.88e+00,
688,4.88e+00,5.04e+00,
689,4.96e+00,4.88e+00,
690,4.88e+00,4.88e+00,
691,5.04e+00,5.12e+00,
692,4.96e+00,4.96e+00,
693,4.88e+00,5.04e+00,
694,4.96e+00,5.04e+00,
695,4.80e+00,4.88e+00,
696,4.96e+00,5.04e+00,
697,4.80e+00,4.88e+00,
698,4.96e+00,4.96e+00,
699,4.80e+00,5.12e+00,
700,4.88e+00,5.04e+00,
701,4.80e+00,4.96e+00,
702,4.88e+00,5.04e+00,
703,4.72e+00,4.96e+00,
704,4.72e+00,4.96e+00,
705,4.88e+00,5.04e+00,
706,4.80e+00,5.04e+00,
707,4.64e+00,4.88e+00,
708,4.80e+00,4.96e+00,
709,4.64e+00,5.04e+00,
710,4.64e+00,5.04e+00,
711,4.80e+00,4.88e+00,
712,4.72e+00,5.04e+00,
713,4.56e+00,4.88e+00,
714,4.72e+00,5.12e+00,
715,4.56e+00,4.88e+00,
716,4.64e+00,5.04e+00,
717,4.48e+00,4.88e+00,
718,4.48e+00,4.96e+00,
719,4.64e+00,5.04e+00,
720,4.56e+00,5.04e+00,
721,4.40e+00,4.88e+00,
722,4.40e+00,4.88e+00,
723,4.56e+00,5.12e+00,
724,4.32e+00,5.04e+00,
725,4.48e+00,4.96e+00,
726,4.40e+00,5.04e+00,
727,4.32e+00,4.96e+00,
728,4.32e+00,4.88e+00,
729,4.16e+00,5.04e+00,
730,4.24e+00,5.12e+00,
731,4.08e+00,4.88e+00,
732,4.24e+00,5.04e+00,
733,4.08e+00,4.88e+00,
734,4.16e+00,5.04e+00,
735,4.00e+00,4.88e+00,
736,4.00e+00,5.04e+00,
737,4.08e+00,4.88e+00,
738,4.08e+00,4.88e+00,
739,3.84e+00,5.12e+00,
740,4.00e+00,4.96e+00,
741,3.84e+00,5.04e+00,
742,3.92e+00,4.96e+00,
743,3.76e+00,5.04e+00,
744,3.84e+00,5.04e+00,
745,3.68e+00,4.88e+00,
746,3.68e+00,4.88e+00,
747,3.84e+00,5.12e+00,
748,3.76e+00,5.04e+00,
749,3.60e+00,4.88e+00,
750,3.52e+00,5.04e+00,
751,3.68e+00,4.88e+00,
752,3.60e+00,4.88e+00,
753,3.44e+00,5.04e+00,
754,3.52e+00,5.12e+00,
755,3.36e+00,4.88e+00,
756,3.44e+00,5.04e+00,
757,3.28e+00,4.88e+00,
758,3.20e+00,5.04e+00,
759,3.36e+00,4.88e+00,
760,3.28e+00,4.88e+00,
761,3.12e+00,5.04e+00,
762,3.20e+00,4.96e+00,
763,3.04e+00,5.12e+00,
764,3.12e+00,5.04e+00,
765,2.96e+00,4.88e+00,
766,3.04e+00,5.04e+00,
767,2.88e+00,4.88e+00,
768,2.96e+00,5.04e+00,
769,2.80e+00,4.88e+00,
770,2.96e+00,5.12e+00,
771,2.72e+00,4.88e+00,
772,2.72e+00,5.04e+00,
773,2.88e+00,4.88e+00,
774,2.64e+00,5.04e+00,
775,2.80e+00,4.88e+00,
776,2.56e+00,5.04e+00,
777,2.72e+00,4.96e+00,
778,2.64e+00,4.88e+00,
779,2.48e+00,5.12e+00,
780,2.48e+00,5.04e+00,
781,2.40e+00,4.96e+00,
782,2.40e+00,4.96e+00,
783,2.24e+00,5.04e+00,
784,2.32e+00,5.04e+00,
785,2.16e+00,4.88e+00,
786,2.24e+00,5.12e+00,
787,2.08e+00,4.88e+00,
788,2.16e+00,5.04e+00,
789,2.08e+00,4.88e+00,
790,2.08e+00,4.96e+00,
791,1.92e+00,5.04e+00,
792,2.08e+00,5.04e+00,
793,1.92e+00,4.88e+00,
794,1.84e+00,4.88e+00,
795,2.00e+00,5.12e+00,
796,1.92e+00,5.04e+00,
797,1.76e+00,4.88e+00,
798,1.84e+00,5.04e+00,
799,1.68e+00,4.88e+00,
800,1.76e+00,5.04e+00,
801,1.60e+00,4.88e+00,
802,1.68e+00,4.88e+00,
803,1.52e+00,5.12e+00,
804,1.60e+00,5.04e+00,
805,1.52e+00,4.88e+00,
806,1.44e+00,4.96e+00,
807,1.52e+00,5.04e+00,
808,1.44e+00,5.04e+00,
809,1.28e+00,4.88e+00,
810,1.36e+00,5.12e+00,
811,1.20e+00,4.88e+00,
812,1.28e+00,4.96e+00,
813,1.12e+00,5.04e+00,
814,1.20e+00,5.04e+00,
815,1.04e+00,4.88e+00,
816,1.04e+00,4.88e+00,
817,1.12e+00,5.04e+00,
818,1.12e+00,5.12e+00,
819,9.60e-01,4.88e+00,
820,1.04e+00,5.04e+00,
821,8.80e-01,4.88e+00,
822,9.60e-01,5.04e+00,
823,8.80e-01,4.88e+00,
824,9.60e-01,5.04e+00,
825,8.00e-01,4.88e+00,
826,8.80e-01,4.88e+00,
827,7.20e-01,5.20e+00,
828,7.20e-01,4.88e+00,
829,8.00e-01,5.04e+00,
830,8.00e-01,5.04e+00,
831,6.40e-01,4.88e+00,
832,7.20e-01,5.04e+00,
833,5.60e-01,4.88e+00,
834,5.60e-01,4.88e+00,
835,5.60e-01,5.12e+00,
836,5.60e-01,5.04e+00,
837,4.80e-01,4.88e+00,
838,4.80e-01,4.88e+00,
839,4.00e-01,5.04e+00,
840,4.80e-01,5.04e+00,
841,3.20e-01,4.88e+00,
842,4.00e-01,4.88e+00,
843,3.20e-01,5.12e+00,
844,4.00e-01,5.04e+00,
845,2.40e-01,4.88e+00,
846,3.20e-01,5.04e+00,
847,2.40e-01,4.88e+00,
848,3.20e-01,5.04e+00,
849,1.60e-01,4.88e+00,
850,2.40e-01,4.88e+00,
851,1.60e-01,5.12e+00,
852,2.40e-01,4.96e+00,
853,8.00e-02,5.04e+00,
854,8.00e-02,5.04e+00,
855,2.40e-01,4.88e+00,
856,1.60e-01,5.04e+00,
857,8.00e-02,4.88e+00,
858,1.60e-01,4.88e+00,
859,0.00e+00,5.12e+00,
860,0.00e+00,5.04e+00,
861,1.60e-01,4.88e+00,
862,0.00e+00,4.88e+00,
863,8.00e-02,3.84e+00,
864,0.00e+00,3.76e+00,
865,8.00e-02,2.24e+00,
866,8.00e-02,2.16e+00,
867,-8.00e-02,8.00e-01,
868,0.00e+00,8.00e-01,
