project/matlab/project_exp3/6 kHz/NewFile1.csv

X,CH1,CH2,Start,Increment,
Sequence,Volt,Volt,4.200000e-04,5.000000e-07
0,1.52e+00,5.12e+00,
1,1.28e+00,4.88e+00,
2,1.36e+00,4.88e+00,
3,1.20e+00,5.12e+00,
4,1.28e+00,5.12e+00,
5,1.12e+00,4.88e+00,
6,1.20e+00,4.88e+00,
7,1.04e+00,5.12e+00,
8,1.12e+00,4.88e+00,
9,9.60e-01,5.12e+00,
10,1.04e+00,4.88e+00,
11,8.80e-01,5.12e+00,
12,9.60e-01,4.88e+00,
13,8.00e-01,5.12e+00,
14,8.80e-01,5.04e+00,
15,8.00e-01,4.88e+00,
16,8.80e-01,4.88e+00,
17,7.20e-01,5.12e+00,
18,8.00e-01,5.04e+00,
19,6.40e-01,4.88e+00,
20,7.20e-01,5.04e+00,
21,5.60e-01,4.88e+00,
22,5.60e-01,4.88e+00,
23,6.40e-01,5.12e+00,
24,6.40e-01,5.12e+00,
25,4.80e-01,4.88e+00,
26,5.60e-01,5.12e+00,
27,4.00e-01,4.88e+00,
28,4.00e-01,4.88e+00,
29,4.00e-01,5.04e+00,
30,4.00e-01,4.88e+00,
31,2.40e-01,5.20e+00,
32,3.20e-01,5.12e+00,
33,1.60e-01,3.44e+00,
34,3.20e-01,3.36e+00,
35,1.60e-01,1.60e-01,
36,2.40e-01,2.40e-01,
37,8.00e-02,1.60e-01,
38,2.40e-01,2.40e-01,
39,8.00e-02,8.00e-02,
40,1.60e-01,2.40e-01,
41,8.00e-02,8.00e-02,
42,1.60e-01,2.40e-01,
43,0.00e+00,8.00e-02,
44,1.60e-01,2.40e-01,
45,0.00e+00,8.00e-02,
46,0.00e+00,2.40e-01,
47,8.00e-02,8.00e-02,
48,8.00e-02,2.40e-01,
49,-8.00e-02,8.00e-02,
50,8.00e-02,2.40e-01,
51,-8.00e-02,8.00e-02,
52,0.00e+00,2.40e-01,
53,-8.00e-02,8.00e-02,
54,0.00e+00,2.40e-01,
55,-8.00e-02,8.00e-02,
56,0.00e+00,2.40e-01,
57,-8.00e-02,8.00e-02,
58,0.00e+00,2.40e-01,
59,-8.00e-02,8.00e-02,
60,0.00e+00,2.40e-01,
61,-8.00e-02,8.00e-02,
62,-8.00e-02,2.40e-01,
63,0.00e+00,8.00e-02,
64,-8.00e-02,2.40e-01,
65,0.00e+00,8.00e-02,
66,-8.00e-02,8.00e-02,
67,0.00e+00,2.40e-01,
68,-8.00e-02,2.40e-01,
69,8.00e-02,8.00e-02,
70,8.00e-02,2.40e-01,
71,-8.00e-02,8.00e-02,
72,8.00e-02,2.40e-01,
73,-8.00e-02,8.00e-02,
74,8.00e-02,2.40e-01,
75,0.00e+00,8.00e-02,
76,0.00e+00,2.40e-01,
77,1.60e-01,8.00e-02,
78,0.00e+00,8.00e-02,
79,1.60e-01,2.40e-01,
80,8.00e-02,2.40e-01,
81,1.60e-01,8.00e-02,
82,8.00e-02,2.40e-01,
83,2.40e-01,8.00e-02,
84,2.40e-01,8.00e-02,
85,1.60e-01,2.40e-01,
86,1.60e-01,8.00e-02,
87,3.20e-01,2.40e-01,
88,3.20e-01,2.40e-01,
89,2.40e-01,8.00e-02,
90,2.40e-01,8.00e-02,
91,4.00e-01,2.40e-01,
92,4.00e-01,8.00e-02,
93,5.60e-01,2.40e-01,
94,4.00e-01,1.60e-01,
95,5.60e-01,8.00e-02,
96,4.80e-01,8.00e-02,
97,6.40e-01,2.40e-01,
98,5.60e-01,1.60e-01,
99,7.20e-01,8.00e-02,
100,5.60e-01,1.60e-01,
101,7.20e-01,8.00e-02,
102,6.40e-01,2.40e-01,
103,8.00e-01,8.00e-02,
104,7.20e-01,8.00e-02,
105,8.80e-01,2.40e-01,
106,8.00e-01,1.60e-01,
107,9.60e-01,4.80e-01,
108,8.80e-01,5.60e-01,
109,1.04e+00,4.72e+00,
110,9.60e-01,4.64e+00,
111,1.12e+00,5.04e+00,
112,1.04e+00,4.88e+00,
113,1.12e+00,5.12e+00,
114,1.20e+00,4.88e+00,
115,1.04e+00,5.12e+00,
116,1.12e+00,5.12e+00,
117,1.28e+00,4.88e+00,
118,1.20e+00,5.12e+00,
119,1.36e+00,4.88e+00,
120,1.36e+00,5.12e+00,
121,1.52e+00,4.88e+00,
122,1.44e+00,4.88e+00,
123,1.60e+00,5.12e+00,
124,1.52e+00,5.20e+00,
125,1.68e+00,4.88e+00,
126,1.60e+00,4.88e+00,
127,1.76e+00,5.12e+00,
128,1.68e+00,4.88e+00,
129,1.84e+00,5.20e+00,
130,1.76e+00,4.88e+00,
131,1.92e+00,5.12e+00,
132,1.84e+00,4.88e+00,
133,2.00e+00,5.12e+00,
134,1.92e+00,4.88e+00,
135,2.16e+00,5.12e+00,
136,2.00e+00,5.12e+00,
137,2.24e+00,4.88e+00,
138,2.08e+00,4.88e+00,
139,2.32e+00,5.20e+00,
140,2.24e+00,5.12e+00,
141,2.48e+00,4.88e+00,
142,2.40e+00,5.12e+00,
143,2.56e+00,4.88e+00,
144,2.48e+00,5.12e+00,
145,2.64e+00,4.88e+00,
146,2.56e+00,5.12e+00,
147,2.72e+00,4.88e+00,
148,2.64e+00,4.88e+00,
149,2.80e+00,5.20e+00,
150,2.72e+00,4.88e+00,
151,2.88e+00,5.20e+00,
152,2.80e+00,5.12e+00,
153,2.96e+00,4.88e+00,
154,2.88e+00,5.12e+00,
155,3.04e+00,4.88e+00,
156,2.96e+00,4.88e+00,
157,3.12e+00,5.20e+00,
158,3.04e+00,4.88e+00,
159,3.20e+00,5.12e+00,
160,3.12e+00,5.12e+00,
161,3.28e+00,4.88e+00,
162,3.28e+00,4.88e+00,
163,3.44e+00,5.12e+00,
164,3.36e+00,5.12e+00,
165,3.52e+00,4.88e+00,
166,3.44e+00,4.88e+00,
167,3.60e+00,5.12e+00,
168,3.52e+00,5.12e+00,
169,3.68e+00,4.88e+00,
170,3.60e+00,4.88e+00,
171,3.76e+00,5.12e+00,
172,3.68e+00,5.12e+00,
173,3.84e+00,4.88e+00,
174,3.76e+00,5.12e+00,
175,3.92e+00,4.88e+00,
176,3.76e+00,5.12e+00,
177,4.00e+00,4.88e+00,
178,3.84e+00,4.88e+00,
179,4.08e+00,5.20e+00,
180,3.92e+00,5.12e+00,
181,4.16e+00,4.88e+00,
182,4.00e+00,4.88e+00,
183,4.24e+00,5.12e+00,
184,4.24e+00,5.12e+00,
185,4.08e+00,4.88e+00,
186,4.40e+00,4.88e+00,
187,4.16e+00,5.20e+00,
188,4.24e+00,5.12e+00,
189,4.48e+00,4.88e+00,
190,4.48e+00,5.12e+00,
191,4.32e+00,4.88e+00,
192,4.40e+00,5.12e+00,
193,4.56e+00,4.88e+00,
194,4.40e+00,4.88e+00,
195,4.64e+00,5.12e+00,
196,4.48e+00,5.12e+00,
197,4.64e+00,4.88e+00,
198,4.56e+00,4.88e+00,
199,4.72e+00,5.12e+00,
200,4.56e+00,4.88e+00,
201,4.72e+00,5.20e+00,
202,4.64e+00,4.88e+00,
203,4.80e+00,5.12e+00,
204,4.64e+00,5.12e+00,
205,4.80e+00,4.88e+00,
206,4.72e+00,4.88e+00,
207,4.88e+00,5.20e+00,
208,4.88e+00,5.12e+00,
209,4.72e+00,4.88e+00,
210,4.88e+00,4.88e+00,
211,4.72e+00,5.12e+00,
212,4.96e+00,5.12e+00,
213,4.80e+00,4.88e+00,
214,4.96e+00,4.88e+00,
215,4.80e+00,5.12e+00,
216,4.80e+00,4.88e+00,
217,4.96e+00,5.12e+00,
218,4.88e+00,4.96e+00,
219,5.04e+00,5.12e+00,
220,4.88e+00,4.88e+00,
221,5.04e+00,5.12e+00,
222,4.88e+00,4.88e+00,
223,5.04e+00,5.12e+00,
224,5.04e+00,5.12e+00,
225,4.88e+00,4.88e+00,
226,4.88e+00,5.12e+00,
227,5.04e+00,4.88e+00,
228,5.04e+00,5.12e+00,
229,4.88e+00,4.88e+00,
230,4.88e+00,5.12e+00,
231,5.04e+00,4.88e+00,
232,5.04e+00,5.12e+00,
233,4.88e+00,4.88e+00,
234,4.88e+00,4.88e+00,
235,5.04e+00,5.20e+00,
236,4.80e+00,4.88e+00,
237,4.96e+00,5.12e+00,
238,4.80e+00,4.88e+00,
239,4.96e+00,5.12e+00,
240,4.96e+00,5.12e+00,
241,4.80e+00,4.88e+00,
242,4.72e+00,4.88e+00,
243,4.96e+00,5.12e+00,
244,4.72e+00,4.88e+00,
245,4.88e+00,5.12e+00,
246,4.88e+00,5.12e+00,
247,4.72e+00,4.88e+00,
248,4.88e+00,4.88e+00,
249,4.64e+00,5.12e+00,
250,4.64e+00,4.88e+00,
251,4.80e+00,5.12e+00,
252,4.72e+00,4.88e+00,
253,4.56e+00,5.12e+00,
254,4.56e+00,4.88e+00,
255,4.72e+00,5.12e+00,
256,4.64e+00,4.88e+00,
257,4.48e+00,5.12e+00,
258,4.48e+00,4.88e+00,
259,4.64e+00,5.20e+00,
260,4.40e+00,5.12e+00,
261,4.56e+00,4.88e+00,
262,4.48e+00,5.12e+00,
263,4.32e+00,4.88e+00,
264,4.32e+00,5.12e+00,
265,4.48e+00,4.88e+00,
266,4.40e+00,4.88e+00,
267,4.24e+00,5.20e+00,
268,4.32e+00,5.12e+00,
269,4.08e+00,4.88e+00,
270,4.24e+00,4.88e+00,
271,4.08e+00,5.12e+00,
272,4.16e+00,5.12e+00,
273,4.00e+00,4.88e+00,
274,4.08e+00,5.12e+00,
275,3.92e+00,4.88e+00,
276,4.00e+00,4.88e+00,
277,3.84e+00,5.12e+00,
278,3.92e+00,5.12e+00,
279,3.76e+00,4.88e+00,
280,3.84e+00,5.12e+00,
281,3.68e+00,4.88e+00,
282,3.84e+00,5.12e+00,
283,3.60e+00,4.88e+00,
284,3.76e+00,5.12e+00,
285,3.52e+00,4.88e+00,
286,3.68e+00,4.88e+00,
287,3.44e+00,5.12e+00,
288,3.60e+00,5.12e+00,
289,3.36e+00,4.88e+00,
290,3.52e+00,5.12e+00,
291,3.28e+00,4.88e+00,
292,3.44e+00,5.12e+00,
293,3.12e+00,4.88e+00,
294,3.28e+00,4.88e+00,
295,3.04e+00,5.12e+00,
296,3.20e+00,4.88e+00,
297,2.96e+00,5.12e+00,
298,3.04e+00,4.88e+00,
299,2.88e+00,5.12e+00,
300,3.04e+00,4.88e+00,
301,2.80e+00,5.12e+00,
302,2.88e+00,4.88e+00,
303,2.72e+00,5.12e+00,
304,2.80e+00,5.12e+00,
305,2.64e+00,4.88e+00,
306,2.72e+00,4.88e+00,
307,2.56e+00,5.12e+00,
308,2.64e+00,5.12e+00,
309,2.48e+00,4.88e+00,
310,2.56e+00,5.12e+00,
311,2.40e+00,4.88e+00,
312,2.48e+00,5.12e+00,
313,2.24e+00,4.88e+00,
314,2.32e+00,4.88e+00,
315,2.16e+00,5.12e+00,
316,2.24e+00,4.88e+00,
317,2.08e+00,5.12e+00,
318,2.16e+00,4.88e+00,
319,2.00e+00,5.20e+00,
320,2.08e+00,4.88e+00,
321,1.92e+00,5.12e+00,
322,2.00e+00,4.88e+00,
323,1.84e+00,5.12e+00,
324,1.92e+00,5.12e+00,
325,1.68e+00,4.88e+00,
326,1.84e+00,5.12e+00,
327,1.60e+00,4.88e+00,
328,1.68e+00,4.88e+00,
329,1.52e+00,5.12e+00,
330,1.68e+00,5.20e+00,
331,1.44e+00,4.88e+00,
332,1.52e+00,4.88e+00,
333,1.36e+00,5.20e+00,
334,1.52e+00,5.12e+00,
335,1.20e+00,4.88e+00,
336,1.36e+00,5.12e+00,
337,1.12e+00,4.88e+00,
338,1.28e+00,5.12e+00,
339,1.12e+00,4.88e+00,
340,1.20e+00,4.88e+00,
341,1.04e+00,5.12e+00,
342,1.12e+00,4.88e+00,
343,9.60e-01,5.12e+00,
344,1.04e+00,5.12e+00,
345,8.80e-01,4.88e+00,
346,9.60e-01,4.88e+00,
347,8.00e-01,5.12e+00,
348,8.80e-01,4.88e+00,
349,7.20e-01,5.12e+00,
350,8.00e-01,5.12e+00,
351,6.40e-01,4.88e+00,
352,6.40e-01,4.88e+00,
353,8.00e-01,5.20e+00,
354,7.20e-01,5.12e+00,
355,5.60e-01,4.88e+00,
356,6.40e-01,4.88e+00,
357,4.80e-01,5.20e+00,
358,4.80e-01,4.88e+00,
359,5.60e-01,5.12e+00,
360,4.80e-01,4.88e+00,
361,4.00e-01,5.12e+00,
362,4.00e-01,4.88e+00,
363,2.40e-01,5.12e+00,
364,2.40e-01,5.12e+00,
365,4.00e-01,4.88e+00,
366,3.20e-01,5.20e+00,
367,1.60e-01,1.60e-01,
368,2.40e-01,1.60e-01,
369,1.60e-01,2.40e-01,
370,2.40e-01,2.40e-01,
371,8.00e-02,1.60e-01,
372,1.60e-01,8.00e-02,
373,8.00e-02,2.40e-01,
374,1.60e-01,2.40e-01,
375,8.00e-02,8.00e-02,
376,1.60e-01,2.40e-01,
377,0.00e+00,8.00e-02,
378,0.00e+00,2.40e-01,
379,8.00e-02,8.00e-02,
380,8.00e-02,2.40e-01,
381,0.00e+00,8.00e-02,
382,8.00e-02,8.00e-02,
383,-8.00e-02,2.40e-01,
384,-8.00e-02,2.40e-01,
385,8.00e-02,8.00e-02,
386,-8.00e-02,2.40e-01,
387,0.00e+00,8.00e-02,
388,0.00e+00,2.40e-01,
389,-8.00e-02,8.00e-02,
390,-8.00e-02,2.40e-01,
391,0.00e+00,8.00e-02,
392,0.00e+00,2.40e-01,
393,-8.00e-02,8.00e-02,
394,0.00e+00,2.40e-01,
395,-8.00e-02,8.00e-02,
396,-8.00e-02,2.40e-01,
397,0.00e+00,8.00e-02,
398,0.00e+00,8.00e-02,
399,-8.00e-02,2.40e-01,
400,-8.00e-02,2.40e-01,
401,0.00e+00,8.00e-02,
402,-8.00e-02,8.00e-02,
403,8.00e-02,2.40e-01,
404,-8.00e-02,8.00e-02,
405,8.00e-02,2.40e-01,
406,8.00e-02,8.00e-02,
407,0.00e+00,2.40e-01,
408,0.00e+00,2.40e-01,
409,8.00e-02,8.00e-02,
410,0.00e+00,8.00e-02,
411,1.60e-01,2.40e-01,
412,1.60e-01,2.40e-01,
413,0.00e+00,8.00e-02,
414,8.00e-02,2.40e-01,
415,2.40e-01,8.00e-02,
416,2.40e-01,2.40e-01,
417,8.00e-02,8.00e-02,
418,1.60e-01,2.40e-01,
419,3.20e-01,8.00e-02,
420,1.60e-01,8.00e-02,
421,3.20e-01,2.40e-01,
422,2.40e-01,8.00e-02,
423,4.00e-01,2.40e-01,
424,4.00e-01,2.40e-01,
425,2.40e-01,8.00e-02,
426,4.00e-01,2.40e-01,
427,5.60e-01,8.00e-02,
428,4.80e-01,2.40e-01,
429,5.60e-01,8.00e-02,
430,4.80e-01,1.60e-01,
431,6.40e-01,8.00e-02,
432,5.60e-01,1.60e-01,
433,7.20e-01,8.00e-02,
434,6.40e-01,8.00e-02,
435,8.00e-01,2.40e-01,
436,6.40e-01,8.00e-02,
437,8.00e-01,2.40e-01,
438,7.20e-01,2.40e-01,
439,8.80e-01,8.00e-02,
440,8.00e-01,1.60e-01,
441,9.60e-01,2.16e+00,
442,8.80e-01,2.24e+00,
443,1.04e+00,5.04e+00,
444,9.60e-01,5.04e+00,
445,1.12e+00,4.88e+00,
446,1.04e+00,5.04e+00,
447,1.20e+00,4.88e+00,
448,1.12e+00,5.04e+00,
449,1.28e+00,4.88e+00,
450,1.20e+00,4.88e+00,
451,1.36e+00,5.12e+00,
452,1.20e+00,5.12e+00,
453,1.44e+00,4.88e+00,
454,1.36e+00,4.88e+00,
455,1.60e+00,5.20e+00,
456,1.44e+00,5.12e+00,
457,1.68e+00,4.88e+00,
458,1.52e+00,4.88e+00,
459,1.76e+00,5.12e+00,
460,1.60e+00,5.20e+00,
461,1.84e+00,4.88e+00,
462,1.68e+00,4.88e+00,
463,1.92e+00,5.12e+00,
464,1.76e+00,5.12e+00,
465,2.00e+00,4.88e+00,
466,1.84e+00,4.88e+00,
467,2.08e+00,5.12e+00,
468,2.00e+00,4.88e+00,
469,2.16e+00,5.12e+00,
470,2.08e+00,5.12e+00,
471,2.24e+00,4.88e+00,
472,2.16e+00,5.12e+00,
473,2.32e+00,4.88e+00,
474,2.32e+00,5.12e+00,
475,2.48e+00,4.88e+00,
476,2.40e+00,4.88e+00,
477,2.56e+00,5.12e+00,
478,2.48e+00,4.88e+00,
479,2.64e+00,5.12e+00,
480,2.56e+00,5.20e+00,
481,2.72e+00,4.88e+00,
482,2.64e+00,4.88e+00,
483,2.80e+00,5.12e+00,
484,2.72e+00,5.20e+00,
485,2.88e+00,4.88e+00,
486,2.80e+00,4.88e+00,
487,3.04e+00,5.12e+00,
488,2.88e+00,5.12e+00,
489,3.12e+00,4.88e+00,
490,2.96e+00,4.88e+00,
491,3.20e+00,5.12e+00,
492,3.04e+00,5.12e+00,
493,3.28e+00,4.88e+00,
494,3.20e+00,4.88e+00,
495,3.36e+00,5.12e+00,
496,3.28e+00,5.12e+00,
497,3.52e+00,4.88e+00,
498,3.36e+00,5.12e+00,
499,3.52e+00,4.88e+00,
500,3.44e+00,5.12e+00,
501,3.68e+00,4.88e+00,
502,3.52e+00,4.88e+00,
503,3.68e+00,5.12e+00,
504,3.60e+00,4.88e+00,
505,3.84e+00,5.20e+00,
506,3.68e+00,4.88e+00,
507,3.92e+00,5.12e+00,
508,3.76e+00,5.12e+00,
509,3.92e+00,4.88e+00,
510,3.84e+00,4.88e+00,
511,4.00e+00,5.12e+00,
512,3.92e+00,4.88e+00,
513,4.08e+00,5.20e+00,
514,4.00e+00,4.88e+00,
515,4.16e+00,5.12e+00,
516,4.08e+00,5.12e+00,
517,4.24e+00,4.88e+00,
518,4.08e+00,4.88e+00,
519,4.32e+00,5.12e+00,
520,4.24e+00,5.12e+00,
521,4.40e+00,4.88e+00,
522,4.32e+00,5.12e+00,
523,4.48e+00,4.88e+00,
524,4.32e+00,5.12e+00,
525,4.56e+00,4.88e+00,
526,4.56e+00,4.88e+00,
527,4.40e+00,5.12e+00,
528,4.40e+00,5.20e+00,
529,4.64e+00,4.88e+00,
530,4.48e+00,5.12e+00,
531,4.72e+00,4.88e+00,
532,4.56e+00,5.12e+00,
533,4.72e+00,4.88e+00,
534,4.72e+00,5.12e+00,
535,4.56e+00,4.88e+00,
536,4.64e+00,5.12e+00,
537,4.80e+00,4.88e+00,
538,4.80e+00,4.88e+00,
539,4.64e+00,5.12e+00,
540,4.88e+00,5.12e+00,
541,4.72e+00,4.88e+00,
542,4.72e+00,4.88e+00,
543,4.88e+00,5.20e+00,
544,4.72e+00,5.20e+00,
545,4.96e+00,4.88e+00,
546,4.80e+00,4.88e+00,
547,4.96e+00,5.20e+00,
548,4.96e+00,5.12e+00,
549,4.80e+00,4.88e+00,
550,4.96e+00,4.88e+00,
551,4.80e+00,5.12e+00,
552,4.80e+00,5.12e+00,
553,4.96e+00,4.88e+00,
554,4.88e+00,5.12e+00,
555,5.04e+00,4.88e+00,
556,5.04e+00,4.88e+00,
557,4.88e+00,5.20e+00,
558,4.88e+00,4.88e+00,
559,5.04e+00,5.12e+00,
560,5.04e+00,5.12e+00,
561,4.88e+00,4.88e+00,
562,4.88e+00,5.12e+00,
563,5.04e+00,4.88e+00,
564,5.04e+00,4.88e+00,
565,4.88e+00,5.12e+00,
566,5.04e+00,4.88e+00,
567,4.80e+00,5.12e+00,
568,4.80e+00,5.12e+00,
569,4.96e+00,4.88e+00,
570,4.96e+00,4.88e+00,
571,4.80e+00,5.12e+00,
572,4.96e+00,5.12e+00,
573,4.80e+00,4.88e+00,
574,4.96e+00,4.88e+00,
575,4.80e+00,5.20e+00,
576,4.88e+00,5.20e+00,
577,4.72e+00,4.88e+00,
578,4.88e+00,4.88e+00,
579,4.72e+00,5.12e+00,
580,4.72e+00,5.12e+00,
581,4.88e+00,4.88e+00,
582,4.80e+00,4.88e+00,
583,4.64e+00,5.12e+00,
584,4.80e+00,4.88e+00,
585,4.64e+00,5.12e+00,
586,4.72e+00,4.88e+00,
587,4.56e+00,5.12e+00,
588,4.72e+00,5.12e+00,
589,4.56e+00,4.88e+00,
590,4.64e+00,4.88e+00,
591,4.48e+00,5.12e+00,
592,4.64e+00,4.88e+00,
593,4.40e+00,5.12e+00,
594,4.40e+00,5.12e+00,
595,4.56e+00,4.88e+00,
596,4.56e+00,4.88e+00,
597,4.32e+00,5.12e+00,
598,4.48e+00,4.88e+00,
599,4.24e+00,5.12e+00,
600,4.32e+00,5.12e+00,
601,4.24e+00,4.88e+00,
602,4.24e+00,5.12e+00,
603,4.08e+00,4.88e+00,
604,4.24e+00,4.88e+00,
605,4.00e+00,5.20e+00,
606,4.16e+00,4.88e+00,
607,3.92e+00,5.12e+00,
608,4.08e+00,5.12e+00,
609,3.92e+00,4.88e+00,
610,3.84e+00,5.20e+00,
611,4.00e+00,4.88e+00,
612,3.92e+00,5.12e+00,
613,3.76e+00,4.88e+00,
614,3.84e+00,4.88e+00,
615,3.68e+00,5.12e+00,
616,3.76e+00,4.88e+00,
617,3.60e+00,5.20e+00,
618,3.68e+00,4.88e+00,
619,3.52e+00,5.12e+00,
620,3.60e+00,4.88e+00,
621,3.44e+00,5.12e+00,
622,3.52e+00,5.12e+00,
623,3.36e+00,4.88e+00,
624,3.44e+00,4.88e+00,
625,3.28e+00,5.20e+00,
626,3.28e+00,5.12e+00,
627,3.12e+00,4.88e+00,
628,3.28e+00,5.12e+00,
629,3.04e+00,4.88e+00,
630,3.12e+00,4.88e+00,
631,2.96e+00,5.12e+00,
632,3.04e+00,4.88e+00,
633,2.88e+00,5.12e+00,
634,2.96e+00,5.12e+00,
635,2.80e+00,4.88e+00,
636,2.88e+00,5.12e+00,
637,2.72e+00,4.88e+00,
638,2.80e+00,4.88e+00,
639,2.64e+00,5.20e+00,
640,2.72e+00,5.12e+00,
641,2.56e+00,4.88e+00,
642,2.64e+00,4.88e+00,
643,2.40e+00,5.12e+00,
644,2.56e+00,5.12e+00,
645,2.32e+00,4.88e+00,
646,2.40e+00,4.88e+00,
647,2.24e+00,5.12e+00,
648,2.32e+00,5.12e+00,
649,2.08e+00,4.88e+00,
650,2.24e+00,4.88e+00,
651,2.00e+00,5.12e+00,
652,2.16e+00,4.88e+00,
653,1.92e+00,5.20e+00,
654,2.00e+00,4.88e+00,
655,1.84e+00,5.12e+00,
656,1.92e+00,4.88e+00,
657,1.76e+00,5.12e+00,
658,1.84e+00,4.88e+00,
659,1.68e+00,5.12e+00,
660,1.76e+00,4.88e+00,
661,1.60e+00,5.12e+00,
662,1.68e+00,4.96e+00,
663,1.52e+00,5.12e+00,
664,1.60e+00,5.12e+00,
665,1.44e+00,4.88e+00,
666,1.52e+00,5.12e+00,
667,1.36e+00,4.88e+00,
668,1.36e+00,5.12e+00,
669,1.28e+00,4.88e+00,
670,1.28e+00,4.88e+00,
671,1.12e+00,5.12e+00,
672,1.20e+00,5.12e+00,
673,1.04e+00,4.88e+00,
674,1.12e+00,5.12e+00,
675,9.60e-01,4.88e+00,
676,1.04e+00,4.88e+00,
677,8.80e-01,5.20e+00,
678,8.80e-01,5.12e+00,
679,1.04e+00,4.88e+00,
680,9.60e-01,5.20e+00,
681,8.00e-01,4.88e+00,
682,8.80e-01,4.88e+00,
683,7.20e-01,5.12e+00,
684,8.00e-01,5.12e+00,
685,6.40e-01,4.88e+00,
686,6.40e-01,4.88e+00,
687,7.20e-01,5.12e+00,
688,5.60e-01,4.96e+00,
689,7.20e-01,5.20e+00,
690,6.40e-01,4.88e+00,
691,4.80e-01,5.12e+00,
692,5.60e-01,5.12e+00,
693,3.20e-01,4.88e+00,
694,4.00e-01,5.12e+00,
695,5.60e-01,4.88e+00,
696,4.00e-01,5.12e+00,
697,2.40e-01,4.88e+00,
698,3.20e-01,4.88e+00,
699,2.40e-01,5.12e+00,
700,3.20e-01,4.96e+00,
701,1.60e-01,1.60e-01,
702,2.40e-01,2.40e-01,
703,1.60e-01,1.60e-01,
704,8.00e-02,2.40e-01,
705,2.40e-01,8.00e-02,
706,1.60e-01,2.40e-01,
707,8.00e-02,8.00e-02,
708,1.60e-01,2.40e-01,
709,0.00e+00,8.00e-02,
710,0.00e+00,2.40e-01,
711,1.60e-01,8.00e-02,
712,0.00e+00,2.40e-01,
713,8.00e-02,8.00e-02,
714,8.00e-02,2.40e-01,
715,-8.00e-02,8.00e-02,
716,8.00e-02,2.40e-01,
717,-8.00e-02,8.00e-02,
718,0.00e+00,2.40e-01,
719,-8.00e-02,8.00e-02,
720,0.00e+00,2.40e-01,
721,-8.00e-02,8.00e-02,
722,0.00e+00,2.40e-01,
723,-8.00e-02,8.00e-02,
724,-8.00e-02,2.40e-01,
725,0.00e+00,8.00e-02,
726,0.00e+00,2.40e-01,
727,-8.00e-02,8.00e-02,
728,-8.00e-02,2.40e-01,
729,0.00e+00,8.00e-02,
730,-8.00e-02,2.40e-01,
731,0.00e+00,8.00e-02,
732,0.00e+00,2.40e-01,
733,-8.00e-02,8.00e-02,
734,0.00e+00,2.40e-01,
735,-8.00e-02,8.00e-02,
736,-8.00e-02,2.40e-01,
737,8.00e-02,8.00e-02,
738,-8.00e-02,8.00e-02,
739,8.00e-02,2.40e-01,
740,0.00e+00,2.40e-01,
741,8.00e-02,8.00e-02,
742,8.00e-02,8.00e-02,
743,0.00e+00,2.40e-01,
744,0.00e+00,1.60e-01,
745,1.60e-01,8.00e-02,
746,8.00e-02,8.00e-02,
747,1.60e-01,2.40e-01,
748,8.00e-02,1.60e-01,
749,2.40e-01,8.00e-02,
750,1.60e-01,8.00e-02,
751,2.40e-01,2.40e-01,
752,1.60e-01,8.00e-02,
753,3.20e-01,2.40e-01,
754,1.60e-01,8.00e-02,
755,3.20e-01,2.40e-01,
756,2.40e-01,2.40e-01,
757,4.00e-01,8.00e-02,
758,4.00e-01,2.40e-01,
759,4.00e-01,8.00e-02,
760,4.00e-01,8.00e-02,
761,5.60e-01,2.40e-01,
762,4.80e-01,2.40e-01,
763,6.40e-01,8.00e-02,
764,6.40e-01,8.00e-02,
765,5.60e-01,2.40e-01,
766,5.60e-01,8.00e-02,
767,7.20e-01,2.40e-01,
768,6.40e-01,2.40e-01,
769,8.00e-01,8.00e-02,
770,7.20e-01,2.40e-01,
771,8.80e-01,8.00e-02,
772,8.00e-01,2.40e-01,
773,9.60e-01,8.00e-02,
774,9.60e-01,1.60e-01,
775,8.00e-01,3.76e+00,
776,8.80e-01,3.68e+00,
777,1.04e+00,5.04e+00,
778,9.60e-01,5.04e+00,
779,1.12e+00,4.88e+00,
780,1.04e+00,4.88e+00,
781,1.20e+00,5.12e+00,
782,1.12e+00,4.88e+00,
783,1.28e+00,5.12e+00,
784,1.20e+00,4.88e+00,
785,1.36e+00,5.20e+00,
786,1.28e+00,4.88e+00,
787,1.44e+00,5.12e+00,
788,1.44e+00,5.12e+00,
789,1.60e+00,4.88e+00,
790,1.52e+00,5.04e+00,
791,1.68e+00,4.88e+00,
792,1.60e+00,5.12e+00,
793,1.76e+00,4.88e+00,
794,1.68e+00,5.12e+00,
795,1.84e+00,4.88e+00,
796,1.76e+00,5.12e+00,
797,1.92e+00,4.88e+00,
798,1.84e+00,4.88e+00,
799,2.00e+00,5.12e+00,
800,1.92e+00,4.88e+00,
801,2.08e+00,5.20e+00,
802,2.00e+00,4.88e+00,
803,2.16e+00,5.12e+00,
804,2.08e+00,5.12e+00,
805,2.24e+00,4.88e+00,
806,2.16e+00,4.88e+00,
807,2.32e+00,5.12e+00,
808,2.32e+00,5.12e+00,
809,2.48e+00,4.88e+00,
810,2.40e+00,5.12e+00,
811,2.64e+00,4.88e+00,
812,2.48e+00,5.20e+00,
813,2.64e+00,4.88e+00,
814,2.56e+00,5.12e+00,
815,2.80e+00,4.88e+00,
816,2.64e+00,5.12e+00,
817,2.88e+00,4.88e+00,
818,2.72e+00,4.88e+00,
819,2.96e+00,5.12e+00,
820,2.88e+00,5.12e+00,
821,3.04e+00,4.88e+00,
822,2.96e+00,4.88e+00,
823,3.12e+00,5.12e+00,
824,3.04e+00,5.12e+00,
825,3.20e+00,4.88e+00,
826,3.12e+00,5.12e+00,
827,3.28e+00,4.88e+00,
828,3.28e+00,5.12e+00,
829,3.44e+00,4.88e+00,
830,3.36e+00,4.88e+00,
831,3.52e+00,5.12e+00,
832,3.44e+00,5.12e+00,
833,3.60e+00,4.88e+00,
834,3.52e+00,4.88e+00,
835,3.68e+00,5.20e+00,
836,3.60e+00,4.88e+00,
837,3.76e+00,5.12e+00,
838,3.68e+00,4.88e+00,
839,3.84e+00,5.12e+00,
840,3.68e+00,5.12e+00,
841,3.92e+00,4.88e+00,
842,3.76e+00,5.12e+00,
843,4.00e+00,4.88e+00,
844,3.84e+00,5.12e+00,
845,4.08e+00,4.88e+00,
846,4.08e+00,4.88e+00,
847,3.92e+00,5.12e+00,
848,4.16e+00,5.20e+00,
849,4.00e+00,4.88e+00,
850,4.08e+00,4.88e+00,
851,4.24e+00,5.12e+00,
852,4.16e+00,5.12e+00,
853,4.40e+00,4.88e+00,
854,4.24e+00,5.12e+00,
855,4.48e+00,4.88e+00,
856,4.32e+00,4.88e+00,
857,4.48e+00,5.20e+00,
858,4.40e+00,5.12e+00,
859,4.56e+00,4.88e+00,
860,4.56e+00,5.12e+00,
861,4.40e+00,4.88e+00,
862,4.48e+00,4.88e+00,
863,4.64e+00,5.12e+00,
864,4.48e+00,5.20e+00,
865,4.72e+00,4.88e+00,
866,4.72e+00,4.88e+00,
867,4.56e+00,5.12e+00,
868,4.64e+00,5.12e+00,
