project/matlab/project_exp3/7 kHz/NewFile1.csv

X,CH1,CH2,Start,Increment,
Sequence,Volt,Volt,4.200000e-04,5.000000e-07
0,2.24e+00,4.88e+00,
1,2.48e+00,5.12e+00,
2,2.40e+00,5.12e+00,
3,2.56e+00,4.88e+00,
4,2.48e+00,4.88e+00,
5,2.64e+00,5.12e+00,
6,2.56e+00,4.88e+00,
7,2.80e+00,5.12e+00,
8,2.72e+00,5.12e+00,
9,2.88e+00,4.88e+00,
10,2.80e+00,5.12e+00,
11,2.96e+00,4.88e+00,
12,2.88e+00,4.88e+00,
13,3.04e+00,5.12e+00,
14,2.96e+00,5.12e+00,
15,3.20e+00,4.88e+00,
16,3.04e+00,4.88e+00,
17,3.28e+00,5.12e+00,
18,3.20e+00,4.88e+00,
19,3.44e+00,5.20e+00,
20,3.36e+00,4.88e+00,
21,3.52e+00,5.12e+00,
22,3.44e+00,4.88e+00,
23,3.60e+00,5.12e+00,
24,3.52e+00,4.88e+00,
25,3.68e+00,5.20e+00,
26,3.60e+00,5.12e+00,
27,3.84e+00,4.88e+00,
28,3.68e+00,4.88e+00,
29,3.92e+00,5.12e+00,
30,3.76e+00,5.12e+00,
31,4.00e+00,4.88e+00,
32,3.84e+00,4.88e+00,
33,4.08e+00,5.12e+00,
34,3.92e+00,5.12e+00,
35,4.16e+00,4.88e+00,
36,4.00e+00,5.12e+00,
37,4.24e+00,4.88e+00,
38,4.08e+00,4.88e+00,
39,4.32e+00,5.20e+00,
40,4.24e+00,5.12e+00,
41,4.40e+00,4.88e+00,
42,4.32e+00,5.12e+00,
43,4.48e+00,4.88e+00,
44,4.40e+00,4.88e+00,
45,4.56e+00,5.12e+00,
46,4.40e+00,5.12e+00,
47,4.64e+00,4.88e+00,
48,4.48e+00,4.88e+00,
49,4.64e+00,5.12e+00,
50,4.56e+00,4.88e+00,
51,4.72e+00,5.20e+00,
52,4.56e+00,4.88e+00,
53,4.80e+00,5.12e+00,
54,4.80e+00,5.12e+00,
55,4.64e+00,4.88e+00,
56,4.72e+00,4.88e+00,
57,4.88e+00,5.12e+00,
58,4.88e+00,4.88e+00,
59,4.72e+00,5.20e+00,
60,4.88e+00,4.88e+00,
61,4.72e+00,5.12e+00,
62,4.80e+00,5.12e+00,
63,4.96e+00,4.88e+00,
64,4.96e+00,4.88e+00,
65,4.80e+00,5.12e+00,
66,4.80e+00,5.12e+00,
67,4.96e+00,4.88e+00,
68,4.88e+00,4.88e+00,
69,5.04e+00,5.12e+00,
70,5.04e+00,5.12e+00,
71,4.88e+00,4.88e+00,
72,4.88e+00,4.88e+00,
73,5.04e+00,5.12e+00,
74,4.88e+00,5.12e+00,
75,5.04e+00,4.88e+00,
76,5.04e+00,4.88e+00,
77,4.88e+00,5.12e+00,
78,4.88e+00,5.12e+00,
79,5.04e+00,4.88e+00,
80,4.88e+00,4.88e+00,
81,5.04e+00,5.12e+00,
82,4.96e+00,5.20e+00,
83,4.80e+00,4.88e+00,
84,4.96e+00,4.88e+00,
85,4.80e+00,5.12e+00,
86,4.80e+00,5.12e+00,
87,4.96e+00,4.88e+00,
88,4.88e+00,4.88e+00,
89,4.72e+00,5.20e+00,
90,4.88e+00,4.88e+00,
91,4.72e+00,5.12e+00,
92,4.80e+00,4.88e+00,
93,4.64e+00,5.12e+00,
94,4.64e+00,5.12e+00,
95,4.80e+00,4.88e+00,
96,4.72e+00,5.12e+00,
97,4.56e+00,4.88e+00,
98,4.72e+00,4.88e+00,
99,4.56e+00,5.12e+00,
100,4.64e+00,5.12e+00,
101,4.48e+00,4.88e+00,
102,4.64e+00,5.12e+00,
103,4.40e+00,4.88e+00,
104,4.56e+00,4.88e+00,
105,4.40e+00,5.12e+00,
106,4.32e+00,4.88e+00,
107,4.48e+00,5.20e+00,
108,4.24e+00,4.88e+00,
109,4.40e+00,5.12e+00,
110,4.32e+00,5.12e+00,
111,4.08e+00,4.88e+00,
112,4.16e+00,4.88e+00,
113,4.00e+00,5.12e+00,
114,4.16e+00,5.12e+00,
115,3.92e+00,4.88e+00,
116,4.08e+00,4.88e+00,
117,3.84e+00,5.12e+00,
118,3.92e+00,5.20e+00,
119,3.76e+00,4.88e+00,
120,3.84e+00,5.12e+00,
121,3.68e+00,4.88e+00,
122,3.76e+00,5.20e+00,
123,3.60e+00,4.88e+00,
124,3.68e+00,5.12e+00,
125,3.52e+00,4.88e+00,
126,3.60e+00,5.12e+00,
127,3.44e+00,4.88e+00,
128,3.52e+00,4.88e+00,
129,3.28e+00,5.12e+00,
130,3.44e+00,5.12e+00,
131,3.12e+00,4.88e+00,
132,3.28e+00,4.88e+00,
133,3.04e+00,5.12e+00,
134,3.12e+00,5.12e+00,
135,2.96e+00,4.88e+00,
136,3.04e+00,4.88e+00,
137,2.88e+00,5.12e+00,
138,2.96e+00,5.12e+00,
139,2.72e+00,4.88e+00,
140,2.88e+00,4.96e+00,
141,2.64e+00,5.12e+00,
142,2.80e+00,5.12e+00,
143,2.56e+00,4.88e+00,
144,2.64e+00,4.88e+00,
145,2.48e+00,5.20e+00,
146,2.48e+00,5.12e+00,
147,2.32e+00,4.88e+00,
148,2.40e+00,4.88e+00,
149,2.16e+00,5.12e+00,
150,2.24e+00,5.12e+00,
151,2.08e+00,4.88e+00,
152,2.16e+00,4.88e+00,
153,2.00e+00,5.12e+00,
154,2.08e+00,5.12e+00,
155,1.84e+00,4.88e+00,
156,1.92e+00,4.88e+00,
157,1.76e+00,5.12e+00,
158,1.84e+00,5.12e+00,
159,1.68e+00,4.88e+00,
160,1.76e+00,4.88e+00,
161,1.60e+00,5.12e+00,
162,1.68e+00,5.12e+00,
163,1.52e+00,4.88e+00,
164,1.44e+00,5.12e+00,
165,1.60e+00,4.88e+00,
166,1.52e+00,4.88e+00,
167,1.28e+00,5.12e+00,
168,1.36e+00,4.88e+00,
169,1.12e+00,5.12e+00,
170,1.20e+00,5.12e+00,
171,1.04e+00,4.88e+00,
172,1.12e+00,4.88e+00,
173,9.60e-01,5.12e+00,
174,1.04e+00,5.12e+00,
175,8.80e-01,4.88e+00,
176,9.60e-01,5.12e+00,
177,8.00e-01,4.88e+00,
178,8.80e-01,5.20e+00,
179,7.20e-01,4.88e+00,
180,8.00e-01,5.12e+00,
181,6.40e-01,4.88e+00,
182,7.20e-01,4.96e+00,
183,5.60e-01,5.20e+00,
184,5.60e-01,4.88e+00,
185,6.40e-01,5.20e+00,
186,4.80e-01,4.88e+00,
187,6.40e-01,5.12e+00,
188,5.60e-01,4.88e+00,
189,4.00e-01,5.12e+00,
190,4.00e-01,5.12e+00,
191,2.40e-01,4.88e+00,
192,4.00e-01,5.12e+00,
193,2.40e-01,4.88e+00,
194,3.20e-01,5.12e+00,
195,1.60e-01,1.60e-01,
196,2.40e-01,2.40e-01,
197,8.00e-02,1.60e-01,
198,2.40e-01,2.40e-01,
199,8.00e-02,8.00e-02,
200,8.00e-02,8.00e-02,
201,1.60e-01,2.40e-01,
202,0.00e+00,2.40e-01,
203,1.60e-01,8.00e-02,
204,0.00e+00,2.40e-01,
205,8.00e-02,8.00e-02,
206,8.00e-02,2.40e-01,
207,-8.00e-02,8.00e-02,
208,8.00e-02,2.40e-01,
209,-8.00e-02,8.00e-02,
210,8.00e-02,8.00e-02,
211,-8.00e-02,2.40e-01,
212,-8.00e-02,2.40e-01,
213,0.00e+00,8.00e-02,
214,0.00e+00,8.00e-02,
215,-8.00e-02,2.40e-01,
216,-8.00e-02,2.40e-01,
217,0.00e+00,8.00e-02,
218,0.00e+00,2.40e-01,
219,-8.00e-02,8.00e-02,
220,0.00e+00,2.40e-01,
221,-8.00e-02,8.00e-02,
222,0.00e+00,2.40e-01,
223,-8.00e-02,8.00e-02,
224,-8.00e-02,2.40e-01,
225,8.00e-02,8.00e-02,
226,8.00e-02,2.40e-01,
227,-8.00e-02,8.00e-02,
228,8.00e-02,8.00e-02,
229,0.00e+00,2.40e-01,
230,0.00e+00,2.40e-01,
231,1.60e-01,8.00e-02,
232,1.60e-01,8.00e-02,
233,0.00e+00,2.40e-01,
234,1.60e-01,8.00e-02,
235,8.00e-02,2.40e-01,
236,8.00e-02,8.00e-02,
237,2.40e-01,2.40e-01,
238,1.60e-01,2.40e-01,
239,3.20e-01,8.00e-02,
240,3.20e-01,8.00e-02,
241,1.60e-01,2.40e-01,
242,2.40e-01,8.00e-02,
243,4.00e-01,2.40e-01,
244,4.00e-01,2.40e-01,
245,4.80e-01,8.00e-02,
246,4.00e-01,2.40e-01,
247,5.60e-01,8.00e-02,
248,4.80e-01,2.40e-01,
249,6.40e-01,8.00e-02,
250,5.60e-01,2.40e-01,
251,7.20e-01,8.00e-02,
252,6.40e-01,2.40e-01,
253,8.00e-01,8.00e-02,
254,7.20e-01,8.00e-02,
255,8.80e-01,2.40e-01,
256,8.00e-01,2.40e-01,
257,9.60e-01,8.00e-02,
258,8.00e-01,2.40e-01,
259,1.04e+00,4.00e+00,
260,9.60e-01,4.08e+00,
261,1.12e+00,5.04e+00,
262,1.04e+00,5.04e+00,
263,1.20e+00,4.88e+00,
264,1.12e+00,5.04e+00,
265,1.28e+00,4.88e+00,
266,1.20e+00,5.04e+00,
267,1.36e+00,4.88e+00,
268,1.36e+00,5.04e+00,
269,1.52e+00,4.88e+00,
270,1.44e+00,4.88e+00,
271,1.60e+00,5.12e+00,
272,1.52e+00,4.88e+00,
273,1.68e+00,5.12e+00,
274,1.60e+00,5.04e+00,
275,1.84e+00,4.88e+00,
276,1.68e+00,4.88e+00,
277,1.92e+00,5.12e+00,
278,1.84e+00,4.88e+00,
279,2.00e+00,5.12e+00,
280,1.92e+00,4.88e+00,
281,2.08e+00,5.12e+00,
282,2.00e+00,5.04e+00,
283,2.24e+00,4.88e+00,
284,2.16e+00,4.88e+00,
285,2.32e+00,5.12e+00,
286,2.32e+00,5.12e+00,
287,2.48e+00,4.88e+00,
288,2.40e+00,5.12e+00,
289,2.56e+00,4.88e+00,
290,2.48e+00,4.88e+00,
291,2.72e+00,5.12e+00,
292,2.56e+00,4.88e+00,
293,2.80e+00,5.12e+00,
294,2.72e+00,4.88e+00,
295,2.88e+00,5.12e+00,
296,2.80e+00,4.88e+00,
297,2.96e+00,5.04e+00,
298,2.88e+00,4.88e+00,
299,3.12e+00,5.12e+00,
300,2.96e+00,4.88e+00,
301,3.20e+00,5.12e+00,
302,3.12e+00,5.12e+00,
303,3.28e+00,4.88e+00,
304,3.44e+00,4.88e+00,
305,3.20e+00,5.20e+00,
306,3.36e+00,4.88e+00,
307,3.52e+00,5.12e+00,
308,3.44e+00,5.12e+00,
309,3.68e+00,4.88e+00,
310,3.52e+00,4.88e+00,
311,3.76e+00,5.12e+00,
312,3.60e+00,4.88e+00,
313,3.84e+00,5.12e+00,
314,3.68e+00,5.12e+00,
315,3.92e+00,4.88e+00,
316,3.84e+00,4.88e+00,
317,4.00e+00,5.12e+00,
318,3.84e+00,5.12e+00,
319,4.08e+00,4.88e+00,
320,4.00e+00,4.88e+00,
321,4.16e+00,5.20e+00,
322,4.00e+00,5.12e+00,
323,4.24e+00,4.88e+00,
324,4.08e+00,4.88e+00,
325,4.40e+00,5.12e+00,
326,4.24e+00,4.88e+00,
327,4.40e+00,5.12e+00,
328,4.32e+00,4.88e+00,
329,4.48e+00,5.12e+00,
330,4.40e+00,4.88e+00,
331,4.56e+00,5.20e+00,
332,4.48e+00,5.12e+00,
333,4.64e+00,4.88e+00,
334,4.64e+00,5.20e+00,
335,4.48e+00,4.88e+00,
336,4.56e+00,4.88e+00,
337,4.72e+00,5.12e+00,
338,4.56e+00,5.12e+00,
339,4.80e+00,4.88e+00,
340,4.80e+00,4.88e+00,
341,4.64e+00,5.12e+00,
342,4.72e+00,4.88e+00,
343,4.88e+00,5.20e+00,
344,4.88e+00,4.88e+00,
345,4.72e+00,5.12e+00,
346,4.72e+00,5.12e+00,
347,4.96e+00,4.88e+00,
348,4.80e+00,4.88e+00,
349,4.96e+00,5.12e+00,
350,4.96e+00,4.88e+00,
351,4.80e+00,5.12e+00,
352,4.96e+00,4.88e+00,
353,4.80e+00,5.12e+00,
354,4.88e+00,5.20e+00,
355,5.04e+00,4.88e+00,
356,4.88e+00,4.88e+00,
357,5.04e+00,5.12e+00,
358,4.88e+00,5.12e+00,
359,5.04e+00,4.88e+00,
360,4.88e+00,4.88e+00,
361,5.04e+00,5.20e+00,
362,4.88e+00,4.88e+00,
363,5.04e+00,5.12e+00,
364,4.88e+00,5.12e+00,
365,5.04e+00,4.88e+00,
366,5.04e+00,4.88e+00,
367,4.80e+00,5.20e+00,
368,4.96e+00,4.88e+00,
369,4.80e+00,5.12e+00,
370,4.96e+00,5.12e+00,
371,4.80e+00,4.88e+00,
372,4.96e+00,4.88e+00,
373,4.80e+00,5.12e+00,
374,4.88e+00,4.88e+00,
375,4.72e+00,5.12e+00,
376,4.88e+00,4.88e+00,
377,4.72e+00,5.12e+00,
378,4.80e+00,5.12e+00,
379,4.64e+00,4.88e+00,
380,4.64e+00,4.88e+00,
381,4.80e+00,5.12e+00,
382,4.72e+00,4.88e+00,
383,4.56e+00,5.12e+00,
384,4.72e+00,4.88e+00,
385,4.56e+00,5.12e+00,
386,4.48e+00,4.88e+00,
387,4.64e+00,5.12e+00,
388,4.56e+00,4.88e+00,
389,4.40e+00,5.20e+00,
390,4.56e+00,5.12e+00,
391,4.32e+00,4.88e+00,
392,4.32e+00,4.88e+00,
393,4.48e+00,5.12e+00,
394,4.40e+00,5.12e+00,
395,4.16e+00,4.88e+00,
396,4.24e+00,4.88e+00,
397,4.08e+00,5.20e+00,
398,4.16e+00,4.88e+00,
399,4.00e+00,5.12e+00,
400,4.08e+00,5.12e+00,
401,3.92e+00,4.88e+00,
402,4.00e+00,5.12e+00,
403,3.84e+00,4.88e+00,
404,3.92e+00,4.88e+00,
405,3.76e+00,5.12e+00,
406,3.84e+00,5.12e+00,
407,3.68e+00,4.88e+00,
408,3.76e+00,4.88e+00,
409,3.60e+00,5.12e+00,
410,3.68e+00,5.12e+00,
411,3.44e+00,4.88e+00,
412,3.60e+00,5.12e+00,
413,3.36e+00,4.88e+00,
414,3.52e+00,5.12e+00,
415,3.28e+00,4.88e+00,
416,3.36e+00,5.12e+00,
417,3.12e+00,4.88e+00,
418,3.28e+00,5.12e+00,
419,3.04e+00,4.88e+00,
420,3.12e+00,4.88e+00,
421,2.96e+00,5.12e+00,
422,3.04e+00,5.12e+00,
423,2.80e+00,4.88e+00,
424,2.96e+00,4.88e+00,
425,2.72e+00,5.12e+00,
426,2.80e+00,5.12e+00,
427,2.64e+00,4.88e+00,
428,2.72e+00,4.88e+00,
429,2.56e+00,5.12e+00,
430,2.64e+00,5.12e+00,
431,2.40e+00,4.88e+00,
432,2.48e+00,4.88e+00,
433,2.32e+00,5.12e+00,
434,2.32e+00,5.12e+00,
435,2.16e+00,4.88e+00,
436,2.24e+00,4.88e+00,
437,2.08e+00,5.20e+00,
438,2.16e+00,5.12e+00,
439,1.92e+00,4.88e+00,
440,2.08e+00,5.12e+00,
441,1.84e+00,4.88e+00,
442,1.92e+00,5.12e+00,
443,1.76e+00,4.88e+00,
444,1.84e+00,4.88e+00,
445,1.68e+00,5.12e+00,
446,1.76e+00,5.12e+00,
447,1.60e+00,4.88e+00,
448,1.68e+00,4.88e+00,
449,1.52e+00,5.12e+00,
450,1.60e+00,5.12e+00,
451,1.36e+00,4.88e+00,
452,1.44e+00,4.88e+00,
453,1.20e+00,5.12e+00,
454,1.28e+00,5.12e+00,
455,1.12e+00,4.88e+00,
456,1.20e+00,4.88e+00,
457,1.04e+00,5.12e+00,
458,1.12e+00,5.12e+00,
459,9.60e-01,4.88e+00,
460,1.04e+00,5.12e+00,
461,8.80e-01,4.88e+00,
462,9.60e-01,4.88e+00,
463,8.00e-01,5.12e+00,
464,8.80e-01,4.88e+00,
465,7.20e-01,5.12e+00,
466,8.00e-01,5.12e+00,
467,6.40e-01,4.88e+00,
468,7.20e-01,4.88e+00,
469,5.60e-01,5.20e+00,
470,7.20e-01,5.12e+00,
471,4.80e-01,4.88e+00,
472,4.80e-01,4.88e+00,
473,6.40e-01,5.12e+00,
474,5.60e-01,4.96e+00,
475,4.00e-01,5.12e+00,
476,4.00e-01,4.88e+00,
477,2.40e-01,5.20e+00,
478,4.00e-01,4.88e+00,
479,2.40e-01,5.12e+00,
480,3.20e-01,5.04e+00,
481,1.60e-01,1.60e-01,
482,2.40e-01,1.60e-01,
483,8.00e-02,2.40e-01,
484,8.00e-02,2.40e-01,
485,2.40e-01,8.00e-02,
486,1.60e-01,2.40e-01,
487,0.00e+00,8.00e-02,
488,1.60e-01,8.00e-02,
489,0.00e+00,2.40e-01,
490,0.00e+00,2.40e-01,
491,8.00e-02,8.00e-02,
492,8.00e-02,2.40e-01,
493,-8.00e-02,8.00e-02,
494,-8.00e-02,2.40e-01,
495,8.00e-02,8.00e-02,
496,-8.00e-02,2.40e-01,
497,0.00e+00,8.00e-02,
498,-8.00e-02,2.40e-01,
499,0.00e+00,8.00e-02,
500,0.00e+00,2.40e-01,
501,-8.00e-02,8.00e-02,
502,-8.00e-02,8.00e-02,
503,0.00e+00,2.40e-01,
504,0.00e+00,2.40e-01,
505,-8.00e-02,8.00e-02,
506,-8.00e-02,2.40e-01,
507,0.00e+00,8.00e-02,
508,-8.00e-02,2.40e-01,
509,0.00e+00,8.00e-02,
510,-8.00e-02,8.00e-02,
511,8.00e-02,2.40e-01,
512,8.00e-02,2.40e-01,
513,-8.00e-02,8.00e-02,
514,8.00e-02,2.40e-01,
515,0.00e+00,8.00e-02,
516,0.00e+00,2.40e-01,
517,1.60e-01,8.00e-02,
518,0.00e+00,2.40e-01,
519,1.60e-01,8.00e-02,
520,1.60e-01,2.40e-01,
521,8.00e-02,8.00e-02,
522,8.00e-02,2.40e-01,
523,2.40e-01,8.00e-02,
524,1.60e-01,8.00e-02,
525,3.20e-01,2.40e-01,
526,3.20e-01,8.00e-02,
527,1.60e-01,2.40e-01,
528,2.40e-01,8.00e-02,
529,4.00e-01,2.40e-01,
530,4.00e-01,2.40e-01,
531,4.80e-01,8.00e-02,
532,4.00e-01,8.00e-02,
533,5.60e-01,2.40e-01,
534,4.80e-01,8.00e-02,
535,6.40e-01,2.40e-01,
536,5.60e-01,8.00e-02,
537,7.20e-01,2.40e-01,
538,6.40e-01,8.00e-02,
539,8.00e-01,2.40e-01,
540,7.20e-01,2.40e-01,
541,8.80e-01,8.00e-02,
542,8.00e-01,8.00e-02,
543,9.60e-01,3.20e-01,
544,8.80e-01,3.20e-01,
545,1.04e+00,4.56e+00,
546,9.60e-01,4.56e+00,
547,1.12e+00,5.04e+00,
548,1.04e+00,4.88e+00,
549,1.20e+00,5.04e+00,
550,1.12e+00,5.12e+00,
551,1.28e+00,4.88e+00,
552,1.20e+00,4.88e+00,
553,1.36e+00,5.12e+00,
554,1.36e+00,5.04e+00,
555,1.52e+00,4.88e+00,
556,1.44e+00,4.88e+00,
557,1.60e+00,5.12e+00,
558,1.52e+00,4.88e+00,
559,1.76e+00,5.12e+00,
560,1.60e+00,4.88e+00,
561,1.84e+00,5.20e+00,
562,1.76e+00,5.04e+00,
563,1.92e+00,4.88e+00,
564,1.84e+00,4.88e+00,
565,2.00e+00,5.12e+00,
566,1.92e+00,5.12e+00,
567,2.16e+00,4.88e+00,
568,2.00e+00,4.88e+00,
569,2.24e+00,5.12e+00,
570,2.16e+00,5.12e+00,
571,2.32e+00,4.88e+00,
572,2.24e+00,5.04e+00,
573,2.48e+00,4.88e+00,
574,2.40e+00,5.12e+00,
575,2.64e+00,4.88e+00,
576,2.48e+00,4.88e+00,
577,2.72e+00,5.12e+00,
578,2.64e+00,5.12e+00,
579,2.80e+00,4.88e+00,
580,2.72e+00,5.12e+00,
581,2.88e+00,4.88e+00,
582,2.80e+00,5.12e+00,
583,3.04e+00,4.88e+00,
584,2.88e+00,4.88e+00,
585,3.12e+00,5.12e+00,
586,3.04e+00,4.88e+00,
587,3.20e+00,5.12e+00,
588,3.12e+00,4.88e+00,
589,3.28e+00,5.12e+00,
590,3.28e+00,4.88e+00,
591,3.44e+00,5.12e+00,
592,3.36e+00,4.88e+00,
593,3.52e+00,5.12e+00,
594,3.44e+00,5.12e+00,
595,3.68e+00,4.88e+00,
596,3.52e+00,4.88e+00,
597,3.76e+00,5.20e+00,
598,3.60e+00,4.88e+00,
599,3.84e+00,5.12e+00,
600,3.76e+00,4.88e+00,
601,3.92e+00,5.12e+00,
602,3.84e+00,4.88e+00,
603,4.00e+00,5.20e+00,
604,3.92e+00,4.88e+00,
605,4.08e+00,5.12e+00,
606,3.92e+00,4.88e+00,
607,4.16e+00,5.20e+00,
608,4.08e+00,4.88e+00,
609,4.24e+00,5.12e+00,
610,4.08e+00,5.12e+00,
611,4.40e+00,4.88e+00,
612,4.24e+00,5.12e+00,
613,4.48e+00,4.88e+00,
614,4.48e+00,4.88e+00,
615,4.32e+00,5.12e+00,
616,4.40e+00,4.88e+00,
617,4.56e+00,5.12e+00,
618,4.40e+00,5.12e+00,
619,4.64e+00,4.88e+00,
620,4.48e+00,4.88e+00,
621,4.72e+00,5.12e+00,
622,4.56e+00,5.12e+00,
623,4.72e+00,4.88e+00,
624,4.64e+00,4.88e+00,
625,4.80e+00,5.12e+00,
626,4.80e+00,5.20e+00,
627,4.64e+00,4.88e+00,
628,4.72e+00,4.88e+00,
629,4.88e+00,5.12e+00,
630,4.88e+00,4.88e+00,
631,4.72e+00,5.12e+00,
632,4.80e+00,4.88e+00,
633,4.96e+00,5.12e+00,
634,4.80e+00,5.12e+00,
635,4.96e+00,4.88e+00,
636,4.96e+00,4.88e+00,
637,4.80e+00,5.12e+00,
638,4.96e+00,4.88e+00,
639,4.80e+00,5.12e+00,
640,5.04e+00,4.88e+00,
641,4.80e+00,5.12e+00,
642,4.88e+00,4.88e+00,
643,5.04e+00,5.12e+00,
644,5.04e+00,5.12e+00,
645,4.88e+00,4.88e+00,
646,5.04e+00,5.12e+00,
647,4.88e+00,4.88e+00,
648,5.04e+00,5.12e+00,
649,4.88e+00,4.88e+00,
650,4.88e+00,5.12e+00,
651,5.04e+00,4.88e+00,
652,5.04e+00,4.88e+00,
653,4.80e+00,5.12e+00,
654,4.96e+00,5.12e+00,
655,4.80e+00,4.88e+00,
656,4.80e+00,5.12e+00,
657,4.96e+00,4.88e+00,
658,4.96e+00,4.88e+00,
659,4.80e+00,5.20e+00,
660,4.88e+00,4.88e+00,
661,4.72e+00,5.12e+00,
662,4.88e+00,5.12e+00,
663,4.72e+00,4.88e+00,
664,4.80e+00,4.88e+00,
665,4.64e+00,5.20e+00,
666,4.80e+00,4.88e+00,
667,4.64e+00,5.20e+00,
668,4.72e+00,4.88e+00,
669,4.56e+00,5.12e+00,
670,4.72e+00,4.88e+00,
671,4.48e+00,5.12e+00,
672,4.48e+00,4.88e+00,
673,4.64e+00,5.12e+00,
674,4.56e+00,4.88e+00,
675,4.40e+00,5.12e+00,
676,4.56e+00,4.88e+00,
677,4.32e+00,5.20e+00,
678,4.48e+00,4.88e+00,
679,4.24e+00,5.12e+00,
680,4.24e+00,5.12e+00,
681,4.40e+00,4.88e+00,
682,4.24e+00,5.12e+00,
683,4.08e+00,4.88e+00,
684,4.16e+00,5.12e+00,
685,4.00e+00,4.88e+00,
686,4.08e+00,5.12e+00,
687,3.92e+00,4.88e+00,
688,4.00e+00,4.88e+00,
689,3.84e+00,5.12e+00,
690,3.92e+00,4.88e+00,
691,3.76e+00,5.20e+00,
692,3.84e+00,4.88e+00,
693,3.68e+00,5.12e+00,
694,3.76e+00,5.20e+00,
695,3.60e+00,4.88e+00,
696,3.68e+00,4.88e+00,
697,3.44e+00,5.12e+00,
698,3.60e+00,4.88e+00,
699,3.36e+00,5.12e+00,
700,3.52e+00,4.88e+00,
701,3.28e+00,5.12e+00,
702,3.36e+00,5.12e+00,
703,3.12e+00,4.88e+00,
704,3.20e+00,4.88e+00,
705,3.04e+00,5.12e+00,
706,3.12e+00,5.12e+00,
707,2.88e+00,4.88e+00,
708,3.04e+00,4.88e+00,
709,2.80e+00,5.12e+00,
710,2.96e+00,4.88e+00,
711,2.72e+00,5.12e+00,
712,2.80e+00,4.88e+00,
713,2.64e+00,5.12e+00,
714,2.72e+00,4.88e+00,
715,2.56e+00,5.20e+00,
716,2.64e+00,4.88e+00,
717,2.40e+00,5.12e+00,
718,2.56e+00,4.88e+00,
719,2.32e+00,5.12e+00,
720,2.32e+00,5.12e+00,
721,2.16e+00,4.88e+00,
722,2.24e+00,5.20e+00,
723,2.08e+00,4.88e+00,
724,2.16e+00,4.88e+00,
725,1.92e+00,5.12e+00,
726,2.08e+00,4.88e+00,
727,1.84e+00,5.12e+00,
728,1.92e+00,4.88e+00,
729,1.76e+00,5.12e+00,
730,1.84e+00,5.12e+00,
731,1.68e+00,4.88e+00,
732,1.76e+00,5.12e+00,
733,1.52e+00,4.88e+00,
734,1.68e+00,4.88e+00,
735,1.44e+00,5.12e+00,
736,1.52e+00,4.88e+00,
737,1.36e+00,5.12e+00,
738,1.36e+00,4.88e+00,
739,1.20e+00,5.20e+00,
740,1.28e+00,4.88e+00,
741,1.12e+00,5.12e+00,
742,1.20e+00,5.12e+00,
743,1.04e+00,4.88e+00,
744,1.12e+00,4.88e+00,
745,9.60e-01,5.12e+00,
746,1.04e+00,5.12e+00,
747,8.80e-01,4.88e+00,
748,9.60e-01,5.12e+00,
749,8.00e-01,4.88e+00,
750,8.80e-01,5.12e+00,
751,7.20e-01,4.88e+00,
752,8.00e-01,5.20e+00,
753,6.40e-01,4.88e+00,
754,7.20e-01,4.88e+00,
755,5.60e-01,5.12e+00,
756,6.40e-01,4.88e+00,
757,4.80e-01,5.12e+00,
758,4.80e-01,4.88e+00,
759,5.60e-01,5.12e+00,
760,4.80e-01,4.88e+00,
761,4.00e-01,5.12e+00,
762,4.00e-01,5.12e+00,
763,2.40e-01,4.88e+00,
764,3.20e-01,5.12e+00,
765,1.60e-01,4.80e+00,
766,3.20e-01,4.80e+00,
767,1.60e-01,1.60e-01,
768,2.40e-01,2.40e-01,
769,8.00e-02,1.60e-01,
770,2.40e-01,2.40e-01,
771,8.00e-02,8.00e-02,
772,1.60e-01,8.00e-02,
773,0.00e+00,2.40e-01,
774,1.60e-01,8.00e-02,
775,0.00e+00,2.40e-01,
776,0.00e+00,2.40e-01,
777,8.00e-02,8.00e-02,
778,8.00e-02,2.40e-01,
779,-8.00e-02,8.00e-02,
780,-8.00e-02,2.40e-01,
781,8.00e-02,8.00e-02,
782,0.00e+00,2.40e-01,
783,-8.00e-02,8.00e-02,
784,-8.00e-02,2.40e-01,
785,0.00e+00,8.00e-02,
786,0.00e+00,2.40e-01,
787,-8.00e-02,8.00e-02,
788,0.00e+00,2.40e-01,
789,-8.00e-02,8.00e-02,
790,0.00e+00,2.40e-01,
791,-8.00e-02,8.00e-02,
792,0.00e+00,2.40e-01,
793,-8.00e-02,8.00e-02,
794,-8.00e-02,8.00e-02,
795,0.00e+00,2.40e-01,
796,-8.00e-02,8.00e-02,
797,8.00e-02,2.40e-01,
798,-8.00e-02,8.00e-02,
799,8.00e-02,2.40e-01,
800,0.00e+00,8.00e-02,
801,8.00e-02,2.40e-01,
802,0.00e+00,8.00e-02,
803,1.60e-01,2.40e-01,
804,0.00e+00,2.40e-01,
805,1.60e-01,8.00e-02,
806,8.00e-02,8.00e-02,
807,2.40e-01,2.40e-01,
808,8.00e-02,8.00e-02,
809,2.40e-01,2.40e-01,
810,1.60e-01,2.40e-01,
811,3.20e-01,8.00e-02,
812,3.20e-01,8.00e-02,
813,1.60e-01,2.40e-01,
814,4.00e-01,2.40e-01,
815,2.40e-01,8.00e-02,
816,3.20e-01,8.00e-02,
817,4.80e-01,2.40e-01,
818,4.80e-01,2.40e-01,
819,6.40e-01,8.00e-02,
820,4.80e-01,2.40e-01,
821,6.40e-01,8.00e-02,
822,5.60e-01,2.40e-01,
823,7.20e-01,8.00e-02,
824,6.40e-01,2.40e-01,
825,8.00e-01,8.00e-02,
826,7.20e-01,2.40e-01,
827,8.80e-01,8.00e-02,
828,8.00e-01,1.60e-01,
829,9.60e-01,7.20e-01,
830,8.80e-01,8.00e-01,
831,1.04e+00,4.80e+00,
832,9.60e-01,4.72e+00,
833,1.12e+00,5.04e+00,
834,1.04e+00,4.88e+00,
835,1.20e+00,5.04e+00,
836,1.12e+00,5.04e+00,
837,1.28e+00,4.88e+00,
838,1.20e+00,5.04e+00,
839,1.36e+00,4.88e+00,
840,1.36e+00,4.88e+00,
841,1.52e+00,5.12e+00,
842,1.44e+00,5.12e+00,
843,1.60e+00,4.88e+00,
844,1.52e+00,4.88e+00,
845,1.76e+00,5.12e+00,
846,1.68e+00,5.12e+00,
847,1.84e+00,4.88e+00,
848,1.76e+00,4.88e+00,
849,1.92e+00,5.12e+00,
850,1.84e+00,4.88e+00,
851,2.00e+00,5.12e+00,
852,2.00e+00,4.88e+00,
853,2.16e+00,5.12e+00,
854,2.08e+00,5.12e+00,
855,2.24e+00,4.88e+00,
856,2.16e+00,4.88e+00,
857,2.32e+00,5.12e+00,
858,2.24e+00,4.88e+00,
859,2.48e+00,5.12e+00,
860,2.40e+00,4.88e+00,
861,2.64e+00,5.12e+00,
862,2.48e+00,4.88e+00,
863,2.72e+00,5.12e+00,
864,2.64e+00,4.88e+00,
865,2.80e+00,5.12e+00,
866,2.72e+00,4.88e+00,
867,2.96e+00,5.12e+00,
868,2.80e+00,4.88e+00,
