project/matlab/project_exp3/45 kHz/NewFile1.csv

X,CH1,CH2,Start,Increment,
Sequence,Volt,Volt,6.900000e-04,5.000000e-08
0,4.00e+00,5.04e+00,
1,3.84e+00,4.88e+00,
2,3.92e+00,4.88e+00,
3,4.08e+00,5.12e+00,
4,4.08e+00,5.04e+00,
5,4.00e+00,4.88e+00,
6,4.16e+00,4.88e+00,
7,4.00e+00,5.04e+00,
8,4.08e+00,5.04e+00,
9,4.24e+00,4.88e+00,
10,4.08e+00,4.88e+00,
11,4.32e+00,5.12e+00,
12,4.16e+00,5.04e+00,
13,4.32e+00,4.88e+00,
14,4.24e+00,5.04e+00,
15,4.32e+00,4.88e+00,
16,4.32e+00,5.04e+00,
17,4.48e+00,4.88e+00,
18,4.40e+00,4.96e+00,
19,4.48e+00,5.12e+00,
20,4.40e+00,5.04e+00,
21,4.56e+00,4.88e+00,
22,4.48e+00,5.04e+00,
23,4.56e+00,4.88e+00,
24,4.48e+00,5.04e+00,
25,4.64e+00,4.88e+00,
26,4.56e+00,4.88e+00,
27,4.64e+00,5.12e+00,
28,4.56e+00,5.04e+00,
29,4.72e+00,4.96e+00,
30,4.72e+00,4.88e+00,
31,4.56e+00,5.04e+00,
32,4.64e+00,5.04e+00,
33,4.80e+00,4.88e+00,
34,4.64e+00,4.88e+00,
35,4.80e+00,5.20e+00,
36,4.80e+00,5.04e+00,
37,4.64e+00,4.88e+00,
38,4.80e+00,4.88e+00,
39,4.72e+00,5.04e+00,
40,4.88e+00,5.04e+00,
41,4.72e+00,4.88e+00,
42,4.72e+00,4.88e+00,
43,4.88e+00,5.12e+00,
44,4.80e+00,5.04e+00,
45,4.88e+00,4.88e+00,
46,4.80e+00,5.04e+00,
47,4.96e+00,4.88e+00,
48,4.96e+00,5.04e+00,
49,4.80e+00,4.96e+00,
50,4.96e+00,4.88e+00,
51,4.80e+00,5.12e+00,
52,4.96e+00,5.04e+00,
53,4.88e+00,4.88e+00,
54,4.96e+00,5.04e+00,
55,4.88e+00,4.88e+00,
56,4.96e+00,5.04e+00,
57,4.88e+00,4.88e+00,
58,4.88e+00,4.88e+00,
59,5.04e+00,5.12e+00,
60,4.88e+00,5.04e+00,
61,5.04e+00,4.88e+00,
62,4.88e+00,5.04e+00,
63,5.04e+00,4.88e+00,
64,5.04e+00,5.04e+00,
65,4.88e+00,4.88e+00,
66,5.04e+00,4.96e+00,
67,4.88e+00,5.12e+00,
68,5.04e+00,5.04e+00,
69,4.88e+00,4.96e+00,
70,4.88e+00,5.04e+00,
71,5.04e+00,4.88e+00,
72,5.04e+00,5.04e+00,
73,4.88e+00,4.88e+00,
74,4.88e+00,4.96e+00,
75,5.04e+00,5.20e+00,
76,5.04e+00,5.04e+00,
77,4.88e+00,4.88e+00,
78,4.96e+00,5.04e+00,
79,4.88e+00,4.88e+00,
80,4.96e+00,5.04e+00,
81,4.88e+00,4.96e+00,
82,4.96e+00,4.96e+00,
83,4.80e+00,5.12e+00,
84,4.80e+00,5.04e+00,
85,4.96e+00,4.88e+00,
86,4.96e+00,4.96e+00,
87,4.80e+00,5.04e+00,
88,4.96e+00,5.04e+00,
89,4.80e+00,4.96e+00,
90,4.88e+00,4.88e+00,
91,4.72e+00,5.20e+00,
92,4.88e+00,5.04e+00,
93,4.72e+00,4.88e+00,
94,4.72e+00,5.04e+00,
95,4.88e+00,4.88e+00,
96,4.72e+00,5.04e+00,
97,4.80e+00,4.96e+00,
98,4.80e+00,4.88e+00,
99,4.64e+00,5.12e+00,
100,4.80e+00,5.04e+00,
101,4.64e+00,4.88e+00,
102,4.72e+00,4.96e+00,
103,4.56e+00,5.04e+00,
104,4.56e+00,5.04e+00,
105,4.72e+00,4.96e+00,
106,4.64e+00,4.96e+00,
107,4.48e+00,5.12e+00,
108,4.64e+00,5.04e+00,
109,4.48e+00,4.88e+00,
110,4.48e+00,5.04e+00,
111,4.64e+00,4.88e+00,
112,4.56e+00,5.04e+00,
113,4.40e+00,4.96e+00,
114,4.40e+00,4.96e+00,
115,4.56e+00,5.12e+00,
116,4.48e+00,5.04e+00,
117,4.32e+00,4.96e+00,
118,4.32e+00,4.96e+00,
119,4.48e+00,5.04e+00,
120,4.32e+00,5.04e+00,
121,4.16e+00,4.96e+00,
122,4.24e+00,4.88e+00,
123,4.16e+00,5.12e+00,
124,4.08e+00,5.04e+00,
125,4.24e+00,4.88e+00,
126,4.16e+00,4.88e+00,
127,4.08e+00,5.04e+00,
128,4.16e+00,5.04e+00,
129,4.00e+00,4.96e+00,
130,4.08e+00,4.96e+00,
131,3.92e+00,5.12e+00,
132,4.00e+00,5.04e+00,
133,3.92e+00,4.96e+00,
134,4.00e+00,4.96e+00,
135,3.84e+00,5.04e+00,
136,3.92e+00,5.04e+00,
137,3.76e+00,4.88e+00,
138,3.84e+00,4.96e+00,
139,3.68e+00,5.12e+00,
140,3.68e+00,5.04e+00,
141,3.84e+00,4.88e+00,
142,3.76e+00,5.04e+00,
143,3.60e+00,4.88e+00,
144,3.68e+00,5.04e+00,
145,3.52e+00,4.88e+00,
146,3.60e+00,4.88e+00,
147,3.44e+00,5.12e+00,
148,3.60e+00,5.04e+00,
149,3.44e+00,4.96e+00,
150,3.44e+00,5.04e+00,
151,3.36e+00,4.88e+00,
152,3.36e+00,5.04e+00,
153,3.28e+00,4.96e+00,
154,3.36e+00,4.96e+00,
155,3.20e+00,5.12e+00,
156,3.28e+00,5.04e+00,
157,3.12e+00,4.88e+00,
158,3.20e+00,5.04e+00,
159,3.04e+00,4.88e+00,
160,3.12e+00,4.96e+00,
161,2.96e+00,5.04e+00,
162,3.04e+00,4.88e+00,
163,2.88e+00,5.12e+00,
164,2.88e+00,5.04e+00,
165,3.04e+00,4.88e+00,
166,2.96e+00,5.04e+00,
167,2.80e+00,4.88e+00,
168,2.88e+00,5.04e+00,
169,2.72e+00,4.88e+00,
170,2.80e+00,4.88e+00,
171,2.64e+00,5.12e+00,
172,2.72e+00,5.04e+00,
173,2.64e+00,4.88e+00,
174,2.56e+00,5.04e+00,
175,2.64e+00,4.88e+00,
176,2.56e+00,5.04e+00,
177,2.48e+00,4.88e+00,
178,2.56e+00,4.88e+00,
179,2.40e+00,5.12e+00,
180,2.40e+00,5.04e+00,
181,2.32e+00,4.96e+00,
182,2.32e+00,4.96e+00,
183,2.24e+00,5.04e+00,
184,2.32e+00,5.04e+00,
185,2.16e+00,4.96e+00,
186,2.24e+00,4.88e+00,
187,2.08e+00,5.12e+00,
188,2.16e+00,5.04e+00,
189,2.00e+00,4.96e+00,
190,2.08e+00,5.04e+00,
191,1.92e+00,4.88e+00,
192,2.00e+00,5.04e+00,
193,1.92e+00,4.88e+00,
194,1.84e+00,4.96e+00,
195,1.92e+00,5.12e+00,
196,1.92e+00,5.04e+00,
197,1.76e+00,4.88e+00,
198,1.84e+00,4.96e+00,
199,1.68e+00,5.04e+00,
200,1.76e+00,4.96e+00,
201,1.60e+00,5.04e+00,
202,1.60e+00,4.88e+00,
203,1.68e+00,5.12e+00,
204,1.68e+00,5.04e+00,
205,1.52e+00,4.88e+00,
206,1.60e+00,5.04e+00,
207,1.44e+00,4.88e+00,
208,1.44e+00,5.04e+00,
209,1.28e+00,4.88e+00,
210,1.36e+00,4.88e+00,
211,1.28e+00,5.12e+00,
212,1.36e+00,5.04e+00,
213,1.20e+00,4.88e+00,
214,1.28e+00,5.04e+00,
215,1.12e+00,4.88e+00,
216,1.12e+00,5.04e+00,
217,1.20e+00,4.88e+00,
218,1.20e+00,4.88e+00,
219,1.04e+00,5.12e+00,
220,1.12e+00,5.04e+00,
221,9.60e-01,4.96e+00,
222,1.04e+00,4.96e+00,
223,8.80e-01,5.04e+00,
224,8.80e-01,5.04e+00,
225,9.60e-01,4.88e+00,
226,9.60e-01,5.12e+00,
227,8.00e-01,4.88e+00,
228,8.00e-01,5.04e+00,
229,8.80e-01,4.96e+00,
230,8.80e-01,5.04e+00,
231,7.20e-01,4.88e+00,
232,8.00e-01,5.04e+00,
233,6.40e-01,4.88e+00,
234,6.40e-01,4.88e+00,
235,7.20e-01,5.12e+00,
236,7.20e-01,5.04e+00,
237,5.60e-01,4.96e+00,
238,5.60e-01,4.96e+00,
239,6.40e-01,5.04e+00,
240,6.40e-01,5.04e+00,
241,4.80e-01,4.88e+00,
242,4.80e-01,4.88e+00,
243,4.80e-01,5.12e+00,
244,4.80e-01,5.04e+00,
245,4.00e-01,4.88e+00,
246,4.00e-01,4.88e+00,
247,3.20e-01,5.04e+00,
248,4.00e-01,5.04e+00,
249,2.40e-01,4.88e+00,
250,2.40e-01,4.88e+00,
251,3.20e-01,5.12e+00,
252,3.20e-01,5.04e+00,
253,1.60e-01,4.88e+00,
254,3.20e-01,5.04e+00,
255,1.60e-01,4.88e+00,
256,1.60e-01,4.88e+00,
257,2.40e-01,5.04e+00,
258,2.40e-01,4.88e+00,
259,8.00e-02,5.12e+00,
260,1.60e-01,5.04e+00,
261,8.00e-02,4.88e+00,
262,1.60e-01,5.04e+00,
263,8.00e-02,4.88e+00,
264,1.60e-01,4.96e+00,
265,0.00e+00,5.04e+00,
266,1.60e-01,5.04e+00,
267,0.00e+00,4.64e+00,
268,8.00e-02,4.64e+00,
269,0.00e+00,3.52e+00,
270,8.00e-02,3.44e+00,
271,0.00e+00,1.84e+00,
272,0.00e+00,1.84e+00,
273,8.00e-02,5.60e-01,
274,8.00e-02,5.60e-01,
275,-8.00e-02,2.40e-01,
276,8.00e-02,2.40e-01,
277,-8.00e-02,1.60e-01,
278,0.00e+00,2.40e-01,
279,-8.00e-02,1.60e-01,
280,-8.00e-02,2.40e-01,
281,0.00e+00,1.60e-01,
282,0.00e+00,2.40e-01,
283,-8.00e-02,1.60e-01,
284,0.00e+00,2.40e-01,
285,-8.00e-02,8.00e-02,
286,-8.00e-02,2.40e-01,
287,0.00e+00,1.60e-01,
288,-8.00e-02,2.40e-01,
289,0.00e+00,1.60e-01,
290,0.00e+00,1.60e-01,
291,-8.00e-02,2.40e-01,
292,-8.00e-02,2.40e-01,
293,0.00e+00,1.60e-01,
294,-8.00e-02,2.40e-01,
295,0.00e+00,1.60e-01,
296,-8.00e-02,2.40e-01,
297,0.00e+00,1.60e-01,
298,0.00e+00,2.40e-01,
299,-8.00e-02,8.00e-02,
300,-8.00e-02,2.40e-01,
301,0.00e+00,8.00e-02,
302,0.00e+00,2.40e-01,
303,-8.00e-02,8.00e-02,
304,-8.00e-02,2.40e-01,
305,8.00e-02,1.60e-01,
306,8.00e-02,2.40e-01,
307,0.00e+00,8.00e-02,
308,8.00e-02,1.60e-01,
309,0.00e+00,2.40e-01,
310,0.00e+00,2.40e-01,
311,8.00e-02,8.00e-02,
312,0.00e+00,2.40e-01,
313,1.60e-01,8.00e-02,
314,1.60e-01,2.40e-01,
315,8.00e-02,8.00e-02,
316,8.00e-02,2.40e-01,
317,1.60e-01,8.00e-02,
318,8.00e-02,2.40e-01,
319,2.40e-01,8.00e-02,
320,2.40e-01,2.40e-01,
321,8.00e-02,8.00e-02,
322,2.40e-01,2.40e-01,
323,1.60e-01,8.00e-02,
324,1.60e-01,1.60e-01,
325,3.20e-01,2.40e-01,
326,3.20e-01,2.40e-01,
327,2.40e-01,8.00e-02,
328,2.40e-01,2.40e-01,
329,4.00e-01,8.00e-02,
330,3.20e-01,2.40e-01,
331,4.00e-01,8.00e-02,
332,4.00e-01,2.40e-01,
333,3.20e-01,8.00e-02,
334,4.00e-01,2.40e-01,
335,4.80e-01,8.00e-02,
336,5.60e-01,2.40e-01,
337,4.00e-01,8.00e-02,
338,4.80e-01,2.40e-01,
339,6.40e-01,8.00e-02,
340,5.60e-01,2.40e-01,
341,7.20e-01,8.00e-02,
342,7.20e-01,2.40e-01,
343,6.40e-01,8.00e-02,
344,6.40e-01,2.40e-01,
345,8.00e-01,8.00e-02,
346,7.20e-01,8.00e-02,
347,8.00e-01,2.40e-01,
348,7.20e-01,2.40e-01,
349,8.80e-01,8.00e-02,
350,8.00e-01,2.40e-01,
351,9.60e-01,8.00e-02,
352,8.00e-01,2.40e-01,
353,9.60e-01,8.00e-02,
354,8.80e-01,2.40e-01,
355,1.04e+00,1.60e-01,
356,9.60e-01,2.40e-01,
357,1.04e+00,1.60e-01,
358,9.60e-01,1.60e-01,
359,1.12e+00,2.40e-01,
360,1.04e+00,2.40e-01,
361,1.20e+00,1.60e-01,
362,1.12e+00,2.40e-01,
363,1.28e+00,3.20e-01,
364,1.20e+00,3.20e-01,
365,1.28e+00,5.60e-01,
366,1.20e+00,4.80e-01,
367,1.36e+00,1.04e+00,
368,1.28e+00,1.04e+00,
369,1.44e+00,1.60e+00,
370,1.44e+00,1.52e+00,
371,1.52e+00,2.08e+00,
372,1.44e+00,2.08e+00,
373,1.60e+00,2.56e+00,
374,1.52e+00,2.56e+00,
375,1.68e+00,3.04e+00,
376,1.60e+00,2.96e+00,
377,1.76e+00,3.52e+00,
378,1.68e+00,3.44e+00,
379,1.84e+00,3.84e+00,
380,1.84e+00,3.76e+00,
381,1.68e+00,4.16e+00,
382,1.76e+00,4.16e+00,
383,1.92e+00,4.48e+00,
384,1.84e+00,4.40e+00,
385,2.00e+00,4.72e+00,
386,1.92e+00,4.64e+00,
387,2.08e+00,4.88e+00,
388,2.00e+00,4.80e+00,
389,2.08e+00,5.04e+00,
390,2.16e+00,5.04e+00,
391,2.00e+00,4.88e+00,
392,2.08e+00,5.04e+00,
393,2.24e+00,4.88e+00,
394,2.16e+00,5.04e+00,
395,2.32e+00,4.88e+00,
396,2.24e+00,5.04e+00,
397,2.40e+00,4.88e+00,
398,2.40e+00,5.04e+00,
399,2.48e+00,4.88e+00,
400,2.48e+00,5.04e+00,
401,2.40e+00,4.88e+00,
402,2.48e+00,5.04e+00,
403,2.64e+00,4.88e+00,
404,2.56e+00,5.04e+00,
405,2.72e+00,4.88e+00,
406,2.64e+00,4.96e+00,
407,2.80e+00,5.04e+00,
408,2.72e+00,4.88e+00,
409,2.88e+00,5.04e+00,
410,2.72e+00,4.88e+00,
411,2.88e+00,5.04e+00,
412,2.96e+00,5.04e+00,
413,2.80e+00,4.88e+00,
414,2.88e+00,5.04e+00,
415,3.04e+00,4.88e+00,
416,2.96e+00,5.04e+00,
417,3.12e+00,4.88e+00,
418,3.04e+00,5.04e+00,
419,3.20e+00,4.88e+00,
420,3.04e+00,5.04e+00,
421,3.20e+00,4.88e+00,
422,3.28e+00,5.04e+00,
423,3.12e+00,4.88e+00,
424,3.20e+00,5.04e+00,
425,3.36e+00,4.88e+00,
426,3.36e+00,5.04e+00,
427,3.44e+00,4.88e+00,
428,3.44e+00,5.04e+00,
429,3.36e+00,4.88e+00,
430,3.44e+00,5.04e+00,
431,3.60e+00,4.88e+00,
432,3.52e+00,5.04e+00,
433,3.68e+00,4.88e+00,
434,3.60e+00,4.88e+00,
435,3.76e+00,5.12e+00,
436,3.76e+00,5.04e+00,
437,3.60e+00,4.88e+00,
438,3.68e+00,5.04e+00,
439,3.84e+00,4.88e+00,
440,3.76e+00,5.04e+00,
441,3.92e+00,4.88e+00,
442,3.76e+00,4.88e+00,
443,4.00e+00,5.12e+00,
444,4.00e+00,5.04e+00,
445,3.84e+00,4.88e+00,
446,3.92e+00,4.96e+00,
447,4.08e+00,5.04e+00,
448,4.08e+00,5.04e+00,
449,3.92e+00,4.88e+00,
450,4.00e+00,4.96e+00,
451,4.16e+00,5.12e+00,
452,4.08e+00,5.04e+00,
453,4.24e+00,4.88e+00,
454,4.08e+00,5.04e+00,
455,4.24e+00,4.88e+00,
456,4.32e+00,4.96e+00,
457,4.16e+00,5.04e+00,
458,4.16e+00,4.88e+00,
459,4.40e+00,5.12e+00,
460,4.40e+00,5.04e+00,
461,4.24e+00,4.88e+00,
462,4.32e+00,4.88e+00,
463,4.48e+00,5.04e+00,
464,4.40e+00,5.04e+00,
465,4.56e+00,4.88e+00,
466,4.40e+00,4.96e+00,
467,4.64e+00,5.04e+00,
468,4.48e+00,5.04e+00,
469,4.64e+00,4.88e+00,
470,4.48e+00,5.04e+00,
471,4.64e+00,4.88e+00,
472,4.56e+00,4.88e+00,
473,4.72e+00,5.04e+00,
474,4.72e+00,4.88e+00,
475,4.56e+00,5.12e+00,
476,4.64e+00,5.04e+00,
477,4.72e+00,4.96e+00,
478,4.64e+00,5.04e+00,
479,4.80e+00,4.88e+00,
480,4.80e+00,5.04e+00,
481,4.64e+00,4.88e+00,
482,4.72e+00,4.88e+00,
483,4.80e+00,5.12e+00,
484,4.72e+00,5.04e+00,
485,4.88e+00,4.96e+00,
486,4.72e+00,4.96e+00,
487,4.88e+00,5.04e+00,
488,4.80e+00,5.04e+00,
489,4.88e+00,4.88e+00,
490,4.80e+00,4.96e+00,
491,4.96e+00,5.04e+00,
492,4.96e+00,5.04e+00,
493,4.80e+00,4.96e+00,
494,4.80e+00,4.96e+00,
495,4.96e+00,5.04e+00,
496,4.80e+00,5.04e+00,
497,4.96e+00,4.96e+00,
498,4.88e+00,5.12e+00,
499,5.04e+00,4.88e+00,
500,5.04e+00,5.04e+00,
501,4.88e+00,4.88e+00,
502,4.88e+00,4.88e+00,
503,4.96e+00,5.04e+00,
504,5.04e+00,5.04e+00,
505,4.88e+00,4.88e+00,
506,4.88e+00,4.88e+00,
507,5.04e+00,5.12e+00,
508,5.04e+00,5.04e+00,
509,4.88e+00,4.88e+00,
510,4.88e+00,5.04e+00,
511,5.04e+00,4.88e+00,
512,5.04e+00,5.04e+00,
513,4.88e+00,4.88e+00,
514,4.88e+00,4.96e+00,
515,5.04e+00,5.12e+00,
516,5.04e+00,5.04e+00,
517,4.88e+00,4.88e+00,
518,4.88e+00,4.96e+00,
519,5.04e+00,5.04e+00,
520,4.88e+00,5.04e+00,
521,5.04e+00,4.88e+00,
522,4.96e+00,4.96e+00,
523,4.88e+00,5.12e+00,
524,4.96e+00,5.04e+00,
525,4.88e+00,4.96e+00,
526,4.96e+00,5.04e+00,
527,4.80e+00,4.88e+00,
528,4.80e+00,5.04e+00,
529,4.96e+00,4.96e+00,
530,4.96e+00,4.88e+00,
531,4.80e+00,5.12e+00,
532,4.96e+00,5.04e+00,
533,4.80e+00,4.96e+00,
534,4.88e+00,5.04e+00,
535,4.80e+00,4.88e+00,
536,4.88e+00,5.04e+00,
537,4.72e+00,4.88e+00,
538,4.72e+00,4.88e+00,
539,4.88e+00,5.20e+00,
540,4.80e+00,5.04e+00,
541,4.72e+00,4.88e+00,
542,4.80e+00,5.04e+00,
543,4.64e+00,4.88e+00,
544,4.64e+00,4.88e+00,
545,4.80e+00,5.04e+00,
546,4.72e+00,4.88e+00,
547,4.56e+00,5.12e+00,
548,4.72e+00,5.04e+00,
549,4.56e+00,4.96e+00,
550,4.56e+00,5.04e+00,
551,4.64e+00,4.88e+00,
552,4.64e+00,5.04e+00,
553,4.48e+00,4.88e+00,
554,4.48e+00,4.88e+00,
555,4.64e+00,5.12e+00,
556,4.56e+00,5.04e+00,
557,4.40e+00,4.96e+00,
558,4.40e+00,5.04e+00,
559,4.56e+00,4.88e+00,
560,4.48e+00,5.04e+00,
561,4.32e+00,4.88e+00,
562,4.32e+00,4.96e+00,
563,4.48e+00,5.20e+00,
564,4.32e+00,5.04e+00,
565,4.24e+00,4.88e+00,
566,4.32e+00,5.04e+00,
567,4.16e+00,4.88e+00,
568,4.24e+00,5.04e+00,
569,4.08e+00,4.88e+00,
570,4.16e+00,4.88e+00,
571,4.08e+00,5.12e+00,
572,4.16e+00,5.04e+00,
573,4.00e+00,4.96e+00,
574,4.08e+00,4.96e+00,
575,3.92e+00,5.04e+00,
576,4.00e+00,4.96e+00,
577,3.92e+00,5.04e+00,
578,4.00e+00,4.96e+00,
579,3.84e+00,5.12e+00,
580,3.92e+00,5.04e+00,
581,3.76e+00,4.96e+00,
582,3.92e+00,5.04e+00,
583,3.76e+00,4.88e+00,
584,3.68e+00,5.04e+00,
585,3.84e+00,4.88e+00,
586,3.76e+00,4.88e+00,
587,3.60e+00,5.12e+00,
588,3.76e+00,5.04e+00,
589,3.60e+00,4.88e+00,
590,3.52e+00,5.04e+00,
591,3.68e+00,4.88e+00,
592,3.60e+00,5.04e+00,
593,3.44e+00,4.88e+00,
594,3.52e+00,4.88e+00,
595,3.36e+00,5.12e+00,
596,3.44e+00,5.04e+00,
597,3.28e+00,4.88e+00,
598,3.20e+00,5.04e+00,
599,3.36e+00,4.88e+00,
600,3.28e+00,5.04e+00,
601,3.12e+00,4.88e+00,
602,3.20e+00,4.96e+00,
603,3.04e+00,5.12e+00,
604,3.12e+00,5.04e+00,
605,2.96e+00,4.88e+00,
606,2.96e+00,5.04e+00,
607,3.12e+00,4.88e+00,
608,3.04e+00,5.04e+00,
609,2.88e+00,4.88e+00,
610,2.96e+00,4.88e+00,
611,2.80e+00,5.12e+00,
612,2.88e+00,5.04e+00,
613,2.72e+00,4.96e+00,
614,2.72e+00,5.04e+00,
615,2.80e+00,4.88e+00,
616,2.80e+00,4.96e+00,
617,2.64e+00,5.04e+00,
618,2.72e+00,4.88e+00,
619,2.56e+00,5.12e+00,
620,2.64e+00,5.04e+00,
621,2.48e+00,4.88e+00,
622,2.56e+00,5.04e+00,
623,2.40e+00,4.88e+00,
624,2.40e+00,5.04e+00,
625,2.32e+00,4.88e+00,
626,2.40e+00,4.88e+00,
627,2.24e+00,5.12e+00,
628,2.32e+00,5.04e+00,
629,2.16e+00,4.88e+00,
630,2.24e+00,5.04e+00,
631,2.08e+00,4.88e+00,
632,2.16e+00,4.88e+00,
633,2.00e+00,5.04e+00,
634,2.08e+00,4.88e+00,
635,1.92e+00,5.12e+00,
636,2.08e+00,5.04e+00,
637,1.92e+00,4.88e+00,
638,2.00e+00,4.88e+00,
639,1.84e+00,5.04e+00,
640,1.92e+00,5.04e+00,
641,1.76e+00,4.88e+00,
642,1.84e+00,4.88e+00,
643,1.68e+00,5.12e+00,
644,1.68e+00,5.04e+00,
645,1.76e+00,4.88e+00,
646,1.76e+00,5.04e+00,
647,1.60e+00,4.88e+00,
648,1.68e+00,5.04e+00,
649,1.52e+00,4.88e+00,
650,1.60e+00,4.88e+00,
651,1.44e+00,5.12e+00,
652,1.44e+00,5.04e+00,
653,1.36e+00,4.88e+00,
654,1.44e+00,4.96e+00,
655,1.28e+00,5.04e+00,
656,1.36e+00,5.04e+00,
657,1.20e+00,4.96e+00,
658,1.28e+00,4.96e+00,
659,1.12e+00,5.12e+00,
660,1.20e+00,5.04e+00,
661,1.12e+00,4.96e+00,
662,1.20e+00,4.96e+00,
663,1.04e+00,5.04e+00,
664,1.12e+00,5.04e+00,
665,9.60e-01,4.88e+00,
666,1.04e+00,4.88e+00,
667,9.60e-01,5.12e+00,
668,1.04e+00,5.04e+00,
669,8.80e-01,4.88e+00,
670,9.60e-01,5.04e+00,
671,8.00e-01,4.88e+00,
672,8.00e-01,5.04e+00,
673,8.80e-01,4.88e+00,
674,8.80e-01,4.88e+00,
675,7.20e-01,5.12e+00,
676,8.00e-01,5.04e+00,
677,7.20e-01,4.88e+00,
678,8.00e-01,5.04e+00,
679,6.40e-01,4.88e+00,
680,7.20e-01,4.88e+00,
681,5.60e-01,5.04e+00,
682,5.60e-01,4.96e+00,
683,6.40e-01,5.12e+00,
684,6.40e-01,5.04e+00,
685,4.80e-01,4.96e+00,
686,5.60e-01,5.04e+00,
687,4.80e-01,4.88e+00,
688,4.80e-01,5.04e+00,
689,4.00e-01,4.88e+00,
690,4.00e-01,4.88e+00,
691,3.20e-01,5.12e+00,
692,4.00e-01,5.04e+00,
693,2.40e-01,4.88e+00,
694,4.00e-01,4.96e+00,
695,2.40e-01,5.04e+00,
696,2.40e-01,5.04e+00,
697,3.20e-01,4.88e+00,
698,3.20e-01,4.96e+00,
699,1.60e-01,5.12e+00,
700,2.40e-01,5.04e+00,
701,1.60e-01,4.88e+00,
702,2.40e-01,5.04e+00,
703,1.60e-01,4.88e+00,
704,2.40e-01,5.04e+00,
705,8.00e-02,4.88e+00,
706,1.60e-01,5.04e+00,
707,8.00e-02,4.88e+00,
708,1.60e-01,5.04e+00,
709,8.00e-02,4.88e+00,
710,1.60e-01,5.04e+00,
711,0.00e+00,4.88e+00,
712,8.00e-02,4.88e+00,
713,0.00e+00,3.92e+00,
714,8.00e-02,3.84e+00,
715,0.00e+00,2.40e+00,
716,0.00e+00,2.40e+00,
717,8.00e-02,9.60e-01,
718,8.00e-02,9.60e-01,
719,-8.00e-02,1.60e-01,
720,-8.00e-02,2.40e-01,
721,8.00e-02,1.60e-01,
722,-8.00e-02,2.40e-01,
723,0.00e+00,1.60e-01,
724,0.00e+00,2.40e-01,
725,-8.00e-02,1.60e-01,
726,-8.00e-02,1.60e-01,
727,0.00e+00,2.40e-01,
728,0.00e+00,2.40e-01,
729,-8.00e-02,1.60e-01,
730,-8.00e-02,2.40e-01,
731,0.00e+00,8.00e-02,
732,0.00e+00,2.40e-01,
733,-8.00e-02,1.60e-01,
734,-8.00e-02,2.40e-01,
735,0.00e+00,1.60e-01,
736,-8.00e-02,2.40e-01,
737,0.00e+00,1.60e-01,
738,0.00e+00,2.40e-01,
739,-8.00e-02,1.60e-01,
740,-8.00e-02,2.40e-01,
741,0.00e+00,1.60e-01,
742,0.00e+00,2.40e-01,
743,-8.00e-02,1.60e-01,
744,-8.00e-02,2.40e-01,
745,0.00e+00,8.00e-02,
746,-8.00e-02,2.40e-01,
747,8.00e-02,8.00e-02,
748,-8.00e-02,2.40e-01,
749,8.00e-02,8.00e-02,
750,0.00e+00,2.40e-01,
751,8.00e-02,8.00e-02,
752,0.00e+00,2.40e-01,
753,8.00e-02,8.00e-02,
754,0.00e+00,2.40e-01,
755,8.00e-02,8.00e-02,
756,0.00e+00,2.40e-01,
757,1.60e-01,8.00e-02,
758,8.00e-02,2.40e-01,
759,1.60e-01,8.00e-02,
760,1.60e-01,2.40e-01,
761,8.00e-02,8.00e-02,
762,8.00e-02,2.40e-01,
763,2.40e-01,8.00e-02,
764,2.40e-01,2.40e-01,
765,8.00e-02,8.00e-02,
766,1.60e-01,2.40e-01,
767,2.40e-01,8.00e-02,
768,1.60e-01,2.40e-01,
769,3.20e-01,8.00e-02,
770,3.20e-01,2.40e-01,
771,2.40e-01,8.00e-02,
772,2.40e-01,2.40e-01,
773,3.20e-01,8.00e-02,
774,3.20e-01,2.40e-01,
775,4.00e-01,8.00e-02,
776,4.00e-01,2.40e-01,
777,3.20e-01,8.00e-02,
778,4.00e-01,2.40e-01,
779,4.80e-01,8.00e-02,
780,4.80e-01,2.40e-01,
781,4.80e-01,8.00e-02,
782,4.80e-01,2.40e-01,
783,6.40e-01,8.00e-02,
784,5.60e-01,2.40e-01,
785,6.40e-01,8.00e-02,
786,5.60e-01,2.40e-01,
787,7.20e-01,8.00e-02,
788,6.40e-01,2.40e-01,
789,8.00e-01,8.00e-02,
790,7.20e-01,2.40e-01,
791,8.00e-01,8.00e-02,
792,7.20e-01,2.40e-01,
793,8.80e-01,8.00e-02,
794,8.00e-01,2.40e-01,
795,8.80e-01,8.00e-02,
796,8.00e-01,2.40e-01,
797,9.60e-01,8.00e-02,
798,8.80e-01,2.40e-01,
799,1.04e+00,8.00e-02,
800,1.04e+00,2.40e-01,
801,9.60e-01,1.60e-01,
802,9.60e-01,2.40e-01,
803,1.12e+00,1.60e-01,
804,1.04e+00,2.40e-01,
805,1.20e+00,1.60e-01,
806,1.20e+00,2.40e-01,
807,1.12e+00,3.20e-01,
808,1.12e+00,3.20e-01,
809,1.28e+00,4.80e-01,
810,1.20e+00,4.00e-01,
811,1.36e+00,9.60e-01,
812,1.28e+00,8.80e-01,
813,1.44e+00,1.44e+00,
814,1.44e+00,1.44e+00,
815,1.36e+00,2.00e+00,
816,1.44e+00,1.92e+00,
817,1.60e+00,2.56e+00,
818,1.52e+00,2.48e+00,
819,1.68e+00,2.96e+00,
820,1.60e+00,2.88e+00,
821,1.76e+00,3.44e+00,
822,1.68e+00,3.36e+00,
823,1.76e+00,3.76e+00,
824,1.68e+00,3.68e+00,
825,1.84e+00,4.08e+00,
826,1.76e+00,4.08e+00,
827,1.92e+00,4.40e+00,
828,1.84e+00,4.32e+00,
829,2.00e+00,4.72e+00,
830,1.92e+00,4.56e+00,
831,2.08e+00,4.88e+00,
832,2.00e+00,4.72e+00,
833,2.08e+00,4.96e+00,
834,2.00e+00,4.88e+00,
835,2.16e+00,5.04e+00,
836,2.08e+00,5.04e+00,
837,2.24e+00,4.88e+00,
838,2.16e+00,4.88e+00,
839,2.32e+00,5.04e+00,
840,2.24e+00,5.04e+00,
841,2.40e+00,4.88e+00,
842,2.32e+00,5.04e+00,
843,2.40e+00,4.88e+00,
844,2.40e+00,5.04e+00,
845,2.56e+00,4.88e+00,
846,2.48e+00,5.04e+00,
847,2.64e+00,4.88e+00,
848,2.56e+00,5.04e+00,
849,2.72e+00,4.88e+00,
850,2.64e+00,5.04e+00,
851,2.72e+00,4.88e+00,
852,2.64e+00,5.04e+00,
853,2.80e+00,4.88e+00,
854,2.72e+00,5.04e+00,
855,2.88e+00,4.88e+00,
856,2.80e+00,5.04e+00,
857,2.96e+00,4.88e+00,
858,2.88e+00,5.04e+00,
859,3.04e+00,4.88e+00,
860,2.96e+00,5.04e+00,
861,3.12e+00,4.88e+00,
862,2.96e+00,5.04e+00,
863,3.12e+00,4.88e+00,
864,3.04e+00,5.04e+00,
865,3.20e+00,4.88e+00,
866,3.12e+00,5.04e+00,
867,3.28e+00,4.88e+00,
868,3.20e+00,5.04e+00,
