project/matlab/project_exp3/100 kHz/NewFile1.csv

X,CH1,CH2,Start,Increment,
Sequence,Volt,Volt,7.080000e-04,2.000000e-08
0,4.00e-01,2.40e-01,
1,4.80e-01,1.60e-01,
2,4.00e-01,2.40e-01,
3,4.80e-01,8.00e-02,
4,4.80e-01,2.40e-01,
5,4.00e-01,1.60e-01,
6,4.80e-01,2.40e-01,
7,5.60e-01,1.60e-01,
8,5.60e-01,2.40e-01,
9,6.40e-01,1.60e-01,
10,5.60e-01,2.40e-01,
11,7.20e-01,2.40e-01,
12,6.40e-01,2.40e-01,
13,8.00e-01,1.60e-01,
14,6.40e-01,2.40e-01,
15,8.00e-01,1.60e-01,
16,7.20e-01,2.40e-01,
17,8.80e-01,1.60e-01,
18,7.20e-01,2.40e-01,
19,8.80e-01,1.60e-01,
20,8.00e-01,2.40e-01,
21,9.60e-01,1.60e-01,
22,8.80e-01,2.40e-01,
23,9.60e-01,1.60e-01,
24,8.80e-01,2.40e-01,
25,1.04e+00,1.60e-01,
26,9.60e-01,2.40e-01,
27,1.04e+00,1.60e-01,
28,1.12e+00,2.40e-01,
29,9.60e-01,1.60e-01,
30,1.04e+00,2.40e-01,
31,1.20e+00,1.60e-01,
32,1.12e+00,1.60e-01,
33,1.20e+00,2.40e-01,
34,1.12e+00,2.40e-01,
35,1.28e+00,2.40e-01,
36,1.20e+00,2.40e-01,
37,1.36e+00,1.60e-01,
38,1.28e+00,2.40e-01,
39,1.36e+00,1.60e-01,
40,1.28e+00,2.40e-01,
41,1.44e+00,2.40e-01,
42,1.44e+00,2.40e-01,
43,1.44e+00,1.60e-01,
44,1.44e+00,2.40e-01,
45,1.60e+00,3.20e-01,
46,1.52e+00,3.20e-01,
47,1.68e+00,3.20e-01,
48,1.60e+00,3.20e-01,
49,1.68e+00,3.20e-01,
50,1.76e+00,3.20e-01,
51,1.60e+00,4.00e-01,
52,1.68e+00,4.00e-01,
53,1.84e+00,6.40e-01,
54,1.76e+00,5.60e-01,
55,1.84e+00,8.00e-01,
56,1.92e+00,7.20e-01,
57,1.76e+00,1.04e+00,
58,1.84e+00,9.60e-01,
59,2.00e+00,1.20e+00,
60,1.92e+00,1.28e+00,
61,2.08e+00,1.44e+00,
62,2.00e+00,1.44e+00,
63,2.08e+00,1.68e+00,
64,2.00e+00,1.68e+00,
65,2.16e+00,1.92e+00,
66,2.08e+00,1.84e+00,
67,2.24e+00,2.16e+00,
68,2.16e+00,2.16e+00,
69,2.24e+00,2.40e+00,
70,2.32e+00,2.32e+00,
71,2.24e+00,2.56e+00,
72,2.32e+00,2.48e+00,
73,2.40e+00,2.80e+00,
74,2.40e+00,2.72e+00,
75,2.48e+00,2.96e+00,
76,2.48e+00,2.88e+00,
77,2.56e+00,3.12e+00,
78,2.64e+00,3.12e+00,
79,2.48e+00,3.28e+00,
80,2.56e+00,3.28e+00,
81,2.72e+00,3.52e+00,
82,2.64e+00,3.44e+00,
83,2.80e+00,3.68e+00,
84,2.72e+00,3.60e+00,
85,2.80e+00,3.84e+00,
86,2.72e+00,3.84e+00,
87,2.88e+00,4.00e+00,
88,2.80e+00,3.84e+00,
89,2.96e+00,4.08e+00,
90,2.96e+00,4.08e+00,
91,2.88e+00,4.24e+00,
92,2.88e+00,4.16e+00,
93,3.04e+00,4.40e+00,
94,2.96e+00,4.48e+00,
95,3.12e+00,4.32e+00,
96,3.04e+00,4.40e+00,
97,3.20e+00,4.64e+00,
98,3.20e+00,4.48e+00,
99,3.12e+00,4.72e+00,
100,3.20e+00,4.56e+00,
101,3.28e+00,4.80e+00,
102,3.28e+00,4.64e+00,
103,3.36e+00,4.88e+00,
104,3.36e+00,4.72e+00,
105,3.28e+00,4.88e+00,
106,3.28e+00,4.80e+00,
107,3.44e+00,4.96e+00,
108,3.44e+00,5.04e+00,
109,3.52e+00,4.88e+00,
110,3.52e+00,5.04e+00,
111,3.60e+00,4.88e+00,
112,3.52e+00,4.96e+00,
113,3.68e+00,5.04e+00,
114,3.60e+00,5.04e+00,
115,3.68e+00,4.96e+00,
116,3.68e+00,5.04e+00,
117,3.76e+00,4.88e+00,
118,3.68e+00,5.04e+00,
119,3.84e+00,4.88e+00,
120,3.84e+00,5.12e+00,
121,3.76e+00,4.88e+00,
122,3.92e+00,5.04e+00,
123,3.76e+00,4.96e+00,
124,3.84e+00,5.04e+00,
125,4.00e+00,4.88e+00,
126,4.00e+00,5.04e+00,
127,3.92e+00,4.88e+00,
128,3.92e+00,5.04e+00,
129,4.08e+00,4.88e+00,
130,4.08e+00,5.04e+00,
131,4.00e+00,4.96e+00,
132,4.16e+00,5.04e+00,
133,4.00e+00,4.88e+00,
134,4.16e+00,5.04e+00,
135,4.24e+00,4.88e+00,
136,4.24e+00,5.04e+00,
137,4.08e+00,4.96e+00,
138,4.16e+00,5.04e+00,
139,4.32e+00,4.96e+00,
140,4.32e+00,5.12e+00,
141,4.24e+00,4.88e+00,
142,4.32e+00,4.96e+00,
143,4.40e+00,5.04e+00,
144,4.40e+00,5.04e+00,
145,4.32e+00,4.88e+00,
146,4.40e+00,5.04e+00,
147,4.48e+00,4.88e+00,
148,4.40e+00,5.04e+00,
149,4.56e+00,4.88e+00,
150,4.48e+00,5.04e+00,
151,4.56e+00,4.96e+00,
152,4.48e+00,5.04e+00,
153,4.64e+00,4.88e+00,
154,4.64e+00,5.04e+00,
155,4.56e+00,4.96e+00,
156,4.56e+00,5.04e+00,
157,4.64e+00,4.88e+00,
158,4.56e+00,5.04e+00,
159,4.72e+00,4.88e+00,
160,4.64e+00,4.96e+00,
161,4.72e+00,5.12e+00,
162,4.64e+00,5.04e+00,
163,4.80e+00,4.88e+00,
164,4.80e+00,5.04e+00,
165,4.64e+00,4.88e+00,
166,4.72e+00,5.04e+00,
167,4.80e+00,4.88e+00,
168,4.72e+00,5.04e+00,
169,4.88e+00,4.88e+00,
170,4.88e+00,5.04e+00,
171,4.72e+00,4.96e+00,
172,4.88e+00,5.04e+00,
173,4.72e+00,4.96e+00,
174,4.88e+00,5.04e+00,
175,4.80e+00,4.96e+00,
176,4.80e+00,5.04e+00,
177,4.96e+00,4.96e+00,
178,4.80e+00,5.04e+00,
179,4.96e+00,4.88e+00,
180,4.96e+00,4.96e+00,
181,4.80e+00,5.20e+00,
182,4.96e+00,5.04e+00,
183,4.88e+00,4.88e+00,
184,4.96e+00,5.04e+00,
185,4.88e+00,4.96e+00,
186,4.88e+00,5.04e+00,
187,4.96e+00,4.96e+00,
188,5.04e+00,5.04e+00,
189,4.88e+00,4.96e+00,
190,5.04e+00,5.04e+00,
191,4.88e+00,4.96e+00,
192,5.04e+00,5.04e+00,
193,4.88e+00,4.96e+00,
194,5.04e+00,5.04e+00,
195,4.88e+00,4.96e+00,
196,4.88e+00,5.04e+00,
197,5.04e+00,4.88e+00,
198,5.04e+00,5.04e+00,
199,4.88e+00,4.88e+00,
200,5.04e+00,5.12e+00,
201,4.88e+00,4.96e+00,
202,4.96e+00,5.04e+00,
203,5.04e+00,4.96e+00,
204,5.04e+00,5.04e+00,
205,4.96e+00,4.88e+00,
206,5.04e+00,5.04e+00,
207,4.88e+00,4.96e+00,
208,4.88e+00,5.04e+00,
209,5.04e+00,4.96e+00,
210,4.88e+00,5.04e+00,
211,5.04e+00,4.88e+00,
212,4.88e+00,5.04e+00,
213,5.04e+00,4.88e+00,
214,5.04e+00,5.04e+00,
215,4.88e+00,4.96e+00,
216,4.96e+00,5.04e+00,
217,4.88e+00,4.96e+00,
218,4.96e+00,5.04e+00,
219,4.80e+00,4.88e+00,
220,4.96e+00,5.12e+00,
221,4.80e+00,4.88e+00,
222,4.96e+00,5.04e+00,
223,4.80e+00,4.88e+00,
224,4.88e+00,5.04e+00,
225,4.80e+00,4.96e+00,
226,4.88e+00,5.04e+00,
227,4.80e+00,4.88e+00,
228,4.88e+00,5.04e+00,
229,4.72e+00,4.96e+00,
230,4.88e+00,5.04e+00,
231,4.72e+00,4.96e+00,
232,4.88e+00,5.04e+00,
233,4.72e+00,4.88e+00,
234,4.72e+00,5.04e+00,
235,4.80e+00,4.88e+00,
236,4.80e+00,5.04e+00,
237,4.64e+00,4.88e+00,
238,4.72e+00,5.04e+00,
239,4.64e+00,4.88e+00,
240,4.64e+00,5.12e+00,
241,4.72e+00,4.96e+00,
242,4.72e+00,5.04e+00,
243,4.56e+00,4.88e+00,
244,4.72e+00,5.04e+00,
245,4.56e+00,4.96e+00,
246,4.56e+00,5.04e+00,
247,4.64e+00,4.96e+00,
248,4.64e+00,5.04e+00,
249,4.48e+00,4.96e+00,
250,4.56e+00,5.04e+00,
251,4.48e+00,4.88e+00,
252,4.56e+00,5.04e+00,
253,4.40e+00,4.96e+00,
254,4.48e+00,5.04e+00,
255,4.40e+00,4.96e+00,
256,4.40e+00,5.04e+00,
257,4.32e+00,4.96e+00,
258,4.40e+00,5.04e+00,
259,4.32e+00,4.96e+00,
260,4.40e+00,4.96e+00,
261,4.24e+00,5.12e+00,
262,4.32e+00,5.04e+00,
263,4.16e+00,4.96e+00,
264,4.24e+00,5.04e+00,
265,4.08e+00,4.96e+00,
266,4.24e+00,5.04e+00,
267,4.08e+00,4.88e+00,
268,4.16e+00,5.04e+00,
269,4.00e+00,4.96e+00,
270,4.16e+00,5.04e+00,
271,4.00e+00,4.88e+00,
272,4.08e+00,5.04e+00,
273,3.92e+00,4.88e+00,
274,4.08e+00,5.04e+00,
275,3.92e+00,4.96e+00,
276,4.00e+00,5.04e+00,
277,3.84e+00,4.96e+00,
278,3.92e+00,5.04e+00,
279,3.76e+00,4.96e+00,
280,3.92e+00,4.96e+00,
281,3.76e+00,5.12e+00,
282,3.84e+00,5.04e+00,
283,3.68e+00,4.96e+00,
284,3.76e+00,5.04e+00,
285,3.68e+00,4.96e+00,
286,3.76e+00,5.04e+00,
287,3.60e+00,4.96e+00,
288,3.68e+00,5.04e+00,
289,3.52e+00,4.96e+00,
290,3.68e+00,5.04e+00,
291,3.52e+00,4.96e+00,
292,3.52e+00,5.04e+00,
293,3.44e+00,4.96e+00,
294,3.52e+00,5.04e+00,
295,3.36e+00,4.96e+00,
296,3.52e+00,5.04e+00,
297,3.36e+00,4.96e+00,
298,3.36e+00,5.04e+00,
299,3.28e+00,4.96e+00,
300,3.28e+00,5.12e+00,
301,3.12e+00,4.96e+00,
302,3.28e+00,5.04e+00,
303,3.12e+00,4.96e+00,
304,3.20e+00,5.04e+00,
305,3.04e+00,4.96e+00,
306,3.04e+00,5.04e+00,
307,3.12e+00,4.88e+00,
308,2.96e+00,5.04e+00,
309,3.04e+00,4.96e+00,
310,2.96e+00,5.04e+00,
311,2.88e+00,4.96e+00,
312,2.96e+00,5.04e+00,
313,2.80e+00,4.96e+00,
314,2.88e+00,4.88e+00,
315,2.72e+00,5.04e+00,
316,2.88e+00,5.04e+00,
317,2.72e+00,4.88e+00,
318,2.80e+00,5.04e+00,
319,2.64e+00,4.96e+00,
320,2.72e+00,5.12e+00,
321,2.56e+00,4.88e+00,
322,2.56e+00,4.96e+00,
323,2.64e+00,5.04e+00,
324,2.56e+00,5.04e+00,
325,2.48e+00,4.96e+00,
326,2.48e+00,5.04e+00,
327,2.40e+00,4.96e+00,
328,2.40e+00,5.04e+00,
329,2.32e+00,4.88e+00,
330,2.40e+00,5.04e+00,
331,2.24e+00,4.96e+00,
332,2.32e+00,5.04e+00,
333,2.16e+00,4.96e+00,
334,2.24e+00,4.96e+00,
335,2.08e+00,5.04e+00,
336,2.16e+00,5.04e+00,
337,2.08e+00,4.96e+00,
338,2.16e+00,5.04e+00,
339,2.00e+00,4.96e+00,
340,2.08e+00,5.12e+00,
341,1.92e+00,4.88e+00,
342,2.00e+00,5.04e+00,
343,1.84e+00,4.96e+00,
344,1.92e+00,5.04e+00,
345,1.84e+00,4.88e+00,
346,1.92e+00,5.04e+00,
347,1.76e+00,4.96e+00,
348,1.84e+00,5.04e+00,
349,1.68e+00,4.96e+00,
350,1.68e+00,5.04e+00,
351,1.76e+00,4.96e+00,
352,1.76e+00,5.04e+00,
353,1.60e+00,4.96e+00,
354,1.68e+00,5.04e+00,
355,1.52e+00,4.88e+00,
356,1.52e+00,5.04e+00,
357,1.60e+00,4.88e+00,
358,1.52e+00,5.04e+00,
359,1.44e+00,4.96e+00,
360,1.44e+00,5.12e+00,
361,1.28e+00,4.96e+00,
362,1.36e+00,5.04e+00,
363,1.36e+00,4.96e+00,
364,1.36e+00,5.04e+00,
365,1.20e+00,4.96e+00,
366,1.28e+00,5.04e+00,
367,1.12e+00,4.96e+00,
368,1.20e+00,5.04e+00,
369,1.12e+00,4.96e+00,
370,1.20e+00,5.04e+00,
371,1.04e+00,4.96e+00,
372,1.04e+00,5.04e+00,
373,1.12e+00,4.96e+00,
374,9.60e-01,5.04e+00,
375,1.04e+00,4.96e+00,
376,1.04e+00,5.04e+00,
377,8.80e-01,4.88e+00,
378,8.80e-01,5.04e+00,
379,9.60e-01,4.88e+00,
380,9.60e-01,5.12e+00,
381,8.00e-01,4.96e+00,
382,8.80e-01,5.04e+00,
383,8.00e-01,4.88e+00,
384,8.80e-01,5.04e+00,
385,7.20e-01,4.96e+00,
386,7.20e-01,5.04e+00,
387,8.00e-01,4.96e+00,
388,6.40e-01,5.04e+00,
389,8.00e-01,4.96e+00,
390,6.40e-01,5.04e+00,
391,7.20e-01,4.96e+00,
392,5.60e-01,5.04e+00,
393,6.40e-01,4.96e+00,
394,5.60e-01,5.04e+00,
395,5.60e-01,5.04e+00,
396,4.80e-01,5.04e+00,
397,5.60e-01,4.96e+00,
398,4.80e-01,4.96e+00,
399,4.80e-01,5.12e+00,
400,4.80e-01,4.96e+00,
401,4.00e-01,5.12e+00,
402,4.00e-01,5.04e+00,
403,3.20e-01,4.96e+00,
404,4.00e-01,5.04e+00,
405,3.20e-01,4.96e+00,
406,3.20e-01,5.04e+00,
407,2.40e-01,4.96e+00,
408,3.20e-01,5.04e+00,
409,2.40e-01,4.96e+00,
410,3.20e-01,5.04e+00,
411,1.60e-01,4.88e+00,
412,2.40e-01,5.04e+00,
413,1.60e-01,4.96e+00,
414,2.40e-01,5.04e+00,
415,1.60e-01,4.96e+00,
416,2.40e-01,5.04e+00,
417,1.60e-01,4.96e+00,
418,1.60e-01,5.04e+00,
419,8.00e-02,4.96e+00,
420,8.00e-02,5.12e+00,
421,1.60e-01,4.88e+00,
422,1.60e-01,5.04e+00,
423,8.00e-02,4.96e+00,
424,0.00e+00,4.96e+00,
425,1.60e-01,5.04e+00,
426,8.00e-02,5.04e+00,
427,0.00e+00,4.88e+00,
428,0.00e+00,5.04e+00,
429,8.00e-02,4.88e+00,
430,0.00e+00,5.04e+00,
431,8.00e-02,4.96e+00,
432,8.00e-02,5.04e+00,
433,-8.00e-02,4.88e+00,
434,8.00e-02,5.04e+00,
435,-8.00e-02,4.96e+00,
436,0.00e+00,5.04e+00,
437,-8.00e-02,4.96e+00,
438,0.00e+00,4.96e+00,
439,-8.00e-02,5.12e+00,
440,-8.00e-02,5.12e+00,
441,0.00e+00,4.88e+00,
442,0.00e+00,5.04e+00,
443,-8.00e-02,4.88e+00,
444,-8.00e-02,4.96e+00,
445,0.00e+00,4.56e+00,
446,0.00e+00,4.64e+00,
447,-8.00e-02,4.16e+00,
448,-8.00e-02,4.08e+00,
449,0.00e+00,3.44e+00,
450,0.00e+00,3.44e+00,
451,-8.00e-02,2.88e+00,
452,0.00e+00,2.80e+00,
453,-8.00e-02,2.16e+00,
454,0.00e+00,2.08e+00,
455,-8.00e-02,1.52e+00,
456,0.00e+00,1.52e+00,
457,-8.00e-02,1.04e+00,
458,0.00e+00,9.60e-01,
459,-8.00e-02,4.80e-01,
460,-8.00e-02,5.60e-01,
461,0.00e+00,3.20e-01,
462,0.00e+00,3.20e-01,
463,-8.00e-02,2.40e-01,
464,0.00e+00,2.40e-01,
465,-8.00e-02,1.60e-01,
466,-8.00e-02,2.40e-01,
467,8.00e-02,1.60e-01,
468,-8.00e-02,1.60e-01,
469,8.00e-02,2.40e-01,
470,8.00e-02,2.40e-01,
471,0.00e+00,1.60e-01,
472,0.00e+00,2.40e-01,
473,8.00e-02,1.60e-01,
474,8.00e-02,2.40e-01,
475,0.00e+00,1.60e-01,
476,0.00e+00,2.40e-01,
477,8.00e-02,8.00e-02,
478,0.00e+00,1.60e-01,
479,1.60e-01,2.40e-01,
480,1.60e-01,2.40e-01,
481,8.00e-02,1.60e-01,
482,8.00e-02,2.40e-01,
483,1.60e-01,1.60e-01,
484,8.00e-02,2.40e-01,
485,2.40e-01,8.00e-02,
486,2.40e-01,2.40e-01,
487,8.00e-02,1.60e-01,
488,1.60e-01,2.40e-01,
489,2.40e-01,1.60e-01,
490,1.60e-01,1.60e-01,
491,3.20e-01,2.40e-01,
492,2.40e-01,2.40e-01,
493,3.20e-01,8.00e-02,
494,3.20e-01,2.40e-01,
495,2.40e-01,8.00e-02,
496,4.00e-01,2.40e-01,
497,2.40e-01,1.60e-01,
498,4.00e-01,2.40e-01,
499,4.00e-01,1.60e-01,
500,4.00e-01,2.40e-01,
501,4.80e-01,1.60e-01,
502,4.00e-01,2.40e-01,
503,4.80e-01,1.60e-01,
504,4.80e-01,2.40e-01,
505,5.60e-01,1.60e-01,
506,4.80e-01,2.40e-01,
507,6.40e-01,2.40e-01,
508,6.40e-01,2.40e-01,
509,5.60e-01,1.60e-01,
510,5.60e-01,2.40e-01,
511,7.20e-01,1.60e-01,
512,6.40e-01,1.60e-01,
513,7.20e-01,2.40e-01,
514,6.40e-01,2.40e-01,
515,8.00e-01,2.40e-01,
516,7.20e-01,2.40e-01,
517,8.00e-01,1.60e-01,
518,7.20e-01,2.40e-01,
519,8.80e-01,1.60e-01,
520,8.00e-01,2.40e-01,
521,9.60e-01,1.60e-01,
522,8.80e-01,2.40e-01,
523,9.60e-01,1.60e-01,
524,8.80e-01,2.40e-01,
525,1.04e+00,1.60e-01,
526,9.60e-01,2.40e-01,
527,1.04e+00,8.00e-02,
528,9.60e-01,2.40e-01,
529,1.12e+00,1.60e-01,
530,1.04e+00,2.40e-01,
531,1.20e+00,1.60e-01,
532,1.12e+00,2.40e-01,
533,1.20e+00,1.60e-01,
534,1.28e+00,1.60e-01,
535,1.12e+00,2.40e-01,
536,1.28e+00,2.40e-01,
537,1.20e+00,2.40e-01,
538,1.20e+00,2.40e-01,
539,1.36e+00,1.60e-01,
540,1.28e+00,2.40e-01,
541,1.44e+00,1.60e-01,
542,1.44e+00,2.40e-01,
543,1.44e+00,3.20e-01,
544,1.44e+00,3.20e-01,
545,1.60e+00,1.60e-01,
546,1.60e+00,3.20e-01,
547,1.52e+00,2.40e-01,
548,1.60e+00,3.20e-01,
549,1.68e+00,3.20e-01,
550,1.60e+00,3.20e-01,
551,1.76e+00,4.00e-01,
552,1.68e+00,4.00e-01,
553,1.76e+00,6.40e-01,
554,1.76e+00,5.60e-01,
555,1.84e+00,8.00e-01,
556,1.92e+00,8.00e-01,
557,1.84e+00,1.04e+00,
558,1.84e+00,1.04e+00,
559,2.00e+00,1.20e+00,
560,1.92e+00,1.20e+00,
561,2.08e+00,1.52e+00,
562,2.00e+00,1.44e+00,
563,2.08e+00,1.76e+00,
564,2.00e+00,1.68e+00,
565,2.16e+00,1.92e+00,
566,2.08e+00,1.84e+00,
567,2.24e+00,2.16e+00,
568,2.16e+00,2.16e+00,
569,2.32e+00,2.32e+00,
570,2.32e+00,2.32e+00,
571,2.16e+00,2.56e+00,
572,2.32e+00,2.56e+00,
573,2.40e+00,2.80e+00,
574,2.40e+00,2.72e+00,
575,2.48e+00,2.96e+00,
576,2.48e+00,2.88e+00,
577,2.56e+00,3.12e+00,
578,2.48e+00,3.12e+00,
579,2.64e+00,3.28e+00,
580,2.56e+00,3.28e+00,
581,2.72e+00,3.44e+00,
582,2.72e+00,3.44e+00,
583,2.64e+00,3.68e+00,
584,2.64e+00,3.60e+00,
585,2.80e+00,3.84e+00,
586,2.72e+00,3.76e+00,
587,2.88e+00,4.00e+00,
588,2.80e+00,3.84e+00,
589,2.96e+00,4.08e+00,
590,2.88e+00,4.08e+00,
591,2.96e+00,4.32e+00,
592,3.04e+00,4.16e+00,
593,2.96e+00,4.40e+00,
594,3.04e+00,4.32e+00,
595,3.12e+00,4.48e+00,
596,3.04e+00,4.40e+00,
597,3.20e+00,4.64e+00,
598,3.20e+00,4.48e+00,
599,3.04e+00,4.72e+00,
600,3.20e+00,4.64e+00,
601,3.28e+00,4.80e+00,
602,3.28e+00,4.64e+00,
603,3.36e+00,4.88e+00,
604,3.36e+00,4.80e+00,
605,3.36e+00,4.96e+00,
606,3.36e+00,4.80e+00,
607,3.44e+00,4.96e+00,
608,3.44e+00,4.88e+00,
609,3.52e+00,5.04e+00,
610,3.60e+00,4.96e+00,
611,3.52e+00,5.04e+00,
612,3.52e+00,4.88e+00,
613,3.68e+00,5.04e+00,
614,3.60e+00,5.04e+00,
615,3.76e+00,4.88e+00,
616,3.68e+00,5.04e+00,
617,3.76e+00,4.96e+00,
618,3.68e+00,4.96e+00,
619,3.84e+00,5.04e+00,
620,3.76e+00,5.12e+00,
621,3.84e+00,4.88e+00,
622,3.92e+00,4.88e+00,
623,3.76e+00,5.04e+00,
624,3.84e+00,5.04e+00,
625,3.92e+00,4.96e+00,
626,3.92e+00,5.04e+00,
627,4.00e+00,4.96e+00,
628,3.92e+00,5.04e+00,
629,4.08e+00,4.88e+00,
630,4.08e+00,5.04e+00,
631,4.08e+00,4.88e+00,
632,4.16e+00,5.04e+00,
633,4.00e+00,4.88e+00,
634,4.16e+00,5.04e+00,
635,4.08e+00,4.96e+00,
636,4.24e+00,5.04e+00,
637,4.08e+00,4.88e+00,
638,4.32e+00,5.04e+00,
639,4.16e+00,4.88e+00,
640,4.32e+00,4.88e+00,
641,4.16e+00,5.04e+00,
642,4.32e+00,5.04e+00,
643,4.48e+00,4.88e+00,
644,4.40e+00,5.04e+00,
645,4.32e+00,4.88e+00,
646,4.40e+00,5.04e+00,
647,4.48e+00,4.96e+00,
648,4.40e+00,5.04e+00,
649,4.56e+00,4.88e+00,
650,4.48e+00,5.04e+00,
651,4.56e+00,4.88e+00,
652,4.48e+00,5.04e+00,
653,4.64e+00,4.88e+00,
654,4.48e+00,5.04e+00,
655,4.64e+00,4.88e+00,
656,4.56e+00,4.88e+00,
657,4.72e+00,5.04e+00,
658,4.56e+00,5.04e+00,
659,4.72e+00,4.88e+00,
660,4.56e+00,5.04e+00,
661,4.72e+00,4.88e+00,
662,4.64e+00,5.04e+00,
663,4.80e+00,4.96e+00,
664,4.80e+00,5.04e+00,
665,4.64e+00,4.88e+00,
666,4.80e+00,5.04e+00,
667,4.72e+00,4.88e+00,
668,4.72e+00,5.04e+00,
669,4.80e+00,4.88e+00,
670,4.88e+00,4.96e+00,
671,4.72e+00,5.04e+00,
672,4.88e+00,5.04e+00,
673,4.72e+00,4.96e+00,
674,4.80e+00,5.04e+00,
675,4.88e+00,4.96e+00,
676,4.88e+00,5.04e+00,
677,4.80e+00,4.88e+00,
678,4.96e+00,5.04e+00,
679,4.80e+00,4.88e+00,
680,4.80e+00,5.04e+00,
681,4.96e+00,4.88e+00,
682,4.96e+00,5.04e+00,
683,4.80e+00,4.88e+00,
684,4.88e+00,4.96e+00,
685,4.96e+00,5.04e+00,
686,4.96e+00,5.04e+00,
687,4.88e+00,4.88e+00,
688,4.96e+00,5.04e+00,
689,4.88e+00,4.96e+00,
690,4.88e+00,5.04e+00,
691,5.04e+00,4.88e+00,
692,4.88e+00,5.04e+00,
693,5.04e+00,4.96e+00,
694,4.88e+00,5.04e+00,
695,5.04e+00,4.88e+00,
696,5.04e+00,5.04e+00,
697,4.88e+00,4.88e+00,
698,5.04e+00,5.04e+00,
699,4.88e+00,4.96e+00,
700,5.04e+00,4.96e+00,
701,4.88e+00,5.12e+00,
702,5.04e+00,5.04e+00,
703,4.96e+00,4.96e+00,
704,5.04e+00,5.04e+00,
705,4.88e+00,4.96e+00,
706,5.04e+00,5.04e+00,
707,4.88e+00,4.96e+00,
708,5.04e+00,5.04e+00,
709,4.88e+00,4.96e+00,
710,5.04e+00,5.04e+00,
711,4.88e+00,4.96e+00,
712,5.04e+00,5.04e+00,
713,4.88e+00,4.88e+00,
714,4.88e+00,5.04e+00,
715,4.96e+00,4.88e+00,
716,4.96e+00,5.04e+00,
717,4.88e+00,4.88e+00,
718,4.88e+00,5.04e+00,
719,4.96e+00,4.96e+00,
720,4.80e+00,4.96e+00,
721,4.96e+00,5.04e+00,
722,4.96e+00,5.04e+00,
723,4.80e+00,4.88e+00,
724,4.96e+00,5.04e+00,
725,4.80e+00,4.88e+00,
726,4.80e+00,5.04e+00,
727,4.88e+00,4.96e+00,
728,4.88e+00,5.04e+00,
729,4.72e+00,4.96e+00,
730,4.88e+00,5.04e+00,
731,4.72e+00,4.88e+00,
732,4.72e+00,5.04e+00,
733,4.88e+00,4.88e+00,
734,4.72e+00,5.04e+00,
735,4.80e+00,4.88e+00,
736,4.80e+00,5.04e+00,
737,4.64e+00,4.96e+00,
738,4.80e+00,5.04e+00,
739,4.64e+00,4.88e+00,
740,4.64e+00,4.96e+00,
741,4.80e+00,5.04e+00,
742,4.56e+00,5.04e+00,
743,4.72e+00,4.96e+00,
744,4.72e+00,5.04e+00,
745,4.56e+00,4.96e+00,
746,4.56e+00,5.04e+00,
747,4.64e+00,4.88e+00,
748,4.48e+00,5.04e+00,
749,4.64e+00,4.88e+00,
750,4.56e+00,5.04e+00,
751,4.48e+00,4.88e+00,
752,4.56e+00,5.04e+00,
753,4.40e+00,4.96e+00,
754,4.48e+00,4.96e+00,
755,4.40e+00,5.04e+00,
756,4.48e+00,5.04e+00,
757,4.32e+00,4.88e+00,
758,4.40e+00,5.04e+00,
759,4.24e+00,4.88e+00,
760,4.40e+00,5.12e+00,
761,4.24e+00,4.88e+00,
762,4.32e+00,5.04e+00,
763,4.16e+00,4.88e+00,
764,4.24e+00,5.04e+00,
765,4.08e+00,4.96e+00,
766,4.24e+00,5.04e+00,
767,4.08e+00,4.96e+00,
768,4.16e+00,5.04e+00,
769,4.00e+00,4.96e+00,
770,4.16e+00,5.04e+00,
771,4.00e+00,4.88e+00,
772,4.08e+00,5.04e+00,
773,3.92e+00,4.96e+00,
774,4.00e+00,5.04e+00,
775,3.92e+00,4.88e+00,
776,4.00e+00,5.04e+00,
777,3.84e+00,4.96e+00,
778,3.92e+00,5.04e+00,
779,3.76e+00,4.88e+00,
780,3.76e+00,4.96e+00,
781,3.92e+00,5.12e+00,
782,3.84e+00,5.04e+00,
783,3.68e+00,4.88e+00,
784,3.76e+00,5.04e+00,
785,3.68e+00,4.96e+00,
786,3.76e+00,5.04e+00,
787,3.60e+00,4.88e+00,
788,3.68e+00,5.04e+00,
789,3.52e+00,4.88e+00,
790,3.60e+00,5.04e+00,
791,3.52e+00,4.96e+00,
792,3.52e+00,5.04e+00,
793,3.44e+00,4.88e+00,
794,3.44e+00,5.04e+00,
795,3.36e+00,4.88e+00,
796,3.36e+00,5.04e+00,
797,3.36e+00,4.96e+00,
798,3.36e+00,5.04e+00,
799,3.28e+00,4.96e+00,
800,3.28e+00,5.12e+00,
801,3.20e+00,4.88e+00,
802,3.28e+00,5.04e+00,
803,3.12e+00,4.96e+00,
804,3.04e+00,5.04e+00,
805,3.20e+00,4.96e+00,
806,3.12e+00,5.04e+00,
807,2.96e+00,4.88e+00,
808,2.96e+00,5.04e+00,
809,3.04e+00,4.96e+00,
810,2.88e+00,5.04e+00,
811,3.04e+00,4.96e+00,
812,2.96e+00,5.04e+00,
813,2.80e+00,4.96e+00,
814,2.80e+00,5.04e+00,
815,2.88e+00,4.96e+00,
816,2.80e+00,5.04e+00,
817,2.72e+00,4.96e+00,
818,2.80e+00,5.04e+00,
819,2.64e+00,4.96e+00,
820,2.72e+00,4.96e+00,
821,2.56e+00,5.12e+00,
822,2.56e+00,5.04e+00,
823,2.64e+00,4.96e+00,
824,2.56e+00,5.04e+00,
825,2.48e+00,4.96e+00,
826,2.56e+00,5.04e+00,
827,2.40e+00,4.88e+00,
828,2.40e+00,5.04e+00,
829,2.32e+00,4.88e+00,
830,2.32e+00,5.04e+00,
831,2.24e+00,4.96e+00,
832,2.32e+00,5.04e+00,
833,2.16e+00,4.88e+00,
834,2.24e+00,5.04e+00,
835,2.08e+00,4.88e+00,
836,2.16e+00,5.04e+00,
837,2.00e+00,4.96e+00,
838,2.08e+00,4.88e+00,
839,2.00e+00,5.12e+00,
840,2.08e+00,5.12e+00,
841,1.92e+00,4.88e+00,
842,2.00e+00,5.04e+00,
843,1.84e+00,4.88e+00,
844,2.00e+00,5.04e+00,
845,1.84e+00,4.88e+00,
846,1.92e+00,5.04e+00,
847,1.76e+00,4.88e+00,
848,1.84e+00,5.04e+00,
849,1.68e+00,4.88e+00,
850,1.68e+00,5.04e+00,
851,1.76e+00,4.96e+00,
852,1.68e+00,5.04e+00,
853,1.60e+00,4.96e+00,
854,1.68e+00,5.04e+00,
855,1.52e+00,4.88e+00,
856,1.52e+00,5.04e+00,
857,1.52e+00,4.96e+00,
858,1.52e+00,4.96e+00,
859,1.44e+00,5.12e+00,
860,1.44e+00,4.96e+00,
861,1.36e+00,5.12e+00,
862,1.36e+00,5.04e+00,
863,1.28e+00,4.88e+00,
864,1.36e+00,5.04e+00,
865,1.20e+00,4.88e+00,
866,1.28e+00,5.04e+00,
867,1.12e+00,4.96e+00,
868,1.12e+00,5.04e+00,
869,1.20e+00,4.96e+00,
