project/matlab/project_exp3/650 Hz/NewFile1.csv

X,CH1,CH2,Start,Increment,
Sequence,Volt,Volt,-2.280000e-03,5.000000e-06
0,1.52e+00,4.88e+00,
1,1.28e+00,5.20e+00,
2,1.36e+00,5.12e+00,
3,1.20e+00,4.88e+00,
4,1.28e+00,5.20e+00,
5,1.12e+00,4.88e+00,
6,1.20e+00,5.12e+00,
7,1.04e+00,4.88e+00,
8,1.12e+00,5.20e+00,
9,9.60e-01,4.88e+00,
10,1.04e+00,4.88e+00,
11,8.80e-01,5.20e+00,
12,9.60e-01,4.88e+00,
13,8.00e-01,5.20e+00,
14,8.80e-01,4.88e+00,
15,7.20e-01,5.20e+00,
16,8.00e-01,5.12e+00,
17,6.40e-01,4.88e+00,
18,6.40e-01,5.20e+00,
19,8.00e-01,4.88e+00,
20,5.60e-01,4.88e+00,
21,7.20e-01,5.20e+00,
22,6.40e-01,4.88e+00,
23,4.80e-01,5.20e+00,
24,5.60e-01,4.88e+00,
25,4.00e-01,5.20e+00,
26,4.80e-01,4.88e+00,
27,3.20e-01,5.20e+00,
28,4.00e-01,5.20e+00,
29,2.40e-01,3.20e+00,
30,3.20e-01,2.56e+00,
31,1.60e-01,8.00e-02,
32,3.20e-01,2.40e-01,
33,1.60e-01,8.00e-02,
34,2.40e-01,2.40e-01,
35,8.00e-02,8.00e-02,
36,8.00e-02,2.40e-01,
37,2.40e-01,8.00e-02,
38,1.60e-01,2.40e-01,
39,0.00e+00,8.00e-02,
40,1.60e-01,2.40e-01,
41,0.00e+00,8.00e-02,
42,8.00e-02,2.40e-01,
43,0.00e+00,8.00e-02,
44,8.00e-02,8.00e-02,
45,-8.00e-02,2.40e-01,
46,8.00e-02,0.00e+00,
47,-8.00e-02,2.40e-01,
48,0.00e+00,8.00e-02,
49,-8.00e-02,2.40e-01,
50,-8.00e-02,1.60e-01,
51,0.00e+00,0.00e+00,
52,0.00e+00,8.00e-02,
53,-8.00e-02,2.40e-01,
54,0.00e+00,8.00e-02,
55,-8.00e-02,2.40e-01,
56,0.00e+00,8.00e-02,
57,-1.60e-01,2.40e-01,
58,0.00e+00,1.60e-01,
59,-1.60e-01,8.00e-02,
60,0.00e+00,2.40e-01,
61,-1.60e-01,8.00e-02,
62,0.00e+00,2.40e-01,
63,-8.00e-02,0.00e+00,
64,0.00e+00,8.00e-02,
65,-8.00e-02,1.60e-01,
66,-8.00e-02,8.00e-02,
67,8.00e-02,2.40e-01,
68,-8.00e-02,8.00e-02,
69,8.00e-02,2.40e-01,
70,-8.00e-02,8.00e-02,
71,8.00e-02,2.40e-01,
72,0.00e+00,2.40e-01,
73,1.60e-01,0.00e+00,
74,0.00e+00,8.00e-02,
75,1.60e-01,2.40e-01,
76,1.60e-01,8.00e-02,
77,8.00e-02,2.40e-01,
78,8.00e-02,8.00e-02,
79,2.40e-01,2.40e-01,
80,2.40e-01,8.00e-02,
81,1.60e-01,2.40e-01,
82,1.60e-01,8.00e-02,
83,3.20e-01,2.40e-01,
84,2.40e-01,8.00e-02,
85,4.00e-01,2.40e-01,
86,4.00e-01,8.00e-02,
87,2.40e-01,2.40e-01,
88,4.00e-01,8.00e-02,
89,5.60e-01,2.40e-01,
90,4.80e-01,8.00e-02,
91,6.40e-01,2.40e-01,
92,4.80e-01,1.60e-01,
93,7.20e-01,8.00e-02,
94,5.60e-01,1.60e-01,
95,7.20e-01,8.00e-02,
96,6.40e-01,8.00e-02,
97,8.00e-01,2.40e-01,
98,7.20e-01,8.00e-02,
99,8.80e-01,5.04e+00,
100,8.00e-01,5.04e+00,
101,9.60e-01,4.88e+00,
102,8.80e-01,5.04e+00,
103,1.04e+00,4.88e+00,
104,9.60e-01,5.04e+00,
105,1.12e+00,4.88e+00,
106,1.04e+00,4.88e+00,
107,1.20e+00,5.04e+00,
108,1.12e+00,5.04e+00,
109,1.28e+00,4.88e+00,
110,1.20e+00,5.04e+00,
111,1.36e+00,4.88e+00,
112,1.36e+00,5.04e+00,
113,1.52e+00,4.88e+00,
114,1.44e+00,4.88e+00,
115,1.60e+00,5.12e+00,
116,1.52e+00,5.04e+00,
117,1.68e+00,4.88e+00,
118,1.60e+00,4.88e+00,
119,1.76e+00,5.12e+00,
120,1.68e+00,4.88e+00,
121,1.84e+00,5.12e+00,
122,1.76e+00,4.88e+00,
123,1.92e+00,5.20e+00,
124,1.84e+00,5.20e+00,
125,2.08e+00,4.88e+00,
126,1.92e+00,4.88e+00,
127,2.16e+00,5.20e+00,
128,2.08e+00,5.20e+00,
129,2.24e+00,4.88e+00,
130,2.16e+00,5.20e+00,
131,2.32e+00,4.88e+00,
132,2.24e+00,4.88e+00,
133,2.48e+00,5.20e+00,
134,2.40e+00,4.88e+00,
135,2.56e+00,5.20e+00,
136,2.48e+00,4.88e+00,
137,2.72e+00,5.20e+00,
138,2.56e+00,4.88e+00,
139,2.80e+00,5.20e+00,
140,2.64e+00,4.88e+00,
141,2.88e+00,5.20e+00,
142,2.72e+00,4.88e+00,
143,2.96e+00,5.20e+00,
144,2.88e+00,4.88e+00,
145,3.04e+00,5.20e+00,
146,2.96e+00,5.20e+00,
147,3.12e+00,4.88e+00,
148,3.04e+00,5.20e+00,
149,3.20e+00,4.88e+00,
150,3.12e+00,5.12e+00,
151,3.44e+00,4.88e+00,
152,3.20e+00,5.20e+00,
153,3.52e+00,4.88e+00,
154,3.36e+00,4.88e+00,
155,3.60e+00,5.20e+00,
156,3.44e+00,4.88e+00,
157,3.68e+00,5.20e+00,
158,3.52e+00,4.88e+00,
159,3.76e+00,5.20e+00,
160,3.60e+00,5.12e+00,
161,3.84e+00,4.88e+00,
162,3.68e+00,4.88e+00,
163,3.92e+00,5.20e+00,
164,3.76e+00,4.88e+00,
165,4.00e+00,5.20e+00,
166,3.84e+00,4.88e+00,
167,4.08e+00,5.20e+00,
168,3.92e+00,4.88e+00,
169,4.16e+00,5.20e+00,
170,4.16e+00,4.88e+00,
171,4.00e+00,5.20e+00,
172,4.24e+00,4.88e+00,
173,4.08e+00,5.20e+00,
174,4.16e+00,4.88e+00,
175,4.40e+00,5.20e+00,
176,4.24e+00,4.88e+00,
177,4.48e+00,5.20e+00,
178,4.32e+00,4.88e+00,
179,4.48e+00,5.20e+00,
180,4.40e+00,5.12e+00,
181,4.56e+00,4.88e+00,
182,4.40e+00,4.88e+00,
183,4.64e+00,5.20e+00,
184,4.64e+00,5.20e+00,
185,4.48e+00,4.88e+00,
186,4.48e+00,4.88e+00,
187,4.72e+00,5.20e+00,
188,4.72e+00,4.88e+00,
189,4.56e+00,5.20e+00,
190,4.56e+00,4.88e+00,
191,4.80e+00,5.20e+00,
192,4.80e+00,4.88e+00,
193,4.64e+00,5.20e+00,
194,4.64e+00,4.88e+00,
195,4.88e+00,5.20e+00,
196,4.88e+00,4.88e+00,
197,4.72e+00,5.20e+00,
198,4.88e+00,4.88e+00,
199,4.72e+00,5.20e+00,
200,4.72e+00,5.20e+00,
201,4.96e+00,4.88e+00,
202,4.96e+00,4.88e+00,
203,4.72e+00,5.20e+00,
204,4.96e+00,4.88e+00,
205,4.80e+00,5.12e+00,
206,4.96e+00,5.20e+00,
207,4.80e+00,4.88e+00,
208,4.96e+00,5.20e+00,
209,4.80e+00,4.88e+00,
210,4.80e+00,4.88e+00,
211,4.96e+00,5.20e+00,
212,4.96e+00,4.88e+00,
213,4.80e+00,5.20e+00,
214,4.96e+00,5.20e+00,
215,4.80e+00,4.88e+00,
216,4.80e+00,4.88e+00,
217,4.96e+00,5.20e+00,
218,4.96e+00,5.20e+00,
219,4.80e+00,4.88e+00,
220,4.96e+00,5.20e+00,
221,4.72e+00,4.88e+00,
222,4.88e+00,4.88e+00,
223,4.72e+00,5.20e+00,
224,4.88e+00,4.88e+00,
225,4.72e+00,5.20e+00,
226,4.88e+00,4.88e+00,
227,4.64e+00,5.20e+00,
228,4.64e+00,5.20e+00,
229,4.80e+00,4.88e+00,
230,4.80e+00,5.20e+00,
231,4.64e+00,4.88e+00,
232,4.80e+00,5.20e+00,
233,4.56e+00,4.88e+00,
234,4.72e+00,4.88e+00,
235,4.48e+00,5.20e+00,
236,4.64e+00,4.88e+00,
237,4.48e+00,5.20e+00,
238,4.64e+00,4.88e+00,
239,4.40e+00,5.20e+00,
240,4.40e+00,4.88e+00,
241,4.56e+00,5.20e+00,
242,4.56e+00,4.88e+00,
243,4.32e+00,5.20e+00,
244,4.48e+00,4.88e+00,
245,4.24e+00,5.20e+00,
246,4.40e+00,5.20e+00,
247,4.16e+00,4.88e+00,
248,4.08e+00,4.88e+00,
249,4.32e+00,5.20e+00,
250,4.24e+00,5.20e+00,
251,4.00e+00,4.88e+00,
252,4.16e+00,4.88e+00,
253,3.92e+00,5.20e+00,
254,4.08e+00,4.88e+00,
255,3.84e+00,5.20e+00,
256,4.00e+00,4.88e+00,
257,3.76e+00,5.20e+00,
258,3.92e+00,4.88e+00,
259,3.68e+00,5.20e+00,
260,3.84e+00,5.20e+00,
261,3.60e+00,4.88e+00,
262,3.76e+00,5.20e+00,
263,3.52e+00,4.88e+00,
264,3.68e+00,5.20e+00,
265,3.44e+00,4.88e+00,
266,3.60e+00,5.20e+00,
267,3.36e+00,4.88e+00,
268,3.52e+00,5.20e+00,
269,3.28e+00,4.88e+00,
270,3.44e+00,5.20e+00,
271,3.12e+00,4.88e+00,
272,3.28e+00,4.88e+00,
273,3.04e+00,5.20e+00,
274,3.20e+00,5.20e+00,
275,2.96e+00,4.88e+00,
276,3.04e+00,4.88e+00,
277,2.88e+00,5.20e+00,
278,2.96e+00,5.20e+00,
279,2.80e+00,4.88e+00,
280,2.88e+00,4.88e+00,
281,2.72e+00,5.20e+00,
282,2.80e+00,4.88e+00,
283,2.56e+00,5.20e+00,
284,2.72e+00,4.88e+00,
285,2.48e+00,5.20e+00,
286,2.64e+00,4.88e+00,
287,2.40e+00,5.20e+00,
288,2.48e+00,5.12e+00,
289,2.24e+00,4.88e+00,
290,2.32e+00,5.20e+00,
291,2.16e+00,4.88e+00,
292,2.24e+00,5.20e+00,
293,2.08e+00,4.88e+00,
294,2.16e+00,4.88e+00,
295,2.00e+00,5.20e+00,
296,2.08e+00,4.88e+00,
297,1.84e+00,5.20e+00,
298,2.00e+00,4.88e+00,
299,1.76e+00,5.20e+00,
300,1.92e+00,4.88e+00,
301,1.68e+00,5.12e+00,
302,1.76e+00,5.20e+00,
303,1.60e+00,4.88e+00,
304,1.68e+00,4.88e+00,
305,1.52e+00,5.20e+00,
306,1.60e+00,4.88e+00,
307,1.44e+00,5.20e+00,
308,1.52e+00,4.88e+00,
309,1.36e+00,5.20e+00,
310,1.36e+00,4.88e+00,
311,1.20e+00,5.20e+00,
312,1.28e+00,4.88e+00,
313,1.12e+00,5.20e+00,
314,1.20e+00,5.20e+00,
315,1.04e+00,4.88e+00,
316,1.12e+00,4.88e+00,
317,9.60e-01,5.20e+00,
318,1.04e+00,4.88e+00,
319,8.80e-01,5.20e+00,
320,9.60e-01,4.88e+00,
321,8.00e-01,5.20e+00,
322,8.80e-01,4.88e+00,
323,7.20e-01,5.20e+00,
324,8.00e-01,5.20e+00,
325,6.40e-01,4.88e+00,
326,7.20e-01,5.20e+00,
327,5.60e-01,4.88e+00,
328,5.60e-01,4.88e+00,
329,7.20e-01,5.20e+00,
330,4.80e-01,5.20e+00,
331,6.40e-01,4.88e+00,
332,5.60e-01,5.20e+00,
333,4.00e-01,4.88e+00,
334,4.00e-01,4.88e+00,
335,3.20e-01,5.20e+00,
336,4.00e-01,5.20e+00,
337,2.40e-01,1.60e-01,
338,3.20e-01,2.40e-01,
339,1.60e-01,8.00e-02,
340,3.20e-01,2.40e-01,
341,1.60e-01,8.00e-02,
342,2.40e-01,2.40e-01,
343,8.00e-02,8.00e-02,
344,1.60e-01,2.40e-01,
345,8.00e-02,8.00e-02,
346,1.60e-01,2.40e-01,
347,0.00e+00,8.00e-02,
348,1.60e-01,2.40e-01,
349,0.00e+00,8.00e-02,
350,8.00e-02,2.40e-01,
351,0.00e+00,8.00e-02,
352,8.00e-02,2.40e-01,
353,-8.00e-02,8.00e-02,
354,-8.00e-02,8.00e-02,
355,8.00e-02,2.40e-01,
356,-8.00e-02,8.00e-02,
357,0.00e+00,2.40e-01,
358,-8.00e-02,8.00e-02,
359,0.00e+00,2.40e-01,
360,-8.00e-02,8.00e-02,
361,0.00e+00,2.40e-01,
362,0.00e+00,2.40e-01,
363,-1.60e-01,8.00e-02,
364,-1.60e-01,8.00e-02,
365,0.00e+00,2.40e-01,
366,0.00e+00,2.40e-01,
367,-1.60e-01,0.00e+00,
368,0.00e+00,8.00e-02,
369,-8.00e-02,2.40e-01,
370,0.00e+00,8.00e-02,
371,-8.00e-02,2.40e-01,
372,-8.00e-02,1.60e-01,
373,0.00e+00,0.00e+00,
374,-8.00e-02,1.60e-01,
375,8.00e-02,8.00e-02,
376,-8.00e-02,2.40e-01,
377,8.00e-02,0.00e+00,
378,8.00e-02,8.00e-02,
379,-8.00e-02,2.40e-01,
380,0.00e+00,8.00e-02,
381,1.60e-01,2.40e-01,
382,0.00e+00,8.00e-02,
383,1.60e-01,2.40e-01,
384,8.00e-02,8.00e-02,
385,2.40e-01,2.40e-01,
386,2.40e-01,8.00e-02,
387,8.00e-02,2.40e-01,
388,1.60e-01,8.00e-02,
389,3.20e-01,1.60e-01,
390,3.20e-01,0.00e+00,
391,1.60e-01,2.40e-01,
392,2.40e-01,1.60e-01,
393,4.00e-01,0.00e+00,
394,2.40e-01,8.00e-02,
395,4.00e-01,2.40e-01,
396,4.00e-01,8.00e-02,
397,5.60e-01,2.40e-01,
398,4.80e-01,8.00e-02,
399,6.40e-01,2.40e-01,
400,5.60e-01,1.60e-01,
401,7.20e-01,8.00e-02,
402,5.60e-01,1.60e-01,
403,7.20e-01,8.00e-02,
404,6.40e-01,8.00e-02,
405,8.00e-01,2.40e-01,
406,7.20e-01,8.00e-02,
407,8.80e-01,5.04e+00,
408,8.00e-01,4.96e+00,
409,9.60e-01,4.88e+00,
410,8.80e-01,4.96e+00,
411,1.04e+00,4.88e+00,
412,9.60e-01,4.96e+00,
413,1.12e+00,4.88e+00,
414,1.04e+00,4.96e+00,
415,1.20e+00,4.88e+00,
416,1.12e+00,4.96e+00,
417,1.28e+00,4.88e+00,
418,1.20e+00,4.88e+00,
419,1.36e+00,5.04e+00,
420,1.28e+00,5.04e+00,
421,1.52e+00,4.88e+00,
422,1.44e+00,4.88e+00,
423,1.60e+00,5.20e+00,
424,1.52e+00,5.04e+00,
425,1.68e+00,4.88e+00,
426,1.60e+00,5.12e+00,
427,1.76e+00,4.88e+00,
428,1.68e+00,5.20e+00,
429,1.92e+00,4.88e+00,
430,1.76e+00,5.12e+00,
431,2.00e+00,4.88e+00,
432,1.84e+00,4.88e+00,
433,2.08e+00,5.20e+00,
434,1.92e+00,4.88e+00,
435,2.16e+00,5.20e+00,
436,2.08e+00,4.88e+00,
437,2.24e+00,5.20e+00,
438,2.16e+00,4.88e+00,
439,2.32e+00,5.20e+00,
440,2.24e+00,4.88e+00,
441,2.48e+00,5.20e+00,
442,2.40e+00,4.88e+00,
443,2.56e+00,5.20e+00,
444,2.48e+00,4.88e+00,
445,2.72e+00,5.20e+00,
446,2.56e+00,4.88e+00,
447,2.80e+00,5.20e+00,
448,2.72e+00,5.20e+00,
449,2.88e+00,4.88e+00,
450,2.80e+00,5.12e+00,
451,2.96e+00,4.88e+00,
452,2.88e+00,4.88e+00,
453,3.04e+00,5.20e+00,
454,2.96e+00,5.20e+00,
455,3.12e+00,4.88e+00,
456,3.04e+00,4.88e+00,
457,3.28e+00,5.20e+00,
458,3.12e+00,4.88e+00,
459,3.44e+00,5.20e+00,
460,3.20e+00,5.20e+00,
461,3.52e+00,4.88e+00,
462,3.36e+00,4.88e+00,
463,3.60e+00,5.20e+00,
464,3.44e+00,5.20e+00,
465,3.68e+00,4.88e+00,
466,3.52e+00,5.20e+00,
467,3.76e+00,4.88e+00,
468,3.60e+00,5.12e+00,
469,3.84e+00,4.88e+00,
470,3.68e+00,4.88e+00,
471,3.92e+00,5.20e+00,
472,3.76e+00,4.88e+00,
473,4.00e+00,5.20e+00,
474,3.84e+00,5.20e+00,
475,4.08e+00,4.88e+00,
476,3.92e+00,4.88e+00,
477,4.16e+00,5.20e+00,
478,4.00e+00,4.88e+00,
479,4.24e+00,5.20e+00,
480,4.24e+00,4.88e+00,
481,4.08e+00,5.20e+00,
482,4.16e+00,4.88e+00,
483,4.40e+00,5.20e+00,
484,4.16e+00,4.88e+00,
485,4.48e+00,5.20e+00,
486,4.32e+00,4.88e+00,
487,4.56e+00,5.20e+00,
488,4.40e+00,5.20e+00,
489,4.56e+00,4.88e+00,
490,4.40e+00,5.20e+00,
491,4.64e+00,4.88e+00,
492,4.64e+00,4.88e+00,
493,4.48e+00,5.20e+00,
494,4.72e+00,5.20e+00,
495,4.56e+00,4.88e+00,
496,4.56e+00,4.88e+00,
497,4.80e+00,5.20e+00,
498,4.56e+00,4.88e+00,
499,4.80e+00,5.20e+00,
500,4.80e+00,5.20e+00,
501,4.64e+00,4.88e+00,
502,4.64e+00,5.20e+00,
503,4.88e+00,4.88e+00,
504,4.88e+00,4.88e+00,
505,4.72e+00,5.20e+00,
506,4.88e+00,4.88e+00,
507,4.72e+00,5.20e+00,
508,4.72e+00,4.88e+00,
509,4.96e+00,5.20e+00,
510,4.96e+00,4.88e+00,
511,4.80e+00,5.20e+00,
512,4.96e+00,4.88e+00,
513,4.80e+00,5.20e+00,
514,4.80e+00,5.12e+00,
515,4.96e+00,4.88e+00,
516,4.96e+00,4.88e+00,
517,4.80e+00,5.20e+00,
518,4.96e+00,4.88e+00,
519,4.80e+00,5.20e+00,
520,4.96e+00,4.88e+00,
521,4.80e+00,5.20e+00,
522,4.96e+00,4.88e+00,
523,4.80e+00,5.20e+00,
524,4.96e+00,4.88e+00,
525,4.80e+00,5.20e+00,
526,4.96e+00,4.88e+00,
527,4.80e+00,5.20e+00,
528,4.96e+00,4.88e+00,
529,4.72e+00,5.20e+00,
530,4.72e+00,4.88e+00,
531,4.88e+00,5.20e+00,
532,4.88e+00,5.20e+00,
533,4.72e+00,4.88e+00,
534,4.88e+00,4.88e+00,
535,4.64e+00,5.20e+00,
536,4.64e+00,4.88e+00,
537,4.80e+00,5.20e+00,
538,4.80e+00,4.88e+00,
539,4.56e+00,5.20e+00,
540,4.56e+00,4.88e+00,
541,4.72e+00,5.20e+00,
542,4.72e+00,5.20e+00,
543,4.48e+00,4.88e+00,
544,4.48e+00,4.88e+00,
545,4.64e+00,5.20e+00,
546,4.64e+00,4.88e+00,
547,4.40e+00,5.20e+00,
548,4.40e+00,5.20e+00,
549,4.56e+00,4.88e+00,
550,4.48e+00,5.20e+00,
551,4.32e+00,4.88e+00,
552,4.48e+00,4.88e+00,
553,4.24e+00,5.20e+00,
554,4.40e+00,5.20e+00,
555,4.16e+00,4.88e+00,
556,4.24e+00,4.88e+00,
557,4.08e+00,5.20e+00,
558,4.24e+00,5.20e+00,
559,4.00e+00,4.88e+00,
560,4.16e+00,4.88e+00,
561,3.92e+00,5.20e+00,
562,4.08e+00,5.20e+00,
563,3.84e+00,4.88e+00,
564,4.00e+00,5.20e+00,
565,3.76e+00,4.88e+00,
566,3.92e+00,4.88e+00,
567,3.68e+00,5.20e+00,
568,3.84e+00,4.88e+00,
569,3.60e+00,5.20e+00,
570,3.76e+00,4.88e+00,
571,3.52e+00,5.20e+00,
572,3.68e+00,4.88e+00,
573,3.44e+00,5.20e+00,
574,3.60e+00,4.88e+00,
575,3.36e+00,5.20e+00,
576,3.52e+00,4.88e+00,
577,3.20e+00,5.20e+00,
578,3.36e+00,4.88e+00,
579,3.12e+00,5.20e+00,
580,3.20e+00,5.12e+00,
581,3.04e+00,4.88e+00,
582,3.12e+00,5.20e+00,
583,2.96e+00,4.88e+00,
584,3.04e+00,4.88e+00,
585,2.88e+00,5.20e+00,
586,2.96e+00,5.20e+00,
587,2.72e+00,4.88e+00,
588,2.88e+00,4.88e+00,
589,2.64e+00,5.20e+00,
590,2.80e+00,4.88e+00,
591,2.56e+00,5.20e+00,
592,2.72e+00,4.88e+00,
593,2.48e+00,5.20e+00,
594,2.56e+00,4.88e+00,
595,2.40e+00,5.20e+00,
596,2.48e+00,5.20e+00,
597,2.24e+00,4.88e+00,
598,2.32e+00,4.88e+00,
599,2.16e+00,5.20e+00,
600,2.24e+00,4.88e+00,
601,2.00e+00,5.20e+00,
602,2.16e+00,5.20e+00,
603,1.92e+00,4.88e+00,
604,2.08e+00,4.96e+00,
605,1.84e+00,5.20e+00,
606,1.92e+00,5.20e+00,
607,1.76e+00,4.88e+00,
608,1.84e+00,4.88e+00,
609,1.68e+00,5.20e+00,
610,1.76e+00,4.88e+00,
611,1.60e+00,5.20e+00,
612,1.68e+00,4.88e+00,
613,1.52e+00,5.20e+00,
614,1.60e+00,4.88e+00,
615,1.44e+00,5.20e+00,
616,1.52e+00,4.88e+00,
617,1.28e+00,5.20e+00,
618,1.36e+00,5.12e+00,
619,1.20e+00,4.88e+00,
620,1.28e+00,5.20e+00,
621,1.12e+00,4.88e+00,
622,1.20e+00,4.88e+00,
623,1.04e+00,5.20e+00,
624,1.12e+00,4.88e+00,
625,9.60e-01,5.12e+00,
626,1.04e+00,5.20e+00,
627,8.80e-01,4.88e+00,
628,9.60e-01,4.88e+00,
629,8.00e-01,5.20e+00,
630,8.80e-01,4.88e+00,
631,7.20e-01,5.20e+00,
632,8.00e-01,4.88e+00,
633,6.40e-01,5.20e+00,
634,7.20e-01,4.88e+00,
635,5.60e-01,5.20e+00,
636,5.60e-01,4.88e+00,
637,7.20e-01,5.20e+00,
638,6.40e-01,5.20e+00,
639,4.80e-01,4.88e+00,
640,5.60e-01,4.88e+00,
641,4.00e-01,5.20e+00,
642,4.00e-01,5.20e+00,
643,2.40e-01,4.88e+00,
644,4.00e-01,5.20e+00,
645,2.40e-01,1.60e-01,
646,3.20e-01,2.40e-01,
647,1.60e-01,8.00e-02,
648,2.40e-01,2.40e-01,
649,1.60e-01,8.00e-02,
650,2.40e-01,2.40e-01,
651,8.00e-02,8.00e-02,
652,1.60e-01,2.40e-01,
653,8.00e-02,8.00e-02,
654,1.60e-01,2.40e-01,
655,0.00e+00,8.00e-02,
656,1.60e-01,2.40e-01,
657,0.00e+00,8.00e-02,
658,8.00e-02,8.00e-02,
659,-8.00e-02,2.40e-01,
660,8.00e-02,2.40e-01,
661,-8.00e-02,0.00e+00,
662,-8.00e-02,8.00e-02,
663,8.00e-02,2.40e-01,
664,0.00e+00,8.00e-02,
665,-8.00e-02,2.40e-01,
666,0.00e+00,8.00e-02,
667,-8.00e-02,2.40e-01,
668,0.00e+00,1.60e-01,
669,-8.00e-02,8.00e-02,
670,0.00e+00,2.40e-01,
671,-1.60e-01,8.00e-02,
672,0.00e+00,8.00e-02,
673,-1.60e-01,2.40e-01,
674,0.00e+00,8.00e-02,
675,-1.60e-01,2.40e-01,
676,-8.00e-02,1.60e-01,
677,0.00e+00,8.00e-02,
678,-8.00e-02,1.60e-01,
679,0.00e+00,8.00e-02,
680,0.00e+00,1.60e-01,
681,-8.00e-02,8.00e-02,
682,-8.00e-02,1.60e-01,
683,8.00e-02,0.00e+00,
684,-8.00e-02,8.00e-02,
685,8.00e-02,2.40e-01,
686,8.00e-02,8.00e-02,
687,0.00e+00,1.60e-01,
688,0.00e+00,8.00e-02,
689,1.60e-01,2.40e-01,
690,0.00e+00,1.60e-01,
691,1.60e-01,8.00e-02,
692,8.00e-02,1.60e-01,
693,2.40e-01,8.00e-02,
694,2.40e-01,8.00e-02,
695,8.00e-02,1.60e-01,
696,1.60e-01,8.00e-02,
697,3.20e-01,2.40e-01,
698,1.60e-01,1.60e-01,
699,3.20e-01,8.00e-02,
700,2.40e-01,1.60e-01,
701,4.00e-01,8.00e-02,
702,3.20e-01,0.00e+00,
703,5.60e-01,2.40e-01,
704,4.00e-01,1.60e-01,
705,5.60e-01,8.00e-02,
706,4.80e-01,1.60e-01,
707,6.40e-01,8.00e-02,
708,5.60e-01,1.60e-01,
709,7.20e-01,8.00e-02,
710,5.60e-01,1.60e-01,
711,8.00e-01,8.00e-02,
712,8.00e-01,8.00e-02,
713,6.40e-01,2.40e-01,
714,7.20e-01,8.00e-02,
715,8.80e-01,5.04e+00,
716,8.00e-01,5.04e+00,
717,9.60e-01,4.88e+00,
718,8.80e-01,5.04e+00,
719,1.04e+00,4.88e+00,
720,9.60e-01,5.04e+00,
721,1.12e+00,4.88e+00,
722,1.04e+00,4.96e+00,
723,1.20e+00,4.88e+00,
724,1.12e+00,4.96e+00,
725,1.28e+00,4.88e+00,
726,1.20e+00,4.96e+00,
727,1.36e+00,4.88e+00,
728,1.36e+00,4.88e+00,
729,1.52e+00,5.12e+00,
730,1.44e+00,4.96e+00,
731,1.60e+00,4.88e+00,
732,1.52e+00,5.12e+00,
733,1.68e+00,4.88e+00,
734,1.60e+00,4.88e+00,
735,1.76e+00,5.20e+00,
736,1.68e+00,4.88e+00,
737,1.92e+00,5.12e+00,
738,1.76e+00,4.88e+00,
739,2.00e+00,5.20e+00,
740,1.92e+00,4.88e+00,
741,2.08e+00,5.20e+00,
742,2.00e+00,5.20e+00,
743,2.16e+00,4.88e+00,
744,2.08e+00,5.20e+00,
745,2.24e+00,4.88e+00,
746,2.16e+00,4.88e+00,
747,2.32e+00,5.20e+00,
748,2.32e+00,4.88e+00,
749,2.56e+00,5.20e+00,
750,2.40e+00,4.88e+00,
751,2.64e+00,5.20e+00,
752,2.48e+00,4.88e+00,
753,2.72e+00,5.20e+00,
754,2.56e+00,5.20e+00,
755,2.80e+00,4.88e+00,
756,2.72e+00,4.88e+00,
757,2.88e+00,5.20e+00,
758,2.80e+00,4.88e+00,
759,2.96e+00,5.20e+00,
760,2.88e+00,5.20e+00,
761,3.12e+00,4.88e+00,
762,2.96e+00,4.88e+00,
763,3.20e+00,5.20e+00,
764,3.04e+00,4.88e+00,
765,3.28e+00,5.20e+00,
766,3.12e+00,4.88e+00,
767,3.44e+00,5.20e+00,
768,3.28e+00,4.88e+00,
769,3.52e+00,5.20e+00,
770,3.36e+00,4.88e+00,
771,3.60e+00,5.20e+00,
772,3.44e+00,4.88e+00,
773,3.68e+00,5.20e+00,
774,3.52e+00,5.20e+00,
775,3.76e+00,4.88e+00,
776,3.60e+00,4.88e+00,
777,3.84e+00,5.20e+00,
778,3.68e+00,4.88e+00,
779,3.92e+00,5.20e+00,
780,3.76e+00,4.88e+00,
781,4.00e+00,5.20e+00,
782,3.84e+00,5.12e+00,
783,4.08e+00,4.88e+00,
784,3.92e+00,5.20e+00,
785,4.16e+00,4.88e+00,
786,4.00e+00,4.88e+00,
787,4.24e+00,5.20e+00,
788,4.08e+00,4.88e+00,
789,4.32e+00,5.20e+00,
790,4.24e+00,5.20e+00,
791,4.40e+00,4.88e+00,
792,4.24e+00,4.88e+00,
793,4.48e+00,5.20e+00,
794,4.32e+00,4.88e+00,
795,4.56e+00,5.20e+00,
796,4.56e+00,4.88e+00,
797,4.40e+00,5.20e+00,
798,4.40e+00,4.88e+00,
799,4.64e+00,5.20e+00,
800,4.64e+00,4.88e+00,
801,4.48e+00,5.20e+00,
802,4.56e+00,4.88e+00,
803,4.72e+00,5.20e+00,
804,4.56e+00,4.88e+00,
805,4.80e+00,5.20e+00,
806,4.64e+00,4.88e+00,
807,4.80e+00,5.20e+00,
808,4.80e+00,5.20e+00,
809,4.64e+00,4.88e+00,
810,4.64e+00,4.88e+00,
811,4.88e+00,5.20e+00,
812,4.88e+00,4.88e+00,
813,4.72e+00,5.20e+00,
814,4.88e+00,4.88e+00,
815,4.72e+00,5.20e+00,
816,4.72e+00,4.88e+00,
817,4.96e+00,5.20e+00,
818,4.96e+00,5.20e+00,
819,4.80e+00,4.88e+00,
820,4.96e+00,4.88e+00,
821,4.80e+00,5.20e+00,
822,4.96e+00,4.88e+00,
823,4.80e+00,5.20e+00,
824,4.96e+00,5.20e+00,
825,4.80e+00,4.88e+00,
826,4.96e+00,5.20e+00,
827,4.80e+00,4.88e+00,
828,4.80e+00,4.88e+00,
829,4.96e+00,5.20e+00,
830,4.96e+00,4.88e+00,
831,4.80e+00,5.20e+00,
832,4.96e+00,4.88e+00,
833,4.80e+00,5.20e+00,
834,4.96e+00,4.88e+00,
835,4.80e+00,5.20e+00,
836,4.72e+00,5.20e+00,
837,4.96e+00,4.88e+00,
838,4.72e+00,4.88e+00,
839,4.88e+00,5.20e+00,
840,4.88e+00,4.88e+00,
841,4.72e+00,5.20e+00,
842,4.88e+00,4.88e+00,
843,4.64e+00,5.20e+00,
844,4.64e+00,4.88e+00,
845,4.80e+00,5.20e+00,
846,4.80e+00,4.88e+00,
847,4.56e+00,5.20e+00,
848,4.72e+00,5.20e+00,
849,4.56e+00,4.88e+00,
850,4.72e+00,5.20e+00,
851,4.48e+00,4.88e+00,
852,4.64e+00,4.88e+00,
853,4.48e+00,5.20e+00,
854,4.64e+00,4.88e+00,
855,4.40e+00,5.20e+00,
856,4.56e+00,5.20e+00,
857,4.32e+00,4.88e+00,
858,4.48e+00,4.88e+00,
859,4.32e+00,5.20e+00,
860,4.48e+00,4.88e+00,
861,4.24e+00,5.20e+00,
862,4.40e+00,4.88e+00,
863,4.08e+00,5.20e+00,
864,4.24e+00,4.88e+00,
865,4.00e+00,5.20e+00,
866,4.16e+00,4.88e+00,
867,4.00e+00,5.20e+00,
868,4.08e+00,4.88e+00,
