project/matlab/project_exp3/500 Hz/NewFile1.csv

X,CH1,CH2,Start,Increment,
Sequence,Volt,Volt,-2.280000e-03,5.000000e-06
0,9.60e-01,4.96e+00,
1,1.12e+00,4.88e+00,
2,1.04e+00,4.96e+00,
3,1.20e+00,4.88e+00,
4,1.12e+00,4.96e+00,
5,1.28e+00,4.88e+00,
6,1.28e+00,4.96e+00,
7,1.20e+00,4.88e+00,
8,1.36e+00,4.88e+00,
9,1.20e+00,5.12e+00,
10,1.28e+00,4.88e+00,
11,1.52e+00,5.12e+00,
12,1.44e+00,4.88e+00,
13,1.60e+00,5.12e+00,
14,1.52e+00,4.88e+00,
15,1.68e+00,5.12e+00,
16,1.60e+00,4.88e+00,
17,1.76e+00,5.12e+00,
18,1.76e+00,4.88e+00,
19,1.60e+00,5.20e+00,
20,1.68e+00,4.88e+00,
21,1.84e+00,5.20e+00,
22,1.76e+00,4.88e+00,
23,1.92e+00,5.20e+00,
24,1.84e+00,4.88e+00,
25,2.00e+00,5.20e+00,
26,1.92e+00,4.88e+00,
27,2.08e+00,5.20e+00,
28,2.00e+00,4.88e+00,
29,2.16e+00,5.20e+00,
30,2.08e+00,5.20e+00,
31,2.24e+00,4.88e+00,
32,2.08e+00,5.12e+00,
33,2.32e+00,4.88e+00,
34,2.16e+00,5.20e+00,
35,2.48e+00,4.88e+00,
36,2.32e+00,5.20e+00,
37,2.48e+00,4.88e+00,
38,2.56e+00,4.88e+00,
39,2.40e+00,5.20e+00,
40,2.48e+00,4.88e+00,
41,2.64e+00,5.20e+00,
42,2.56e+00,4.88e+00,
43,2.72e+00,5.20e+00,
44,2.64e+00,4.88e+00,
45,2.80e+00,5.20e+00,
46,2.72e+00,4.88e+00,
47,2.88e+00,5.20e+00,
48,2.72e+00,4.88e+00,
49,2.96e+00,5.20e+00,
50,2.80e+00,4.88e+00,
51,3.04e+00,5.20e+00,
52,2.88e+00,4.88e+00,
53,3.12e+00,5.20e+00,
54,2.96e+00,4.88e+00,
55,3.20e+00,5.20e+00,
56,3.04e+00,4.88e+00,
57,3.20e+00,5.20e+00,
58,3.12e+00,5.20e+00,
59,3.28e+00,4.88e+00,
60,3.28e+00,4.88e+00,
61,3.44e+00,5.20e+00,
62,3.28e+00,5.20e+00,
63,3.52e+00,4.88e+00,
64,3.36e+00,4.88e+00,
65,3.60e+00,5.20e+00,
66,3.44e+00,5.20e+00,
67,3.60e+00,4.88e+00,
68,3.52e+00,4.88e+00,
69,3.68e+00,5.20e+00,
70,3.60e+00,4.88e+00,
71,3.76e+00,5.20e+00,
72,3.60e+00,4.88e+00,
73,3.84e+00,5.20e+00,
74,3.68e+00,4.88e+00,
75,3.92e+00,5.20e+00,
76,3.92e+00,4.88e+00,
77,3.76e+00,5.20e+00,
78,3.84e+00,5.20e+00,
79,4.00e+00,4.88e+00,
80,3.84e+00,4.88e+00,
81,4.08e+00,5.20e+00,
82,4.08e+00,4.88e+00,
83,3.92e+00,5.20e+00,
84,4.16e+00,4.88e+00,
85,4.00e+00,5.20e+00,
86,4.00e+00,5.20e+00,
87,4.24e+00,4.88e+00,
88,4.24e+00,4.88e+00,
89,4.08e+00,5.20e+00,
90,4.16e+00,4.88e+00,
91,4.40e+00,5.20e+00,
92,4.40e+00,5.20e+00,
93,4.24e+00,4.88e+00,
94,4.32e+00,4.88e+00,
95,4.48e+00,5.20e+00,
96,4.32e+00,4.88e+00,
97,4.56e+00,5.20e+00,
98,4.56e+00,4.88e+00,
99,4.40e+00,5.20e+00,
100,4.40e+00,4.88e+00,
101,4.64e+00,5.20e+00,
102,4.48e+00,4.88e+00,
103,4.64e+00,5.20e+00,
104,4.48e+00,4.88e+00,
105,4.72e+00,5.20e+00,
106,4.72e+00,4.88e+00,
107,4.56e+00,5.20e+00,
108,4.72e+00,5.20e+00,
109,4.56e+00,4.88e+00,
110,4.56e+00,4.88e+00,
111,4.80e+00,5.20e+00,
112,4.80e+00,4.88e+00,
113,4.64e+00,5.20e+00,
114,4.80e+00,4.88e+00,
115,4.64e+00,5.20e+00,
116,4.64e+00,4.88e+00,
117,4.88e+00,5.20e+00,
118,4.88e+00,4.88e+00,
119,4.72e+00,5.20e+00,
120,4.88e+00,4.88e+00,
121,4.72e+00,5.20e+00,
122,4.72e+00,4.88e+00,
123,4.88e+00,5.20e+00,
124,4.72e+00,5.20e+00,
125,4.96e+00,4.88e+00,
126,4.72e+00,4.88e+00,
127,4.96e+00,5.20e+00,
128,4.96e+00,5.20e+00,
129,4.80e+00,4.88e+00,
130,4.96e+00,5.20e+00,
131,4.80e+00,4.88e+00,
132,4.96e+00,4.88e+00,
133,4.80e+00,5.20e+00,
134,4.96e+00,4.88e+00,
135,4.80e+00,5.20e+00,
136,4.96e+00,4.88e+00,
137,4.80e+00,5.20e+00,
138,4.96e+00,4.88e+00,
139,4.80e+00,5.20e+00,
140,4.96e+00,4.88e+00,
141,4.80e+00,5.20e+00,
142,4.96e+00,5.20e+00,
143,4.80e+00,4.88e+00,
144,4.96e+00,4.88e+00,
145,4.80e+00,5.20e+00,
146,4.96e+00,5.20e+00,
147,4.80e+00,4.88e+00,
148,4.96e+00,4.88e+00,
149,4.72e+00,5.20e+00,
150,4.96e+00,4.88e+00,
151,4.72e+00,5.20e+00,
152,4.72e+00,5.20e+00,
153,4.88e+00,4.88e+00,
154,4.88e+00,5.12e+00,
155,4.72e+00,4.88e+00,
156,4.88e+00,4.88e+00,
157,4.72e+00,5.20e+00,
158,4.88e+00,4.88e+00,
159,4.64e+00,5.20e+00,
160,4.64e+00,5.12e+00,
161,4.80e+00,4.88e+00,
162,4.80e+00,4.88e+00,
163,4.64e+00,5.20e+00,
164,4.80e+00,4.88e+00,
165,4.56e+00,5.20e+00,
166,4.72e+00,4.88e+00,
167,4.56e+00,5.20e+00,
168,4.56e+00,4.88e+00,
169,4.72e+00,5.20e+00,
170,4.48e+00,4.88e+00,
171,4.72e+00,5.20e+00,
172,4.64e+00,4.88e+00,
173,4.48e+00,5.20e+00,
174,4.64e+00,4.88e+00,
175,4.40e+00,5.20e+00,
176,4.40e+00,4.88e+00,
177,4.56e+00,5.20e+00,
178,4.48e+00,4.88e+00,
179,4.32e+00,5.20e+00,
180,4.32e+00,5.20e+00,
181,4.48e+00,4.88e+00,
182,4.24e+00,4.88e+00,
183,4.40e+00,5.20e+00,
184,4.40e+00,5.20e+00,
185,4.16e+00,4.88e+00,
186,4.24e+00,4.88e+00,
187,4.08e+00,5.20e+00,
188,4.24e+00,4.88e+00,
189,4.00e+00,5.20e+00,
190,4.16e+00,4.88e+00,
191,4.00e+00,5.20e+00,
192,4.08e+00,4.88e+00,
193,3.92e+00,5.20e+00,
194,4.08e+00,4.88e+00,
195,3.84e+00,5.20e+00,
196,4.00e+00,4.88e+00,
197,3.76e+00,5.20e+00,
198,3.92e+00,4.88e+00,
199,3.76e+00,5.20e+00,
200,3.92e+00,4.88e+00,
201,3.68e+00,5.20e+00,
202,3.84e+00,4.88e+00,
203,3.60e+00,5.20e+00,
204,3.76e+00,4.88e+00,
205,3.52e+00,5.20e+00,
206,3.52e+00,4.88e+00,
207,3.68e+00,5.20e+00,
208,3.60e+00,5.20e+00,
209,3.44e+00,4.88e+00,
210,3.52e+00,4.88e+00,
211,3.36e+00,5.20e+00,
212,3.52e+00,5.20e+00,
213,3.28e+00,4.88e+00,
214,3.44e+00,5.20e+00,
215,3.12e+00,4.88e+00,
216,3.12e+00,5.12e+00,
217,3.28e+00,4.88e+00,
218,3.20e+00,5.20e+00,
219,3.04e+00,4.88e+00,
220,3.12e+00,4.88e+00,
221,2.96e+00,5.20e+00,
222,3.04e+00,4.88e+00,
223,2.88e+00,5.20e+00,
224,3.04e+00,4.88e+00,
225,2.80e+00,5.20e+00,
226,2.96e+00,4.88e+00,
227,2.72e+00,5.20e+00,
228,2.88e+00,4.88e+00,
229,2.64e+00,5.20e+00,
230,2.64e+00,5.20e+00,
231,2.80e+00,4.88e+00,
232,2.72e+00,5.20e+00,
233,2.56e+00,4.88e+00,
234,2.64e+00,4.88e+00,
235,2.48e+00,5.20e+00,
236,2.56e+00,5.20e+00,
237,2.40e+00,4.88e+00,
238,2.48e+00,4.88e+00,
239,2.32e+00,5.20e+00,
240,2.40e+00,4.88e+00,
241,2.16e+00,5.20e+00,
242,2.32e+00,4.88e+00,
243,2.08e+00,5.20e+00,
244,2.24e+00,4.88e+00,
245,2.00e+00,5.20e+00,
246,2.16e+00,4.88e+00,
247,2.00e+00,5.20e+00,
248,1.92e+00,4.88e+00,
249,2.08e+00,5.20e+00,
250,2.00e+00,4.88e+00,
251,1.84e+00,5.20e+00,
252,1.92e+00,4.88e+00,
253,1.76e+00,5.20e+00,
254,1.84e+00,4.88e+00,
255,1.68e+00,5.20e+00,
256,1.76e+00,4.88e+00,
257,1.60e+00,5.20e+00,
258,1.76e+00,4.88e+00,
259,1.52e+00,5.20e+00,
260,1.52e+00,5.20e+00,
261,1.68e+00,4.88e+00,
262,1.44e+00,5.20e+00,
263,1.60e+00,4.88e+00,
264,1.52e+00,4.88e+00,
265,1.36e+00,5.20e+00,
266,1.36e+00,4.88e+00,
267,1.20e+00,5.20e+00,
268,1.28e+00,5.12e+00,
269,1.12e+00,4.88e+00,
270,1.12e+00,5.20e+00,
271,1.28e+00,4.88e+00,
272,1.20e+00,4.88e+00,
273,1.04e+00,5.20e+00,
274,1.12e+00,5.20e+00,
275,9.60e-01,4.88e+00,
276,1.04e+00,5.20e+00,
277,8.80e-01,4.88e+00,
278,8.80e-01,5.20e+00,
279,1.04e+00,4.88e+00,
280,9.60e-01,4.88e+00,
281,8.00e-01,5.20e+00,
282,8.80e-01,5.20e+00,
283,7.20e-01,4.88e+00,
284,7.20e-01,4.88e+00,
285,8.00e-01,5.20e+00,
286,8.00e-01,4.88e+00,
287,6.40e-01,5.20e+00,
288,7.20e-01,5.12e+00,
289,5.60e-01,4.88e+00,
290,5.60e-01,5.20e+00,
291,7.20e-01,4.88e+00,
292,6.40e-01,5.20e+00,
293,4.80e-01,4.88e+00,
294,4.80e-01,4.88e+00,
295,5.60e-01,5.20e+00,
296,5.60e-01,4.88e+00,
297,4.00e-01,5.20e+00,
298,4.00e-01,4.88e+00,
299,3.20e-01,5.20e+00,
300,4.00e-01,5.20e+00,
301,2.40e-01,4.64e+00,
302,3.20e-01,4.48e+00,
303,1.60e-01,8.00e-02,
304,1.60e-01,2.40e-01,
305,3.20e-01,8.00e-02,
306,2.40e-01,2.40e-01,
307,1.60e-01,8.00e-02,
308,2.40e-01,2.40e-01,
309,8.00e-02,8.00e-02,
310,8.00e-02,2.40e-01,
311,2.40e-01,8.00e-02,
312,1.60e-01,8.00e-02,
313,8.00e-02,2.40e-01,
314,1.60e-01,2.40e-01,
315,0.00e+00,8.00e-02,
316,1.60e-01,8.00e-02,
317,0.00e+00,2.40e-01,
318,8.00e-02,2.40e-01,
319,0.00e+00,8.00e-02,
320,8.00e-02,8.00e-02,
321,-8.00e-02,2.40e-01,
322,8.00e-02,8.00e-02,
323,-8.00e-02,2.40e-01,
324,8.00e-02,2.40e-01,
325,-8.00e-02,0.00e+00,
326,-8.00e-02,8.00e-02,
327,0.00e+00,2.40e-01,
328,-8.00e-02,8.00e-02,
329,0.00e+00,2.40e-01,
330,-8.00e-02,2.40e-01,
331,0.00e+00,8.00e-02,
332,-8.00e-02,2.40e-01,
333,0.00e+00,8.00e-02,
334,0.00e+00,8.00e-02,
335,-1.60e-01,2.40e-01,
336,0.00e+00,8.00e-02,
337,-1.60e-01,2.40e-01,
338,0.00e+00,8.00e-02,
339,-1.60e-01,2.40e-01,
340,0.00e+00,1.60e-01,
341,-8.00e-02,8.00e-02,
342,0.00e+00,2.40e-01,
343,-8.00e-02,0.00e+00,
344,0.00e+00,8.00e-02,
345,-8.00e-02,2.40e-01,
346,-8.00e-02,1.60e-01,
347,0.00e+00,8.00e-02,
348,-8.00e-02,8.00e-02,
349,0.00e+00,2.40e-01,
350,-8.00e-02,8.00e-02,
351,8.00e-02,2.40e-01,
352,8.00e-02,8.00e-02,
353,-8.00e-02,2.40e-01,
354,-8.00e-02,8.00e-02,
355,8.00e-02,2.40e-01,
356,0.00e+00,8.00e-02,
357,8.00e-02,2.40e-01,
358,0.00e+00,0.00e+00,
359,1.60e-01,2.40e-01,
360,0.00e+00,1.60e-01,
361,1.60e-01,8.00e-02,
362,8.00e-02,8.00e-02,
363,1.60e-01,2.40e-01,
364,8.00e-02,1.60e-01,
365,2.40e-01,0.00e+00,
366,2.40e-01,0.00e+00,
367,8.00e-02,2.40e-01,
368,2.40e-01,1.60e-01,
369,1.60e-01,8.00e-02,
370,1.60e-01,8.00e-02,
371,3.20e-01,2.40e-01,
372,3.20e-01,0.00e+00,
373,2.40e-01,2.40e-01,
374,2.40e-01,1.60e-01,
375,4.00e-01,8.00e-02,
376,4.00e-01,8.00e-02,
377,3.20e-01,2.40e-01,
378,3.20e-01,1.60e-01,
379,5.60e-01,8.00e-02,
380,4.80e-01,0.00e+00,
381,6.40e-01,2.40e-01,
382,4.80e-01,8.00e-02,
383,6.40e-01,2.40e-01,
384,5.60e-01,8.00e-02,
385,7.20e-01,2.40e-01,
386,5.60e-01,0.00e+00,
387,7.20e-01,2.40e-01,
388,6.40e-01,8.00e-02,
389,8.00e-01,2.40e-01,
390,7.20e-01,8.00e-02,
391,8.80e-01,2.88e+00,
392,7.20e-01,3.28e+00,
393,8.80e-01,5.04e+00,
394,8.00e-01,5.04e+00,
395,9.60e-01,4.88e+00,
396,8.80e-01,5.04e+00,
397,1.04e+00,4.88e+00,
398,8.80e-01,5.04e+00,
399,1.12e+00,4.88e+00,
400,1.12e+00,5.04e+00,
401,9.60e-01,4.88e+00,
402,1.04e+00,4.96e+00,
403,1.20e+00,4.88e+00,
404,1.12e+00,4.96e+00,
405,1.28e+00,4.88e+00,
406,1.20e+00,4.88e+00,
407,1.36e+00,5.12e+00,
408,1.36e+00,5.20e+00,
409,1.20e+00,4.88e+00,
410,1.28e+00,4.88e+00,
411,1.52e+00,5.12e+00,
412,1.44e+00,4.88e+00,
413,1.60e+00,5.20e+00,
414,1.52e+00,4.88e+00,
415,1.68e+00,5.20e+00,
416,1.60e+00,4.88e+00,
417,1.76e+00,5.12e+00,
418,1.60e+00,5.20e+00,
419,1.76e+00,4.88e+00,
420,1.68e+00,4.88e+00,
421,1.84e+00,5.12e+00,
422,1.76e+00,4.88e+00,
423,1.92e+00,5.20e+00,
424,1.84e+00,4.88e+00,
425,2.00e+00,5.20e+00,
426,1.92e+00,4.88e+00,
427,2.08e+00,5.20e+00,
428,2.00e+00,5.20e+00,
429,2.16e+00,4.88e+00,
430,2.08e+00,5.12e+00,
431,2.24e+00,4.88e+00,
432,2.08e+00,4.88e+00,
433,2.32e+00,5.20e+00,
434,2.16e+00,4.88e+00,
435,2.40e+00,5.20e+00,
436,2.32e+00,4.88e+00,
437,2.48e+00,5.20e+00,
438,2.56e+00,4.88e+00,
439,2.40e+00,5.20e+00,
440,2.48e+00,4.88e+00,
441,2.64e+00,5.20e+00,
442,2.56e+00,4.88e+00,
443,2.72e+00,5.20e+00,
444,2.64e+00,4.88e+00,
445,2.80e+00,5.20e+00,
446,2.72e+00,4.88e+00,
447,2.88e+00,5.20e+00,
448,2.72e+00,5.20e+00,
449,2.96e+00,4.88e+00,
450,2.80e+00,5.12e+00,
451,3.04e+00,4.88e+00,
452,2.88e+00,4.88e+00,
453,3.12e+00,5.20e+00,
454,2.96e+00,5.20e+00,
455,3.12e+00,4.88e+00,
456,3.04e+00,4.88e+00,
457,3.20e+00,5.20e+00,
458,3.28e+00,4.88e+00,
459,3.12e+00,5.20e+00,
460,3.20e+00,5.20e+00,
461,3.36e+00,4.88e+00,
462,3.28e+00,4.88e+00,
463,3.52e+00,5.12e+00,
464,3.36e+00,5.20e+00,
465,3.60e+00,4.88e+00,
466,3.44e+00,5.20e+00,
467,3.68e+00,4.88e+00,
468,3.68e+00,5.12e+00,
469,3.52e+00,4.88e+00,
470,3.60e+00,4.88e+00,
471,3.76e+00,5.20e+00,
472,3.60e+00,4.88e+00,
473,3.84e+00,5.20e+00,
474,3.68e+00,4.88e+00,
475,3.92e+00,5.20e+00,
476,3.92e+00,4.88e+00,
477,3.76e+00,5.20e+00,
478,3.76e+00,4.88e+00,
479,4.00e+00,5.20e+00,
480,3.84e+00,5.20e+00,
481,4.08e+00,4.88e+00,
482,4.08e+00,4.88e+00,
483,3.92e+00,5.20e+00,
484,4.00e+00,4.88e+00,
485,4.16e+00,5.20e+00,
486,4.00e+00,5.20e+00,
487,4.24e+00,4.88e+00,
488,4.08e+00,5.20e+00,
489,4.40e+00,4.88e+00,
490,4.08e+00,5.20e+00,
491,4.40e+00,4.88e+00,
492,4.40e+00,4.88e+00,
493,4.16e+00,5.20e+00,
494,4.48e+00,5.20e+00,
495,4.32e+00,4.88e+00,
496,4.32e+00,5.20e+00,
497,4.56e+00,4.88e+00,
498,4.40e+00,5.20e+00,
499,4.56e+00,4.88e+00,
500,4.40e+00,4.88e+00,
501,4.64e+00,5.20e+00,
502,4.64e+00,4.88e+00,
503,4.48e+00,5.20e+00,
504,4.48e+00,4.88e+00,
505,4.72e+00,5.20e+00,
506,4.56e+00,4.88e+00,
507,4.72e+00,5.20e+00,
508,4.72e+00,4.88e+00,
509,4.56e+00,5.20e+00,
510,4.56e+00,4.88e+00,
511,4.80e+00,5.20e+00,
512,4.80e+00,4.88e+00,
513,4.64e+00,5.20e+00,
514,4.64e+00,4.88e+00,
515,4.88e+00,5.20e+00,
516,4.64e+00,4.88e+00,
517,4.88e+00,5.20e+00,
518,4.88e+00,4.88e+00,
519,4.72e+00,5.20e+00,
520,4.88e+00,4.88e+00,
521,4.72e+00,5.20e+00,
522,4.88e+00,4.88e+00,
523,4.72e+00,5.20e+00,
524,4.72e+00,4.88e+00,
525,4.96e+00,5.20e+00,
526,4.96e+00,4.88e+00,
527,4.80e+00,5.20e+00,
528,4.96e+00,4.88e+00,
529,4.80e+00,5.20e+00,
530,4.96e+00,4.88e+00,
531,4.80e+00,5.20e+00,
532,4.96e+00,4.88e+00,
533,4.80e+00,5.20e+00,
534,4.96e+00,5.12e+00,
535,4.80e+00,4.88e+00,
536,4.96e+00,4.88e+00,
537,4.80e+00,5.20e+00,
538,4.96e+00,4.88e+00,
539,4.80e+00,5.20e+00,
540,4.96e+00,4.88e+00,
541,4.80e+00,5.20e+00,
542,4.96e+00,4.88e+00,
543,4.80e+00,5.20e+00,
544,4.96e+00,4.88e+00,
545,4.80e+00,5.20e+00,
546,4.96e+00,4.88e+00,
547,4.80e+00,5.20e+00,
548,4.96e+00,4.88e+00,
549,4.72e+00,5.20e+00,
550,4.72e+00,5.20e+00,
551,4.96e+00,4.88e+00,
552,4.72e+00,5.12e+00,
553,4.88e+00,4.88e+00,
554,4.88e+00,5.20e+00,
555,4.72e+00,4.88e+00,
556,4.88e+00,4.88e+00,
557,4.72e+00,5.20e+00,
558,4.80e+00,5.20e+00,
559,4.64e+00,4.88e+00,
560,4.64e+00,4.88e+00,
561,4.80e+00,5.20e+00,
562,4.80e+00,4.88e+00,
563,4.64e+00,5.20e+00,
564,4.80e+00,4.88e+00,
565,4.56e+00,5.20e+00,
566,4.56e+00,4.88e+00,
567,4.72e+00,5.20e+00,
568,4.72e+00,5.20e+00,
569,4.48e+00,4.88e+00,
570,4.48e+00,4.88e+00,
571,4.72e+00,5.20e+00,
572,4.64e+00,4.88e+00,
573,4.48e+00,5.20e+00,
574,4.64e+00,4.88e+00,
575,4.40e+00,5.20e+00,
576,4.40e+00,4.88e+00,
577,4.56e+00,5.20e+00,
578,4.48e+00,4.88e+00,
579,4.32e+00,5.20e+00,
580,4.48e+00,5.12e+00,
581,4.32e+00,4.88e+00,
582,4.40e+00,5.20e+00,
583,4.16e+00,4.88e+00,
584,4.40e+00,5.20e+00,
585,4.16e+00,4.88e+00,
586,4.08e+00,5.20e+00,
587,4.24e+00,4.88e+00,
588,4.24e+00,4.88e+00,
589,4.00e+00,5.20e+00,
590,4.16e+00,4.88e+00,
591,4.00e+00,5.20e+00,
592,4.08e+00,4.88e+00,
593,3.92e+00,5.20e+00,
594,4.08e+00,5.20e+00,
595,3.84e+00,4.88e+00,
596,4.00e+00,4.88e+00,
597,3.76e+00,5.20e+00,
598,3.76e+00,4.88e+00,
599,3.92e+00,5.20e+00,
600,3.92e+00,4.88e+00,
601,3.68e+00,5.20e+00,
602,3.84e+00,5.20e+00,
603,3.60e+00,4.88e+00,
604,3.76e+00,5.20e+00,
605,3.52e+00,4.88e+00,
606,3.52e+00,4.88e+00,
607,3.68e+00,5.20e+00,
608,3.60e+00,4.88e+00,
609,3.44e+00,5.20e+00,
610,3.60e+00,5.20e+00,
611,3.36e+00,4.88e+00,
612,3.52e+00,4.88e+00,
613,3.28e+00,5.20e+00,
614,3.44e+00,4.88e+00,
615,3.20e+00,5.20e+00,
616,3.28e+00,4.88e+00,
617,3.12e+00,5.20e+00,
618,3.20e+00,4.88e+00,
619,3.04e+00,5.20e+00,
620,3.12e+00,5.20e+00,
621,2.96e+00,4.88e+00,
622,3.12e+00,4.88e+00,
623,2.88e+00,5.20e+00,
624,3.04e+00,4.88e+00,
625,2.80e+00,5.20e+00,
626,2.96e+00,5.20e+00,
627,2.72e+00,4.88e+00,
628,2.88e+00,5.20e+00,
629,2.64e+00,4.88e+00,
630,2.80e+00,5.20e+00,
631,2.56e+00,4.88e+00,
632,2.56e+00,4.88e+00,
633,2.72e+00,5.20e+00,
634,2.64e+00,5.12e+00,
635,2.48e+00,4.88e+00,
636,2.56e+00,4.88e+00,
637,2.40e+00,5.20e+00,
638,2.48e+00,5.20e+00,
639,2.24e+00,4.88e+00,
640,2.40e+00,4.88e+00,
641,2.16e+00,5.20e+00,
642,2.32e+00,4.88e+00,
643,2.08e+00,5.12e+00,
644,2.24e+00,5.20e+00,
645,2.00e+00,4.88e+00,
646,2.00e+00,4.88e+00,
647,2.16e+00,5.20e+00,
648,2.08e+00,5.20e+00,
649,1.92e+00,4.88e+00,
650,2.00e+00,4.88e+00,
651,1.84e+00,5.20e+00,
652,1.92e+00,5.20e+00,
653,1.76e+00,4.88e+00,
654,1.84e+00,4.88e+00,
655,1.68e+00,5.20e+00,
656,1.76e+00,4.88e+00,
657,1.60e+00,5.20e+00,
658,1.76e+00,4.88e+00,
659,1.52e+00,5.20e+00,
660,1.52e+00,5.20e+00,
661,1.68e+00,4.88e+00,
662,1.60e+00,5.20e+00,
663,1.44e+00,4.88e+00,
664,1.52e+00,4.88e+00,
665,1.36e+00,5.20e+00,
666,1.36e+00,5.20e+00,
667,1.20e+00,4.88e+00,
668,1.28e+00,5.20e+00,
669,1.12e+00,4.88e+00,
670,1.28e+00,5.20e+00,
671,1.12e+00,4.88e+00,
672,1.20e+00,4.88e+00,
673,1.04e+00,5.20e+00,
674,1.12e+00,4.88e+00,
675,9.60e-01,5.20e+00,
676,1.04e+00,4.88e+00,
677,8.80e-01,5.20e+00,
678,8.80e-01,5.20e+00,
679,1.04e+00,4.88e+00,
680,9.60e-01,4.88e+00,
681,8.00e-01,5.20e+00,
682,8.80e-01,4.88e+00,
683,7.20e-01,5.20e+00,
684,7.20e-01,4.88e+00,
685,8.80e-01,5.20e+00,
686,8.00e-01,5.20e+00,
687,6.40e-01,4.88e+00,
688,7.20e-01,5.20e+00,
689,5.60e-01,4.88e+00,
690,5.60e-01,5.20e+00,
691,7.20e-01,4.88e+00,
692,6.40e-01,5.20e+00,
693,4.80e-01,4.88e+00,
694,4.80e-01,4.88e+00,
695,5.60e-01,5.20e+00,
696,5.60e-01,5.20e+00,
697,4.00e-01,4.88e+00,
698,4.00e-01,5.12e+00,
699,3.20e-01,4.88e+00,
700,4.00e-01,4.88e+00,
701,2.40e-01,5.20e+00,
702,3.20e-01,4.96e+00,
703,1.60e-01,8.00e-02,
704,1.60e-01,2.40e-01,
705,3.20e-01,8.00e-02,
706,1.60e-01,2.40e-01,
707,2.40e-01,8.00e-02,
708,2.40e-01,2.40e-01,
709,8.00e-02,8.00e-02,
710,2.40e-01,2.40e-01,
711,8.00e-02,8.00e-02,
712,1.60e-01,2.40e-01,
713,0.00e+00,8.00e-02,
714,0.00e+00,2.40e-01,
715,1.60e-01,8.00e-02,
716,1.60e-01,8.00e-02,
717,0.00e+00,2.40e-01,
718,8.00e-02,8.00e-02,
719,0.00e+00,2.40e-01,
720,8.00e-02,8.00e-02,
721,-8.00e-02,2.40e-01,
722,8.00e-02,0.00e+00,
723,-8.00e-02,2.40e-01,
724,-8.00e-02,8.00e-02,
725,8.00e-02,2.40e-01,
726,0.00e+00,8.00e-02,
727,-8.00e-02,2.40e-01,
728,0.00e+00,8.00e-02,
729,-8.00e-02,2.40e-01,
730,0.00e+00,8.00e-02,
731,-8.00e-02,2.40e-01,
732,0.00e+00,1.60e-01,
733,-1.60e-01,0.00e+00,
734,0.00e+00,1.60e-01,
735,-1.60e-01,8.00e-02,
736,0.00e+00,8.00e-02,
737,-1.60e-01,2.40e-01,
738,-1.60e-01,1.60e-01,
739,0.00e+00,8.00e-02,
740,-1.60e-01,8.00e-02,
741,0.00e+00,2.40e-01,
742,-8.00e-02,8.00e-02,
743,0.00e+00,2.40e-01,
744,-8.00e-02,1.60e-01,
745,0.00e+00,8.00e-02,
746,-8.00e-02,2.40e-01,
747,0.00e+00,0.00e+00,
748,-8.00e-02,1.60e-01,
749,0.00e+00,8.00e-02,
750,-8.00e-02,8.00e-02,
751,8.00e-02,2.40e-01,
752,8.00e-02,8.00e-02,
753,-8.00e-02,2.40e-01,
754,-8.00e-02,1.60e-01,
755,8.00e-02,8.00e-02,
756,8.00e-02,2.40e-01,
757,0.00e+00,0.00e+00,
758,0.00e+00,8.00e-02,
759,1.60e-01,1.60e-01,
760,0.00e+00,1.60e-01,
761,1.60e-01,8.00e-02,
762,8.00e-02,8.00e-02,
763,1.60e-01,2.40e-01,
764,8.00e-02,1.60e-01,
765,2.40e-01,8.00e-02,
766,2.40e-01,8.00e-02,
767,8.00e-02,2.40e-01,
768,2.40e-01,1.60e-01,
769,1.60e-01,8.00e-02,
770,3.20e-01,8.00e-02,
771,1.60e-01,2.40e-01,
772,3.20e-01,8.00e-02,
773,2.40e-01,2.40e-01,
774,2.40e-01,1.60e-01,
775,4.00e-01,8.00e-02,
776,4.00e-01,8.00e-02,
777,3.20e-01,2.40e-01,
778,4.00e-01,1.60e-01,
779,5.60e-01,8.00e-02,
780,4.80e-01,8.00e-02,
781,5.60e-01,2.40e-01,
782,6.40e-01,8.00e-02,
783,4.80e-01,2.40e-01,
784,5.60e-01,1.60e-01,
785,7.20e-01,8.00e-02,
786,5.60e-01,1.60e-01,
787,7.20e-01,8.00e-02,
788,6.40e-01,1.60e-01,
789,8.00e-01,8.00e-02,
790,7.20e-01,8.00e-02,
791,8.80e-01,2.64e+00,
792,7.20e-01,3.12e+00,
793,8.80e-01,5.04e+00,
794,8.00e-01,5.04e+00,
795,9.60e-01,4.88e+00,
796,8.80e-01,5.04e+00,
797,1.04e+00,4.88e+00,
798,1.04e+00,5.04e+00,
799,8.80e-01,4.88e+00,
800,1.12e+00,5.04e+00,
801,9.60e-01,4.88e+00,
802,1.04e+00,4.96e+00,
803,1.20e+00,4.88e+00,
804,1.12e+00,4.96e+00,
805,1.28e+00,4.88e+00,
806,1.20e+00,4.96e+00,
807,1.36e+00,4.88e+00,
808,1.36e+00,4.96e+00,
809,1.20e+00,4.88e+00,
810,1.36e+00,4.96e+00,
811,1.52e+00,4.88e+00,
812,1.44e+00,4.88e+00,
813,1.60e+00,5.12e+00,
814,1.52e+00,5.12e+00,
815,1.68e+00,4.88e+00,
816,1.60e+00,4.88e+00,
817,1.76e+00,5.20e+00,
818,1.60e+00,4.88e+00,
819,1.84e+00,5.20e+00,
820,1.84e+00,4.88e+00,
821,1.68e+00,5.20e+00,
822,1.76e+00,4.88e+00,
823,1.92e+00,5.20e+00,
824,1.84e+00,5.20e+00,
825,2.00e+00,4.88e+00,
826,1.92e+00,5.20e+00,
827,2.08e+00,4.88e+00,
828,2.00e+00,4.88e+00,
829,2.16e+00,5.20e+00,
830,2.08e+00,4.88e+00,
831,2.24e+00,5.20e+00,
832,2.08e+00,4.88e+00,
833,2.32e+00,5.20e+00,
834,2.16e+00,5.20e+00,
835,2.48e+00,4.88e+00,
836,2.48e+00,5.20e+00,
837,2.32e+00,4.88e+00,
838,2.40e+00,4.88e+00,
839,2.56e+00,5.20e+00,
840,2.48e+00,4.88e+00,
841,2.64e+00,5.20e+00,
842,2.56e+00,4.88e+00,
843,2.72e+00,5.20e+00,
844,2.64e+00,4.88e+00,
845,2.80e+00,5.20e+00,
846,2.64e+00,4.88e+00,
847,2.88e+00,5.20e+00,
848,2.72e+00,5.20e+00,
849,2.96e+00,4.88e+00,
850,2.80e+00,4.88e+00,
851,3.04e+00,5.20e+00,
852,2.88e+00,4.88e+00,
853,3.12e+00,5.20e+00,
854,2.96e+00,4.88e+00,
855,3.20e+00,5.20e+00,
856,3.04e+00,4.88e+00,
857,3.20e+00,5.20e+00,
858,3.12e+00,4.88e+00,
859,3.28e+00,5.20e+00,
860,3.20e+00,4.88e+00,
861,3.44e+00,5.20e+00,
862,3.28e+00,4.88e+00,
863,3.52e+00,5.20e+00,
864,3.36e+00,4.88e+00,
865,3.60e+00,5.20e+00,
866,3.44e+00,4.88e+00,
867,3.68e+00,5.20e+00,
868,3.68e+00,4.88e+00,
