project/matlab/project_exp3/750 Hz/NewFile1.csv

X,CH1,CH2,Start,Increment,
Sequence,Volt,Volt,-2.280000e-03,5.000000e-06
0,4.64e+00,4.88e+00,
1,4.40e+00,5.20e+00,
2,4.40e+00,4.88e+00,
3,4.56e+00,5.20e+00,
4,4.56e+00,5.20e+00,
5,4.32e+00,4.88e+00,
6,4.48e+00,4.88e+00,
7,4.24e+00,5.20e+00,
8,4.40e+00,5.20e+00,
9,4.08e+00,4.88e+00,
10,4.24e+00,4.88e+00,
11,4.00e+00,5.20e+00,
12,4.16e+00,5.20e+00,
13,3.92e+00,4.88e+00,
14,4.08e+00,4.88e+00,
15,3.84e+00,5.20e+00,
16,4.00e+00,5.20e+00,
17,3.76e+00,4.88e+00,
18,3.92e+00,5.20e+00,
19,3.68e+00,4.88e+00,
20,3.84e+00,5.20e+00,
21,3.60e+00,4.88e+00,
22,3.76e+00,4.88e+00,
23,3.52e+00,5.20e+00,
24,3.60e+00,4.88e+00,
25,3.36e+00,5.20e+00,
26,3.52e+00,4.88e+00,
27,3.28e+00,5.20e+00,
28,3.44e+00,4.88e+00,
29,3.12e+00,5.20e+00,
30,3.28e+00,5.20e+00,
31,3.04e+00,4.88e+00,
32,3.12e+00,5.12e+00,
33,2.96e+00,4.88e+00,
34,3.04e+00,5.20e+00,
35,2.80e+00,4.88e+00,
36,2.96e+00,5.20e+00,
37,2.72e+00,4.88e+00,
38,2.80e+00,4.88e+00,
39,2.64e+00,5.20e+00,
40,2.72e+00,4.88e+00,
41,2.48e+00,5.20e+00,
42,2.64e+00,4.88e+00,
43,2.40e+00,5.20e+00,
44,2.48e+00,4.88e+00,
45,2.24e+00,5.20e+00,
46,2.32e+00,4.88e+00,
47,2.08e+00,5.20e+00,
48,2.24e+00,4.88e+00,
49,2.00e+00,5.20e+00,
50,2.08e+00,4.88e+00,
51,1.92e+00,5.20e+00,
52,2.00e+00,4.88e+00,
53,1.76e+00,5.20e+00,
54,1.92e+00,4.88e+00,
55,1.68e+00,5.20e+00,
56,1.76e+00,4.88e+00,
57,1.60e+00,5.20e+00,
58,1.68e+00,5.20e+00,
59,1.52e+00,4.88e+00,
60,1.60e+00,4.88e+00,
61,1.36e+00,5.20e+00,
62,1.52e+00,5.20e+00,
63,1.20e+00,4.88e+00,
64,1.28e+00,4.88e+00,
65,1.12e+00,5.20e+00,
66,1.20e+00,4.88e+00,
67,1.04e+00,5.20e+00,
68,1.12e+00,4.88e+00,
69,9.60e-01,5.20e+00,
70,1.04e+00,5.20e+00,
71,8.80e-01,4.88e+00,
72,9.60e-01,5.20e+00,
73,8.00e-01,4.88e+00,
74,8.80e-01,4.88e+00,
75,7.20e-01,5.20e+00,
76,8.00e-01,4.88e+00,
77,6.40e-01,5.20e+00,
78,7.20e-01,4.88e+00,
79,5.60e-01,5.20e+00,
80,6.40e-01,4.88e+00,
81,4.80e-01,5.20e+00,
82,5.60e-01,5.20e+00,
83,4.00e-01,4.88e+00,
84,4.00e-01,4.88e+00,
85,2.40e-01,5.20e+00,
86,4.00e-01,5.20e+00,
87,1.60e-01,8.00e-02,
88,3.20e-01,2.40e-01,
89,1.60e-01,8.00e-02,
90,2.40e-01,2.40e-01,
91,8.00e-02,8.00e-02,
92,2.40e-01,2.40e-01,
93,8.00e-02,8.00e-02,
94,1.60e-01,2.40e-01,
95,0.00e+00,1.60e-01,
96,1.60e-01,2.40e-01,
97,0.00e+00,8.00e-02,
98,8.00e-02,2.40e-01,
99,-8.00e-02,8.00e-02,
100,-8.00e-02,8.00e-02,
101,8.00e-02,2.40e-01,
102,-8.00e-02,2.40e-01,
103,0.00e+00,8.00e-02,
104,-8.00e-02,2.40e-01,
105,0.00e+00,8.00e-02,
106,0.00e+00,8.00e-02,
107,-1.60e-01,1.60e-01,
108,0.00e+00,2.40e-01,
109,-1.60e-01,8.00e-02,
110,-1.60e-01,8.00e-02,
111,0.00e+00,2.40e-01,
112,0.00e+00,1.60e-01,
113,-1.60e-01,8.00e-02,
114,-8.00e-02,8.00e-02,
115,0.00e+00,2.40e-01,
116,0.00e+00,8.00e-02,
117,-8.00e-02,2.40e-01,
118,-8.00e-02,1.60e-01,
119,8.00e-02,8.00e-02,
120,-8.00e-02,8.00e-02,
121,8.00e-02,2.40e-01,
122,-8.00e-02,8.00e-02,
123,8.00e-02,2.40e-01,
124,0.00e+00,1.60e-01,
125,1.60e-01,8.00e-02,
126,0.00e+00,1.60e-01,
127,1.60e-01,8.00e-02,
128,8.00e-02,8.00e-02,
129,2.40e-01,2.40e-01,
130,2.40e-01,1.60e-01,
131,8.00e-02,8.00e-02,
132,1.60e-01,8.00e-02,
133,3.20e-01,2.40e-01,
134,2.40e-01,1.60e-01,
135,4.00e-01,8.00e-02,
136,3.20e-01,0.00e+00,
137,5.60e-01,1.60e-01,
138,4.00e-01,1.60e-01,
139,6.40e-01,8.00e-02,
140,4.80e-01,1.60e-01,
141,6.40e-01,8.00e-02,
142,5.60e-01,8.00e-02,
143,7.20e-01,2.40e-01,
144,6.40e-01,8.00e-02,
145,8.00e-01,2.40e-01,
146,7.20e-01,8.00e-02,
147,8.80e-01,5.04e+00,
148,8.00e-01,4.88e+00,
149,9.60e-01,5.04e+00,
150,8.80e-01,5.04e+00,
151,1.04e+00,4.88e+00,
152,9.60e-01,5.04e+00,
153,1.12e+00,4.88e+00,
154,1.04e+00,5.04e+00,
155,1.28e+00,4.88e+00,
156,1.12e+00,5.04e+00,
157,1.36e+00,4.88e+00,
158,1.28e+00,4.88e+00,
159,1.52e+00,5.04e+00,
160,1.44e+00,4.88e+00,
161,1.60e+00,5.04e+00,
162,1.52e+00,4.88e+00,
163,1.76e+00,5.12e+00,
164,1.60e+00,4.96e+00,
165,1.84e+00,4.88e+00,
166,1.76e+00,4.96e+00,
167,1.92e+00,4.88e+00,
168,1.84e+00,4.88e+00,
169,2.08e+00,5.12e+00,
170,1.92e+00,4.88e+00,
171,2.16e+00,5.20e+00,
172,2.08e+00,4.88e+00,
173,2.24e+00,5.20e+00,
174,2.16e+00,4.88e+00,
175,2.40e+00,5.20e+00,
176,2.32e+00,4.88e+00,
177,2.56e+00,5.20e+00,
178,2.40e+00,4.88e+00,
179,2.64e+00,5.20e+00,
180,2.56e+00,5.12e+00,
181,2.80e+00,4.88e+00,
182,2.64e+00,4.88e+00,
183,2.88e+00,5.20e+00,
184,2.72e+00,5.20e+00,
185,2.96e+00,4.88e+00,
186,2.88e+00,4.88e+00,
187,3.12e+00,5.20e+00,
188,2.96e+00,4.88e+00,
189,3.20e+00,5.20e+00,
190,3.04e+00,4.88e+00,
191,3.28e+00,5.20e+00,
192,3.28e+00,4.88e+00,
193,3.44e+00,5.20e+00,
194,3.36e+00,4.88e+00,
195,3.60e+00,5.20e+00,
196,3.44e+00,4.88e+00,
197,3.68e+00,5.20e+00,
198,3.52e+00,4.88e+00,
199,3.76e+00,5.20e+00,
200,3.60e+00,4.88e+00,
201,3.84e+00,5.20e+00,
202,3.68e+00,4.88e+00,
203,3.92e+00,5.20e+00,
204,3.76e+00,4.88e+00,
205,4.00e+00,5.20e+00,
206,3.92e+00,4.88e+00,
207,4.16e+00,5.20e+00,
208,4.00e+00,4.88e+00,
209,4.16e+00,5.20e+00,
210,4.24e+00,4.88e+00,
211,4.08e+00,5.20e+00,
212,4.08e+00,4.88e+00,
213,4.40e+00,5.20e+00,
214,4.24e+00,5.20e+00,
215,4.48e+00,4.88e+00,
216,4.32e+00,5.12e+00,
217,4.56e+00,4.88e+00,
218,4.40e+00,5.20e+00,
219,4.64e+00,4.88e+00,
220,4.48e+00,5.20e+00,
221,4.64e+00,4.88e+00,
222,4.48e+00,4.88e+00,
223,4.72e+00,5.20e+00,
224,4.56e+00,5.20e+00,
225,4.80e+00,4.88e+00,
226,4.80e+00,4.88e+00,
227,4.64e+00,5.20e+00,
228,4.64e+00,4.88e+00,
229,4.88e+00,5.20e+00,
230,4.88e+00,5.20e+00,
231,4.64e+00,4.88e+00,
232,4.88e+00,5.20e+00,
233,4.72e+00,4.88e+00,
234,4.72e+00,4.88e+00,
235,4.96e+00,5.12e+00,
236,4.96e+00,4.88e+00,
237,4.72e+00,5.20e+00,
238,4.96e+00,4.88e+00,
239,4.80e+00,5.20e+00,
240,4.96e+00,4.88e+00,
241,4.80e+00,5.20e+00,
242,4.96e+00,4.88e+00,
243,4.80e+00,5.20e+00,
244,4.96e+00,4.88e+00,
245,4.80e+00,5.20e+00,
246,4.96e+00,4.88e+00,
247,4.80e+00,5.20e+00,
248,4.96e+00,4.88e+00,
249,4.80e+00,5.20e+00,
250,4.96e+00,4.88e+00,
251,4.72e+00,5.20e+00,
252,4.96e+00,4.88e+00,
253,4.72e+00,5.20e+00,
254,4.72e+00,4.88e+00,
255,4.88e+00,5.20e+00,
256,4.88e+00,4.88e+00,
257,4.72e+00,5.20e+00,
258,4.88e+00,4.88e+00,
259,4.64e+00,5.20e+00,
260,4.80e+00,5.20e+00,
261,4.56e+00,4.88e+00,
262,4.72e+00,4.88e+00,
263,4.56e+00,5.20e+00,
264,4.72e+00,5.12e+00,
265,4.48e+00,4.88e+00,
266,4.48e+00,5.20e+00,
267,4.64e+00,4.88e+00,
268,4.64e+00,4.88e+00,
269,4.40e+00,5.20e+00,
270,4.56e+00,4.88e+00,
271,4.32e+00,5.20e+00,
272,4.48e+00,4.88e+00,
273,4.24e+00,5.20e+00,
274,4.40e+00,4.88e+00,
275,4.16e+00,5.20e+00,
276,4.08e+00,5.20e+00,
277,4.24e+00,4.88e+00,
278,4.16e+00,5.20e+00,
279,4.00e+00,4.88e+00,
280,4.08e+00,5.20e+00,
281,3.92e+00,4.88e+00,
282,3.84e+00,4.88e+00,
283,4.00e+00,5.20e+00,
284,3.92e+00,5.20e+00,
285,3.68e+00,4.88e+00,
286,3.84e+00,4.88e+00,
287,3.60e+00,5.20e+00,
288,3.76e+00,4.88e+00,
289,3.52e+00,5.20e+00,
290,3.68e+00,5.20e+00,
291,3.44e+00,4.88e+00,
292,3.60e+00,5.20e+00,
293,3.36e+00,4.88e+00,
294,3.44e+00,4.88e+00,
295,3.20e+00,5.20e+00,
296,3.28e+00,4.88e+00,
297,3.04e+00,5.20e+00,
298,3.20e+00,4.88e+00,
299,2.96e+00,5.20e+00,
300,3.12e+00,5.12e+00,
301,2.88e+00,4.88e+00,
302,2.96e+00,4.88e+00,
303,2.72e+00,5.20e+00,
304,2.88e+00,4.88e+00,
305,2.64e+00,5.20e+00,
306,2.80e+00,4.88e+00,
307,2.56e+00,5.20e+00,
308,2.64e+00,4.88e+00,
309,2.40e+00,5.20e+00,
310,2.48e+00,5.12e+00,
311,2.32e+00,4.88e+00,
312,2.40e+00,4.88e+00,
313,2.16e+00,5.20e+00,
314,2.24e+00,5.20e+00,
315,2.00e+00,4.88e+00,
316,2.16e+00,4.88e+00,
317,1.92e+00,5.20e+00,
318,2.00e+00,5.20e+00,
319,1.84e+00,4.88e+00,
320,1.92e+00,5.20e+00,
321,1.68e+00,4.88e+00,
322,1.84e+00,5.20e+00,
323,1.60e+00,4.88e+00,
324,1.76e+00,5.20e+00,
325,1.52e+00,4.88e+00,
326,1.60e+00,5.20e+00,
327,1.44e+00,4.88e+00,
328,1.52e+00,4.88e+00,
329,1.36e+00,5.20e+00,
330,1.36e+00,4.88e+00,
331,1.12e+00,5.20e+00,
332,1.28e+00,5.12e+00,
333,1.04e+00,4.88e+00,
334,1.12e+00,4.88e+00,
335,9.60e-01,5.20e+00,
336,1.04e+00,4.88e+00,
337,8.80e-01,5.20e+00,
338,9.60e-01,4.88e+00,
339,8.00e-01,5.20e+00,
340,8.80e-01,4.88e+00,
341,7.20e-01,5.20e+00,
342,8.00e-01,5.12e+00,
343,6.40e-01,4.88e+00,
344,7.20e-01,5.20e+00,
345,5.60e-01,4.88e+00,
346,6.40e-01,4.88e+00,
347,4.80e-01,5.20e+00,
348,5.60e-01,4.88e+00,
349,4.00e-01,5.20e+00,
350,5.60e-01,4.88e+00,
351,3.20e-01,5.20e+00,
352,4.00e-01,5.12e+00,
353,2.40e-01,1.60e-01,
354,3.20e-01,2.40e-01,
355,1.60e-01,8.00e-02,
356,2.40e-01,2.40e-01,
357,8.00e-02,8.00e-02,
358,8.00e-02,2.40e-01,
359,2.40e-01,8.00e-02,
360,1.60e-01,2.40e-01,
361,0.00e+00,8.00e-02,
362,0.00e+00,2.40e-01,
363,1.60e-01,8.00e-02,
364,8.00e-02,2.40e-01,
365,-8.00e-02,8.00e-02,
366,8.00e-02,8.00e-02,
367,-8.00e-02,2.40e-01,
368,8.00e-02,2.40e-01,
369,-8.00e-02,8.00e-02,
370,0.00e+00,8.00e-02,
371,-8.00e-02,2.40e-01,
372,-8.00e-02,8.00e-02,
373,0.00e+00,2.40e-01,
374,0.00e+00,8.00e-02,
375,-1.60e-01,2.40e-01,
376,-1.60e-01,1.60e-01,
377,0.00e+00,8.00e-02,
378,0.00e+00,8.00e-02,
379,-1.60e-01,2.40e-01,
380,0.00e+00,8.00e-02,
381,-1.60e-01,2.40e-01,
382,0.00e+00,1.60e-01,
383,-8.00e-02,8.00e-02,
384,-8.00e-02,8.00e-02,
385,8.00e-02,2.40e-01,
386,8.00e-02,8.00e-02,
387,-8.00e-02,2.40e-01,
388,-8.00e-02,8.00e-02,
389,8.00e-02,1.60e-01,
390,0.00e+00,8.00e-02,
391,1.60e-01,2.40e-01,
392,1.60e-01,1.60e-01,
393,0.00e+00,8.00e-02,
394,8.00e-02,2.40e-01,
395,2.40e-01,8.00e-02,
396,8.00e-02,8.00e-02,
397,2.40e-01,2.40e-01,
398,1.60e-01,1.60e-01,
399,3.20e-01,8.00e-02,
400,2.40e-01,2.40e-01,
401,4.00e-01,0.00e+00,
402,2.40e-01,2.40e-01,
403,4.00e-01,0.00e+00,
404,5.60e-01,1.60e-01,
405,3.20e-01,8.00e-02,
406,4.80e-01,8.00e-02,
407,6.40e-01,2.40e-01,
408,5.60e-01,8.00e-02,
409,7.20e-01,2.40e-01,
410,6.40e-01,1.60e-01,
411,8.00e-01,8.00e-02,
412,7.20e-01,8.00e-02,
413,8.80e-01,5.04e+00,
414,8.00e-01,5.04e+00,
415,9.60e-01,4.88e+00,
416,8.80e-01,4.96e+00,
417,1.04e+00,4.88e+00,
418,9.60e-01,4.88e+00,
419,1.12e+00,5.04e+00,
420,1.04e+00,5.04e+00,
421,1.20e+00,4.88e+00,
422,1.12e+00,4.88e+00,
423,1.28e+00,5.20e+00,
424,1.20e+00,4.88e+00,
425,1.44e+00,5.12e+00,
426,1.36e+00,4.88e+00,
427,1.60e+00,5.12e+00,
428,1.52e+00,5.20e+00,
429,1.68e+00,4.88e+00,
430,1.60e+00,5.12e+00,
431,1.76e+00,4.88e+00,
432,1.68e+00,4.88e+00,
433,1.92e+00,5.20e+00,
434,1.84e+00,4.88e+00,
435,2.00e+00,5.20e+00,
436,1.92e+00,4.88e+00,
437,2.08e+00,5.20e+00,
438,2.00e+00,4.88e+00,
439,2.24e+00,5.20e+00,
440,2.08e+00,4.88e+00,
441,2.32e+00,5.20e+00,
442,2.24e+00,4.88e+00,
443,2.48e+00,5.20e+00,
444,2.40e+00,4.88e+00,
445,2.64e+00,5.20e+00,
446,2.48e+00,4.88e+00,
447,2.72e+00,5.20e+00,
448,2.64e+00,5.20e+00,
449,2.88e+00,4.88e+00,
450,2.72e+00,5.12e+00,
451,2.96e+00,4.88e+00,
452,2.80e+00,4.88e+00,
453,3.04e+00,5.20e+00,
454,2.96e+00,5.20e+00,
455,3.12e+00,4.88e+00,
456,3.04e+00,4.88e+00,
457,3.28e+00,5.20e+00,
458,3.20e+00,4.88e+00,
459,3.44e+00,5.20e+00,
460,3.28e+00,5.20e+00,
461,3.52e+00,4.88e+00,
462,3.44e+00,4.88e+00,
463,3.68e+00,5.20e+00,
464,3.52e+00,5.20e+00,
465,3.76e+00,4.88e+00,
466,3.60e+00,5.20e+00,
467,3.84e+00,4.88e+00,
468,3.68e+00,5.12e+00,
469,3.92e+00,4.88e+00,
470,3.76e+00,4.88e+00,
471,4.00e+00,5.20e+00,
472,3.84e+00,4.88e+00,
473,4.08e+00,5.20e+00,
474,3.92e+00,4.88e+00,
475,4.16e+00,5.20e+00,
476,4.00e+00,4.88e+00,
477,4.24e+00,5.20e+00,
478,4.08e+00,4.88e+00,
479,4.40e+00,5.20e+00,
480,4.24e+00,4.88e+00,
481,4.48e+00,5.20e+00,
482,4.32e+00,4.88e+00,
483,4.56e+00,5.20e+00,
484,4.56e+00,4.88e+00,
485,4.40e+00,5.20e+00,
486,4.40e+00,4.88e+00,
487,4.64e+00,5.20e+00,
488,4.48e+00,5.20e+00,
489,4.72e+00,4.88e+00,
490,4.72e+00,5.20e+00,
491,4.56e+00,4.88e+00,
492,4.56e+00,4.88e+00,
493,4.80e+00,5.20e+00,
494,4.80e+00,4.88e+00,
495,4.64e+00,5.20e+00,
496,4.64e+00,4.88e+00,
497,4.88e+00,5.20e+00,
498,4.88e+00,5.20e+00,
499,4.72e+00,4.88e+00,
500,4.72e+00,4.88e+00,
501,4.88e+00,5.20e+00,
502,4.72e+00,4.88e+00,
503,4.96e+00,5.20e+00,
504,4.96e+00,4.88e+00,
505,4.80e+00,5.20e+00,
506,4.96e+00,4.88e+00,
507,4.80e+00,5.20e+00,
508,4.96e+00,4.88e+00,
509,4.80e+00,5.20e+00,
510,4.96e+00,4.88e+00,
511,4.80e+00,5.20e+00,
512,4.96e+00,4.88e+00,
513,4.80e+00,5.20e+00,
514,4.80e+00,4.88e+00,
515,4.96e+00,5.20e+00,
516,4.96e+00,4.88e+00,
517,4.80e+00,5.20e+00,
518,4.96e+00,4.88e+00,
519,4.72e+00,5.20e+00,
520,4.88e+00,4.88e+00,
521,4.72e+00,5.20e+00,
522,4.88e+00,5.20e+00,
523,4.72e+00,4.88e+00,
524,4.88e+00,4.88e+00,
525,4.64e+00,5.20e+00,
526,4.80e+00,4.88e+00,
527,4.64e+00,5.20e+00,
528,4.80e+00,5.20e+00,
529,4.56e+00,4.88e+00,
530,4.56e+00,4.88e+00,
531,4.72e+00,5.20e+00,
532,4.72e+00,4.88e+00,
533,4.48e+00,5.20e+00,
534,4.64e+00,5.12e+00,
535,4.40e+00,4.88e+00,
536,4.56e+00,5.20e+00,
537,4.32e+00,4.88e+00,
538,4.32e+00,4.88e+00,
539,4.48e+00,5.20e+00,
540,4.40e+00,4.88e+00,
541,4.24e+00,5.20e+00,
542,4.40e+00,4.88e+00,
543,4.08e+00,5.20e+00,
544,4.24e+00,4.88e+00,
545,4.00e+00,5.20e+00,
546,4.16e+00,4.88e+00,
547,3.92e+00,5.20e+00,
548,4.08e+00,4.88e+00,
549,3.84e+00,5.20e+00,
550,4.00e+00,5.20e+00,
551,3.76e+00,4.88e+00,
552,3.92e+00,4.88e+00,
553,3.60e+00,5.20e+00,
554,3.76e+00,5.20e+00,
555,3.60e+00,4.88e+00,
556,3.68e+00,4.88e+00,
557,3.44e+00,5.20e+00,
558,3.60e+00,5.20e+00,
559,3.36e+00,4.88e+00,
560,3.44e+00,4.88e+00,
561,3.28e+00,5.20e+00,
562,3.36e+00,4.88e+00,
563,3.12e+00,5.20e+00,
564,3.20e+00,4.88e+00,
565,2.96e+00,5.20e+00,
566,3.12e+00,4.88e+00,
567,2.88e+00,5.20e+00,
568,3.04e+00,4.88e+00,
569,2.80e+00,5.20e+00,
570,2.88e+00,4.88e+00,
571,2.72e+00,5.20e+00,
572,2.80e+00,4.88e+00,
573,2.56e+00,5.20e+00,
574,2.72e+00,5.20e+00,
575,2.48e+00,4.88e+00,
576,2.56e+00,4.88e+00,
577,2.40e+00,5.20e+00,
578,2.48e+00,5.12e+00,
579,2.16e+00,4.88e+00,
580,2.32e+00,4.88e+00,
581,2.08e+00,5.20e+00,
582,2.16e+00,4.88e+00,
583,2.00e+00,5.20e+00,
584,2.08e+00,4.88e+00,
585,1.84e+00,5.20e+00,
586,2.00e+00,5.20e+00,
587,1.76e+00,4.88e+00,
588,1.84e+00,4.88e+00,
589,1.68e+00,5.20e+00,
590,1.76e+00,4.88e+00,
591,1.52e+00,5.20e+00,
592,1.68e+00,4.88e+00,
593,1.44e+00,5.20e+00,
594,1.52e+00,4.88e+00,
595,1.36e+00,5.20e+00,
596,1.36e+00,4.88e+00,
597,1.20e+00,5.20e+00,
598,1.28e+00,4.88e+00,
599,1.12e+00,5.20e+00,
600,1.20e+00,4.88e+00,
601,9.60e-01,5.20e+00,
602,1.12e+00,5.20e+00,
603,8.80e-01,4.88e+00,
604,1.04e+00,4.88e+00,
605,8.00e-01,5.20e+00,
606,8.80e-01,4.88e+00,
607,7.20e-01,5.20e+00,
608,8.80e-01,4.88e+00,
609,6.40e-01,5.20e+00,
610,7.20e-01,4.88e+00,
611,5.60e-01,5.20e+00,
612,7.20e-01,5.20e+00,
613,4.80e-01,4.88e+00,
614,4.80e-01,5.12e+00,
615,6.40e-01,4.88e+00,
616,5.60e-01,4.88e+00,
617,3.20e-01,5.20e+00,
618,4.00e-01,4.88e+00,
619,2.40e-01,5.20e+00,
620,3.20e-01,5.12e+00,
621,1.60e-01,8.00e-02,
622,3.20e-01,8.00e-02,
623,1.60e-01,2.40e-01,
624,2.40e-01,2.40e-01,
625,8.00e-02,8.00e-02,
626,1.60e-01,2.40e-01,
627,8.00e-02,8.00e-02,
628,1.60e-01,2.40e-01,
629,0.00e+00,8.00e-02,
630,0.00e+00,2.40e-01,
631,8.00e-02,8.00e-02,
632,8.00e-02,2.40e-01,
633,-8.00e-02,8.00e-02,
634,8.00e-02,8.00e-02,
635,-8.00e-02,2.40e-01,
636,0.00e+00,8.00e-02,
637,-8.00e-02,2.40e-01,
638,0.00e+00,8.00e-02,
639,-8.00e-02,2.40e-01,
640,0.00e+00,8.00e-02,
641,-1.60e-01,2.40e-01,
642,0.00e+00,8.00e-02,
643,-1.60e-01,2.40e-01,
644,0.00e+00,0.00e+00,
645,-1.60e-01,2.40e-01,
646,0.00e+00,1.60e-01,
647,-1.60e-01,8.00e-02,
648,-8.00e-02,8.00e-02,
649,0.00e+00,2.40e-01,
650,0.00e+00,8.00e-02,
651,-8.00e-02,2.40e-01,
652,-8.00e-02,1.60e-01,
653,8.00e-02,8.00e-02,
654,-8.00e-02,8.00e-02,
655,8.00e-02,2.40e-01,
656,8.00e-02,1.60e-01,
657,0.00e+00,8.00e-02,
658,0.00e+00,8.00e-02,
659,1.60e-01,2.40e-01,
660,1.60e-01,2.40e-01,
661,8.00e-02,0.00e+00,
662,8.00e-02,1.60e-01,
663,2.40e-01,8.00e-02,
664,1.60e-01,8.00e-02,
665,3.20e-01,2.40e-01,
666,3.20e-01,1.60e-01,
667,1.60e-01,8.00e-02,
668,4.00e-01,2.40e-01,
669,2.40e-01,0.00e+00,
670,3.20e-01,1.60e-01,
671,5.60e-01,8.00e-02,
672,4.80e-01,2.40e-01,
673,6.40e-01,0.00e+00,
674,4.80e-01,8.00e-02,
675,7.20e-01,2.40e-01,
676,5.60e-01,8.00e-02,
677,8.00e-01,2.40e-01,
678,6.40e-01,8.00e-02,
679,8.80e-01,3.20e-01,
680,7.20e-01,4.80e-01,
681,9.60e-01,5.04e+00,
682,8.00e-01,4.88e+00,
683,1.04e+00,4.96e+00,
684,8.80e-01,4.96e+00,
685,1.12e+00,4.88e+00,
686,1.04e+00,4.88e+00,
687,1.20e+00,4.96e+00,
688,1.12e+00,4.88e+00,
689,1.28e+00,4.96e+00,
690,1.20e+00,4.96e+00,
691,1.36e+00,4.88e+00,
692,1.28e+00,4.96e+00,
693,1.52e+00,4.88e+00,
694,1.44e+00,4.96e+00,
695,1.68e+00,4.88e+00,
696,1.52e+00,4.88e+00,
697,1.76e+00,5.12e+00,
698,1.68e+00,4.88e+00,
699,1.84e+00,5.12e+00,
700,1.76e+00,4.88e+00,
701,2.00e+00,5.12e+00,
702,1.84e+00,5.12e+00,
703,2.08e+00,4.88e+00,
704,2.00e+00,4.88e+00,
705,2.16e+00,5.20e+00,
706,2.08e+00,4.88e+00,
707,2.32e+00,5.20e+00,
708,2.16e+00,5.12e+00,
709,2.48e+00,4.88e+00,
710,2.40e+00,5.20e+00,
711,2.56e+00,4.88e+00,
712,2.48e+00,5.12e+00,
713,2.72e+00,4.88e+00,
714,2.56e+00,4.88e+00,
715,2.80e+00,5.20e+00,
716,2.72e+00,4.88e+00,
717,2.88e+00,5.20e+00,
718,2.80e+00,4.88e+00,
719,3.04e+00,5.12e+00,
720,2.88e+00,4.88e+00,
721,3.12e+00,5.20e+00,
722,3.04e+00,5.20e+00,
723,3.20e+00,4.88e+00,
724,3.12e+00,4.88e+00,
725,3.36e+00,5.20e+00,
726,3.28e+00,5.20e+00,
727,3.52e+00,4.88e+00,
728,3.36e+00,5.20e+00,
729,3.60e+00,4.88e+00,
730,3.44e+00,5.20e+00,
731,3.68e+00,4.88e+00,
732,3.60e+00,4.88e+00,
733,3.76e+00,5.20e+00,
734,3.68e+00,4.88e+00,
735,3.92e+00,5.20e+00,
736,3.76e+00,5.20e+00,
737,4.00e+00,4.88e+00,
738,3.84e+00,4.88e+00,
739,4.08e+00,5.20e+00,
740,3.92e+00,4.88e+00,
741,4.16e+00,5.20e+00,
742,4.00e+00,5.20e+00,
743,4.24e+00,4.88e+00,
744,4.08e+00,5.20e+00,
745,4.40e+00,4.88e+00,
746,4.40e+00,4.88e+00,
747,4.16e+00,5.20e+00,
748,4.32e+00,4.88e+00,
749,4.48e+00,5.20e+00,
750,4.32e+00,4.88e+00,
751,4.56e+00,5.20e+00,
752,4.40e+00,4.88e+00,
753,4.64e+00,5.20e+00,
754,4.48e+00,4.88e+00,
755,4.72e+00,5.12e+00,
756,4.72e+00,4.88e+00,
757,4.56e+00,5.20e+00,
758,4.56e+00,4.88e+00,
759,4.80e+00,5.20e+00,
760,4.64e+00,4.88e+00,
761,4.80e+00,5.20e+00,
762,4.64e+00,4.88e+00,
763,4.88e+00,5.20e+00,
764,4.88e+00,4.88e+00,
765,4.72e+00,5.20e+00,
766,4.88e+00,4.88e+00,
767,4.72e+00,5.20e+00,
768,4.72e+00,4.88e+00,
769,4.96e+00,5.20e+00,
770,4.96e+00,5.12e+00,
771,4.80e+00,4.88e+00,
772,4.96e+00,4.88e+00,
773,4.80e+00,5.20e+00,
774,4.96e+00,4.88e+00,
775,4.80e+00,5.20e+00,
776,4.96e+00,4.88e+00,
777,4.80e+00,5.20e+00,
778,4.80e+00,4.88e+00,
779,4.96e+00,5.20e+00,
780,4.96e+00,5.20e+00,
781,4.80e+00,4.88e+00,
782,4.96e+00,5.12e+00,
783,4.80e+00,4.88e+00,
784,4.96e+00,5.20e+00,
785,4.72e+00,4.88e+00,
786,4.72e+00,4.88e+00,
787,4.88e+00,5.20e+00,
788,4.88e+00,5.20e+00,
789,4.72e+00,4.88e+00,
790,4.88e+00,4.88e+00,
791,4.64e+00,5.20e+00,
792,4.64e+00,5.12e+00,
793,4.80e+00,4.88e+00,
794,4.80e+00,5.20e+00,
795,4.56e+00,4.88e+00,
796,4.56e+00,4.88e+00,
797,4.72e+00,5.20e+00,
798,4.72e+00,5.20e+00,
799,4.48e+00,4.88e+00,
800,4.64e+00,4.88e+00,
801,4.40e+00,5.20e+00,
802,4.40e+00,5.20e+00,
803,4.56e+00,4.88e+00,
804,4.56e+00,4.88e+00,
805,4.32e+00,5.20e+00,
806,4.48e+00,4.88e+00,
807,4.16e+00,5.20e+00,
808,4.40e+00,5.20e+00,
809,4.08e+00,4.88e+00,
810,4.24e+00,4.88e+00,
811,4.00e+00,5.20e+00,
812,4.16e+00,4.88e+00,
813,3.92e+00,5.20e+00,
814,4.08e+00,5.20e+00,
815,3.84e+00,4.88e+00,
816,4.00e+00,5.20e+00,
817,3.76e+00,4.88e+00,
818,3.92e+00,4.88e+00,
819,3.68e+00,5.20e+00,
820,3.84e+00,4.88e+00,
821,3.60e+00,5.20e+00,
822,3.76e+00,4.88e+00,
823,3.52e+00,5.20e+00,
824,3.60e+00,5.20e+00,
825,3.36e+00,4.88e+00,
826,3.52e+00,5.20e+00,
827,3.20e+00,4.88e+00,
828,3.36e+00,5.20e+00,
829,3.12e+00,4.88e+00,
830,3.28e+00,5.20e+00,
831,3.04e+00,4.88e+00,
832,3.12e+00,5.20e+00,
833,2.88e+00,4.88e+00,
834,3.04e+00,5.20e+00,
835,2.80e+00,4.88e+00,
836,2.96e+00,5.20e+00,
837,2.72e+00,4.88e+00,
838,2.80e+00,5.20e+00,
839,2.64e+00,4.88e+00,
840,2.72e+00,5.20e+00,
841,2.48e+00,4.88e+00,
842,2.64e+00,5.20e+00,
843,2.40e+00,4.88e+00,
844,2.48e+00,4.88e+00,
845,2.32e+00,5.20e+00,
846,2.32e+00,4.88e+00,
847,2.08e+00,5.20e+00,
848,2.24e+00,5.20e+00,
849,2.00e+00,4.88e+00,
850,2.08e+00,4.88e+00,
851,1.92e+00,5.20e+00,
852,2.00e+00,4.88e+00,
853,1.76e+00,5.20e+00,
854,1.92e+00,5.20e+00,
855,1.68e+00,4.88e+00,
856,1.76e+00,5.20e+00,
857,1.60e+00,4.88e+00,
858,1.68e+00,5.20e+00,
859,1.52e+00,4.88e+00,
860,1.60e+00,4.88e+00,
861,1.36e+00,5.20e+00,
862,1.52e+00,4.88e+00,
863,1.20e+00,5.20e+00,
864,1.28e+00,4.88e+00,
865,1.12e+00,5.20e+00,
866,1.20e+00,4.88e+00,
867,1.04e+00,5.20e+00,
868,1.12e+00,5.20e+00,
