project/matlab/project_exp3/15 kHz/NewFile1.csv

X,CH1,CH2,Start,Increment,
Sequence,Volt,Volt,6.000000e-04,2.000000e-07
0,3.04e+00,5.12e+00,
1,3.20e+00,4.88e+00,
2,3.12e+00,5.12e+00,
3,3.44e+00,4.88e+00,
4,3.28e+00,5.12e+00,
5,3.44e+00,4.88e+00,
6,3.36e+00,5.12e+00,
7,3.52e+00,4.88e+00,
8,3.44e+00,5.12e+00,
9,3.60e+00,4.88e+00,
10,3.68e+00,4.88e+00,
11,3.52e+00,5.12e+00,
12,3.60e+00,4.88e+00,
13,3.76e+00,5.12e+00,
14,3.68e+00,4.88e+00,
15,3.84e+00,5.12e+00,
16,3.76e+00,5.12e+00,
17,3.92e+00,4.88e+00,
18,3.84e+00,5.12e+00,
19,4.00e+00,4.88e+00,
20,3.92e+00,5.12e+00,
21,4.08e+00,4.88e+00,
22,3.92e+00,4.88e+00,
23,4.16e+00,5.12e+00,
24,4.16e+00,4.96e+00,
25,4.00e+00,5.12e+00,
26,4.24e+00,4.88e+00,
27,4.08e+00,5.20e+00,
28,4.24e+00,4.96e+00,
29,4.40e+00,5.12e+00,
30,4.24e+00,5.12e+00,
31,4.48e+00,4.88e+00,
32,4.32e+00,5.12e+00,
33,4.48e+00,4.88e+00,
34,4.40e+00,5.12e+00,
35,4.56e+00,4.88e+00,
36,4.40e+00,5.12e+00,
37,4.64e+00,4.88e+00,
38,4.48e+00,5.12e+00,
39,4.64e+00,4.88e+00,
40,4.48e+00,5.12e+00,
41,4.72e+00,4.88e+00,
42,4.56e+00,4.88e+00,
43,4.72e+00,5.12e+00,
44,4.64e+00,5.12e+00,
45,4.80e+00,4.88e+00,
46,4.64e+00,5.12e+00,
47,4.80e+00,4.88e+00,
48,4.80e+00,5.12e+00,
49,4.64e+00,4.88e+00,
50,4.72e+00,4.88e+00,
51,4.88e+00,5.12e+00,
52,4.88e+00,4.88e+00,
53,4.72e+00,5.12e+00,
54,4.88e+00,5.04e+00,
55,4.72e+00,4.88e+00,
56,4.80e+00,5.12e+00,
57,4.96e+00,4.88e+00,
58,4.80e+00,4.88e+00,
59,4.96e+00,5.12e+00,
60,4.96e+00,5.12e+00,
61,4.80e+00,4.88e+00,
62,4.96e+00,5.12e+00,
63,4.80e+00,4.88e+00,
64,4.96e+00,5.12e+00,
65,4.80e+00,4.88e+00,
66,4.96e+00,4.88e+00,
67,4.88e+00,5.12e+00,
68,4.88e+00,5.12e+00,
69,4.96e+00,4.96e+00,
70,4.96e+00,5.12e+00,
71,4.80e+00,4.88e+00,
72,4.96e+00,5.12e+00,
73,4.80e+00,4.88e+00,
74,4.96e+00,5.12e+00,
75,4.80e+00,4.88e+00,
76,4.96e+00,4.88e+00,
77,4.80e+00,5.12e+00,
78,4.80e+00,5.12e+00,
79,4.96e+00,4.88e+00,
80,4.80e+00,5.12e+00,
81,4.96e+00,4.96e+00,
82,4.88e+00,5.20e+00,
83,4.72e+00,4.88e+00,
84,4.72e+00,5.04e+00,
85,4.88e+00,4.88e+00,
86,4.72e+00,5.12e+00,
87,4.88e+00,4.88e+00,
88,4.80e+00,5.12e+00,
89,4.64e+00,4.88e+00,
90,4.80e+00,4.88e+00,
91,4.64e+00,5.12e+00,
92,4.72e+00,5.12e+00,
93,4.56e+00,4.88e+00,
94,4.56e+00,5.20e+00,
95,4.72e+00,4.88e+00,
96,4.64e+00,5.12e+00,
97,4.48e+00,4.88e+00,
98,4.48e+00,5.20e+00,
99,4.64e+00,4.88e+00,
100,4.40e+00,4.88e+00,
101,4.56e+00,5.12e+00,
102,4.56e+00,5.12e+00,
103,4.32e+00,4.88e+00,
104,4.32e+00,5.12e+00,
105,4.48e+00,4.88e+00,
106,4.40e+00,4.88e+00,
107,4.16e+00,5.12e+00,
108,4.32e+00,5.12e+00,
109,4.08e+00,4.88e+00,
110,4.24e+00,4.88e+00,
111,4.00e+00,5.12e+00,
112,4.16e+00,5.12e+00,
113,4.00e+00,4.88e+00,
114,4.08e+00,4.88e+00,
115,3.92e+00,5.12e+00,
116,4.00e+00,5.20e+00,
117,3.84e+00,4.88e+00,
118,3.92e+00,4.88e+00,
119,3.76e+00,5.12e+00,
120,3.92e+00,5.20e+00,
121,3.68e+00,4.88e+00,
122,3.84e+00,5.12e+00,
123,3.60e+00,4.88e+00,
124,3.76e+00,5.12e+00,
125,3.52e+00,4.88e+00,
126,3.68e+00,5.12e+00,
127,3.44e+00,4.88e+00,
128,3.52e+00,4.96e+00,
129,3.36e+00,5.12e+00,
130,3.52e+00,4.88e+00,
131,3.28e+00,5.12e+00,
132,3.36e+00,5.12e+00,
133,3.20e+00,4.88e+00,
134,3.28e+00,5.12e+00,
135,3.04e+00,4.88e+00,
136,3.20e+00,4.88e+00,
137,2.96e+00,5.12e+00,
138,3.12e+00,5.12e+00,
139,2.88e+00,4.88e+00,
140,3.04e+00,5.12e+00,
141,2.80e+00,4.88e+00,
142,2.96e+00,5.12e+00,
143,2.72e+00,4.88e+00,
144,2.80e+00,5.20e+00,
145,2.64e+00,4.88e+00,
146,2.72e+00,5.12e+00,
147,2.56e+00,4.88e+00,
148,2.64e+00,5.12e+00,
149,2.48e+00,4.88e+00,
150,2.56e+00,5.12e+00,
151,2.40e+00,4.88e+00,
152,2.32e+00,5.12e+00,
153,2.48e+00,4.88e+00,
154,2.32e+00,5.12e+00,
155,2.16e+00,4.88e+00,
156,2.24e+00,5.12e+00,
157,2.08e+00,4.88e+00,
158,2.16e+00,4.96e+00,
159,2.00e+00,5.12e+00,
160,2.08e+00,5.12e+00,
161,1.92e+00,4.88e+00,
162,2.00e+00,5.12e+00,
163,1.76e+00,4.88e+00,
164,1.92e+00,4.96e+00,
165,1.68e+00,5.20e+00,
166,1.84e+00,5.12e+00,
167,1.60e+00,4.88e+00,
168,1.68e+00,4.96e+00,
169,1.52e+00,5.12e+00,
170,1.60e+00,5.12e+00,
171,1.44e+00,4.88e+00,
172,1.52e+00,4.96e+00,
173,1.36e+00,5.20e+00,
174,1.44e+00,5.12e+00,
175,1.20e+00,4.88e+00,
176,1.36e+00,5.20e+00,
177,1.20e+00,4.88e+00,
178,1.28e+00,5.12e+00,
179,1.12e+00,4.88e+00,
180,1.20e+00,5.12e+00,
181,1.04e+00,4.88e+00,
182,1.12e+00,5.12e+00,
183,9.60e-01,4.88e+00,
184,1.04e+00,5.12e+00,
185,8.80e-01,4.88e+00,
186,9.60e-01,5.12e+00,
187,8.00e-01,4.88e+00,
188,8.80e-01,4.96e+00,
189,7.20e-01,5.12e+00,
190,8.00e-01,5.12e+00,
191,6.40e-01,4.88e+00,
192,6.40e-01,5.12e+00,
193,7.20e-01,4.88e+00,
194,7.20e-01,4.96e+00,
195,5.60e-01,5.12e+00,
196,6.40e-01,4.96e+00,
197,4.80e-01,5.12e+00,
198,5.60e-01,4.88e+00,
199,4.00e-01,5.12e+00,
200,4.00e-01,5.12e+00,
201,5.60e-01,4.88e+00,
202,4.00e-01,5.12e+00,
203,2.40e-01,4.88e+00,
204,2.40e-01,5.12e+00,
205,3.20e-01,4.88e+00,
206,3.20e-01,5.12e+00,
207,1.60e-01,4.88e+00,
208,2.40e-01,5.12e+00,
209,8.00e-02,4.88e+00,
210,2.40e-01,5.12e+00,
211,8.00e-02,2.32e+00,
212,1.60e-01,2.32e+00,
213,0.00e+00,1.60e-01,
214,1.60e-01,2.40e-01,
215,0.00e+00,8.00e-02,
216,8.00e-02,2.40e-01,
217,0.00e+00,1.60e-01,
218,8.00e-02,2.40e-01,
219,-8.00e-02,8.00e-02,
220,8.00e-02,2.40e-01,
221,-8.00e-02,8.00e-02,
222,-8.00e-02,2.40e-01,
223,0.00e+00,8.00e-02,
224,-8.00e-02,2.40e-01,
225,0.00e+00,8.00e-02,
226,-8.00e-02,2.40e-01,
227,0.00e+00,8.00e-02,
228,0.00e+00,2.40e-01,
229,-1.60e-01,8.00e-02,
230,0.00e+00,2.40e-01,
231,-1.60e-01,8.00e-02,
232,-1.60e-01,2.40e-01,
233,0.00e+00,8.00e-02,
234,-1.60e-01,2.40e-01,
235,0.00e+00,8.00e-02,
236,-1.60e-01,2.40e-01,
237,0.00e+00,8.00e-02,
238,0.00e+00,2.40e-01,
239,-1.60e-01,8.00e-02,
240,0.00e+00,8.00e-02,
241,-1.60e-01,2.40e-01,
242,0.00e+00,2.40e-01,
243,-8.00e-02,8.00e-02,
244,-8.00e-02,2.40e-01,
245,0.00e+00,8.00e-02,
246,0.00e+00,2.40e-01,
247,-8.00e-02,8.00e-02,
248,-8.00e-02,8.00e-02,
249,8.00e-02,2.40e-01,
250,8.00e-02,8.00e-02,
251,-8.00e-02,2.40e-01,
252,8.00e-02,8.00e-02,
253,0.00e+00,2.40e-01,
254,0.00e+00,8.00e-02,
255,1.60e-01,2.40e-01,
256,1.60e-01,2.40e-01,
257,8.00e-02,8.00e-02,
258,8.00e-02,2.40e-01,
259,2.40e-01,8.00e-02,
260,2.40e-01,2.40e-01,
261,1.60e-01,8.00e-02,
262,1.60e-01,8.00e-02,
263,3.20e-01,2.40e-01,
264,3.20e-01,8.00e-02,
265,2.40e-01,2.40e-01,
266,4.00e-01,2.40e-01,
267,2.40e-01,8.00e-02,
268,4.00e-01,2.40e-01,
269,5.60e-01,8.00e-02,
270,4.80e-01,8.00e-02,
271,5.60e-01,2.40e-01,
272,4.80e-01,8.00e-02,
273,6.40e-01,2.40e-01,
274,5.60e-01,8.00e-02,
275,7.20e-01,2.40e-01,
276,6.40e-01,8.00e-02,
277,8.00e-01,2.40e-01,
278,8.00e-01,2.40e-01,
279,6.40e-01,8.00e-02,
280,7.20e-01,2.40e-01,
281,8.80e-01,8.00e-02,
282,8.00e-01,1.60e-01,
283,9.60e-01,4.00e-01,
284,8.80e-01,1.60e-01,
285,1.04e+00,1.84e+00,
286,9.60e-01,1.84e+00,
287,1.12e+00,3.68e+00,
288,1.04e+00,3.60e+00,
289,1.20e+00,4.80e+00,
290,1.12e+00,4.72e+00,
291,1.28e+00,5.04e+00,
292,1.20e+00,5.04e+00,
293,1.36e+00,4.88e+00,
294,1.36e+00,4.88e+00,
295,1.52e+00,5.04e+00,
296,1.44e+00,5.04e+00,
297,1.60e+00,4.88e+00,
298,1.52e+00,5.12e+00,
299,1.68e+00,4.88e+00,
300,1.60e+00,5.12e+00,
301,1.76e+00,4.88e+00,
302,1.68e+00,4.88e+00,
303,1.84e+00,5.20e+00,
304,1.76e+00,5.12e+00,
305,1.92e+00,4.88e+00,
306,1.84e+00,5.12e+00,
307,2.00e+00,4.88e+00,
308,1.92e+00,5.12e+00,
309,2.08e+00,4.88e+00,
310,2.00e+00,5.12e+00,
311,2.16e+00,4.88e+00,
312,2.08e+00,5.20e+00,
313,2.24e+00,4.88e+00,
314,2.16e+00,5.20e+00,
315,2.32e+00,4.88e+00,
316,2.32e+00,5.12e+00,
317,2.48e+00,4.88e+00,
318,2.40e+00,4.88e+00,
319,2.56e+00,5.12e+00,
320,2.48e+00,5.12e+00,
321,2.64e+00,4.88e+00,
322,2.56e+00,5.12e+00,
323,2.72e+00,4.88e+00,
324,2.64e+00,5.12e+00,
325,2.88e+00,4.88e+00,
326,2.72e+00,5.12e+00,
327,2.96e+00,4.88e+00,
328,2.80e+00,5.12e+00,
329,3.04e+00,4.88e+00,
330,2.88e+00,4.88e+00,
331,3.12e+00,5.12e+00,
332,2.96e+00,5.12e+00,
333,3.20e+00,4.88e+00,
334,3.12e+00,4.88e+00,
335,3.28e+00,5.12e+00,
336,3.20e+00,4.88e+00,
337,3.44e+00,5.12e+00,
338,3.36e+00,5.12e+00,
339,3.52e+00,4.88e+00,
340,3.36e+00,5.12e+00,
341,3.60e+00,4.88e+00,
342,3.44e+00,5.12e+00,
343,3.68e+00,4.88e+00,
344,3.52e+00,5.12e+00,
345,3.76e+00,4.88e+00,
346,3.60e+00,4.88e+00,
347,3.84e+00,5.12e+00,
348,3.68e+00,5.12e+00,
349,3.92e+00,4.88e+00,
350,3.92e+00,5.12e+00,
351,3.76e+00,4.88e+00,
352,3.84e+00,4.88e+00,
353,4.00e+00,5.12e+00,
354,3.92e+00,5.12e+00,
355,4.08e+00,4.88e+00,
356,4.00e+00,4.88e+00,
357,4.16e+00,5.12e+00,
358,4.08e+00,5.12e+00,
359,4.24e+00,4.88e+00,
360,4.08e+00,4.88e+00,
361,4.32e+00,5.12e+00,
362,4.24e+00,5.12e+00,
363,4.40e+00,4.88e+00,
364,4.32e+00,5.12e+00,
365,4.48e+00,4.88e+00,
366,4.32e+00,5.04e+00,
367,4.48e+00,4.88e+00,
368,4.40e+00,4.88e+00,
369,4.56e+00,5.12e+00,
370,4.48e+00,4.88e+00,
371,4.64e+00,5.12e+00,
372,4.48e+00,5.04e+00,
373,4.64e+00,4.88e+00,
374,4.56e+00,5.12e+00,
375,4.72e+00,4.88e+00,
376,4.72e+00,5.12e+00,
377,4.56e+00,4.88e+00,
378,4.64e+00,5.12e+00,
379,4.80e+00,4.88e+00,
380,4.80e+00,5.12e+00,
381,4.64e+00,4.88e+00,
382,4.64e+00,5.12e+00,
383,4.88e+00,4.88e+00,
384,4.88e+00,5.12e+00,
385,4.72e+00,4.88e+00,
386,4.88e+00,4.88e+00,
387,4.72e+00,5.12e+00,
388,4.80e+00,5.12e+00,
389,4.88e+00,4.88e+00,
390,4.80e+00,4.88e+00,
391,4.96e+00,5.12e+00,
392,4.80e+00,4.96e+00,
393,4.96e+00,5.12e+00,
394,4.96e+00,4.96e+00,
395,4.80e+00,5.20e+00,
396,4.80e+00,5.12e+00,
397,4.96e+00,4.88e+00,
398,4.96e+00,5.20e+00,
399,4.80e+00,4.96e+00,
400,4.96e+00,5.12e+00,
401,4.80e+00,4.96e+00,
402,4.96e+00,5.12e+00,
403,4.80e+00,4.88e+00,
404,4.96e+00,5.12e+00,
405,4.80e+00,4.88e+00,
406,4.96e+00,5.12e+00,
407,4.80e+00,4.88e+00,
408,4.96e+00,4.88e+00,
409,4.80e+00,5.12e+00,
410,4.80e+00,5.12e+00,
411,4.96e+00,4.88e+00,
412,4.80e+00,5.12e+00,
413,4.96e+00,4.88e+00,
414,4.80e+00,5.12e+00,
415,4.96e+00,4.88e+00,
416,4.88e+00,5.12e+00,
417,4.72e+00,4.88e+00,
418,4.72e+00,5.12e+00,
419,4.88e+00,4.88e+00,
420,4.88e+00,5.12e+00,
421,4.64e+00,4.88e+00,
422,4.64e+00,5.12e+00,
423,4.80e+00,4.88e+00,
424,4.80e+00,5.12e+00,
425,4.56e+00,4.88e+00,
426,4.72e+00,5.12e+00,
427,4.56e+00,4.88e+00,
428,4.64e+00,5.12e+00,
429,4.48e+00,4.88e+00,
430,4.64e+00,5.12e+00,
431,4.48e+00,4.88e+00,
432,4.64e+00,4.88e+00,
433,4.40e+00,5.12e+00,
434,4.40e+00,5.12e+00,
435,4.56e+00,4.88e+00,
436,4.48e+00,5.12e+00,
437,4.32e+00,4.88e+00,
438,4.48e+00,5.12e+00,
439,4.24e+00,4.88e+00,
440,4.40e+00,5.12e+00,
441,4.16e+00,4.88e+00,
442,4.24e+00,4.96e+00,
443,4.08e+00,5.12e+00,
444,4.24e+00,5.12e+00,
445,4.00e+00,4.88e+00,
446,4.16e+00,5.20e+00,
447,3.92e+00,4.96e+00,
448,4.08e+00,5.12e+00,
449,3.92e+00,4.88e+00,
450,4.00e+00,5.12e+00,
451,3.84e+00,4.88e+00,
452,3.92e+00,5.12e+00,
453,3.76e+00,4.88e+00,
454,3.84e+00,5.20e+00,
455,3.68e+00,4.88e+00,
456,3.76e+00,5.12e+00,
457,3.60e+00,4.88e+00,
458,3.68e+00,5.20e+00,
459,3.52e+00,4.88e+00,
460,3.60e+00,5.12e+00,
461,3.44e+00,4.88e+00,
462,3.52e+00,5.12e+00,
463,3.36e+00,4.88e+00,
464,3.44e+00,5.12e+00,
465,3.28e+00,4.88e+00,
466,3.28e+00,5.20e+00,
467,3.12e+00,4.88e+00,
468,3.20e+00,5.12e+00,
469,3.04e+00,4.88e+00,
470,3.12e+00,5.12e+00,
471,2.96e+00,4.88e+00,
472,3.04e+00,5.12e+00,
473,2.88e+00,4.88e+00,
474,2.96e+00,5.12e+00,
475,2.80e+00,4.88e+00,
476,2.88e+00,5.12e+00,
477,2.72e+00,4.96e+00,
478,2.80e+00,4.88e+00,
479,2.64e+00,5.12e+00,
480,2.72e+00,5.12e+00,
481,2.56e+00,4.88e+00,
482,2.64e+00,5.12e+00,
483,2.48e+00,4.88e+00,
484,2.56e+00,5.12e+00,
485,2.32e+00,4.88e+00,
486,2.48e+00,5.12e+00,
487,2.24e+00,4.88e+00,
488,2.32e+00,5.12e+00,
489,2.08e+00,4.88e+00,
490,2.24e+00,5.12e+00,
491,2.00e+00,4.88e+00,
492,2.08e+00,5.12e+00,
493,1.92e+00,4.88e+00,
494,2.00e+00,5.12e+00,
495,1.84e+00,4.88e+00,
496,1.92e+00,4.96e+00,
497,1.76e+00,5.12e+00,
498,1.84e+00,4.96e+00,
499,1.68e+00,5.20e+00,
500,1.76e+00,4.88e+00,
501,1.60e+00,5.12e+00,
502,1.68e+00,4.88e+00,
503,1.52e+00,5.20e+00,
504,1.60e+00,5.12e+00,
505,1.44e+00,4.88e+00,
506,1.52e+00,5.12e+00,
507,1.36e+00,4.88e+00,
508,1.36e+00,5.12e+00,
509,1.20e+00,4.88e+00,
510,1.28e+00,5.12e+00,
511,1.12e+00,4.88e+00,
512,1.20e+00,4.88e+00,
513,1.04e+00,5.12e+00,
514,1.12e+00,4.88e+00,
515,9.60e-01,5.12e+00,
516,1.04e+00,5.20e+00,
517,8.80e-01,4.88e+00,
518,8.80e-01,5.12e+00,
519,1.04e+00,4.88e+00,
520,9.60e-01,5.12e+00,
521,8.00e-01,4.88e+00,
522,8.80e-01,4.88e+00,
523,7.20e-01,5.12e+00,
524,8.00e-01,5.12e+00,
525,6.40e-01,4.88e+00,
526,7.20e-01,5.12e+00,
527,5.60e-01,4.88e+00,
528,5.60e-01,5.12e+00,
529,6.40e-01,4.96e+00,
530,6.40e-01,5.12e+00,
531,4.80e-01,4.88e+00,
532,5.60e-01,5.12e+00,
533,3.20e-01,4.88e+00,
534,4.00e-01,5.12e+00,
535,4.00e-01,4.88e+00,
536,4.00e-01,4.88e+00,
537,2.40e-01,5.12e+00,
538,3.20e-01,5.12e+00,
539,1.60e-01,4.88e+00,
540,1.60e-01,5.04e+00,
541,3.20e-01,4.88e+00,
542,2.40e-01,5.20e+00,
543,8.00e-02,4.72e+00,
544,8.00e-02,4.80e+00,
545,2.40e-01,5.60e-01,
546,1.60e-01,5.60e-01,
547,0.00e+00,1.60e-01,
548,1.60e-01,2.40e-01,
549,0.00e+00,1.60e-01,
550,8.00e-02,2.40e-01,
551,0.00e+00,1.60e-01,
552,8.00e-02,2.40e-01,
553,-8.00e-02,8.00e-02,
554,-8.00e-02,2.40e-01,
555,8.00e-02,8.00e-02,
556,0.00e+00,2.40e-01,
557,-8.00e-02,8.00e-02,
558,-8.00e-02,2.40e-01,
559,0.00e+00,8.00e-02,
560,0.00e+00,2.40e-01,
561,-1.60e-01,8.00e-02,
562,0.00e+00,2.40e-01,
563,-1.60e-01,8.00e-02,
564,0.00e+00,2.40e-01,
565,-1.60e-01,8.00e-02,
566,-1.60e-01,2.40e-01,
567,0.00e+00,8.00e-02,
568,-1.60e-01,2.40e-01,
569,0.00e+00,8.00e-02,
570,-1.60e-01,2.40e-01,
571,0.00e+00,8.00e-02,
572,-1.60e-01,2.40e-01,
573,0.00e+00,8.00e-02,
574,0.00e+00,8.00e-02,
575,-1.60e-01,2.40e-01,
576,-8.00e-02,2.40e-01,
577,0.00e+00,8.00e-02,
578,0.00e+00,8.00e-02,
579,-8.00e-02,2.40e-01,
580,-8.00e-02,8.00e-02,
581,8.00e-02,2.40e-01,
582,-8.00e-02,2.40e-01,
583,8.00e-02,8.00e-02,
584,8.00e-02,2.40e-01,
585,0.00e+00,8.00e-02,
586,0.00e+00,2.40e-01,
587,1.60e-01,8.00e-02,
588,1.60e-01,2.40e-01,
589,0.00e+00,8.00e-02,
590,8.00e-02,2.40e-01,
591,1.60e-01,8.00e-02,
592,8.00e-02,8.00e-02,
593,2.40e-01,2.40e-01,
594,2.40e-01,8.00e-02,
595,1.60e-01,2.40e-01,
596,1.60e-01,8.00e-02,
597,3.20e-01,2.40e-01,
598,2.40e-01,2.40e-01,
599,4.00e-01,8.00e-02,
600,4.00e-01,8.00e-02,
601,2.40e-01,2.40e-01,
602,4.00e-01,8.00e-02,
603,5.60e-01,2.40e-01,
604,4.80e-01,8.00e-02,
605,6.40e-01,2.40e-01,
606,4.80e-01,8.00e-02,
607,6.40e-01,2.40e-01,
608,5.60e-01,8.00e-02,
609,7.20e-01,2.40e-01,
610,6.40e-01,2.40e-01,
611,8.00e-01,8.00e-02,
612,7.20e-01,2.40e-01,
613,8.80e-01,8.00e-02,
614,8.00e-01,2.40e-01,
615,9.60e-01,8.00e-02,
616,8.00e-01,1.60e-01,
617,9.60e-01,4.80e-01,
618,8.80e-01,4.80e-01,
619,1.04e+00,2.56e+00,
620,9.60e-01,2.48e+00,
621,1.12e+00,4.16e+00,
622,1.04e+00,4.08e+00,
623,1.20e+00,4.96e+00,
624,1.12e+00,5.04e+00,
625,1.28e+00,4.88e+00,
626,1.20e+00,4.88e+00,
627,1.36e+00,5.04e+00,
628,1.36e+00,5.04e+00,
629,1.52e+00,4.88e+00,
630,1.44e+00,5.04e+00,
631,1.60e+00,4.88e+00,
632,1.52e+00,4.88e+00,
633,1.68e+00,5.12e+00,
634,1.60e+00,5.12e+00,
635,1.76e+00,4.88e+00,
636,1.68e+00,4.88e+00,
637,1.84e+00,5.12e+00,
638,1.76e+00,4.88e+00,
639,1.92e+00,5.12e+00,
640,1.84e+00,4.88e+00,
641,2.00e+00,5.12e+00,
642,1.92e+00,4.88e+00,
643,2.08e+00,5.20e+00,
644,2.00e+00,5.12e+00,
645,2.16e+00,4.88e+00,
646,2.08e+00,5.12e+00,
647,2.24e+00,4.88e+00,
648,2.16e+00,4.88e+00,
649,2.40e+00,5.20e+00,
650,2.32e+00,4.88e+00,
651,2.48e+00,5.12e+00,
652,2.40e+00,5.12e+00,
653,2.64e+00,4.88e+00,
654,2.48e+00,4.88e+00,
655,2.72e+00,5.12e+00,
656,2.64e+00,5.12e+00,
657,2.80e+00,4.88e+00,
658,2.72e+00,4.88e+00,
659,2.88e+00,5.12e+00,
660,2.80e+00,5.12e+00,
661,2.96e+00,4.88e+00,
662,2.88e+00,4.88e+00,
663,3.04e+00,5.12e+00,
664,2.96e+00,5.12e+00,
665,3.12e+00,4.88e+00,
666,3.04e+00,5.20e+00,
667,3.20e+00,4.88e+00,
668,3.12e+00,4.88e+00,
669,3.28e+00,5.12e+00,
670,3.20e+00,5.12e+00,
671,3.44e+00,4.88e+00,
672,3.36e+00,5.12e+00,
673,3.52e+00,4.88e+00,
674,3.44e+00,5.12e+00,
675,3.60e+00,4.88e+00,
676,3.52e+00,5.12e+00,
677,3.68e+00,4.88e+00,
678,3.60e+00,4.88e+00,
679,3.76e+00,5.12e+00,
680,3.68e+00,4.88e+00,
681,3.84e+00,5.12e+00,
682,3.76e+00,5.12e+00,
683,3.92e+00,4.88e+00,
684,3.84e+00,4.88e+00,
685,4.00e+00,5.12e+00,
686,3.84e+00,4.96e+00,
687,4.08e+00,5.12e+00,
688,3.92e+00,4.88e+00,
689,4.08e+00,5.12e+00,
690,4.16e+00,4.88e+00,
691,4.00e+00,5.12e+00,
692,4.08e+00,5.20e+00,
693,4.24e+00,4.88e+00,
694,4.16e+00,5.12e+00,
695,4.40e+00,4.88e+00,
696,4.24e+00,5.20e+00,
697,4.40e+00,4.88e+00,
698,4.32e+00,5.12e+00,
699,4.48e+00,4.88e+00,
700,4.40e+00,5.12e+00,
701,4.56e+00,4.88e+00,
702,4.40e+00,5.12e+00,
703,4.56e+00,4.88e+00,
704,4.48e+00,5.12e+00,
705,4.64e+00,4.88e+00,
706,4.48e+00,5.12e+00,
707,4.72e+00,4.88e+00,
708,4.56e+00,5.20e+00,
709,4.72e+00,4.88e+00,
710,4.56e+00,4.88e+00,
711,4.80e+00,5.12e+00,
712,4.64e+00,5.12e+00,
713,4.80e+00,4.88e+00,
714,4.64e+00,5.12e+00,
715,4.80e+00,4.88e+00,
716,4.72e+00,4.88e+00,
717,4.88e+00,5.20e+00,
718,4.88e+00,4.88e+00,
719,4.72e+00,5.12e+00,
720,4.88e+00,4.88e+00,
721,4.72e+00,5.12e+00,
722,4.72e+00,5.12e+00,
723,4.96e+00,4.88e+00,
724,4.80e+00,4.88e+00,
725,4.96e+00,5.12e+00,
726,4.96e+00,4.88e+00,
727,4.80e+00,5.12e+00,
728,4.96e+00,4.88e+00,
729,4.80e+00,5.12e+00,
730,4.96e+00,5.12e+00,
731,4.80e+00,4.88e+00,
732,4.96e+00,5.12e+00,
733,4.80e+00,4.88e+00,
734,4.96e+00,5.12e+00,
735,4.80e+00,4.88e+00,
736,4.96e+00,5.12e+00,
737,4.80e+00,4.88e+00,
738,4.96e+00,5.12e+00,
739,4.80e+00,4.88e+00,
740,4.96e+00,4.88e+00,
741,4.80e+00,5.12e+00,
742,4.96e+00,5.12e+00,
743,4.80e+00,4.88e+00,
744,4.80e+00,5.12e+00,
745,4.96e+00,4.88e+00,
746,4.80e+00,5.12e+00,
747,4.96e+00,4.88e+00,
748,4.88e+00,5.12e+00,
749,4.72e+00,4.88e+00,
750,4.88e+00,5.20e+00,
751,4.72e+00,4.88e+00,
752,4.88e+00,4.88e+00,
753,4.72e+00,5.20e+00,
754,4.80e+00,5.12e+00,
755,4.64e+00,4.88e+00,
756,4.80e+00,5.12e+00,
757,4.64e+00,4.88e+00,
758,4.80e+00,4.96e+00,
759,4.56e+00,5.12e+00,
760,4.72e+00,5.12e+00,
761,4.56e+00,4.88e+00,
762,4.72e+00,5.12e+00,
763,4.48e+00,4.88e+00,
764,4.64e+00,5.04e+00,
765,4.48e+00,4.88e+00,
766,4.56e+00,5.20e+00,
767,4.40e+00,4.88e+00,
768,4.40e+00,4.96e+00,
769,4.56e+00,5.12e+00,
770,4.32e+00,5.12e+00,
771,4.48e+00,4.88e+00,
772,4.40e+00,4.88e+00,
773,4.16e+00,5.12e+00,
774,4.40e+00,5.12e+00,
775,4.16e+00,4.88e+00,
776,4.24e+00,5.12e+00,
777,4.08e+00,4.88e+00,
778,4.16e+00,5.12e+00,
779,4.00e+00,4.96e+00,
780,4.08e+00,5.04e+00,
781,3.92e+00,4.88e+00,
782,4.00e+00,5.12e+00,
783,3.84e+00,4.88e+00,
784,4.00e+00,5.12e+00,
785,3.76e+00,4.88e+00,
786,3.76e+00,4.96e+00,
787,3.92e+00,5.12e+00,
788,3.84e+00,5.12e+00,
789,3.68e+00,4.88e+00,
790,3.76e+00,4.88e+00,
791,3.60e+00,5.12e+00,
792,3.68e+00,5.12e+00,
793,3.52e+00,4.88e+00,
794,3.60e+00,5.12e+00,
795,3.44e+00,4.88e+00,
796,3.52e+00,5.12e+00,
797,3.36e+00,4.88e+00,
798,3.28e+00,5.04e+00,
799,3.44e+00,4.88e+00,
800,3.28e+00,5.12e+00,
801,3.12e+00,4.88e+00,
802,3.20e+00,5.12e+00,
803,3.04e+00,4.88e+00,
804,3.12e+00,5.12e+00,
805,2.96e+00,4.88e+00,
806,3.04e+00,4.88e+00,
807,2.88e+00,5.12e+00,
808,2.96e+00,4.88e+00,
809,2.72e+00,5.12e+00,
810,2.88e+00,5.12e+00,
811,2.64e+00,4.88e+00,
812,2.80e+00,5.12e+00,
813,2.56e+00,4.88e+00,
814,2.72e+00,4.88e+00,
815,2.48e+00,5.12e+00,
816,2.64e+00,5.04e+00,
817,2.40e+00,4.88e+00,
818,2.48e+00,5.12e+00,
819,2.24e+00,4.88e+00,
820,2.32e+00,5.12e+00,
821,2.16e+00,4.88e+00,
822,2.24e+00,5.12e+00,
823,2.08e+00,4.88e+00,
824,2.16e+00,4.88e+00,
825,2.00e+00,5.12e+00,
826,2.08e+00,4.88e+00,
827,1.92e+00,5.12e+00,
828,2.00e+00,4.88e+00,
829,1.84e+00,5.12e+00,
830,1.92e+00,5.12e+00,
831,1.76e+00,4.88e+00,
832,1.84e+00,4.96e+00,
833,1.68e+00,5.12e+00,
834,1.76e+00,5.12e+00,
835,1.60e+00,4.88e+00,
836,1.68e+00,5.20e+00,
837,1.52e+00,4.88e+00,
838,1.60e+00,5.12e+00,
839,1.44e+00,4.88e+00,
840,1.44e+00,5.12e+00,
841,1.36e+00,4.88e+00,
842,1.36e+00,5.04e+00,
843,1.20e+00,4.88e+00,
844,1.28e+00,5.20e+00,
845,1.12e+00,4.88e+00,
846,1.20e+00,4.88e+00,
847,1.04e+00,5.12e+00,
848,1.12e+00,5.04e+00,
849,9.60e-01,4.88e+00,
850,1.04e+00,4.88e+00,
851,8.80e-01,5.12e+00,
852,9.60e-01,5.12e+00,
853,8.00e-01,4.88e+00,
854,8.80e-01,4.88e+00,
855,7.20e-01,5.12e+00,
856,7.20e-01,5.12e+00,
857,8.80e-01,4.88e+00,
858,8.00e-01,4.88e+00,
859,6.40e-01,5.12e+00,
860,7.20e-01,5.20e+00,
861,5.60e-01,4.88e+00,
862,6.40e-01,5.12e+00,
863,4.80e-01,4.88e+00,
864,4.80e-01,4.88e+00,
865,5.60e-01,5.12e+00,
866,5.60e-01,4.88e+00,
867,3.20e-01,5.12e+00,
868,4.00e-01,4.88e+00,
