project/matlab/project_exp3/150 Hz/NewFile1.csv

X,CH1,CH2,Start,Increment,
Sequence,Volt,Volt,-1.128000e-02,2.000000e-05
0,4.56e+00,4.88e+00,
1,4.32e+00,5.12e+00,
2,4.32e+00,4.88e+00,
3,4.48e+00,5.20e+00,
4,4.40e+00,5.12e+00,
5,4.24e+00,4.88e+00,
6,4.40e+00,4.88e+00,
7,4.08e+00,5.12e+00,
8,4.24e+00,4.88e+00,
9,4.08e+00,5.12e+00,
10,4.16e+00,4.88e+00,
11,4.00e+00,5.12e+00,
12,4.08e+00,4.88e+00,
13,3.92e+00,5.12e+00,
14,4.08e+00,4.88e+00,
15,3.84e+00,5.12e+00,
16,4.00e+00,4.88e+00,
17,3.76e+00,5.12e+00,
18,3.92e+00,4.88e+00,
19,3.68e+00,5.12e+00,
20,3.84e+00,4.88e+00,
21,3.60e+00,5.12e+00,
22,3.76e+00,5.12e+00,
23,3.60e+00,4.88e+00,
24,3.52e+00,4.88e+00,
25,3.68e+00,5.12e+00,
26,3.60e+00,4.88e+00,
27,3.44e+00,5.12e+00,
28,3.52e+00,4.88e+00,
29,3.36e+00,5.12e+00,
30,3.44e+00,4.88e+00,
31,3.20e+00,5.12e+00,
32,3.28e+00,5.04e+00,
33,3.12e+00,4.88e+00,
34,3.20e+00,5.04e+00,
35,3.04e+00,4.88e+00,
36,3.12e+00,4.88e+00,
37,2.96e+00,5.20e+00,
38,3.04e+00,5.04e+00,
39,2.88e+00,4.88e+00,
40,2.96e+00,4.88e+00,
41,2.80e+00,5.12e+00,
42,2.88e+00,4.88e+00,
43,2.72e+00,5.12e+00,
44,2.80e+00,4.88e+00,
45,2.64e+00,5.20e+00,
46,2.72e+00,4.88e+00,
47,2.48e+00,5.20e+00,
48,2.64e+00,5.12e+00,
49,2.40e+00,4.88e+00,
50,2.56e+00,4.96e+00,
51,2.32e+00,4.88e+00,
52,2.48e+00,4.96e+00,
53,2.24e+00,4.88e+00,
54,2.32e+00,4.88e+00,
55,2.08e+00,5.12e+00,
56,2.24e+00,4.88e+00,
57,2.00e+00,5.20e+00,
58,2.08e+00,4.88e+00,
59,1.92e+00,5.12e+00,
60,2.00e+00,5.04e+00,
61,1.84e+00,4.88e+00,
62,1.92e+00,5.12e+00,
63,1.76e+00,4.88e+00,
64,1.84e+00,4.88e+00,
65,1.68e+00,5.12e+00,
66,1.76e+00,4.88e+00,
67,1.60e+00,5.12e+00,
68,1.68e+00,4.88e+00,
69,1.52e+00,5.20e+00,
70,1.60e+00,5.04e+00,
71,1.44e+00,4.88e+00,
72,1.52e+00,5.04e+00,
73,1.28e+00,4.88e+00,
74,1.36e+00,4.88e+00,
75,1.20e+00,5.12e+00,
76,1.28e+00,5.12e+00,
77,1.12e+00,4.88e+00,
78,1.20e+00,5.04e+00,
79,1.04e+00,4.88e+00,
80,1.12e+00,5.04e+00,
81,9.60e-01,4.88e+00,
82,1.04e+00,4.88e+00,
83,8.80e-01,5.12e+00,
84,8.80e-01,4.88e+00,
85,1.04e+00,5.12e+00,
86,9.60e-01,4.88e+00,
87,8.00e-01,5.12e+00,
88,8.80e-01,4.96e+00,
89,7.20e-01,4.88e+00,
90,8.00e-01,4.88e+00,
91,6.40e-01,5.04e+00,
92,7.20e-01,4.96e+00,
93,5.60e-01,4.88e+00,
94,5.60e-01,4.96e+00,
95,7.20e-01,4.88e+00,
96,6.40e-01,4.96e+00,
97,4.80e-01,4.88e+00,
98,5.60e-01,4.88e+00,
99,4.00e-01,5.04e+00,
100,4.80e-01,5.04e+00,
101,3.20e-01,4.88e+00,
102,4.00e-01,5.12e+00,
103,2.40e-01,2.40e-01,
104,3.20e-01,2.40e-01,
105,1.60e-01,8.00e-02,
106,3.20e-01,8.00e-02,
107,1.60e-01,2.40e-01,
108,2.40e-01,2.40e-01,
109,8.00e-02,8.00e-02,
110,2.40e-01,8.00e-02,
111,8.00e-02,2.40e-01,
112,1.60e-01,1.60e-01,
113,8.00e-02,8.00e-02,
114,1.60e-01,8.00e-02,
115,0.00e+00,1.60e-01,
116,8.00e-02,1.60e-01,
117,0.00e+00,8.00e-02,
118,8.00e-02,1.60e-01,
119,-8.00e-02,8.00e-02,
120,8.00e-02,1.60e-01,
121,-8.00e-02,8.00e-02,
122,-8.00e-02,1.60e-01,
123,8.00e-02,8.00e-02,
124,0.00e+00,1.60e-01,
125,-8.00e-02,8.00e-02,
126,-8.00e-02,1.60e-01,
127,0.00e+00,8.00e-02,
128,-8.00e-02,1.60e-01,
129,0.00e+00,8.00e-02,
130,0.00e+00,1.60e-01,
131,-1.60e-01,0.00e+00,
132,0.00e+00,1.60e-01,
133,-1.60e-01,8.00e-02,
134,0.00e+00,1.60e-01,
135,-1.60e-01,8.00e-02,
136,0.00e+00,8.00e-02,
137,-1.60e-01,1.60e-01,
138,-8.00e-02,1.60e-01,
139,0.00e+00,8.00e-02,
140,0.00e+00,1.60e-01,
141,-8.00e-02,8.00e-02,
142,0.00e+00,8.00e-02,
143,-8.00e-02,1.60e-01,
144,-8.00e-02,1.60e-01,
145,8.00e-02,8.00e-02,
146,-8.00e-02,1.60e-01,
147,8.00e-02,8.00e-02,
148,-8.00e-02,8.00e-02,
149,8.00e-02,1.60e-01,
150,8.00e-02,1.60e-01,
151,0.00e+00,8.00e-02,
152,0.00e+00,1.60e-01,
153,1.60e-01,8.00e-02,
154,1.60e-01,1.60e-01,
155,8.00e-02,8.00e-02,
156,8.00e-02,1.60e-01,
157,2.40e-01,8.00e-02,
158,2.40e-01,8.00e-02,
159,8.00e-02,1.60e-01,
160,1.60e-01,1.60e-01,
161,3.20e-01,0.00e+00,
162,1.60e-01,1.60e-01,
163,3.20e-01,8.00e-02,
164,2.40e-01,1.60e-01,
165,4.00e-01,8.00e-02,
166,4.00e-01,1.60e-01,
167,3.20e-01,0.00e+00,
168,3.20e-01,1.60e-01,
169,5.60e-01,8.00e-02,
170,4.80e-01,1.60e-01,
171,6.40e-01,0.00e+00,
172,6.40e-01,1.60e-01,
173,5.60e-01,8.00e-02,
174,7.20e-01,8.00e-02,
175,5.60e-01,1.60e-01,
176,6.40e-01,1.60e-01,
177,8.00e-01,8.00e-02,
178,7.20e-01,8.00e-02,
179,8.80e-01,5.04e+00,
180,8.00e-01,5.04e+00,
181,9.60e-01,4.88e+00,
182,8.00e-01,5.04e+00,
183,1.04e+00,4.88e+00,
184,1.04e+00,5.04e+00,
185,8.80e-01,4.88e+00,
186,9.60e-01,5.04e+00,
187,1.12e+00,4.88e+00,
188,1.04e+00,5.04e+00,
189,1.20e+00,4.88e+00,
190,1.12e+00,5.04e+00,
191,1.28e+00,4.88e+00,
192,1.20e+00,5.04e+00,
193,1.36e+00,4.88e+00,
194,1.28e+00,4.88e+00,
195,1.52e+00,5.04e+00,
196,1.44e+00,5.04e+00,
197,1.60e+00,4.88e+00,
198,1.52e+00,5.04e+00,
199,1.68e+00,4.88e+00,
200,1.60e+00,5.04e+00,
201,1.76e+00,4.88e+00,
202,1.68e+00,5.04e+00,
203,1.84e+00,4.88e+00,
204,1.76e+00,5.04e+00,
205,1.92e+00,4.88e+00,
206,1.84e+00,5.04e+00,
207,2.00e+00,4.88e+00,
208,1.92e+00,4.88e+00,
209,2.08e+00,4.96e+00,
210,2.00e+00,4.96e+00,
211,2.16e+00,4.88e+00,
212,2.08e+00,4.96e+00,
213,2.32e+00,4.88e+00,
214,2.24e+00,4.96e+00,
215,2.48e+00,4.88e+00,
216,2.32e+00,4.96e+00,
217,2.56e+00,4.88e+00,
218,2.40e+00,4.88e+00,
219,2.64e+00,5.04e+00,
220,2.48e+00,5.04e+00,
221,2.72e+00,4.88e+00,
222,2.56e+00,5.04e+00,
223,2.80e+00,4.88e+00,
224,2.64e+00,5.04e+00,
225,2.88e+00,4.88e+00,
226,2.72e+00,5.04e+00,
227,2.96e+00,4.88e+00,
228,2.88e+00,5.04e+00,
229,3.04e+00,4.88e+00,
230,2.96e+00,5.04e+00,
231,3.12e+00,4.88e+00,
232,3.04e+00,5.04e+00,
233,3.20e+00,4.88e+00,
234,3.12e+00,4.88e+00,
235,3.28e+00,5.04e+00,
236,3.20e+00,5.04e+00,
237,3.36e+00,4.88e+00,
238,3.36e+00,5.04e+00,
239,3.52e+00,4.88e+00,
240,3.44e+00,5.04e+00,
241,3.60e+00,4.88e+00,
242,3.44e+00,4.88e+00,
243,3.68e+00,5.04e+00,
244,3.52e+00,5.04e+00,
245,3.76e+00,4.88e+00,
246,3.60e+00,5.04e+00,
247,3.84e+00,4.88e+00,
248,3.68e+00,4.96e+00,
249,3.92e+00,4.88e+00,
250,3.76e+00,4.88e+00,
251,4.00e+00,5.12e+00,
252,4.00e+00,4.88e+00,
253,3.84e+00,4.96e+00,
254,3.92e+00,4.96e+00,
255,4.08e+00,4.88e+00,
256,4.00e+00,4.96e+00,
257,4.16e+00,4.88e+00,
258,4.00e+00,4.88e+00,
259,4.24e+00,5.04e+00,
260,4.08e+00,5.04e+00,
261,4.40e+00,4.88e+00,
262,4.16e+00,5.04e+00,
263,4.40e+00,4.88e+00,
264,4.32e+00,5.04e+00,
265,4.48e+00,4.88e+00,
266,4.32e+00,5.04e+00,
267,4.56e+00,4.88e+00,
268,4.40e+00,5.04e+00,
269,4.48e+00,4.88e+00,
270,4.48e+00,5.04e+00,
271,4.64e+00,4.88e+00,
272,4.48e+00,4.88e+00,
273,4.64e+00,5.04e+00,
274,4.48e+00,5.04e+00,
275,4.72e+00,4.88e+00,
276,4.56e+00,5.04e+00,
277,4.72e+00,4.88e+00,
278,4.64e+00,5.04e+00,
279,4.80e+00,4.88e+00,
280,4.80e+00,5.04e+00,
281,4.64e+00,4.88e+00,
282,4.64e+00,4.88e+00,
283,4.80e+00,5.12e+00,
284,4.72e+00,5.04e+00,
285,4.88e+00,4.88e+00,
286,4.72e+00,4.88e+00,
287,4.88e+00,5.04e+00,
288,4.72e+00,4.88e+00,
289,4.88e+00,4.96e+00,
290,4.80e+00,4.88e+00,
291,4.96e+00,5.04e+00,
292,4.80e+00,4.96e+00,
293,4.96e+00,4.88e+00,
294,4.80e+00,4.88e+00,
295,4.96e+00,5.04e+00,
296,4.96e+00,4.88e+00,
297,4.80e+00,5.04e+00,
298,4.96e+00,4.88e+00,
299,4.80e+00,5.04e+00,
300,4.80e+00,4.88e+00,
301,4.96e+00,5.04e+00,
302,4.96e+00,4.88e+00,
303,4.80e+00,5.12e+00,
304,4.80e+00,5.04e+00,
305,4.96e+00,4.88e+00,
306,4.96e+00,4.88e+00,
307,4.80e+00,5.12e+00,
308,4.96e+00,5.04e+00,
309,4.80e+00,4.88e+00,
310,4.88e+00,4.88e+00,
311,4.72e+00,5.12e+00,
312,4.88e+00,4.88e+00,
313,4.72e+00,5.12e+00,
314,4.72e+00,4.88e+00,
315,4.88e+00,5.12e+00,
316,4.72e+00,4.88e+00,
317,4.88e+00,5.12e+00,
318,4.80e+00,4.88e+00,
319,4.64e+00,5.12e+00,
320,4.80e+00,4.88e+00,
321,4.64e+00,5.12e+00,
322,4.80e+00,4.88e+00,
323,4.56e+00,5.12e+00,
324,4.56e+00,5.04e+00,
325,4.72e+00,4.88e+00,
326,4.72e+00,4.88e+00,
327,4.48e+00,5.20e+00,
328,4.64e+00,4.88e+00,
329,4.48e+00,4.96e+00,
330,4.64e+00,4.88e+00,
331,4.40e+00,5.12e+00,
332,4.40e+00,4.88e+00,
333,4.56e+00,5.20e+00,
334,4.48e+00,5.12e+00,
335,4.32e+00,4.88e+00,
336,4.48e+00,5.20e+00,
337,4.24e+00,4.88e+00,
338,4.24e+00,4.88e+00,
339,4.40e+00,5.12e+00,
340,4.24e+00,5.12e+00,
341,4.08e+00,4.88e+00,
342,4.24e+00,4.88e+00,
343,4.00e+00,5.12e+00,
344,4.16e+00,4.88e+00,
345,4.00e+00,5.12e+00,
346,4.08e+00,5.12e+00,
347,3.92e+00,4.88e+00,
348,4.00e+00,5.12e+00,
349,3.84e+00,4.88e+00,
350,3.92e+00,4.88e+00,
351,3.76e+00,5.20e+00,
352,3.92e+00,4.88e+00,
353,3.68e+00,5.12e+00,
354,3.84e+00,5.12e+00,
355,3.60e+00,4.88e+00,
356,3.76e+00,5.12e+00,
357,3.52e+00,4.88e+00,
358,3.68e+00,4.88e+00,
359,3.44e+00,5.12e+00,
360,3.60e+00,4.88e+00,
361,3.36e+00,5.20e+00,
362,3.52e+00,5.20e+00,
363,3.28e+00,4.88e+00,
364,3.44e+00,5.12e+00,
365,3.12e+00,4.88e+00,
366,3.28e+00,4.88e+00,
367,3.04e+00,5.12e+00,
368,3.20e+00,4.88e+00,
369,2.96e+00,5.20e+00,
370,3.12e+00,4.88e+00,
371,2.88e+00,5.04e+00,
372,3.04e+00,4.88e+00,
373,2.80e+00,5.04e+00,
374,2.96e+00,4.88e+00,
375,2.72e+00,5.12e+00,
376,2.88e+00,4.88e+00,
377,2.64e+00,5.12e+00,
378,2.80e+00,4.88e+00,
379,2.56e+00,5.20e+00,
380,2.72e+00,4.88e+00,
381,2.48e+00,5.12e+00,
382,2.56e+00,4.88e+00,
383,2.40e+00,5.12e+00,
384,2.48e+00,4.88e+00,
385,2.32e+00,5.12e+00,
386,2.32e+00,4.88e+00,
387,2.16e+00,5.12e+00,
388,2.24e+00,4.88e+00,
389,2.08e+00,5.20e+00,
390,2.16e+00,4.88e+00,
391,2.00e+00,5.12e+00,
392,2.08e+00,5.04e+00,
393,1.92e+00,4.88e+00,
394,2.00e+00,4.88e+00,
395,1.84e+00,5.12e+00,
396,1.92e+00,4.88e+00,
397,1.76e+00,5.12e+00,
398,1.84e+00,4.88e+00,
399,1.60e+00,5.12e+00,
400,1.76e+00,4.88e+00,
401,1.60e+00,5.12e+00,
402,1.68e+00,4.88e+00,
403,1.52e+00,5.20e+00,
404,1.60e+00,5.04e+00,
405,1.44e+00,4.88e+00,
406,1.52e+00,4.88e+00,
407,1.36e+00,5.04e+00,
408,1.36e+00,4.88e+00,
409,1.20e+00,5.04e+00,
410,1.28e+00,4.88e+00,
411,1.12e+00,5.04e+00,
412,1.20e+00,5.04e+00,
413,1.04e+00,4.88e+00,
414,1.12e+00,4.88e+00,
415,9.60e-01,5.12e+00,
416,1.04e+00,4.96e+00,
417,8.80e-01,4.88e+00,
418,9.60e-01,4.88e+00,
419,8.00e-01,5.12e+00,
420,8.80e-01,4.88e+00,
421,7.20e-01,5.12e+00,
422,8.80e-01,4.88e+00,
423,7.20e-01,5.20e+00,
424,8.00e-01,5.04e+00,
425,6.40e-01,4.88e+00,
426,7.20e-01,5.04e+00,
427,5.60e-01,4.88e+00,
428,6.40e-01,5.04e+00,
429,4.80e-01,4.88e+00,
430,4.80e-01,5.04e+00,
431,6.40e-01,4.88e+00,
432,5.60e-01,5.04e+00,
433,4.00e-01,4.88e+00,
434,4.00e-01,5.04e+00,
435,3.20e-01,4.88e+00,
436,4.00e-01,5.04e+00,
437,2.40e-01,8.00e-02,
438,3.20e-01,2.40e-01,
439,1.60e-01,8.00e-02,
440,3.20e-01,2.40e-01,
441,1.60e-01,8.00e-02,
442,2.40e-01,2.40e-01,
443,8.00e-02,8.00e-02,
444,2.40e-01,8.00e-02,
445,8.00e-02,2.40e-01,
446,1.60e-01,8.00e-02,
447,0.00e+00,2.40e-01,
448,1.60e-01,2.40e-01,
449,0.00e+00,8.00e-02,
450,0.00e+00,1.60e-01,
451,8.00e-02,8.00e-02,
452,8.00e-02,1.60e-01,
453,-8.00e-02,0.00e+00,
454,-8.00e-02,1.60e-01,
455,8.00e-02,8.00e-02,
456,-8.00e-02,1.60e-01,
457,8.00e-02,0.00e+00,
458,0.00e+00,1.60e-01,
459,-8.00e-02,8.00e-02,
460,0.00e+00,2.40e-01,
461,-8.00e-02,0.00e+00,
462,0.00e+00,1.60e-01,
463,-8.00e-02,8.00e-02,
464,0.00e+00,1.60e-01,
465,-1.60e-01,8.00e-02,
466,0.00e+00,1.60e-01,
467,-1.60e-01,0.00e+00,
468,0.00e+00,8.00e-02,
469,-1.60e-01,2.40e-01,
470,0.00e+00,8.00e-02,
471,-1.60e-01,2.40e-01,
472,0.00e+00,8.00e-02,
473,-1.60e-01,1.60e-01,
474,0.00e+00,1.60e-01,
475,-8.00e-02,8.00e-02,
476,-8.00e-02,1.60e-01,
477,0.00e+00,0.00e+00,
478,-8.00e-02,1.60e-01,
479,8.00e-02,0.00e+00,
480,8.00e-02,1.60e-01,
481,-8.00e-02,8.00e-02,
482,8.00e-02,1.60e-01,
483,0.00e+00,8.00e-02,
484,0.00e+00,1.60e-01,
485,1.60e-01,0.00e+00,
486,1.60e-01,1.60e-01,
487,0.00e+00,8.00e-02,
488,1.60e-01,1.60e-01,
489,8.00e-02,8.00e-02,
490,8.00e-02,1.60e-01,
491,2.40e-01,8.00e-02,
492,2.40e-01,1.60e-01,
493,1.60e-01,0.00e+00,
494,1.60e-01,1.60e-01,
495,3.20e-01,0.00e+00,
496,2.40e-01,1.60e-01,
497,3.20e-01,8.00e-02,
498,4.00e-01,1.60e-01,
499,2.40e-01,8.00e-02,
500,4.00e-01,1.60e-01,
501,5.60e-01,8.00e-02,
502,4.00e-01,1.60e-01,
503,5.60e-01,8.00e-02,
504,4.80e-01,1.60e-01,
505,6.40e-01,0.00e+00,
506,5.60e-01,1.60e-01,
507,7.20e-01,8.00e-02,
508,6.40e-01,1.60e-01,
509,7.20e-01,8.00e-02,
510,6.40e-01,8.00e-02,
511,8.00e-01,4.96e+00,
512,7.20e-01,4.80e+00,
513,8.80e-01,5.04e+00,
514,8.00e-01,5.04e+00,
515,9.60e-01,4.88e+00,
516,8.80e-01,4.88e+00,
517,1.04e+00,5.04e+00,
518,9.60e-01,5.04e+00,
519,1.12e+00,4.88e+00,
520,1.04e+00,5.04e+00,
521,1.20e+00,4.88e+00,
522,1.04e+00,5.04e+00,
523,1.28e+00,4.88e+00,
524,1.28e+00,4.88e+00,
525,1.12e+00,5.04e+00,
526,1.36e+00,5.04e+00,
527,1.20e+00,4.88e+00,
528,1.36e+00,4.96e+00,
529,1.52e+00,4.88e+00,
530,1.44e+00,4.96e+00,
531,1.60e+00,4.88e+00,
532,1.52e+00,4.96e+00,
533,1.68e+00,4.88e+00,
534,1.60e+00,4.96e+00,
535,1.76e+00,4.88e+00,
536,1.68e+00,4.96e+00,
537,1.92e+00,4.88e+00,
538,1.76e+00,4.88e+00,
539,2.00e+00,5.04e+00,
540,1.84e+00,5.04e+00,
541,2.08e+00,4.88e+00,
542,1.92e+00,5.04e+00,
543,2.16e+00,4.88e+00,
544,2.00e+00,4.88e+00,
545,2.24e+00,5.04e+00,
546,2.08e+00,5.04e+00,
547,2.32e+00,4.88e+00,
548,2.24e+00,5.04e+00,
549,2.48e+00,4.88e+00,
550,2.32e+00,5.04e+00,
551,2.56e+00,4.88e+00,
552,2.48e+00,5.04e+00,
553,2.64e+00,4.88e+00,
554,2.56e+00,5.04e+00,
555,2.72e+00,4.88e+00,
556,2.64e+00,5.04e+00,
557,2.80e+00,4.88e+00,
558,2.72e+00,5.04e+00,
559,2.88e+00,4.88e+00,
560,2.80e+00,5.04e+00,
561,2.96e+00,4.88e+00,
562,2.88e+00,5.04e+00,
563,3.04e+00,4.88e+00,
564,2.96e+00,5.04e+00,
565,3.12e+00,4.88e+00,
566,3.20e+00,5.04e+00,
567,3.04e+00,4.88e+00,
568,3.12e+00,4.96e+00,
569,3.28e+00,4.88e+00,
570,3.28e+00,4.96e+00,
571,3.44e+00,4.88e+00,
572,3.36e+00,4.88e+00,
573,3.52e+00,4.96e+00,
574,3.44e+00,4.96e+00,
575,3.60e+00,4.88e+00,
576,3.52e+00,4.96e+00,
577,3.68e+00,4.88e+00,
578,3.60e+00,4.88e+00,
579,3.76e+00,5.04e+00,
580,3.68e+00,5.04e+00,
581,3.84e+00,4.88e+00,
582,3.76e+00,5.04e+00,
583,3.92e+00,4.88e+00,
584,3.76e+00,5.04e+00,
585,4.00e+00,4.88e+00,
586,4.00e+00,5.04e+00,
587,3.84e+00,4.88e+00,
588,3.92e+00,4.88e+00,
589,4.16e+00,5.04e+00,
590,4.00e+00,5.04e+00,
591,4.16e+00,4.88e+00,
592,4.08e+00,5.04e+00,
593,4.24e+00,4.88e+00,
594,4.16e+00,5.04e+00,
595,4.40e+00,4.88e+00,
596,4.16e+00,5.04e+00,
597,4.40e+00,4.88e+00,
598,4.32e+00,5.04e+00,
599,4.48e+00,4.88e+00,
600,4.32e+00,5.04e+00,
601,4.56e+00,4.88e+00,
602,4.40e+00,5.04e+00,
603,4.56e+00,4.88e+00,
604,4.48e+00,5.04e+00,
605,4.64e+00,4.88e+00,
606,4.48e+00,5.04e+00,
607,4.64e+00,4.88e+00,
608,4.56e+00,4.96e+00,
609,4.72e+00,4.88e+00,
610,4.72e+00,4.88e+00,
611,4.56e+00,4.96e+00,
612,4.64e+00,4.96e+00,
613,4.80e+00,4.88e+00,
614,4.64e+00,4.96e+00,
615,4.80e+00,4.88e+00,
616,4.64e+00,4.96e+00,
617,4.88e+00,4.88e+00,
618,4.72e+00,4.88e+00,
619,4.88e+00,5.04e+00,
620,4.72e+00,5.04e+00,
621,4.88e+00,4.88e+00,
622,4.88e+00,4.88e+00,
623,4.72e+00,5.04e+00,
624,4.80e+00,4.88e+00,
625,4.96e+00,5.04e+00,
626,4.80e+00,5.04e+00,
627,4.96e+00,4.88e+00,
628,4.96e+00,5.04e+00,
629,4.80e+00,4.88e+00,
630,4.96e+00,5.04e+00,
631,4.80e+00,4.88e+00,
632,4.80e+00,5.04e+00,
633,4.88e+00,4.88e+00,
634,4.88e+00,4.88e+00,
635,4.80e+00,5.12e+00,
636,4.88e+00,5.04e+00,
637,4.80e+00,4.88e+00,
638,4.80e+00,4.88e+00,
639,4.96e+00,5.12e+00,
640,4.80e+00,5.04e+00,
641,4.96e+00,4.88e+00,
642,4.80e+00,5.04e+00,
643,4.96e+00,4.88e+00,
644,4.88e+00,4.88e+00,
645,4.72e+00,5.12e+00,
646,4.72e+00,5.04e+00,
647,4.88e+00,4.88e+00,
648,4.72e+00,4.88e+00,
649,4.88e+00,5.12e+00,
650,4.88e+00,4.88e+00,
651,4.64e+00,5.12e+00,
652,4.80e+00,4.88e+00,
653,4.64e+00,5.20e+00,
654,4.64e+00,4.88e+00,
655,4.80e+00,5.20e+00,
656,4.72e+00,4.88e+00,
657,4.56e+00,5.12e+00,
658,4.56e+00,4.88e+00,
659,4.72e+00,5.20e+00,
660,4.64e+00,4.88e+00,
661,4.48e+00,5.20e+00,
662,4.48e+00,4.88e+00,
663,4.64e+00,5.20e+00,
664,4.56e+00,4.88e+00,
665,4.40e+00,5.20e+00,
666,4.40e+00,4.88e+00,
667,4.56e+00,5.12e+00,
668,4.48e+00,4.88e+00,
669,4.32e+00,5.12e+00,
670,4.48e+00,4.88e+00,
671,4.16e+00,5.20e+00,
672,4.16e+00,4.88e+00,
673,4.40e+00,5.20e+00,
674,4.24e+00,4.88e+00,
675,4.08e+00,5.12e+00,
676,4.16e+00,4.88e+00,
677,4.00e+00,5.20e+00,
678,4.16e+00,5.12e+00,
679,3.92e+00,4.88e+00,
680,4.08e+00,4.88e+00,
681,3.84e+00,5.20e+00,
682,3.84e+00,4.88e+00,
683,4.00e+00,5.12e+00,
684,3.92e+00,4.88e+00,
685,3.76e+00,5.12e+00,
686,3.84e+00,4.88e+00,
687,3.68e+00,5.12e+00,
688,3.76e+00,4.88e+00,
689,3.60e+00,5.12e+00,
690,3.68e+00,4.88e+00,
691,3.52e+00,5.12e+00,
692,3.60e+00,5.12e+00,
693,3.44e+00,4.88e+00,
694,3.52e+00,4.88e+00,
695,3.36e+00,5.12e+00,
696,3.44e+00,4.88e+00,
697,3.28e+00,5.12e+00,
698,3.36e+00,4.88e+00,
699,3.12e+00,5.12e+00,
700,3.28e+00,4.88e+00,
701,3.04e+00,5.20e+00,
702,3.20e+00,4.88e+00,
703,2.96e+00,5.12e+00,
704,3.04e+00,4.88e+00,
705,2.88e+00,5.12e+00,
706,2.96e+00,4.88e+00,
707,2.80e+00,5.20e+00,
708,2.88e+00,4.88e+00,
709,2.72e+00,5.12e+00,
710,2.80e+00,5.20e+00,
711,2.64e+00,4.88e+00,
712,2.72e+00,5.04e+00,
713,2.56e+00,4.88e+00,
714,2.64e+00,4.88e+00,
715,2.48e+00,5.12e+00,
716,2.56e+00,4.88e+00,
717,2.40e+00,5.12e+00,
718,2.48e+00,5.12e+00,
719,2.24e+00,4.88e+00,
720,2.32e+00,5.12e+00,
721,2.16e+00,4.88e+00,
722,2.24e+00,5.12e+00,
723,2.08e+00,4.88e+00,
724,2.16e+00,4.88e+00,
725,1.92e+00,5.12e+00,
726,2.08e+00,4.88e+00,
727,1.84e+00,5.12e+00,
728,2.00e+00,5.04e+00,
729,1.76e+00,4.88e+00,
730,1.92e+00,4.96e+00,
731,1.68e+00,4.88e+00,
732,1.84e+00,4.88e+00,
733,1.60e+00,5.04e+00,
734,1.76e+00,4.88e+00,
735,1.52e+00,5.04e+00,
736,1.68e+00,4.88e+00,
737,1.44e+00,5.12e+00,
738,1.52e+00,4.88e+00,
739,1.36e+00,5.04e+00,
740,1.28e+00,4.88e+00,
741,1.44e+00,5.12e+00,
742,1.36e+00,4.88e+00,
743,1.12e+00,5.04e+00,
744,1.28e+00,5.04e+00,
745,1.04e+00,4.88e+00,
746,1.04e+00,4.88e+00,
747,1.20e+00,5.12e+00,
748,1.12e+00,4.88e+00,
749,9.60e-01,5.20e+00,
750,1.04e+00,5.04e+00,
751,8.80e-01,4.88e+00,
752,9.60e-01,4.88e+00,
753,8.00e-01,5.20e+00,
754,8.80e-01,5.04e+00,
755,7.20e-01,4.88e+00,
756,8.00e-01,5.04e+00,
757,6.40e-01,4.88e+00,
758,8.00e-01,4.88e+00,
759,5.60e-01,5.12e+00,
760,7.20e-01,5.04e+00,
761,5.60e-01,4.88e+00,
762,6.40e-01,5.12e+00,
763,4.80e-01,4.88e+00,
764,5.60e-01,4.88e+00,
765,4.00e-01,5.12e+00,
766,5.60e-01,4.88e+00,
767,3.20e-01,5.12e+00,
768,4.00e-01,4.96e+00,
769,2.40e-01,4.88e+00,
770,4.00e-01,4.96e+00,
771,2.40e-01,8.00e-02,
772,3.20e-01,2.40e-01,
773,1.60e-01,8.00e-02,
774,2.40e-01,2.40e-01,
775,1.60e-01,8.00e-02,
776,2.40e-01,8.00e-02,
777,8.00e-02,2.40e-01,
778,8.00e-02,8.00e-02,
779,1.60e-01,2.40e-01,
780,1.60e-01,8.00e-02,
781,0.00e+00,2.40e-01,
782,1.60e-01,8.00e-02,
783,0.00e+00,2.40e-01,
784,0.00e+00,8.00e-02,
785,8.00e-02,2.40e-01,
786,8.00e-02,8.00e-02,
787,-8.00e-02,2.40e-01,
788,8.00e-02,2.40e-01,
789,-8.00e-02,0.00e+00,
790,-8.00e-02,2.40e-01,
791,0.00e+00,0.00e+00,
792,0.00e+00,8.00e-02,
793,-8.00e-02,2.40e-01,
794,0.00e+00,8.00e-02,
795,-8.00e-02,2.40e-01,
796,0.00e+00,8.00e-02,
797,-1.60e-01,2.40e-01,
798,0.00e+00,2.40e-01,
799,-1.60e-01,0.00e+00,
800,0.00e+00,1.60e-01,
801,-1.60e-01,8.00e-02,
802,-1.60e-01,8.00e-02,
803,0.00e+00,2.40e-01,
804,0.00e+00,1.60e-01,
805,-1.60e-01,8.00e-02,
806,-8.00e-02,1.60e-01,
807,0.00e+00,8.00e-02,
808,0.00e+00,1.60e-01,
809,-8.00e-02,0.00e+00,
810,0.00e+00,1.60e-01,
811,-8.00e-02,0.00e+00,
812,-8.00e-02,0.00e+00,
813,8.00e-02,1.60e-01,
814,-8.00e-02,1.60e-01,
815,8.00e-02,8.00e-02,
816,8.00e-02,1.60e-01,
817,0.00e+00,8.00e-02,
818,0.00e+00,1.60e-01,
819,1.60e-01,0.00e+00,
820,1.60e-01,1.60e-01,
821,0.00e+00,8.00e-02,
822,8.00e-02,1.60e-01,
823,1.60e-01,8.00e-02,
824,8.00e-02,1.60e-01,
825,2.40e-01,0.00e+00,
826,2.40e-01,8.00e-02,
827,1.60e-01,2.40e-01,
828,1.60e-01,1.60e-01,
829,3.20e-01,0.00e+00,
830,2.40e-01,1.60e-01,
831,4.00e-01,0.00e+00,
832,4.00e-01,1.60e-01,
833,2.40e-01,0.00e+00,
834,4.00e-01,1.60e-01,
835,5.60e-01,8.00e-02,
836,4.80e-01,0.00e+00,
837,6.40e-01,2.40e-01,
838,4.80e-01,1.60e-01,
839,6.40e-01,0.00e+00,
840,5.60e-01,1.60e-01,
841,7.20e-01,8.00e-02,
842,6.40e-01,8.00e-02,
843,8.00e-01,2.40e-01,
844,7.20e-01,8.00e-02,
845,8.80e-01,5.04e+00,
846,7.20e-01,5.04e+00,
847,8.80e-01,4.88e+00,
848,8.00e-01,4.96e+00,
849,9.60e-01,4.88e+00,
850,8.80e-01,4.96e+00,
851,1.04e+00,4.88e+00,
852,9.60e-01,4.88e+00,
853,1.12e+00,4.96e+00,
854,1.04e+00,4.96e+00,
855,1.20e+00,4.88e+00,
856,1.12e+00,4.96e+00,
857,1.28e+00,4.88e+00,
858,1.20e+00,4.88e+00,
859,1.36e+00,5.04e+00,
860,1.28e+00,5.04e+00,
861,1.52e+00,4.88e+00,
862,1.36e+00,5.04e+00,
863,1.60e+00,4.88e+00,
864,1.44e+00,5.04e+00,
865,1.68e+00,4.88e+00,
866,1.60e+00,5.04e+00,
867,1.76e+00,4.88e+00,
868,1.60e+00,5.04e+00,
