project/matlab/project_exp3/40 kHz/NewFile1.csv

X,CH1,CH2,Start,Increment,
Sequence,Volt,Volt,6.600000e-04,1.000000e-07
0,3.28e+00,5.12e+00,
1,3.04e+00,4.88e+00,
2,3.12e+00,5.04e+00,
3,2.96e+00,4.88e+00,
4,3.04e+00,4.88e+00,
5,2.88e+00,5.12e+00,
6,2.96e+00,5.04e+00,
7,2.72e+00,4.88e+00,
8,2.80e+00,5.12e+00,
9,2.64e+00,4.88e+00,
10,2.72e+00,5.04e+00,
11,2.48e+00,4.88e+00,
12,2.56e+00,4.88e+00,
13,2.40e+00,5.12e+00,
14,2.40e+00,5.04e+00,
15,2.16e+00,4.88e+00,
16,2.24e+00,5.12e+00,
17,2.08e+00,4.88e+00,
18,2.16e+00,5.04e+00,
19,1.92e+00,4.88e+00,
20,2.08e+00,4.88e+00,
21,1.84e+00,5.12e+00,
22,1.92e+00,5.04e+00,
23,1.76e+00,4.88e+00,
24,1.84e+00,4.88e+00,
25,1.60e+00,5.12e+00,
26,1.68e+00,5.04e+00,
27,1.52e+00,4.88e+00,
28,1.60e+00,4.88e+00,
29,1.44e+00,5.12e+00,
30,1.44e+00,5.04e+00,
31,1.28e+00,4.88e+00,
32,1.28e+00,5.12e+00,
33,1.12e+00,4.88e+00,
34,1.20e+00,5.04e+00,
35,1.04e+00,4.88e+00,
36,1.12e+00,5.12e+00,
37,9.60e-01,4.88e+00,
38,1.04e+00,5.04e+00,
39,8.80e-01,4.88e+00,
40,9.60e-01,5.12e+00,
41,7.20e-01,4.88e+00,
42,8.00e-01,5.04e+00,
43,6.40e-01,4.88e+00,
44,7.20e-01,4.88e+00,
45,5.60e-01,5.12e+00,
46,6.40e-01,5.04e+00,
47,4.80e-01,4.88e+00,
48,4.80e-01,5.12e+00,
49,5.60e-01,4.88e+00,
50,4.80e-01,4.88e+00,
51,3.20e-01,5.04e+00,
52,4.00e-01,5.20e+00,
53,2.40e-01,4.88e+00,
54,3.20e-01,5.04e+00,
55,1.60e-01,4.88e+00,
56,2.40e-01,4.96e+00,
57,1.60e-01,5.12e+00,
58,2.40e-01,4.96e+00,
59,8.00e-02,5.04e+00,
60,1.60e-01,5.12e+00,
61,8.00e-02,4.80e+00,
62,0.00e+00,4.88e+00,
63,1.60e-01,2.40e+00,
64,0.00e+00,2.48e+00,
65,8.00e-02,1.60e-01,
66,8.00e-02,2.40e-01,
67,-8.00e-02,1.60e-01,
68,-8.00e-02,2.40e-01,
69,0.00e+00,1.60e-01,
70,-8.00e-02,2.40e-01,
71,0.00e+00,1.60e-01,
72,0.00e+00,2.40e-01,
73,-8.00e-02,1.60e-01,
74,-8.00e-02,2.40e-01,
75,0.00e+00,1.60e-01,
76,0.00e+00,2.40e-01,
77,-8.00e-02,1.60e-01,
78,-8.00e-02,2.40e-01,
79,0.00e+00,8.00e-02,
80,-8.00e-02,2.40e-01,
81,0.00e+00,1.60e-01,
82,-8.00e-02,2.40e-01,
83,8.00e-02,1.60e-01,
84,-8.00e-02,2.40e-01,
85,8.00e-02,8.00e-02,
86,0.00e+00,2.40e-01,
87,8.00e-02,8.00e-02,
88,0.00e+00,2.40e-01,
89,1.60e-01,8.00e-02,
90,8.00e-02,2.40e-01,
91,2.40e-01,8.00e-02,
92,8.00e-02,2.40e-01,
93,2.40e-01,8.00e-02,
94,1.60e-01,2.40e-01,
95,3.20e-01,8.00e-02,
96,2.40e-01,2.40e-01,
97,4.00e-01,8.00e-02,
98,4.00e-01,2.40e-01,
99,3.20e-01,8.00e-02,
100,4.00e-01,2.40e-01,
101,4.80e-01,8.00e-02,
102,4.80e-01,2.40e-01,
103,6.40e-01,8.00e-02,
104,5.60e-01,2.40e-01,
105,7.20e-01,8.00e-02,
106,6.40e-01,8.00e-02,
107,8.00e-01,2.40e-01,
108,7.20e-01,2.40e-01,
109,8.80e-01,8.00e-02,
110,8.00e-01,2.40e-01,
111,9.60e-01,8.00e-02,
112,8.80e-01,2.40e-01,
113,1.12e+00,1.60e-01,
114,1.04e+00,1.60e-01,
115,1.20e+00,3.20e-01,
116,1.12e+00,2.40e-01,
117,1.28e+00,8.80e-01,
118,1.20e+00,8.80e-01,
119,1.36e+00,1.92e+00,
120,1.36e+00,1.84e+00,
121,1.60e+00,2.88e+00,
122,1.52e+00,2.88e+00,
123,1.68e+00,3.76e+00,
124,1.60e+00,3.68e+00,
125,1.76e+00,4.32e+00,
126,1.68e+00,4.32e+00,
127,1.92e+00,4.88e+00,
128,1.84e+00,4.72e+00,
129,2.00e+00,5.04e+00,
130,1.92e+00,5.04e+00,
131,2.16e+00,4.88e+00,
132,2.08e+00,5.04e+00,
133,2.24e+00,4.88e+00,
134,2.16e+00,5.04e+00,
135,2.40e+00,4.88e+00,
136,2.32e+00,5.04e+00,
137,2.48e+00,4.88e+00,
138,2.48e+00,5.04e+00,
139,2.64e+00,4.88e+00,
140,2.56e+00,5.04e+00,
141,2.80e+00,4.88e+00,
142,2.72e+00,5.04e+00,
143,2.88e+00,4.88e+00,
144,2.80e+00,5.04e+00,
145,3.04e+00,4.88e+00,
146,2.96e+00,5.04e+00,
147,3.12e+00,4.88e+00,
148,3.04e+00,4.88e+00,
149,3.28e+00,5.12e+00,
150,3.12e+00,5.04e+00,
151,3.36e+00,4.88e+00,
152,3.36e+00,4.88e+00,
153,3.52e+00,5.12e+00,
154,3.44e+00,5.04e+00,
155,3.60e+00,4.88e+00,
156,3.52e+00,5.12e+00,
157,3.76e+00,4.88e+00,
158,3.68e+00,5.04e+00,
159,3.84e+00,4.88e+00,
160,3.76e+00,4.88e+00,
161,3.92e+00,5.04e+00,
162,3.84e+00,5.04e+00,
163,4.00e+00,4.88e+00,
164,3.92e+00,5.12e+00,
165,4.16e+00,4.88e+00,
166,4.00e+00,5.04e+00,
167,4.24e+00,4.88e+00,
168,4.08e+00,4.88e+00,
169,4.32e+00,5.12e+00,
170,4.24e+00,5.04e+00,
171,4.40e+00,4.88e+00,
172,4.32e+00,4.88e+00,
173,4.48e+00,5.12e+00,
174,4.40e+00,5.04e+00,
175,4.56e+00,4.88e+00,
176,4.48e+00,5.04e+00,
177,4.64e+00,4.88e+00,
178,4.56e+00,5.04e+00,
179,4.72e+00,4.88e+00,
180,4.56e+00,4.88e+00,
181,4.80e+00,5.12e+00,
182,4.80e+00,5.04e+00,
183,4.64e+00,4.88e+00,
184,4.72e+00,5.12e+00,
185,4.88e+00,4.88e+00,
186,4.88e+00,5.04e+00,
187,4.72e+00,4.88e+00,
188,4.80e+00,5.12e+00,
189,4.96e+00,4.88e+00,
190,4.96e+00,5.04e+00,
191,4.80e+00,4.88e+00,
192,4.96e+00,5.04e+00,
193,4.80e+00,4.88e+00,
194,4.88e+00,5.04e+00,
195,5.04e+00,4.88e+00,
196,4.88e+00,4.88e+00,
197,5.04e+00,5.12e+00,
198,5.04e+00,5.04e+00,
199,4.88e+00,4.88e+00,
200,5.04e+00,4.88e+00,
201,4.88e+00,5.12e+00,
202,5.04e+00,5.04e+00,
203,4.88e+00,4.88e+00,
204,5.04e+00,4.88e+00,
205,4.88e+00,5.12e+00,
206,4.96e+00,5.04e+00,
207,4.88e+00,4.88e+00,
208,4.96e+00,4.88e+00,
209,4.80e+00,5.12e+00,
210,4.80e+00,5.04e+00,
211,4.96e+00,4.88e+00,
212,4.96e+00,4.88e+00,
213,4.72e+00,5.12e+00,
214,4.88e+00,5.04e+00,
215,4.72e+00,4.88e+00,
216,4.80e+00,4.96e+00,
217,4.64e+00,5.12e+00,
218,4.80e+00,5.04e+00,
219,4.64e+00,4.88e+00,
220,4.72e+00,5.12e+00,
221,4.56e+00,4.88e+00,
222,4.64e+00,4.96e+00,
223,4.48e+00,5.04e+00,
224,4.64e+00,4.88e+00,
225,4.40e+00,5.12e+00,
226,4.56e+00,5.04e+00,
227,4.32e+00,4.88e+00,
228,4.48e+00,4.88e+00,
229,4.24e+00,5.12e+00,
230,4.32e+00,4.96e+00,
231,4.16e+00,5.04e+00,
232,4.24e+00,5.04e+00,
233,4.08e+00,4.88e+00,
234,4.16e+00,5.04e+00,
235,3.92e+00,4.88e+00,
236,4.08e+00,5.12e+00,
237,3.84e+00,4.88e+00,
238,4.00e+00,5.04e+00,
239,3.76e+00,4.88e+00,
240,3.92e+00,5.20e+00,
241,3.68e+00,4.88e+00,
242,3.76e+00,5.04e+00,
243,3.60e+00,4.88e+00,
244,3.68e+00,4.96e+00,
245,3.44e+00,5.12e+00,
246,3.52e+00,5.04e+00,
247,3.36e+00,4.96e+00,
248,3.36e+00,5.12e+00,
249,3.20e+00,4.88e+00,
250,3.28e+00,4.88e+00,
251,3.04e+00,5.04e+00,
252,3.20e+00,5.04e+00,
253,2.96e+00,4.88e+00,
254,3.04e+00,5.04e+00,
255,2.88e+00,4.88e+00,
256,2.96e+00,5.12e+00,
257,2.72e+00,4.88e+00,
258,2.80e+00,5.04e+00,
259,2.64e+00,4.88e+00,
260,2.72e+00,4.88e+00,
261,2.48e+00,5.12e+00,
262,2.56e+00,5.04e+00,
263,2.40e+00,4.88e+00,
264,2.40e+00,5.12e+00,
265,2.24e+00,4.88e+00,
266,2.32e+00,5.04e+00,
267,2.08e+00,4.88e+00,
268,2.16e+00,5.12e+00,
269,2.00e+00,4.88e+00,
270,2.08e+00,5.04e+00,
271,1.84e+00,4.88e+00,
272,1.92e+00,4.88e+00,
273,1.76e+00,5.12e+00,
274,1.84e+00,5.04e+00,
275,1.60e+00,4.88e+00,
276,1.68e+00,5.12e+00,
277,1.52e+00,4.88e+00,
278,1.60e+00,5.04e+00,
279,1.44e+00,4.88e+00,
280,1.44e+00,4.88e+00,
281,1.28e+00,5.12e+00,
282,1.28e+00,5.04e+00,
283,1.12e+00,4.88e+00,
284,1.20e+00,4.88e+00,
285,1.04e+00,5.12e+00,
286,1.12e+00,4.96e+00,
287,9.60e-01,5.04e+00,
288,1.04e+00,5.12e+00,
289,8.80e-01,4.88e+00,
290,9.60e-01,5.04e+00,
291,7.20e-01,4.88e+00,
292,8.00e-01,5.12e+00,
293,6.40e-01,4.88e+00,
294,8.00e-01,4.88e+00,
295,5.60e-01,5.04e+00,
296,6.40e-01,5.12e+00,
297,4.80e-01,4.88e+00,
298,4.80e-01,5.04e+00,
299,5.60e-01,4.88e+00,
300,4.80e-01,4.96e+00,
301,3.20e-01,5.12e+00,
302,4.00e-01,5.04e+00,
303,2.40e-01,4.88e+00,
304,3.20e-01,4.88e+00,
305,1.60e-01,5.12e+00,
306,2.40e-01,5.04e+00,
307,1.60e-01,4.96e+00,
308,2.40e-01,5.12e+00,
309,8.00e-02,4.88e+00,
310,1.60e-01,5.04e+00,
311,0.00e+00,4.72e+00,
312,0.00e+00,4.80e+00,
313,1.60e-01,2.40e+00,
314,0.00e+00,2.24e+00,
315,8.00e-02,1.60e-01,
316,8.00e-02,1.60e-01,
317,-8.00e-02,2.40e-01,
318,0.00e+00,2.40e-01,
319,-8.00e-02,1.60e-01,
320,-8.00e-02,2.40e-01,
321,0.00e+00,1.60e-01,
322,0.00e+00,2.40e-01,
323,-8.00e-02,8.00e-02,
324,-8.00e-02,2.40e-01,
325,0.00e+00,1.60e-01,
326,-8.00e-02,2.40e-01,
327,0.00e+00,1.60e-01,
328,0.00e+00,2.40e-01,
329,-8.00e-02,8.00e-02,
330,-8.00e-02,2.40e-01,
331,0.00e+00,8.00e-02,
332,-8.00e-02,8.00e-02,
333,8.00e-02,2.40e-01,
334,8.00e-02,2.40e-01,
335,-8.00e-02,8.00e-02,
336,8.00e-02,2.40e-01,
337,0.00e+00,8.00e-02,
338,0.00e+00,2.40e-01,
339,1.60e-01,8.00e-02,
340,8.00e-02,2.40e-01,
341,2.40e-01,8.00e-02,
342,8.00e-02,2.40e-01,
343,2.40e-01,8.00e-02,
344,1.60e-01,2.40e-01,
345,3.20e-01,8.00e-02,
346,2.40e-01,2.40e-01,
347,4.00e-01,8.00e-02,
348,2.40e-01,2.40e-01,
349,4.00e-01,8.00e-02,
350,4.00e-01,2.40e-01,
351,4.80e-01,8.00e-02,
352,4.80e-01,2.40e-01,
353,6.40e-01,8.00e-02,
354,5.60e-01,8.00e-02,
355,7.20e-01,2.40e-01,
356,6.40e-01,8.00e-02,
357,8.00e-01,2.40e-01,
358,7.20e-01,2.40e-01,
359,8.80e-01,8.00e-02,
360,8.00e-01,2.40e-01,
361,9.60e-01,8.00e-02,
362,8.80e-01,2.40e-01,
363,1.12e+00,1.60e-01,
364,1.04e+00,1.60e-01,
365,1.20e+00,3.20e-01,
366,1.12e+00,3.20e-01,
367,1.28e+00,8.80e-01,
368,1.20e+00,8.00e-01,
369,1.36e+00,1.92e+00,
370,1.36e+00,1.92e+00,
371,1.60e+00,2.88e+00,
372,1.52e+00,2.88e+00,
373,1.68e+00,3.68e+00,
374,1.60e+00,3.60e+00,
375,1.76e+00,4.32e+00,
376,1.68e+00,4.32e+00,
377,1.92e+00,4.80e+00,
378,1.84e+00,4.72e+00,
379,2.00e+00,5.04e+00,
380,1.92e+00,4.88e+00,
381,2.16e+00,5.04e+00,
382,2.08e+00,5.04e+00,
383,2.24e+00,4.88e+00,
384,2.16e+00,5.04e+00,
385,2.40e+00,4.88e+00,
386,2.48e+00,4.88e+00,
387,2.32e+00,5.04e+00,
388,2.48e+00,5.04e+00,
389,2.64e+00,4.88e+00,
390,2.56e+00,5.04e+00,
391,2.80e+00,4.88e+00,
392,2.72e+00,5.12e+00,
393,2.88e+00,4.88e+00,
394,2.80e+00,5.04e+00,
395,3.04e+00,4.88e+00,
396,2.96e+00,5.04e+00,
397,3.12e+00,4.88e+00,
398,3.04e+00,5.04e+00,
399,3.28e+00,4.88e+00,
400,3.12e+00,5.04e+00,
401,3.36e+00,4.88e+00,
402,3.36e+00,5.04e+00,
403,3.44e+00,4.88e+00,
404,3.44e+00,4.88e+00,
405,3.68e+00,5.12e+00,
406,3.52e+00,5.04e+00,
407,3.76e+00,4.88e+00,
408,3.68e+00,4.88e+00,
409,3.84e+00,5.12e+00,
410,3.76e+00,5.04e+00,
411,3.92e+00,4.88e+00,
412,3.84e+00,5.12e+00,
413,4.00e+00,4.88e+00,
414,3.92e+00,5.04e+00,
415,4.16e+00,4.88e+00,
416,4.00e+00,5.12e+00,
417,4.24e+00,4.88e+00,
418,4.08e+00,5.04e+00,
419,4.32e+00,4.88e+00,
420,4.24e+00,4.96e+00,
421,4.48e+00,5.12e+00,
422,4.32e+00,5.04e+00,
423,4.48e+00,4.88e+00,
424,4.40e+00,5.12e+00,
425,4.56e+00,4.88e+00,
426,4.48e+00,5.04e+00,
427,4.64e+00,4.88e+00,
428,4.56e+00,4.88e+00,
429,4.72e+00,5.12e+00,
430,4.64e+00,5.04e+00,
431,4.80e+00,4.88e+00,
432,4.64e+00,5.20e+00,
433,4.80e+00,4.88e+00,
434,4.72e+00,5.04e+00,
435,4.88e+00,4.88e+00,
436,4.88e+00,4.88e+00,
437,4.72e+00,5.12e+00,
438,4.80e+00,5.04e+00,
439,4.96e+00,4.88e+00,
440,4.96e+00,4.88e+00,
441,4.80e+00,5.12e+00,
442,4.96e+00,5.04e+00,
443,4.88e+00,4.88e+00,
444,4.88e+00,4.88e+00,
445,5.04e+00,5.12e+00,
446,5.04e+00,5.04e+00,
447,4.88e+00,4.88e+00,
448,5.04e+00,5.12e+00,
449,4.88e+00,4.88e+00,
450,5.04e+00,5.04e+00,
451,4.88e+00,4.88e+00,
452,4.88e+00,5.12e+00,
453,5.04e+00,4.88e+00,
454,4.88e+00,5.04e+00,
455,5.04e+00,4.96e+00,
456,4.88e+00,5.12e+00,
457,5.04e+00,4.88e+00,
458,4.96e+00,5.04e+00,
459,4.80e+00,4.88e+00,
460,4.96e+00,4.88e+00,
461,4.80e+00,5.12e+00,
462,4.88e+00,5.04e+00,
463,4.72e+00,4.88e+00,
464,4.88e+00,5.12e+00,
465,4.72e+00,4.88e+00,
466,4.80e+00,5.04e+00,
467,4.64e+00,4.88e+00,
468,4.80e+00,5.12e+00,
469,4.64e+00,4.88e+00,
470,4.72e+00,5.04e+00,
471,4.56e+00,4.88e+00,
472,4.64e+00,4.88e+00,
473,4.48e+00,5.12e+00,
474,4.64e+00,5.04e+00,
475,4.40e+00,4.96e+00,
476,4.56e+00,5.12e+00,
477,4.40e+00,4.88e+00,
478,4.48e+00,5.04e+00,
479,4.24e+00,4.88e+00,
480,4.32e+00,5.12e+00,
481,4.16e+00,4.88e+00,
482,4.24e+00,5.04e+00,
483,4.08e+00,4.88e+00,
484,4.16e+00,4.88e+00,
485,3.92e+00,5.12e+00,
486,4.08e+00,5.04e+00,
487,3.84e+00,4.88e+00,
488,4.00e+00,4.88e+00,
489,3.76e+00,5.12e+00,
490,3.84e+00,5.04e+00,
491,3.68e+00,4.88e+00,
492,3.76e+00,5.12e+00,
493,3.60e+00,4.88e+00,
494,3.68e+00,5.04e+00,
495,3.44e+00,4.88e+00,
496,3.60e+00,4.88e+00,
497,3.36e+00,5.12e+00,
498,3.36e+00,5.04e+00,
499,3.20e+00,4.88e+00,
500,3.28e+00,4.88e+00,
501,3.04e+00,5.12e+00,
502,3.12e+00,5.04e+00,
503,2.96e+00,4.88e+00,
504,3.04e+00,4.88e+00,
505,2.80e+00,5.12e+00,
506,2.96e+00,5.04e+00,
507,2.72e+00,4.88e+00,
508,2.80e+00,4.88e+00,
509,2.64e+00,5.12e+00,
510,2.72e+00,5.04e+00,
511,2.48e+00,4.88e+00,
512,2.56e+00,5.12e+00,
513,2.32e+00,4.88e+00,
514,2.40e+00,5.04e+00,
515,2.16e+00,4.88e+00,
516,2.32e+00,5.12e+00,
517,2.08e+00,4.88e+00,
518,2.16e+00,5.04e+00,
519,1.92e+00,4.88e+00,
520,2.08e+00,5.12e+00,
521,1.84e+00,4.88e+00,
522,1.92e+00,5.04e+00,
523,1.76e+00,4.88e+00,
524,1.84e+00,5.12e+00,
525,1.60e+00,4.88e+00,
526,1.68e+00,4.88e+00,
527,1.52e+00,5.04e+00,
528,1.60e+00,4.88e+00,
529,1.44e+00,5.12e+00,
530,1.44e+00,5.04e+00,
531,1.20e+00,4.88e+00,
532,1.36e+00,4.88e+00,
533,1.12e+00,5.12e+00,
534,1.20e+00,5.04e+00,
535,1.04e+00,4.88e+00,
536,1.12e+00,5.12e+00,
537,9.60e-01,4.88e+00,
538,1.04e+00,5.04e+00,
539,8.80e-01,4.88e+00,
540,9.60e-01,5.12e+00,
541,7.20e-01,4.88e+00,
542,8.00e-01,5.04e+00,
543,6.40e-01,4.88e+00,
544,7.20e-01,4.88e+00,
545,5.60e-01,5.12e+00,
546,6.40e-01,5.04e+00,
547,4.80e-01,4.88e+00,
548,5.60e-01,4.88e+00,
549,4.80e-01,5.12e+00,
550,4.80e-01,5.04e+00,
551,3.20e-01,4.88e+00,
552,4.00e-01,4.88e+00,
553,2.40e-01,5.12e+00,
554,3.20e-01,4.88e+00,
555,1.60e-01,5.04e+00,
556,2.40e-01,5.04e+00,
557,1.60e-01,4.88e+00,
558,2.40e-01,5.04e+00,
559,8.00e-02,4.96e+00,
560,1.60e-01,5.12e+00,
561,8.00e-02,4.80e+00,
562,1.60e-01,4.88e+00,
563,0.00e+00,2.40e+00,
564,0.00e+00,2.32e+00,
565,8.00e-02,2.40e-01,
566,8.00e-02,2.40e-01,
567,-8.00e-02,1.60e-01,
568,-8.00e-02,2.40e-01,
569,8.00e-02,8.00e-02,
570,-8.00e-02,2.40e-01,
571,0.00e+00,1.60e-01,
572,-8.00e-02,2.40e-01,
573,0.00e+00,1.60e-01,
574,-8.00e-02,2.40e-01,
575,0.00e+00,8.00e-02,
576,-8.00e-02,1.60e-01,
577,0.00e+00,2.40e-01,
578,0.00e+00,2.40e-01,
579,-8.00e-02,1.60e-01,
580,-8.00e-02,2.40e-01,
581,0.00e+00,1.60e-01,
582,-8.00e-02,2.40e-01,
583,8.00e-02,8.00e-02,
584,8.00e-02,2.40e-01,
585,-8.00e-02,8.00e-02,
586,0.00e+00,2.40e-01,
587,1.60e-01,8.00e-02,
588,0.00e+00,2.40e-01,
589,1.60e-01,8.00e-02,
590,8.00e-02,2.40e-01,
591,2.40e-01,8.00e-02,
592,2.40e-01,2.40e-01,
593,8.00e-02,8.00e-02,
594,1.60e-01,2.40e-01,
595,3.20e-01,8.00e-02,
596,2.40e-01,2.40e-01,
597,4.00e-01,8.00e-02,
598,4.00e-01,2.40e-01,
599,2.40e-01,8.00e-02,
600,4.00e-01,2.40e-01,
601,4.80e-01,8.00e-02,
602,4.80e-01,2.40e-01,
603,6.40e-01,8.00e-02,
604,5.60e-01,2.40e-01,
605,7.20e-01,8.00e-02,
606,6.40e-01,2.40e-01,
607,8.00e-01,8.00e-02,
608,7.20e-01,2.40e-01,
609,8.80e-01,8.00e-02,
610,8.00e-01,8.00e-02,
611,9.60e-01,2.40e-01,
612,8.80e-01,2.40e-01,
613,1.12e+00,1.60e-01,
614,1.04e+00,1.60e-01,
615,1.20e+00,3.20e-01,
616,1.12e+00,3.20e-01,
617,1.28e+00,8.80e-01,
618,1.20e+00,8.00e-01,
619,1.36e+00,1.92e+00,
620,1.28e+00,1.92e+00,
621,1.60e+00,2.96e+00,
622,1.52e+00,2.88e+00,
623,1.68e+00,3.76e+00,
624,1.60e+00,3.60e+00,
625,1.76e+00,4.32e+00,
626,1.68e+00,4.32e+00,
627,1.92e+00,4.88e+00,
628,1.84e+00,4.72e+00,
629,2.00e+00,5.04e+00,
630,1.92e+00,5.04e+00,
631,2.16e+00,4.88e+00,
632,2.08e+00,4.88e+00,
633,2.24e+00,5.04e+00,
634,2.16e+00,5.04e+00,
635,2.40e+00,4.88e+00,
636,2.32e+00,5.04e+00,
637,2.48e+00,4.88e+00,
638,2.48e+00,5.04e+00,
639,2.64e+00,4.88e+00,
640,2.56e+00,5.04e+00,
641,2.80e+00,4.88e+00,
642,2.72e+00,5.04e+00,
643,2.88e+00,4.88e+00,
644,2.80e+00,5.04e+00,
645,3.04e+00,4.88e+00,
646,2.96e+00,5.04e+00,
647,3.12e+00,4.88e+00,
648,3.04e+00,5.04e+00,
649,3.28e+00,4.88e+00,
650,3.12e+00,5.04e+00,
651,3.36e+00,4.88e+00,
652,3.36e+00,5.12e+00,
653,3.52e+00,4.88e+00,
654,3.44e+00,4.88e+00,
655,3.60e+00,5.04e+00,
656,3.52e+00,5.12e+00,
657,3.76e+00,4.88e+00,
658,3.68e+00,5.04e+00,
659,3.84e+00,4.88e+00,
660,3.76e+00,4.88e+00,
661,3.92e+00,5.12e+00,
662,3.84e+00,5.04e+00,
663,4.00e+00,4.88e+00,
664,3.92e+00,4.88e+00,
665,4.16e+00,5.12e+00,
666,4.00e+00,5.04e+00,
667,4.24e+00,4.88e+00,
668,4.08e+00,4.88e+00,
669,4.32e+00,5.12e+00,
670,4.24e+00,5.04e+00,
671,4.40e+00,4.88e+00,
672,4.32e+00,4.88e+00,
673,4.48e+00,5.12e+00,
674,4.40e+00,5.04e+00,
675,4.56e+00,4.88e+00,
676,4.48e+00,5.12e+00,
677,4.64e+00,4.88e+00,
678,4.56e+00,5.04e+00,
679,4.72e+00,4.88e+00,
680,4.56e+00,5.12e+00,
681,4.80e+00,4.88e+00,
682,4.64e+00,5.04e+00,
683,4.80e+00,4.88e+00,
684,4.72e+00,5.12e+00,
685,4.88e+00,4.88e+00,
686,4.88e+00,5.04e+00,
687,4.72e+00,4.88e+00,
688,4.80e+00,5.12e+00,
689,4.96e+00,4.88e+00,
690,4.96e+00,5.04e+00,
691,4.80e+00,4.88e+00,
692,4.96e+00,4.88e+00,
693,4.80e+00,5.12e+00,
694,4.88e+00,4.88e+00,
695,5.04e+00,5.04e+00,
696,4.88e+00,5.12e+00,
697,5.04e+00,4.88e+00,
698,5.04e+00,5.04e+00,
699,4.88e+00,4.88e+00,
700,5.04e+00,5.12e+00,
701,4.88e+00,4.88e+00,
702,5.04e+00,4.96e+00,
703,4.88e+00,5.04e+00,
704,4.88e+00,4.88e+00,
705,5.04e+00,5.12e+00,
706,4.96e+00,4.96e+00,
707,4.88e+00,5.04e+00,
708,4.96e+00,4.88e+00,
709,4.80e+00,5.12e+00,
710,4.80e+00,4.88e+00,
711,4.96e+00,5.04e+00,
712,4.96e+00,4.88e+00,
713,4.72e+00,5.12e+00,
714,4.88e+00,4.88e+00,
715,4.72e+00,5.04e+00,
716,4.80e+00,5.12e+00,
717,4.64e+00,4.88e+00,
718,4.64e+00,5.04e+00,
719,4.80e+00,4.88e+00,
720,4.72e+00,4.88e+00,
721,4.56e+00,5.12e+00,
722,4.64e+00,5.04e+00,
723,4.48e+00,4.88e+00,
724,4.64e+00,4.88e+00,
725,4.40e+00,5.12e+00,
726,4.40e+00,5.04e+00,
727,4.56e+00,4.88e+00,
728,4.48e+00,5.12e+00,
729,4.24e+00,4.88e+00,
730,4.32e+00,5.04e+00,
731,4.16e+00,4.88e+00,
732,4.24e+00,5.12e+00,
733,4.08e+00,4.88e+00,
734,4.16e+00,5.04e+00,
735,3.92e+00,4.88e+00,
736,4.08e+00,4.88e+00,
737,3.84e+00,5.12e+00,
738,4.00e+00,5.04e+00,
739,3.76e+00,4.88e+00,
740,3.84e+00,5.12e+00,
741,3.68e+00,4.88e+00,
742,3.76e+00,5.04e+00,
743,3.60e+00,4.88e+00,
744,3.68e+00,5.12e+00,
745,3.44e+00,4.88e+00,
746,3.60e+00,5.04e+00,
747,3.36e+00,4.88e+00,
748,3.36e+00,5.12e+00,
749,3.20e+00,4.88e+00,
750,3.28e+00,5.04e+00,
751,3.04e+00,4.88e+00,
752,3.20e+00,5.12e+00,
753,2.96e+00,4.88e+00,
754,3.04e+00,5.04e+00,
755,2.88e+00,4.88e+00,
756,2.96e+00,5.12e+00,
757,2.72e+00,4.88e+00,
758,2.80e+00,5.04e+00,
759,2.64e+00,4.88e+00,
760,2.72e+00,5.12e+00,
761,2.48e+00,4.88e+00,
762,2.56e+00,5.04e+00,
763,2.32e+00,4.88e+00,
764,2.40e+00,5.12e+00,
765,2.16e+00,4.88e+00,
766,2.32e+00,5.04e+00,
767,2.08e+00,4.96e+00,
768,2.16e+00,5.12e+00,
769,2.00e+00,4.88e+00,
770,2.08e+00,5.04e+00,
771,1.84e+00,4.88e+00,
772,1.92e+00,5.12e+00,
773,1.76e+00,4.88e+00,
774,1.84e+00,5.04e+00,
775,1.60e+00,4.88e+00,
776,1.68e+00,5.12e+00,
777,1.52e+00,4.88e+00,
778,1.60e+00,5.04e+00,
779,1.44e+00,4.88e+00,
780,1.44e+00,5.12e+00,
781,1.20e+00,4.88e+00,
782,1.28e+00,5.04e+00,
783,1.12e+00,4.88e+00,
784,1.20e+00,4.96e+00,
785,1.04e+00,5.12e+00,
786,1.12e+00,5.04e+00,
787,9.60e-01,4.96e+00,
788,1.04e+00,5.20e+00,
789,8.80e-01,4.88e+00,
790,9.60e-01,5.04e+00,
791,7.20e-01,4.88e+00,
792,8.00e-01,5.12e+00,
793,6.40e-01,4.88e+00,
794,7.20e-01,5.04e+00,
795,5.60e-01,4.88e+00,
796,6.40e-01,4.96e+00,
797,4.80e-01,5.20e+00,
798,4.80e-01,5.04e+00,
799,5.60e-01,4.96e+00,
800,4.80e-01,4.96e+00,
801,3.20e-01,5.12e+00,
802,4.00e-01,5.04e+00,
803,2.40e-01,4.88e+00,
804,3.20e-01,4.96e+00,
805,1.60e-01,5.12e+00,
806,2.40e-01,5.04e+00,
807,1.60e-01,4.88e+00,
808,2.40e-01,4.88e+00,
809,8.00e-02,5.12e+00,
810,1.60e-01,5.04e+00,
811,0.00e+00,4.80e+00,
812,1.60e-01,4.80e+00,
813,0.00e+00,2.32e+00,
814,0.00e+00,2.32e+00,
815,8.00e-02,2.40e-01,
816,8.00e-02,2.40e-01,
817,-8.00e-02,1.60e-01,
818,-8.00e-02,2.40e-01,
819,0.00e+00,1.60e-01,
820,-8.00e-02,2.40e-01,
821,0.00e+00,1.60e-01,
822,0.00e+00,2.40e-01,
823,-8.00e-02,8.00e-02,
824,-8.00e-02,2.40e-01,
825,0.00e+00,1.60e-01,
826,-8.00e-02,2.40e-01,
827,0.00e+00,1.60e-01,
828,-8.00e-02,2.40e-01,
829,0.00e+00,8.00e-02,
830,0.00e+00,2.40e-01,
831,-8.00e-02,8.00e-02,
832,-8.00e-02,2.40e-01,
833,8.00e-02,8.00e-02,
834,-8.00e-02,2.40e-01,
835,8.00e-02,8.00e-02,
836,0.00e+00,2.40e-01,
837,8.00e-02,8.00e-02,
838,0.00e+00,2.40e-01,
839,1.60e-01,8.00e-02,
840,8.00e-02,8.00e-02,
841,2.40e-01,2.40e-01,
842,8.00e-02,2.40e-01,
843,2.40e-01,8.00e-02,
844,1.60e-01,2.40e-01,
845,3.20e-01,8.00e-02,
846,2.40e-01,2.40e-01,
847,4.00e-01,8.00e-02,
848,4.00e-01,8.00e-02,
849,2.40e-01,2.40e-01,
850,4.00e-01,2.40e-01,
851,4.80e-01,8.00e-02,
852,4.80e-01,8.00e-02,
853,6.40e-01,2.40e-01,
854,5.60e-01,2.40e-01,
855,7.20e-01,8.00e-02,
856,6.40e-01,8.00e-02,
857,8.00e-01,2.40e-01,
858,7.20e-01,8.00e-02,
859,8.80e-01,2.40e-01,
860,8.00e-01,2.40e-01,
861,1.04e+00,8.00e-02,
862,8.80e-01,1.60e-01,
863,1.12e+00,2.40e-01,
864,1.04e+00,1.60e-01,
865,1.20e+00,3.20e-01,
866,1.12e+00,2.40e-01,
867,1.28e+00,8.00e-01,
868,1.20e+00,8.00e-01,
