project/matlab/project_exp3/550 Hz/NewFile1.csv

X,CH1,CH2,Start,Increment,
Sequence,Volt,Volt,-2.280000e-03,5.000000e-06
0,-8.00e-02,1.60e-01,
1,8.00e-02,8.00e-02,
2,8.00e-02,8.00e-02,
3,0.00e+00,2.40e-01,
4,1.60e-01,2.40e-01,
5,0.00e+00,0.00e+00,
6,1.60e-01,1.60e-01,
7,0.00e+00,8.00e-02,
8,8.00e-02,1.60e-01,
9,2.40e-01,0.00e+00,
10,8.00e-02,8.00e-02,
11,2.40e-01,2.40e-01,
12,2.40e-01,1.60e-01,
13,1.60e-01,8.00e-02,
14,1.60e-01,0.00e+00,
15,3.20e-01,2.40e-01,
16,3.20e-01,1.60e-01,
17,2.40e-01,8.00e-02,
18,4.00e-01,1.60e-01,
19,2.40e-01,8.00e-02,
20,3.20e-01,2.40e-01,
21,4.80e-01,0.00e+00,
22,5.60e-01,8.00e-02,
23,3.20e-01,2.40e-01,
24,4.80e-01,1.60e-01,
25,6.40e-01,8.00e-02,
26,4.80e-01,8.00e-02,
27,6.40e-01,2.40e-01,
28,5.60e-01,8.00e-02,
29,7.20e-01,2.40e-01,
30,6.40e-01,1.60e-01,
31,8.00e-01,8.00e-02,
32,7.20e-01,8.00e-02,
33,8.00e-01,2.40e-01,
34,7.20e-01,2.40e-01,
35,8.80e-01,5.04e+00,
36,8.00e-01,5.04e+00,
37,9.60e-01,4.88e+00,
38,8.80e-01,5.04e+00,
39,1.04e+00,4.88e+00,
40,9.60e-01,5.04e+00,
41,1.12e+00,4.88e+00,
42,1.04e+00,4.96e+00,
43,1.12e+00,4.88e+00,
44,1.04e+00,4.88e+00,
45,1.20e+00,4.96e+00,
46,1.12e+00,4.88e+00,
47,1.28e+00,5.12e+00,
48,1.20e+00,4.88e+00,
49,1.36e+00,5.12e+00,
50,1.36e+00,4.88e+00,
51,1.52e+00,5.20e+00,
52,1.44e+00,4.88e+00,
53,1.60e+00,5.12e+00,
54,1.52e+00,4.88e+00,
55,1.68e+00,5.20e+00,
56,1.60e+00,4.88e+00,
57,1.76e+00,5.12e+00,
58,1.60e+00,5.20e+00,
59,1.84e+00,4.88e+00,
60,1.68e+00,4.88e+00,
61,1.92e+00,5.20e+00,
62,1.76e+00,5.20e+00,
63,2.00e+00,4.88e+00,
64,1.84e+00,4.88e+00,
65,2.08e+00,5.20e+00,
66,1.92e+00,5.20e+00,
67,2.16e+00,4.88e+00,
68,2.16e+00,4.88e+00,
69,2.00e+00,5.20e+00,
70,2.08e+00,4.88e+00,
71,2.32e+00,5.20e+00,
72,2.32e+00,4.88e+00,
73,2.16e+00,5.20e+00,
74,2.48e+00,4.88e+00,
75,2.24e+00,5.20e+00,
76,2.40e+00,5.12e+00,
77,2.56e+00,4.88e+00,
78,2.48e+00,4.88e+00,
79,2.64e+00,5.20e+00,
80,2.56e+00,4.88e+00,
81,2.72e+00,5.20e+00,
82,2.64e+00,4.88e+00,
83,2.80e+00,5.20e+00,
84,2.72e+00,4.88e+00,
85,2.88e+00,5.20e+00,
86,2.80e+00,4.88e+00,
87,2.96e+00,5.20e+00,
88,2.88e+00,4.88e+00,
89,3.04e+00,5.20e+00,
90,2.96e+00,4.88e+00,
91,3.12e+00,5.20e+00,
92,3.04e+00,5.20e+00,
93,3.20e+00,4.88e+00,
94,3.12e+00,4.88e+00,
95,3.28e+00,5.20e+00,
96,3.44e+00,4.88e+00,
97,3.20e+00,5.20e+00,
98,3.28e+00,4.88e+00,
99,3.52e+00,5.20e+00,
100,3.36e+00,4.88e+00,
101,3.60e+00,5.20e+00,
102,3.44e+00,4.88e+00,
103,3.68e+00,5.20e+00,
104,3.52e+00,4.88e+00,
105,3.76e+00,5.20e+00,
106,3.76e+00,4.88e+00,
107,3.60e+00,5.20e+00,
108,3.68e+00,4.88e+00,
109,3.84e+00,5.20e+00,
110,3.76e+00,4.88e+00,
111,3.92e+00,5.20e+00,
112,3.76e+00,4.88e+00,
113,4.00e+00,5.20e+00,
114,3.84e+00,4.88e+00,
115,4.08e+00,5.20e+00,
116,3.92e+00,4.88e+00,
117,4.16e+00,5.20e+00,
118,3.92e+00,4.88e+00,
119,4.16e+00,5.20e+00,
120,4.08e+00,5.20e+00,
121,4.24e+00,4.88e+00,
122,4.08e+00,4.88e+00,
123,4.32e+00,5.20e+00,
124,4.40e+00,5.20e+00,
125,4.16e+00,4.88e+00,
126,4.16e+00,4.88e+00,
127,4.48e+00,5.20e+00,
128,4.32e+00,5.12e+00,
129,4.48e+00,4.88e+00,
130,4.56e+00,5.20e+00,
131,4.40e+00,4.88e+00,
132,4.40e+00,4.88e+00,
133,4.56e+00,5.20e+00,
134,4.48e+00,4.88e+00,
135,4.64e+00,5.20e+00,
136,4.48e+00,4.88e+00,
137,4.72e+00,5.20e+00,
138,4.56e+00,4.88e+00,
139,4.72e+00,5.20e+00,
140,4.72e+00,5.20e+00,
141,4.56e+00,4.88e+00,
142,4.56e+00,4.88e+00,
143,4.80e+00,5.20e+00,
144,4.64e+00,4.88e+00,
145,4.80e+00,5.20e+00,
146,4.64e+00,5.20e+00,
147,4.88e+00,4.88e+00,
148,4.88e+00,5.20e+00,
149,4.64e+00,4.88e+00,
150,4.88e+00,4.88e+00,
151,4.72e+00,5.20e+00,
152,4.88e+00,5.20e+00,
153,4.72e+00,4.88e+00,
154,4.72e+00,4.88e+00,
155,4.88e+00,5.20e+00,
156,4.72e+00,4.88e+00,
157,4.96e+00,5.20e+00,
158,4.96e+00,4.88e+00,
159,4.80e+00,5.20e+00,
160,4.80e+00,4.88e+00,
161,4.96e+00,5.20e+00,
162,4.96e+00,4.88e+00,
163,4.80e+00,5.20e+00,
164,4.96e+00,4.88e+00,
165,4.80e+00,5.20e+00,
166,4.96e+00,4.88e+00,
167,4.80e+00,5.20e+00,
168,4.96e+00,4.88e+00,
169,4.80e+00,5.20e+00,
170,4.96e+00,4.88e+00,
171,4.80e+00,5.20e+00,
172,4.96e+00,5.20e+00,
173,4.80e+00,4.88e+00,
174,4.96e+00,4.88e+00,
175,4.80e+00,5.20e+00,
176,4.96e+00,4.88e+00,
177,4.72e+00,5.20e+00,
178,4.72e+00,4.88e+00,
179,4.96e+00,5.20e+00,
180,4.88e+00,5.20e+00,
181,4.72e+00,4.88e+00,
182,4.72e+00,5.20e+00,
183,4.88e+00,4.88e+00,
184,4.88e+00,5.20e+00,
185,4.64e+00,4.88e+00,
186,4.88e+00,5.20e+00,
187,4.64e+00,4.88e+00,
188,4.64e+00,5.20e+00,
189,4.80e+00,4.88e+00,
190,4.80e+00,4.88e+00,
191,4.56e+00,5.12e+00,
192,4.72e+00,4.88e+00,
193,4.56e+00,5.20e+00,
194,4.56e+00,5.20e+00,
195,4.72e+00,4.88e+00,
196,4.48e+00,5.20e+00,
197,4.64e+00,4.88e+00,
198,4.64e+00,4.88e+00,
199,4.48e+00,5.20e+00,
200,4.40e+00,4.88e+00,
201,4.64e+00,5.20e+00,
202,4.56e+00,4.88e+00,
203,4.32e+00,5.20e+00,
204,4.48e+00,5.12e+00,
205,4.32e+00,4.88e+00,
206,4.48e+00,4.88e+00,
207,4.24e+00,5.20e+00,
208,4.40e+00,4.88e+00,
209,4.16e+00,5.20e+00,
210,4.32e+00,4.88e+00,
211,4.08e+00,5.20e+00,
212,4.24e+00,4.88e+00,
213,4.00e+00,5.20e+00,
214,4.16e+00,4.88e+00,
215,4.00e+00,5.20e+00,
216,3.92e+00,4.88e+00,
217,4.08e+00,5.20e+00,
218,4.08e+00,5.20e+00,
219,3.84e+00,4.88e+00,
220,4.00e+00,5.20e+00,
221,3.76e+00,4.88e+00,
222,3.92e+00,4.88e+00,
223,3.68e+00,5.20e+00,
224,3.68e+00,5.20e+00,
225,3.84e+00,4.88e+00,
226,3.76e+00,4.88e+00,
227,3.60e+00,5.20e+00,
228,3.76e+00,5.20e+00,
229,3.52e+00,4.88e+00,
230,3.68e+00,5.20e+00,
231,3.44e+00,4.88e+00,
232,3.60e+00,4.88e+00,
233,3.36e+00,5.20e+00,
234,3.52e+00,4.88e+00,
235,3.28e+00,5.20e+00,
236,3.44e+00,4.88e+00,
237,3.12e+00,5.20e+00,
238,3.28e+00,5.20e+00,
239,3.04e+00,4.88e+00,
240,3.20e+00,4.88e+00,
241,3.04e+00,5.20e+00,
242,3.12e+00,4.88e+00,
243,2.96e+00,5.20e+00,
244,3.04e+00,4.88e+00,
245,2.88e+00,5.20e+00,
246,2.96e+00,4.88e+00,
247,2.80e+00,5.20e+00,
248,2.88e+00,4.88e+00,
249,2.72e+00,5.20e+00,
250,2.80e+00,5.20e+00,
251,2.64e+00,4.88e+00,
252,2.72e+00,4.88e+00,
253,2.56e+00,5.20e+00,
254,2.64e+00,4.88e+00,
255,2.48e+00,5.20e+00,
256,2.56e+00,4.88e+00,
257,2.40e+00,5.20e+00,
258,2.48e+00,4.88e+00,
259,2.32e+00,5.20e+00,
260,2.32e+00,5.20e+00,
261,2.16e+00,4.88e+00,
262,2.24e+00,5.20e+00,
263,2.08e+00,4.88e+00,
264,2.16e+00,4.88e+00,
265,2.00e+00,5.20e+00,
266,2.08e+00,5.20e+00,
267,1.92e+00,4.88e+00,
268,2.00e+00,5.20e+00,
269,1.84e+00,4.88e+00,
270,1.92e+00,4.88e+00,
271,1.76e+00,5.20e+00,
272,1.84e+00,4.88e+00,
273,1.68e+00,5.20e+00,
274,1.76e+00,5.20e+00,
275,1.60e+00,4.88e+00,
276,1.76e+00,5.20e+00,
277,1.52e+00,4.88e+00,
278,1.68e+00,5.20e+00,
279,1.44e+00,4.88e+00,
280,1.44e+00,4.88e+00,
281,1.60e+00,5.20e+00,
282,1.52e+00,5.20e+00,
283,1.28e+00,4.88e+00,
284,1.36e+00,4.88e+00,
285,1.20e+00,5.20e+00,
286,1.28e+00,4.88e+00,
287,1.12e+00,5.20e+00,
288,1.20e+00,4.88e+00,
289,1.04e+00,5.20e+00,
290,1.12e+00,5.20e+00,
291,9.60e-01,4.88e+00,
292,1.04e+00,5.20e+00,
293,8.80e-01,4.88e+00,
294,8.80e-01,4.88e+00,
295,1.04e+00,5.20e+00,
296,9.60e-01,5.20e+00,
297,8.00e-01,4.88e+00,
298,8.80e-01,4.88e+00,
299,7.20e-01,5.20e+00,
300,8.00e-01,4.88e+00,
301,6.40e-01,5.20e+00,
302,6.40e-01,4.88e+00,
303,8.00e-01,5.20e+00,
304,7.20e-01,4.88e+00,
305,5.60e-01,5.20e+00,
306,6.40e-01,5.20e+00,
307,4.80e-01,4.88e+00,
308,4.80e-01,4.88e+00,
309,6.40e-01,5.20e+00,
310,5.60e-01,4.88e+00,
311,4.00e-01,5.20e+00,
312,4.00e-01,4.88e+00,
313,3.20e-01,5.20e+00,
314,4.00e-01,5.20e+00,
315,2.40e-01,4.88e+00,
316,3.20e-01,5.12e+00,
317,1.60e-01,8.00e-02,
318,1.60e-01,2.40e-01,
319,3.20e-01,8.00e-02,
320,2.40e-01,2.40e-01,
321,8.00e-02,8.00e-02,
322,2.40e-01,2.40e-01,
323,8.00e-02,1.60e-01,
324,1.60e-01,2.40e-01,
325,8.00e-02,8.00e-02,
326,1.60e-01,8.00e-02,
327,0.00e+00,2.40e-01,
328,0.00e+00,2.40e-01,
329,1.60e-01,8.00e-02,
330,0.00e+00,2.40e-01,
331,8.00e-02,8.00e-02,
332,8.00e-02,8.00e-02,
333,-8.00e-02,2.40e-01,
334,8.00e-02,1.60e-01,
335,-8.00e-02,8.00e-02,
336,8.00e-02,8.00e-02,
337,-8.00e-02,2.40e-01,
338,0.00e+00,8.00e-02,
339,-8.00e-02,2.40e-01,
340,0.00e+00,8.00e-02,
341,-8.00e-02,2.40e-01,
342,0.00e+00,1.60e-01,
343,-8.00e-02,8.00e-02,
344,0.00e+00,8.00e-02,
345,-8.00e-02,2.40e-01,
346,-1.60e-01,8.00e-02,
347,0.00e+00,2.40e-01,
348,0.00e+00,1.60e-01,
349,-1.60e-01,8.00e-02,
350,0.00e+00,8.00e-02,
351,-1.60e-01,2.40e-01,
352,-8.00e-02,1.60e-01,
353,0.00e+00,8.00e-02,
354,0.00e+00,8.00e-02,
355,-8.00e-02,2.40e-01,
356,-8.00e-02,1.60e-01,
357,0.00e+00,8.00e-02,
358,-8.00e-02,8.00e-02,
359,0.00e+00,2.40e-01,
360,-8.00e-02,8.00e-02,
361,8.00e-02,2.40e-01,
362,-8.00e-02,1.60e-01,
363,8.00e-02,8.00e-02,
364,-8.00e-02,8.00e-02,
365,8.00e-02,2.40e-01,
366,8.00e-02,1.60e-01,
367,0.00e+00,8.00e-02,
368,0.00e+00,1.60e-01,
369,1.60e-01,8.00e-02,
370,1.60e-01,1.60e-01,
371,0.00e+00,8.00e-02,
372,8.00e-02,8.00e-02,
373,2.40e-01,2.40e-01,
374,2.40e-01,1.60e-01,
375,8.00e-02,8.00e-02,
376,1.60e-01,8.00e-02,
377,2.40e-01,2.40e-01,
378,1.60e-01,8.00e-02,
379,3.20e-01,2.40e-01,
380,3.20e-01,8.00e-02,
381,2.40e-01,1.60e-01,
382,4.00e-01,1.60e-01,
383,2.40e-01,8.00e-02,
384,4.00e-01,1.60e-01,
385,4.80e-01,0.00e+00,
386,4.00e-01,8.00e-02,
387,5.60e-01,2.40e-01,
388,4.80e-01,8.00e-02,
389,6.40e-01,1.60e-01,
390,5.60e-01,1.60e-01,
391,7.20e-01,8.00e-02,
392,5.60e-01,1.60e-01,
393,7.20e-01,8.00e-02,
394,6.40e-01,1.60e-01,
395,8.00e-01,8.00e-02,
396,7.20e-01,8.00e-02,
397,8.80e-01,4.32e+00,
398,7.20e-01,4.64e+00,
399,8.80e-01,5.04e+00,
400,8.00e-01,5.04e+00,
401,9.60e-01,4.88e+00,
402,8.80e-01,4.96e+00,
403,1.04e+00,4.88e+00,
404,9.60e-01,4.96e+00,
405,1.12e+00,4.88e+00,
406,1.04e+00,4.88e+00,
407,1.20e+00,4.96e+00,
408,1.04e+00,4.88e+00,
409,1.20e+00,5.12e+00,
410,1.12e+00,4.96e+00,
411,1.28e+00,4.88e+00,
412,1.20e+00,4.88e+00,
413,1.36e+00,5.12e+00,
414,1.36e+00,4.88e+00,
415,1.52e+00,5.12e+00,
416,1.44e+00,4.88e+00,
417,1.60e+00,5.20e+00,
418,1.52e+00,5.20e+00,
419,1.68e+00,4.88e+00,
420,1.60e+00,4.88e+00,
421,1.76e+00,5.20e+00,
422,1.68e+00,4.88e+00,
423,1.84e+00,5.20e+00,
424,1.68e+00,4.88e+00,
425,1.92e+00,5.20e+00,
426,1.76e+00,5.12e+00,
427,2.00e+00,4.88e+00,
428,1.84e+00,5.20e+00,
429,2.08e+00,4.88e+00,
430,1.92e+00,5.12e+00,
431,2.16e+00,4.88e+00,
432,2.00e+00,4.88e+00,
433,2.24e+00,5.20e+00,
434,2.08e+00,4.88e+00,
435,2.32e+00,5.20e+00,
436,2.16e+00,4.88e+00,
437,2.40e+00,5.20e+00,
438,2.32e+00,4.88e+00,
439,2.56e+00,5.20e+00,
440,2.40e+00,4.88e+00,
441,2.56e+00,5.20e+00,
442,2.64e+00,4.88e+00,
443,2.48e+00,5.20e+00,
444,2.56e+00,4.88e+00,
445,2.80e+00,5.20e+00,
446,2.64e+00,4.88e+00,
447,2.88e+00,5.20e+00,
448,2.88e+00,5.20e+00,
449,2.72e+00,4.88e+00,
450,2.80e+00,5.12e+00,
451,3.04e+00,4.88e+00,
452,3.04e+00,4.88e+00,
453,2.88e+00,5.20e+00,
454,2.96e+00,5.20e+00,
455,3.12e+00,4.88e+00,
456,3.04e+00,5.12e+00,
457,3.20e+00,4.88e+00,
458,3.28e+00,4.88e+00,
459,3.12e+00,5.20e+00,
460,3.20e+00,5.20e+00,
461,3.44e+00,4.88e+00,
462,3.36e+00,4.88e+00,
463,3.52e+00,5.20e+00,
464,3.36e+00,5.20e+00,
465,3.60e+00,4.88e+00,
466,3.44e+00,5.20e+00,
467,3.68e+00,4.88e+00,
468,3.52e+00,5.12e+00,
469,3.76e+00,4.88e+00,
470,3.60e+00,4.88e+00,
471,3.84e+00,5.20e+00,
472,3.84e+00,4.88e+00,
473,3.68e+00,5.20e+00,
474,3.76e+00,4.88e+00,
475,3.92e+00,5.20e+00,
476,3.84e+00,4.88e+00,
477,4.00e+00,5.20e+00,
478,3.84e+00,4.88e+00,
479,4.08e+00,5.20e+00,
480,3.92e+00,4.88e+00,
481,4.16e+00,5.20e+00,
482,4.16e+00,4.88e+00,
483,4.00e+00,5.20e+00,
484,4.08e+00,4.88e+00,
485,4.24e+00,5.20e+00,
486,4.08e+00,4.88e+00,
487,4.40e+00,5.20e+00,
488,4.24e+00,5.20e+00,
489,4.40e+00,4.88e+00,
490,4.32e+00,4.88e+00,
491,4.48e+00,5.20e+00,
492,4.32e+00,4.88e+00,
493,4.56e+00,5.20e+00,
494,4.56e+00,5.20e+00,
495,4.40e+00,4.88e+00,
496,4.40e+00,4.88e+00,
497,4.64e+00,5.20e+00,
498,4.48e+00,4.88e+00,
499,4.64e+00,5.20e+00,
500,4.48e+00,4.88e+00,
501,4.72e+00,5.20e+00,
502,4.72e+00,5.20e+00,
503,4.56e+00,4.88e+00,
504,4.56e+00,4.88e+00,
505,4.72e+00,5.20e+00,
506,4.64e+00,4.88e+00,
507,4.80e+00,5.20e+00,
508,4.80e+00,4.88e+00,
509,4.64e+00,5.20e+00,
510,4.64e+00,4.88e+00,
511,4.88e+00,5.20e+00,
512,4.88e+00,4.88e+00,
513,4.72e+00,5.20e+00,
514,4.72e+00,5.12e+00,
515,4.88e+00,4.88e+00,
516,4.88e+00,5.12e+00,
517,4.72e+00,4.88e+00,
518,4.72e+00,4.88e+00,
519,4.96e+00,5.20e+00,
520,4.96e+00,4.88e+00,
521,4.72e+00,5.20e+00,
522,4.96e+00,4.88e+00,
523,4.80e+00,5.20e+00,
524,4.96e+00,4.88e+00,
525,4.80e+00,5.20e+00,
526,4.96e+00,4.88e+00,
527,4.80e+00,5.20e+00,
528,4.96e+00,5.20e+00,
529,4.80e+00,4.88e+00,
530,4.96e+00,4.88e+00,
531,4.80e+00,5.20e+00,
532,4.96e+00,4.88e+00,
533,4.80e+00,5.20e+00,
534,4.96e+00,4.88e+00,
535,4.80e+00,5.20e+00,
536,4.96e+00,5.20e+00,
537,4.80e+00,4.88e+00,
538,4.80e+00,5.20e+00,
539,4.96e+00,4.88e+00,
540,4.96e+00,5.12e+00,
541,4.72e+00,4.88e+00,
542,4.72e+00,5.20e+00,
543,4.96e+00,4.88e+00,
544,4.72e+00,4.88e+00,
545,4.88e+00,5.20e+00,
546,4.88e+00,4.88e+00,
547,4.72e+00,5.20e+00,
548,4.88e+00,5.20e+00,
549,4.64e+00,4.88e+00,
550,4.64e+00,5.20e+00,
551,4.80e+00,4.88e+00,
552,4.80e+00,5.12e+00,
553,4.64e+00,4.88e+00,
554,4.80e+00,5.20e+00,
555,4.56e+00,4.88e+00,
556,4.56e+00,4.88e+00,
557,4.72e+00,5.20e+00,
558,4.72e+00,5.20e+00,
559,4.48e+00,4.88e+00,
560,4.48e+00,4.88e+00,
561,4.64e+00,5.20e+00,
562,4.64e+00,4.88e+00,
563,4.40e+00,5.20e+00,
564,4.40e+00,4.88e+00,
565,4.56e+00,5.20e+00,
566,4.56e+00,4.88e+00,
567,4.32e+00,5.20e+00,
568,4.32e+00,4.88e+00,
569,4.48e+00,5.20e+00,
570,4.48e+00,4.88e+00,
571,4.24e+00,5.20e+00,
572,4.24e+00,4.88e+00,
573,4.40e+00,5.20e+00,
574,4.08e+00,4.88e+00,
575,4.24e+00,5.20e+00,
576,4.24e+00,4.88e+00,
577,4.00e+00,5.20e+00,
578,4.16e+00,4.88e+00,
579,3.92e+00,5.20e+00,
580,4.08e+00,4.88e+00,
581,3.92e+00,5.20e+00,
582,4.00e+00,5.20e+00,
583,3.84e+00,4.88e+00,
584,4.00e+00,4.88e+00,
585,3.76e+00,5.20e+00,
586,3.92e+00,5.20e+00,
587,3.68e+00,4.88e+00,
588,3.84e+00,4.88e+00,
589,3.60e+00,5.20e+00,
590,3.60e+00,5.20e+00,
591,3.76e+00,4.88e+00,
592,3.68e+00,4.88e+00,
593,3.52e+00,5.20e+00,
594,3.68e+00,4.88e+00,
595,3.44e+00,5.20e+00,
596,3.60e+00,4.88e+00,
597,3.36e+00,5.20e+00,
598,3.52e+00,4.88e+00,
599,3.20e+00,5.20e+00,
600,3.44e+00,4.88e+00,
601,3.12e+00,5.20e+00,
602,3.28e+00,5.20e+00,
603,3.04e+00,4.88e+00,
604,3.20e+00,4.88e+00,
605,2.96e+00,5.20e+00,
606,3.12e+00,4.88e+00,
607,2.96e+00,5.20e+00,
608,3.04e+00,4.88e+00,
609,2.88e+00,5.20e+00,
610,2.96e+00,4.88e+00,
611,2.80e+00,5.20e+00,
612,2.72e+00,4.88e+00,
613,2.88e+00,5.20e+00,
614,2.80e+00,4.88e+00,
615,2.64e+00,5.20e+00,
616,2.72e+00,4.88e+00,
617,2.56e+00,5.20e+00,
618,2.64e+00,4.88e+00,
619,2.48e+00,5.20e+00,
620,2.56e+00,4.88e+00,
621,2.40e+00,5.20e+00,
622,2.48e+00,4.88e+00,
623,2.32e+00,5.20e+00,
624,2.32e+00,4.88e+00,
625,2.16e+00,5.20e+00,
626,2.24e+00,5.20e+00,
627,2.08e+00,4.88e+00,
628,2.16e+00,5.20e+00,
629,2.00e+00,4.88e+00,
630,2.08e+00,4.88e+00,
631,1.92e+00,5.20e+00,
632,2.00e+00,5.20e+00,
633,1.84e+00,4.88e+00,
634,1.92e+00,4.88e+00,
635,1.76e+00,5.20e+00,
636,1.84e+00,4.88e+00,
637,1.68e+00,5.20e+00,
638,1.76e+00,5.20e+00,
639,1.60e+00,4.88e+00,
640,1.68e+00,4.88e+00,
641,1.52e+00,5.20e+00,
642,1.60e+00,5.20e+00,
643,1.44e+00,4.88e+00,
644,1.52e+00,5.20e+00,
645,1.36e+00,4.88e+00,
646,1.44e+00,5.20e+00,
647,1.28e+00,4.88e+00,
648,1.36e+00,5.20e+00,
649,1.20e+00,4.88e+00,
650,1.28e+00,4.88e+00,
651,1.12e+00,5.20e+00,
652,1.20e+00,4.88e+00,
653,1.04e+00,5.20e+00,
654,1.12e+00,4.88e+00,
655,9.60e-01,5.20e+00,
656,1.04e+00,4.88e+00,
657,8.80e-01,5.20e+00,
658,1.04e+00,4.88e+00,
659,8.80e-01,5.20e+00,
660,9.60e-01,5.20e+00,
661,8.00e-01,4.88e+00,
662,8.80e-01,5.20e+00,
663,7.20e-01,4.88e+00,
664,8.00e-01,4.88e+00,
665,6.40e-01,5.20e+00,
666,6.40e-01,4.88e+00,
667,8.00e-01,5.20e+00,
668,7.20e-01,4.88e+00,
669,5.60e-01,5.20e+00,
670,6.40e-01,5.20e+00,
671,4.80e-01,4.88e+00,
672,4.80e-01,5.20e+00,
673,5.60e-01,4.88e+00,
674,5.60e-01,4.88e+00,
675,4.00e-01,5.20e+00,
676,4.00e-01,4.88e+00,
677,3.20e-01,5.20e+00,
678,4.00e-01,5.20e+00,
679,2.40e-01,3.20e-01,
680,3.20e-01,2.40e-01,
681,1.60e-01,8.00e-02,
682,3.20e-01,2.40e-01,
683,1.60e-01,8.00e-02,
684,2.40e-01,2.40e-01,
685,8.00e-02,8.00e-02,
686,2.40e-01,2.40e-01,
687,8.00e-02,8.00e-02,
688,8.00e-02,2.40e-01,
689,1.60e-01,8.00e-02,
690,1.60e-01,2.40e-01,
691,0.00e+00,8.00e-02,
692,0.00e+00,2.40e-01,
693,1.60e-01,8.00e-02,
694,0.00e+00,8.00e-02,
695,8.00e-02,2.40e-01,
696,8.00e-02,8.00e-02,
697,-8.00e-02,2.40e-01,
698,-8.00e-02,8.00e-02,
699,8.00e-02,2.40e-01,
700,-8.00e-02,1.60e-01,
701,8.00e-02,8.00e-02,
702,-8.00e-02,2.40e-01,
703,0.00e+00,8.00e-02,
704,0.00e+00,8.00e-02,
705,-8.00e-02,2.40e-01,
706,-8.00e-02,1.60e-01,
707,0.00e+00,8.00e-02,
708,0.00e+00,1.60e-01,
709,-1.60e-01,8.00e-02,
710,0.00e+00,1.60e-01,
711,-1.60e-01,8.00e-02,
712,0.00e+00,1.60e-01,
713,-1.60e-01,8.00e-02,
714,-1.60e-01,1.60e-01,
715,0.00e+00,8.00e-02,
716,0.00e+00,8.00e-02,
717,-8.00e-02,2.40e-01,
718,0.00e+00,1.60e-01,
719,-8.00e-02,8.00e-02,
720,0.00e+00,1.60e-01,
721,-8.00e-02,8.00e-02,
722,0.00e+00,8.00e-02,
723,-8.00e-02,2.40e-01,
724,-8.00e-02,1.60e-01,
725,8.00e-02,8.00e-02,
726,8.00e-02,1.60e-01,
727,-8.00e-02,8.00e-02,
728,8.00e-02,1.60e-01,
729,0.00e+00,8.00e-02,
730,0.00e+00,1.60e-01,
731,1.60e-01,8.00e-02,
732,0.00e+00,1.60e-01,
733,1.60e-01,8.00e-02,
734,1.60e-01,1.60e-01,
735,8.00e-02,8.00e-02,
736,8.00e-02,1.60e-01,
737,2.40e-01,8.00e-02,
738,2.40e-01,1.60e-01,
739,8.00e-02,8.00e-02,
740,1.60e-01,1.60e-01,
741,3.20e-01,8.00e-02,
742,3.20e-01,8.00e-02,
743,1.60e-01,1.60e-01,
744,2.40e-01,1.60e-01,
745,4.00e-01,8.00e-02,
746,4.00e-01,1.60e-01,
747,2.40e-01,8.00e-02,
748,4.00e-01,1.60e-01,
749,5.60e-01,8.00e-02,
750,4.00e-01,1.60e-01,
751,5.60e-01,8.00e-02,
752,4.80e-01,1.60e-01,
753,6.40e-01,8.00e-02,
754,5.60e-01,1.60e-01,
755,7.20e-01,8.00e-02,
756,5.60e-01,1.60e-01,
757,7.20e-01,8.00e-02,
758,6.40e-01,8.00e-02,
759,8.00e-01,2.40e-01,
760,7.20e-01,8.00e-02,
761,8.80e-01,5.04e+00,
762,8.00e-01,4.88e+00,
763,9.60e-01,5.04e+00,
764,9.60e-01,4.96e+00,
765,8.00e-01,4.88e+00,
766,8.80e-01,4.96e+00,
767,1.04e+00,4.88e+00,
768,9.60e-01,4.96e+00,
769,1.12e+00,4.88e+00,
770,1.04e+00,4.96e+00,
771,1.20e+00,4.88e+00,
772,1.12e+00,4.88e+00,
773,1.28e+00,5.20e+00,
774,1.28e+00,4.96e+00,
775,1.12e+00,4.88e+00,
776,1.20e+00,4.88e+00,
777,1.36e+00,5.20e+00,
778,1.36e+00,4.88e+00,
779,1.52e+00,5.20e+00,
780,1.44e+00,4.88e+00,
781,1.60e+00,5.12e+00,
782,1.52e+00,5.12e+00,
783,1.68e+00,4.88e+00,
784,1.60e+00,5.20e+00,
785,1.76e+00,4.88e+00,
786,1.68e+00,5.12e+00,
787,1.84e+00,4.88e+00,
788,1.76e+00,4.88e+00,
789,1.92e+00,5.20e+00,
790,1.84e+00,5.20e+00,
791,2.00e+00,4.88e+00,
792,1.92e+00,4.88e+00,
793,2.08e+00,5.20e+00,
794,2.00e+00,4.88e+00,
795,2.16e+00,5.20e+00,
796,2.08e+00,5.12e+00,
797,2.24e+00,4.88e+00,
798,2.16e+00,4.88e+00,
799,2.32e+00,5.20e+00,
800,2.24e+00,4.88e+00,
801,2.48e+00,5.20e+00,
802,2.32e+00,4.88e+00,
803,2.56e+00,5.20e+00,
804,2.40e+00,4.88e+00,
805,2.64e+00,5.20e+00,
806,2.48e+00,4.88e+00,
807,2.72e+00,5.20e+00,
808,2.56e+00,5.20e+00,
809,2.80e+00,4.88e+00,
810,2.64e+00,4.88e+00,
811,2.88e+00,5.20e+00,
812,2.72e+00,4.88e+00,
813,2.96e+00,5.20e+00,
814,2.80e+00,4.88e+00,
815,3.04e+00,5.20e+00,
816,2.88e+00,4.88e+00,
817,3.12e+00,5.20e+00,
818,2.96e+00,5.20e+00,
819,3.20e+00,4.88e+00,
820,3.04e+00,4.88e+00,
821,3.28e+00,5.20e+00,
822,3.12e+00,4.88e+00,
823,3.36e+00,5.20e+00,
824,3.28e+00,5.20e+00,
825,3.44e+00,4.88e+00,
826,3.36e+00,5.20e+00,
827,3.52e+00,4.88e+00,
828,3.44e+00,4.88e+00,
829,3.60e+00,5.20e+00,
830,3.44e+00,4.88e+00,
831,3.68e+00,5.20e+00,
832,3.52e+00,4.88e+00,
833,3.76e+00,5.20e+00,
834,3.60e+00,5.20e+00,
835,3.84e+00,4.88e+00,
836,3.68e+00,5.20e+00,
837,3.92e+00,4.88e+00,
838,3.76e+00,4.88e+00,
839,3.92e+00,5.20e+00,
840,3.84e+00,4.88e+00,
841,4.00e+00,5.20e+00,
842,3.84e+00,4.88e+00,
843,4.08e+00,5.20e+00,
844,3.92e+00,4.88e+00,
845,4.16e+00,5.20e+00,
846,4.00e+00,4.88e+00,
847,4.24e+00,5.20e+00,
848,4.24e+00,5.20e+00,
849,4.08e+00,4.88e+00,
850,4.08e+00,4.88e+00,
851,4.40e+00,5.20e+00,
852,4.24e+00,4.88e+00,
853,4.40e+00,5.20e+00,
854,4.32e+00,4.88e+00,
855,4.48e+00,5.20e+00,
856,4.32e+00,5.20e+00,
857,4.56e+00,4.88e+00,
858,4.56e+00,5.20e+00,
859,4.40e+00,4.88e+00,
860,4.40e+00,5.12e+00,
861,4.64e+00,4.88e+00,
862,4.48e+00,4.88e+00,
863,4.64e+00,5.20e+00,
864,4.48e+00,5.20e+00,
865,4.72e+00,4.88e+00,
866,4.72e+00,4.88e+00,
867,4.56e+00,5.20e+00,
868,4.56e+00,5.20e+00,
