project/matlab/project_exp3/700 Hz/NewFile1.csv

X,CH1,CH2,Start,Increment,
Sequence,Volt,Volt,-2.280000e-03,5.000000e-06
0,3.20e+00,4.88e+00,
1,3.04e+00,5.20e+00,
2,3.12e+00,4.88e+00,
3,2.88e+00,5.20e+00,
4,3.04e+00,5.20e+00,
5,2.80e+00,4.88e+00,
6,2.96e+00,4.88e+00,
7,2.72e+00,5.20e+00,
8,2.80e+00,4.88e+00,
9,2.64e+00,5.20e+00,
10,2.72e+00,5.12e+00,
11,2.48e+00,4.88e+00,
12,2.64e+00,4.88e+00,
13,2.40e+00,5.20e+00,
14,2.56e+00,4.88e+00,
15,2.32e+00,5.20e+00,
16,2.48e+00,4.88e+00,
17,2.16e+00,5.20e+00,
18,2.24e+00,5.20e+00,
19,2.08e+00,4.88e+00,
20,2.16e+00,5.20e+00,
21,1.92e+00,4.88e+00,
22,2.08e+00,4.88e+00,
23,1.84e+00,5.20e+00,
24,1.92e+00,5.20e+00,
25,1.76e+00,4.88e+00,
26,1.84e+00,4.88e+00,
27,1.68e+00,5.20e+00,
28,1.76e+00,4.88e+00,
29,1.60e+00,5.20e+00,
30,1.68e+00,5.20e+00,
31,1.44e+00,4.88e+00,
32,1.52e+00,5.12e+00,
33,1.36e+00,4.88e+00,
34,1.44e+00,5.20e+00,
35,1.20e+00,4.88e+00,
36,1.28e+00,5.20e+00,
37,1.12e+00,4.88e+00,
38,1.20e+00,4.88e+00,
39,1.04e+00,5.20e+00,
40,1.12e+00,4.88e+00,
41,9.60e-01,5.20e+00,
42,1.04e+00,4.88e+00,
43,8.80e-01,5.20e+00,
44,9.60e-01,4.88e+00,
45,8.00e-01,5.20e+00,
46,8.80e-01,4.88e+00,
47,7.20e-01,5.20e+00,
48,8.00e-01,4.88e+00,
49,6.40e-01,5.20e+00,
50,7.20e-01,4.88e+00,
51,5.60e-01,5.20e+00,
52,6.40e-01,4.88e+00,
53,4.80e-01,5.20e+00,
54,4.80e-01,4.88e+00,
55,6.40e-01,5.20e+00,
56,5.60e-01,4.88e+00,
57,4.00e-01,5.20e+00,
58,4.00e-01,4.88e+00,
59,2.40e-01,5.20e+00,
60,3.20e-01,5.12e+00,
61,1.60e-01,8.00e-02,
62,3.20e-01,2.40e-01,
63,1.60e-01,8.00e-02,
64,2.40e-01,8.00e-02,
65,8.00e-02,2.40e-01,
66,8.00e-02,2.40e-01,
67,2.40e-01,8.00e-02,
68,1.60e-01,2.40e-01,
69,0.00e+00,8.00e-02,
70,1.60e-01,2.40e-01,
71,0.00e+00,8.00e-02,
72,8.00e-02,2.40e-01,
73,-8.00e-02,8.00e-02,
74,-8.00e-02,8.00e-02,
75,8.00e-02,2.40e-01,
76,8.00e-02,8.00e-02,
77,-8.00e-02,2.40e-01,
78,0.00e+00,8.00e-02,
79,-8.00e-02,2.40e-01,
80,0.00e+00,2.40e-01,
81,-8.00e-02,0.00e+00,
82,0.00e+00,1.60e-01,
83,-1.60e-01,8.00e-02,
84,0.00e+00,8.00e-02,
85,-1.60e-01,2.40e-01,
86,0.00e+00,8.00e-02,
87,-1.60e-01,2.40e-01,
88,0.00e+00,2.40e-01,
89,-1.60e-01,8.00e-02,
90,0.00e+00,8.00e-02,
91,-8.00e-02,2.40e-01,
92,0.00e+00,1.60e-01,
93,-8.00e-02,8.00e-02,
94,-8.00e-02,1.60e-01,
95,8.00e-02,0.00e+00,
96,-8.00e-02,8.00e-02,
97,8.00e-02,2.40e-01,
98,8.00e-02,1.60e-01,
99,-8.00e-02,8.00e-02,
100,0.00e+00,2.40e-01,
101,1.60e-01,0.00e+00,
102,0.00e+00,8.00e-02,
103,1.60e-01,2.40e-01,
104,8.00e-02,2.40e-01,
105,2.40e-01,8.00e-02,
106,2.40e-01,0.00e+00,
107,8.00e-02,2.40e-01,
108,1.60e-01,1.60e-01,
109,3.20e-01,8.00e-02,
110,3.20e-01,8.00e-02,
111,1.60e-01,2.40e-01,
112,4.00e-01,8.00e-02,
113,2.40e-01,2.40e-01,
114,3.20e-01,8.00e-02,
115,4.80e-01,1.60e-01,
116,4.80e-01,2.40e-01,
117,6.40e-01,8.00e-02,
118,4.80e-01,1.60e-01,
119,7.20e-01,8.00e-02,
120,5.60e-01,8.00e-02,
121,7.20e-01,2.40e-01,
122,6.40e-01,8.00e-02,
123,8.00e-01,2.40e-01,
124,7.20e-01,8.00e-02,
125,8.80e-01,5.04e+00,
126,8.00e-01,4.96e+00,
127,9.60e-01,4.88e+00,
128,8.80e-01,4.96e+00,
129,1.04e+00,4.88e+00,
130,9.60e-01,4.96e+00,
131,1.12e+00,4.88e+00,
132,1.04e+00,4.96e+00,
133,1.20e+00,4.88e+00,
134,1.12e+00,4.96e+00,
135,1.36e+00,4.88e+00,
136,1.20e+00,4.88e+00,
137,1.44e+00,4.96e+00,
138,1.36e+00,4.88e+00,
139,1.60e+00,5.04e+00,
140,1.52e+00,4.88e+00,
141,1.68e+00,5.12e+00,
142,1.60e+00,4.88e+00,
143,1.76e+00,5.20e+00,
144,1.68e+00,5.12e+00,
145,1.84e+00,4.88e+00,
146,1.76e+00,4.88e+00,
147,2.00e+00,5.20e+00,
148,1.84e+00,4.88e+00,
149,2.08e+00,5.20e+00,
150,2.00e+00,5.12e+00,
151,2.16e+00,4.88e+00,
152,2.08e+00,5.20e+00,
153,2.24e+00,4.88e+00,
154,2.16e+00,4.88e+00,
155,2.48e+00,5.20e+00,
156,2.24e+00,4.88e+00,
157,2.56e+00,5.20e+00,
158,2.40e+00,4.88e+00,
159,2.64e+00,5.20e+00,
160,2.56e+00,5.12e+00,
161,2.72e+00,4.88e+00,
162,2.64e+00,4.88e+00,
163,2.88e+00,5.20e+00,
164,2.72e+00,4.88e+00,
165,2.96e+00,5.20e+00,
166,2.80e+00,4.88e+00,
167,3.04e+00,5.20e+00,
168,2.88e+00,4.88e+00,
169,3.12e+00,5.20e+00,
170,3.04e+00,4.88e+00,
171,3.20e+00,5.20e+00,
172,3.12e+00,4.88e+00,
173,3.44e+00,5.20e+00,
174,3.28e+00,4.88e+00,
175,3.52e+00,5.20e+00,
176,3.36e+00,4.88e+00,
177,3.60e+00,5.20e+00,
178,3.44e+00,4.88e+00,
179,3.68e+00,5.20e+00,
180,3.52e+00,5.12e+00,
181,3.76e+00,4.88e+00,
182,3.60e+00,4.88e+00,
183,3.84e+00,5.20e+00,
184,3.68e+00,5.20e+00,
185,3.92e+00,4.88e+00,
186,3.84e+00,4.88e+00,
187,4.00e+00,5.20e+00,
188,3.92e+00,4.88e+00,
189,4.08e+00,5.20e+00,
190,4.00e+00,4.88e+00,
191,4.16e+00,5.20e+00,
192,4.00e+00,4.88e+00,
193,4.24e+00,5.20e+00,
194,4.08e+00,4.88e+00,
195,4.40e+00,5.20e+00,
196,4.24e+00,5.20e+00,
197,4.48e+00,4.88e+00,
198,4.32e+00,4.88e+00,
199,4.56e+00,5.20e+00,
200,4.40e+00,4.88e+00,
201,4.56e+00,5.20e+00,
202,4.40e+00,4.88e+00,
203,4.64e+00,5.20e+00,
204,4.64e+00,5.12e+00,
205,4.48e+00,4.88e+00,
206,4.72e+00,4.88e+00,
207,4.56e+00,5.20e+00,
208,4.56e+00,5.20e+00,
209,4.80e+00,4.88e+00,
210,4.64e+00,4.88e+00,
211,4.80e+00,5.20e+00,
212,4.64e+00,5.12e+00,
213,4.88e+00,4.88e+00,
214,4.72e+00,5.20e+00,
215,4.88e+00,4.88e+00,
216,4.72e+00,4.88e+00,
217,4.88e+00,5.20e+00,
218,4.72e+00,5.20e+00,
219,4.96e+00,4.88e+00,
220,4.72e+00,4.88e+00,
221,4.96e+00,5.20e+00,
222,4.96e+00,4.88e+00,
223,4.80e+00,5.20e+00,
224,4.96e+00,5.20e+00,
225,4.80e+00,4.88e+00,
226,4.96e+00,4.88e+00,
227,4.80e+00,5.20e+00,
228,4.96e+00,4.88e+00,
229,4.80e+00,5.20e+00,
230,4.96e+00,4.88e+00,
231,4.80e+00,5.20e+00,
232,4.96e+00,4.88e+00,
233,4.80e+00,5.20e+00,
234,4.96e+00,4.88e+00,
235,4.80e+00,5.20e+00,
236,4.96e+00,4.88e+00,
237,4.72e+00,5.20e+00,
238,4.72e+00,5.12e+00,
239,4.96e+00,4.88e+00,
240,4.88e+00,4.88e+00,
241,4.72e+00,5.20e+00,
242,4.88e+00,4.88e+00,
243,4.64e+00,5.20e+00,
244,4.64e+00,4.88e+00,
245,4.80e+00,5.20e+00,
246,4.80e+00,4.88e+00,
247,4.64e+00,5.20e+00,
248,4.80e+00,5.20e+00,
249,4.56e+00,4.88e+00,
250,4.72e+00,4.88e+00,
251,4.56e+00,5.20e+00,
252,4.48e+00,4.88e+00,
253,4.64e+00,5.20e+00,
254,4.64e+00,4.88e+00,
255,4.40e+00,5.20e+00,
256,4.56e+00,4.88e+00,
257,4.32e+00,5.20e+00,
258,4.32e+00,4.88e+00,
259,4.48e+00,5.20e+00,
260,4.48e+00,5.20e+00,
261,4.16e+00,4.88e+00,
262,4.40e+00,5.20e+00,
263,4.08e+00,4.88e+00,
264,4.24e+00,5.12e+00,
265,4.00e+00,4.88e+00,
266,4.16e+00,5.20e+00,
267,3.92e+00,4.88e+00,
268,4.08e+00,4.88e+00,
269,3.84e+00,5.20e+00,
270,4.00e+00,4.96e+00,
271,3.76e+00,5.20e+00,
272,3.92e+00,4.88e+00,
273,3.68e+00,5.20e+00,
274,3.84e+00,5.20e+00,
275,3.60e+00,4.88e+00,
276,3.76e+00,5.20e+00,
277,3.52e+00,4.88e+00,
278,3.68e+00,5.20e+00,
279,3.44e+00,4.88e+00,
280,3.60e+00,5.20e+00,
281,3.36e+00,4.88e+00,
282,3.44e+00,4.88e+00,
283,3.20e+00,5.20e+00,
284,3.28e+00,5.20e+00,
285,3.12e+00,4.88e+00,
286,3.20e+00,4.88e+00,
287,3.04e+00,5.20e+00,
288,3.12e+00,4.88e+00,
289,2.88e+00,5.20e+00,
290,3.04e+00,5.20e+00,
291,2.80e+00,4.88e+00,
292,2.96e+00,4.88e+00,
293,2.72e+00,5.20e+00,
294,2.80e+00,5.20e+00,
295,2.64e+00,4.88e+00,
296,2.72e+00,4.88e+00,
297,2.48e+00,5.20e+00,
298,2.64e+00,4.88e+00,
299,2.40e+00,5.20e+00,
300,2.48e+00,4.88e+00,
301,2.32e+00,5.12e+00,
302,2.32e+00,4.88e+00,
303,2.16e+00,5.20e+00,
304,2.24e+00,4.88e+00,
305,2.00e+00,5.20e+00,
306,2.16e+00,4.88e+00,
307,1.92e+00,5.20e+00,
308,2.08e+00,4.88e+00,
309,1.84e+00,5.20e+00,
310,1.92e+00,4.88e+00,
311,1.76e+00,5.20e+00,
312,1.84e+00,4.88e+00,
313,1.68e+00,5.20e+00,
314,1.76e+00,5.20e+00,
315,1.52e+00,4.88e+00,
316,1.68e+00,4.88e+00,
317,1.44e+00,5.20e+00,
318,1.52e+00,4.88e+00,
319,1.36e+00,5.20e+00,
320,1.36e+00,4.88e+00,
321,1.20e+00,5.20e+00,
322,1.28e+00,4.88e+00,
323,1.12e+00,5.20e+00,
324,1.20e+00,5.20e+00,
325,1.04e+00,4.88e+00,
326,1.12e+00,5.20e+00,
327,9.60e-01,4.88e+00,
328,1.04e+00,4.88e+00,
329,8.80e-01,5.20e+00,
330,9.60e-01,4.88e+00,
331,8.00e-01,5.20e+00,
332,8.80e-01,4.88e+00,
333,7.20e-01,5.20e+00,
334,8.00e-01,4.88e+00,
335,6.40e-01,5.20e+00,
336,7.20e-01,5.20e+00,
337,5.60e-01,4.88e+00,
338,6.40e-01,4.88e+00,
339,4.80e-01,5.20e+00,
340,6.40e-01,5.20e+00,
341,4.00e-01,4.88e+00,
342,4.00e-01,4.88e+00,
343,5.60e-01,5.20e+00,
344,4.00e-01,5.20e+00,
345,2.40e-01,4.88e+00,
346,3.20e-01,5.04e+00,
347,1.60e-01,8.00e-02,
348,1.60e-01,2.40e-01,
349,3.20e-01,8.00e-02,
350,2.40e-01,8.00e-02,
351,8.00e-02,2.40e-01,
352,8.00e-02,2.40e-01,
353,2.40e-01,8.00e-02,
354,1.60e-01,2.40e-01,
355,0.00e+00,8.00e-02,
356,0.00e+00,2.40e-01,
357,1.60e-01,8.00e-02,
358,8.00e-02,2.40e-01,
359,-8.00e-02,8.00e-02,
360,-8.00e-02,8.00e-02,
361,8.00e-02,2.40e-01,
362,-8.00e-02,8.00e-02,
363,8.00e-02,2.40e-01,
364,-8.00e-02,8.00e-02,
365,0.00e+00,2.40e-01,
366,0.00e+00,8.00e-02,
367,-8.00e-02,2.40e-01,
368,0.00e+00,8.00e-02,
369,-1.60e-01,2.40e-01,
370,0.00e+00,8.00e-02,
371,-1.60e-01,2.40e-01,
372,-1.60e-01,1.60e-01,
373,0.00e+00,8.00e-02,
374,0.00e+00,2.40e-01,
375,-1.60e-01,8.00e-02,
376,-8.00e-02,8.00e-02,
377,0.00e+00,2.40e-01,
378,0.00e+00,1.60e-01,
379,-8.00e-02,8.00e-02,
380,-8.00e-02,8.00e-02,
381,8.00e-02,1.60e-01,
382,-8.00e-02,1.60e-01,
383,8.00e-02,8.00e-02,
384,8.00e-02,8.00e-02,
385,0.00e+00,2.40e-01,
386,0.00e+00,8.00e-02,
387,1.60e-01,2.40e-01,
388,0.00e+00,8.00e-02,
389,1.60e-01,2.40e-01,
390,8.00e-02,1.60e-01,
391,2.40e-01,8.00e-02,
392,8.00e-02,1.60e-01,
393,2.40e-01,8.00e-02,
394,1.60e-01,1.60e-01,
395,3.20e-01,8.00e-02,
396,2.40e-01,8.00e-02,
397,4.00e-01,2.40e-01,
398,4.00e-01,1.60e-01,
399,2.40e-01,8.00e-02,
400,3.20e-01,1.60e-01,
401,5.60e-01,8.00e-02,
402,4.80e-01,1.60e-01,
403,6.40e-01,0.00e+00,
404,5.60e-01,1.60e-01,
405,7.20e-01,8.00e-02,
406,5.60e-01,8.00e-02,
407,8.00e-01,1.60e-01,
408,6.40e-01,8.00e-02,
409,8.80e-01,2.40e-01,
410,7.20e-01,1.60e-01,
411,8.80e-01,5.04e+00,
412,8.00e-01,4.88e+00,
413,9.60e-01,5.04e+00,
414,8.80e-01,4.96e+00,
415,1.04e+00,4.88e+00,
416,9.60e-01,4.96e+00,
417,1.12e+00,4.88e+00,
418,1.04e+00,4.88e+00,
419,1.28e+00,5.04e+00,
420,1.12e+00,5.04e+00,
421,1.36e+00,4.88e+00,
422,1.28e+00,4.88e+00,
423,1.52e+00,5.04e+00,
424,1.44e+00,5.04e+00,
425,1.60e+00,4.88e+00,
426,1.52e+00,4.88e+00,
427,1.68e+00,5.12e+00,
428,1.60e+00,4.88e+00,
429,1.76e+00,5.20e+00,
430,1.68e+00,5.12e+00,
431,1.92e+00,4.88e+00,
432,1.76e+00,5.12e+00,
433,2.00e+00,4.88e+00,
434,1.84e+00,4.88e+00,
435,2.08e+00,5.20e+00,
436,2.00e+00,4.88e+00,
437,2.16e+00,5.12e+00,
438,2.08e+00,4.88e+00,
439,2.32e+00,5.20e+00,
440,2.16e+00,4.88e+00,
441,2.48e+00,5.20e+00,
442,2.32e+00,4.88e+00,
443,2.56e+00,5.20e+00,
444,2.48e+00,4.88e+00,
445,2.64e+00,5.20e+00,
446,2.56e+00,4.88e+00,
447,2.72e+00,5.20e+00,
448,2.64e+00,5.20e+00,
449,2.88e+00,4.88e+00,
450,2.72e+00,5.12e+00,
451,2.96e+00,4.88e+00,
452,2.88e+00,4.88e+00,
453,3.04e+00,5.20e+00,
454,2.96e+00,5.20e+00,
455,3.12e+00,4.88e+00,
456,3.04e+00,4.88e+00,
457,3.28e+00,5.20e+00,
458,3.20e+00,4.88e+00,
459,3.44e+00,5.20e+00,
460,3.28e+00,5.20e+00,
461,3.52e+00,4.88e+00,
462,3.36e+00,4.88e+00,
463,3.60e+00,5.20e+00,
464,3.44e+00,5.20e+00,
465,3.68e+00,4.88e+00,
466,3.60e+00,5.20e+00,
467,3.76e+00,4.88e+00,
468,3.68e+00,5.12e+00,
469,3.84e+00,4.88e+00,
470,3.76e+00,4.88e+00,
471,3.92e+00,5.20e+00,
472,3.84e+00,4.88e+00,
473,4.00e+00,5.20e+00,
474,4.08e+00,4.88e+00,
475,3.92e+00,5.20e+00,
476,4.00e+00,4.88e+00,
477,4.16e+00,5.20e+00,
478,4.08e+00,4.88e+00,
479,4.24e+00,5.20e+00,
480,4.08e+00,5.20e+00,
481,4.40e+00,4.88e+00,
482,4.16e+00,4.88e+00,
483,4.48e+00,5.20e+00,
484,4.48e+00,4.88e+00,
485,4.32e+00,5.20e+00,
486,4.40e+00,4.88e+00,
487,4.56e+00,5.20e+00,
488,4.40e+00,5.20e+00,
489,4.64e+00,4.88e+00,
490,4.48e+00,5.20e+00,
491,4.72e+00,4.88e+00,
492,4.72e+00,4.88e+00,
493,4.56e+00,5.20e+00,
494,4.56e+00,5.12e+00,
495,4.80e+00,4.88e+00,
496,4.64e+00,4.88e+00,
497,4.80e+00,5.20e+00,
498,4.64e+00,5.20e+00,
499,4.88e+00,4.88e+00,
500,4.72e+00,4.88e+00,
501,4.88e+00,5.20e+00,
502,4.88e+00,5.20e+00,
503,4.72e+00,4.88e+00,
504,4.72e+00,4.88e+00,
505,4.96e+00,5.20e+00,
506,4.72e+00,4.88e+00,
507,4.96e+00,5.20e+00,
508,4.96e+00,4.88e+00,
509,4.80e+00,5.20e+00,
510,4.96e+00,4.88e+00,
511,4.80e+00,5.20e+00,
512,4.96e+00,4.88e+00,
513,4.80e+00,5.20e+00,
514,4.80e+00,4.88e+00,
515,4.96e+00,5.20e+00,
516,4.96e+00,5.20e+00,
517,4.80e+00,4.88e+00,
518,4.96e+00,4.88e+00,
519,4.80e+00,5.20e+00,
520,4.96e+00,4.88e+00,
521,4.80e+00,5.20e+00,
522,4.96e+00,5.20e+00,
523,4.72e+00,4.88e+00,
524,4.72e+00,4.88e+00,
525,4.96e+00,5.20e+00,
526,4.88e+00,5.12e+00,
527,4.72e+00,4.88e+00,
528,4.88e+00,5.20e+00,
529,4.64e+00,4.88e+00,
530,4.64e+00,4.88e+00,
531,4.80e+00,5.20e+00,
532,4.80e+00,4.88e+00,
533,4.56e+00,5.20e+00,
534,4.80e+00,4.88e+00,
535,4.56e+00,5.20e+00,
536,4.72e+00,5.20e+00,
537,4.48e+00,4.88e+00,
538,4.48e+00,4.88e+00,
539,4.64e+00,5.20e+00,
540,4.64e+00,4.88e+00,
541,4.40e+00,5.20e+00,
542,4.56e+00,5.20e+00,
543,4.32e+00,4.88e+00,
544,4.32e+00,4.88e+00,
545,4.48e+00,5.20e+00,
546,4.40e+00,4.88e+00,
547,4.16e+00,5.20e+00,
548,4.32e+00,5.20e+00,
549,4.08e+00,4.88e+00,
550,4.24e+00,5.20e+00,
551,4.00e+00,4.88e+00,
552,4.16e+00,4.88e+00,
553,3.92e+00,5.20e+00,
554,4.08e+00,5.20e+00,
555,3.84e+00,4.88e+00,
556,4.00e+00,4.88e+00,
557,3.76e+00,5.20e+00,
558,3.92e+00,5.20e+00,
559,3.68e+00,4.88e+00,
560,3.84e+00,4.88e+00,
561,3.60e+00,5.20e+00,
562,3.76e+00,4.88e+00,
563,3.52e+00,5.20e+00,
564,3.68e+00,4.88e+00,
565,3.44e+00,5.20e+00,
566,3.52e+00,5.20e+00,
567,3.36e+00,4.88e+00,
568,3.44e+00,5.20e+00,
569,3.20e+00,4.88e+00,
570,3.28e+00,4.88e+00,
571,3.12e+00,5.20e+00,
572,3.20e+00,4.88e+00,
573,2.96e+00,5.12e+00,
574,3.12e+00,4.88e+00,
575,2.88e+00,5.20e+00,
576,3.04e+00,4.88e+00,
577,2.80e+00,5.20e+00,
578,2.88e+00,4.88e+00,
579,2.72e+00,5.20e+00,
580,2.80e+00,4.88e+00,
581,2.56e+00,5.20e+00,
582,2.72e+00,5.20e+00,
583,2.48e+00,4.88e+00,
584,2.64e+00,4.88e+00,
585,2.40e+00,5.20e+00,
586,2.48e+00,5.20e+00,
587,2.24e+00,4.88e+00,
588,2.32e+00,4.88e+00,
589,2.16e+00,5.20e+00,
590,2.24e+00,5.20e+00,
591,2.00e+00,4.88e+00,
592,2.16e+00,4.88e+00,
593,1.92e+00,5.20e+00,
594,2.00e+00,4.88e+00,
595,1.84e+00,5.20e+00,
596,1.92e+00,5.20e+00,
597,1.76e+00,4.88e+00,
598,1.84e+00,5.12e+00,
599,1.60e+00,4.88e+00,
600,1.76e+00,4.88e+00,
601,1.52e+00,5.20e+00,
602,1.60e+00,4.88e+00,
603,1.44e+00,5.20e+00,
604,1.52e+00,5.12e+00,
605,1.36e+00,4.88e+00,
606,1.36e+00,5.20e+00,
607,1.20e+00,4.88e+00,
608,1.28e+00,4.88e+00,
609,1.12e+00,5.20e+00,
610,1.20e+00,5.20e+00,
611,1.04e+00,4.88e+00,
612,1.12e+00,5.20e+00,
613,9.60e-01,4.88e+00,
614,1.04e+00,4.88e+00,
615,8.80e-01,5.20e+00,
616,9.60e-01,4.88e+00,
617,8.00e-01,5.20e+00,
618,8.80e-01,4.88e+00,
619,7.20e-01,5.20e+00,
620,8.00e-01,5.20e+00,
621,6.40e-01,4.88e+00,
622,7.20e-01,4.88e+00,
623,5.60e-01,5.20e+00,
624,6.40e-01,4.88e+00,
625,4.80e-01,5.20e+00,
626,5.60e-01,4.88e+00,
627,4.00e-01,5.20e+00,
628,5.60e-01,4.88e+00,
629,3.20e-01,5.20e+00,
630,4.00e-01,5.20e+00,
631,2.40e-01,3.76e+00,
632,3.20e-01,3.36e+00,
633,1.60e-01,8.00e-02,
634,3.20e-01,8.00e-02,
635,1.60e-01,2.40e-01,
636,2.40e-01,2.40e-01,
637,8.00e-02,8.00e-02,
638,1.60e-01,2.40e-01,
639,8.00e-02,8.00e-02,
640,1.60e-01,2.40e-01,
641,0.00e+00,8.00e-02,
642,1.60e-01,2.40e-01,
643,0.00e+00,8.00e-02,
644,8.00e-02,2.40e-01,
645,-8.00e-02,8.00e-02,
646,-8.00e-02,8.00e-02,
647,8.00e-02,2.40e-01,
648,-8.00e-02,2.40e-01,
649,0.00e+00,8.00e-02,
650,0.00e+00,8.00e-02,
651,-8.00e-02,2.40e-01,
652,0.00e+00,1.60e-01,
653,-8.00e-02,8.00e-02,
654,0.00e+00,2.40e-01,
655,-1.60e-01,8.00e-02,
656,0.00e+00,8.00e-02,
657,-1.60e-01,2.40e-01,
658,0.00e+00,1.60e-01,
659,-1.60e-01,8.00e-02,
660,0.00e+00,8.00e-02,
661,-8.00e-02,2.40e-01,
662,-8.00e-02,8.00e-02,
663,0.00e+00,2.40e-01,
664,0.00e+00,8.00e-02,
665,-8.00e-02,1.60e-01,
666,-8.00e-02,1.60e-01,
667,8.00e-02,8.00e-02,
668,8.00e-02,8.00e-02,
669,-8.00e-02,2.40e-01,
670,8.00e-02,1.60e-01,
671,0.00e+00,8.00e-02,
672,0.00e+00,8.00e-02,
673,1.60e-01,2.40e-01,
674,0.00e+00,1.60e-01,
675,1.60e-01,8.00e-02,
676,8.00e-02,1.60e-01,
677,2.40e-01,8.00e-02,
678,8.00e-02,1.60e-01,
679,2.40e-01,8.00e-02,
680,1.60e-01,1.60e-01,
681,3.20e-01,8.00e-02,
682,2.40e-01,8.00e-02,
683,4.00e-01,1.60e-01,
684,2.40e-01,1.60e-01,
685,4.00e-01,8.00e-02,
686,4.00e-01,8.00e-02,
687,5.60e-01,1.60e-01,
688,4.80e-01,8.00e-02,
689,6.40e-01,1.60e-01,
690,5.60e-01,1.60e-01,
691,7.20e-01,8.00e-02,
692,6.40e-01,8.00e-02,
693,8.00e-01,2.40e-01,
694,6.40e-01,8.00e-02,
695,8.80e-01,3.20e-01,
696,7.20e-01,4.00e-01,
697,9.60e-01,5.04e+00,
698,8.00e-01,4.88e+00,
699,1.04e+00,5.04e+00,
700,8.80e-01,5.04e+00,
701,1.12e+00,4.88e+00,
702,9.60e-01,5.04e+00,
703,1.20e+00,4.88e+00,
704,1.04e+00,5.04e+00,
705,1.28e+00,4.88e+00,
706,1.12e+00,5.04e+00,
707,1.36e+00,4.88e+00,
708,1.28e+00,5.04e+00,
709,1.52e+00,4.88e+00,
710,1.44e+00,5.04e+00,
711,1.60e+00,4.88e+00,
712,1.52e+00,4.88e+00,
713,1.68e+00,5.12e+00,
714,1.60e+00,4.88e+00,
715,1.76e+00,5.12e+00,
716,1.68e+00,5.12e+00,
717,1.92e+00,4.88e+00,
718,1.76e+00,4.88e+00,
719,2.00e+00,5.20e+00,
720,1.92e+00,4.88e+00,
721,2.08e+00,5.20e+00,
722,2.00e+00,5.20e+00,
723,2.16e+00,4.88e+00,
724,2.08e+00,4.88e+00,
725,2.32e+00,5.20e+00,
726,2.16e+00,5.20e+00,
727,2.48e+00,4.88e+00,
728,2.32e+00,5.20e+00,
729,2.56e+00,4.88e+00,
730,2.48e+00,5.20e+00,
731,2.64e+00,4.88e+00,
732,2.56e+00,4.88e+00,
733,2.80e+00,5.20e+00,
734,2.64e+00,4.88e+00,
735,2.88e+00,5.20e+00,
736,2.80e+00,5.20e+00,
737,2.96e+00,4.88e+00,
738,2.88e+00,4.88e+00,
739,3.04e+00,5.20e+00,
740,2.96e+00,4.88e+00,
741,3.20e+00,5.20e+00,
742,3.04e+00,5.20e+00,
743,3.28e+00,4.88e+00,
744,3.12e+00,5.20e+00,
745,3.44e+00,4.88e+00,
746,3.28e+00,4.88e+00,
747,3.52e+00,5.20e+00,
748,3.36e+00,4.88e+00,
749,3.60e+00,5.20e+00,
750,3.52e+00,4.88e+00,
751,3.68e+00,5.20e+00,
752,3.60e+00,4.88e+00,
753,3.76e+00,5.20e+00,
754,3.68e+00,5.20e+00,
755,3.92e+00,4.88e+00,
756,3.76e+00,5.20e+00,
757,4.00e+00,4.88e+00,
758,3.84e+00,4.88e+00,
759,4.08e+00,5.20e+00,
760,3.92e+00,5.20e+00,
761,4.16e+00,4.88e+00,
762,4.00e+00,4.88e+00,
763,4.24e+00,5.20e+00,
764,4.24e+00,4.88e+00,
765,4.08e+00,5.20e+00,
766,4.16e+00,4.88e+00,
767,4.40e+00,5.20e+00,
768,4.24e+00,4.88e+00,
769,4.48e+00,5.20e+00,
770,4.32e+00,4.88e+00,
771,4.56e+00,5.20e+00,
772,4.40e+00,4.88e+00,
773,4.56e+00,5.20e+00,
774,4.64e+00,5.20e+00,
775,4.48e+00,4.88e+00,
776,4.48e+00,4.88e+00,
777,4.72e+00,5.20e+00,
778,4.56e+00,4.88e+00,
779,4.72e+00,5.20e+00,
780,4.56e+00,4.88e+00,
781,4.80e+00,5.20e+00,
782,4.80e+00,4.88e+00,
783,4.64e+00,5.20e+00,
784,4.64e+00,4.88e+00,
785,4.88e+00,5.20e+00,
786,4.72e+00,4.88e+00,
787,4.88e+00,5.20e+00,
788,4.88e+00,4.88e+00,
789,4.72e+00,5.20e+00,
790,4.72e+00,5.20e+00,
791,4.96e+00,4.88e+00,
792,4.96e+00,4.88e+00,
793,4.80e+00,5.20e+00,
794,4.96e+00,5.20e+00,
795,4.80e+00,4.88e+00,
796,4.96e+00,5.12e+00,
797,4.80e+00,4.88e+00,
798,4.96e+00,4.88e+00,
799,4.80e+00,5.20e+00,
800,4.96e+00,4.88e+00,
801,4.80e+00,5.20e+00,
802,4.96e+00,4.88e+00,
803,4.80e+00,5.20e+00,
804,4.96e+00,4.88e+00,
805,4.80e+00,5.20e+00,
806,4.96e+00,4.88e+00,
807,4.80e+00,5.20e+00,
808,4.96e+00,5.20e+00,
809,4.72e+00,4.88e+00,
810,4.88e+00,4.88e+00,
811,4.72e+00,5.20e+00,
812,4.88e+00,4.88e+00,
813,4.72e+00,5.20e+00,
814,4.88e+00,4.88e+00,
815,4.64e+00,5.20e+00,
816,4.64e+00,4.88e+00,
817,4.80e+00,5.20e+00,
818,4.80e+00,5.20e+00,
819,4.56e+00,4.88e+00,
820,4.56e+00,5.12e+00,
821,4.72e+00,4.88e+00,
822,4.72e+00,4.88e+00,
823,4.48e+00,5.20e+00,
824,4.48e+00,5.20e+00,
825,4.64e+00,4.88e+00,
826,4.64e+00,5.20e+00,
827,4.40e+00,4.88e+00,
828,4.56e+00,4.88e+00,
829,4.32e+00,5.20e+00,
830,4.32e+00,4.88e+00,
831,4.48e+00,5.20e+00,
832,4.40e+00,4.88e+00,
833,4.16e+00,5.20e+00,
834,4.32e+00,4.88e+00,
835,4.08e+00,5.20e+00,
836,4.24e+00,5.20e+00,
837,4.00e+00,4.88e+00,
838,4.16e+00,4.88e+00,
839,3.92e+00,5.20e+00,
840,4.08e+00,4.88e+00,
841,3.84e+00,5.20e+00,
842,4.00e+00,4.88e+00,
843,3.76e+00,5.20e+00,
844,3.92e+00,4.88e+00,
845,3.68e+00,5.20e+00,
846,3.84e+00,4.88e+00,
847,3.60e+00,5.20e+00,
848,3.76e+00,5.20e+00,
849,3.52e+00,4.88e+00,
850,3.60e+00,5.20e+00,
851,3.44e+00,4.88e+00,
852,3.52e+00,4.88e+00,
853,3.36e+00,5.20e+00,
854,3.44e+00,4.88e+00,
855,3.20e+00,5.20e+00,
856,3.12e+00,4.88e+00,
857,3.28e+00,5.20e+00,
858,3.20e+00,5.20e+00,
859,2.96e+00,4.88e+00,
860,3.12e+00,4.88e+00,
861,2.88e+00,5.20e+00,
862,2.96e+00,4.88e+00,
863,2.80e+00,5.20e+00,
864,2.88e+00,5.20e+00,
865,2.64e+00,4.88e+00,
866,2.80e+00,4.88e+00,
867,2.56e+00,5.20e+00,
868,2.72e+00,4.88e+00,
