project/matlab/project_exp3/150 kHz/NewFile1.csv

X,CH1,CH2,Start,Increment,
Sequence,Volt,Volt,7.080000e-04,2.000000e-08
0,5.04e+00,5.04e+00,
1,4.96e+00,4.88e+00,
2,5.04e+00,4.96e+00,
3,4.96e+00,5.12e+00,
4,4.96e+00,5.04e+00,
5,5.04e+00,4.96e+00,
6,5.04e+00,5.04e+00,
7,4.96e+00,4.88e+00,
8,5.04e+00,5.04e+00,
9,4.96e+00,4.88e+00,
10,5.04e+00,5.04e+00,
11,4.88e+00,4.96e+00,
12,5.04e+00,5.04e+00,
13,4.88e+00,4.96e+00,
14,4.96e+00,5.04e+00,
15,4.88e+00,4.96e+00,
16,4.96e+00,5.04e+00,
17,4.80e+00,4.96e+00,
18,4.96e+00,4.96e+00,
19,4.80e+00,5.04e+00,
20,4.88e+00,4.96e+00,
21,4.80e+00,5.04e+00,
22,4.88e+00,4.88e+00,
23,4.72e+00,5.12e+00,
24,4.72e+00,5.04e+00,
25,4.88e+00,4.96e+00,
26,4.64e+00,5.04e+00,
27,4.80e+00,4.88e+00,
28,4.72e+00,5.04e+00,
29,4.56e+00,4.96e+00,
30,4.72e+00,5.04e+00,
31,4.56e+00,4.96e+00,
32,4.64e+00,4.96e+00,
33,4.48e+00,5.04e+00,
34,4.48e+00,5.04e+00,
35,4.56e+00,4.96e+00,
36,4.48e+00,5.04e+00,
37,4.40e+00,4.88e+00,
38,4.32e+00,5.04e+00,
39,4.48e+00,4.96e+00,
40,4.40e+00,4.96e+00,
41,4.24e+00,5.04e+00,
42,4.32e+00,4.88e+00,
43,4.16e+00,5.12e+00,
44,4.24e+00,5.04e+00,
45,4.08e+00,4.96e+00,
46,4.16e+00,5.04e+00,
47,4.00e+00,4.96e+00,
48,4.08e+00,5.04e+00,
49,3.92e+00,4.88e+00,
50,4.00e+00,5.04e+00,
51,3.84e+00,4.96e+00,
52,3.92e+00,5.04e+00,
53,3.76e+00,4.96e+00,
54,3.92e+00,5.04e+00,
55,3.68e+00,4.96e+00,
56,3.76e+00,5.04e+00,
57,3.68e+00,4.88e+00,
58,3.68e+00,5.04e+00,
59,3.52e+00,4.96e+00,
60,3.60e+00,5.04e+00,
61,3.44e+00,4.96e+00,
62,3.52e+00,4.96e+00,
63,3.36e+00,5.12e+00,
64,3.44e+00,5.04e+00,
65,3.20e+00,4.96e+00,
66,3.36e+00,5.04e+00,
67,3.20e+00,4.96e+00,
68,3.28e+00,5.04e+00,
69,3.12e+00,4.96e+00,
70,3.12e+00,5.04e+00,
71,3.04e+00,4.96e+00,
72,3.04e+00,5.04e+00,
73,2.88e+00,4.96e+00,
74,2.96e+00,5.04e+00,
75,2.80e+00,4.96e+00,
76,2.88e+00,4.96e+00,
77,2.72e+00,5.04e+00,
78,2.80e+00,5.04e+00,
79,2.64e+00,4.96e+00,
80,2.72e+00,5.04e+00,
81,2.56e+00,4.96e+00,
82,2.56e+00,4.96e+00,
83,2.48e+00,5.12e+00,
84,2.40e+00,5.04e+00,
85,2.56e+00,4.96e+00,
86,2.40e+00,5.04e+00,
87,2.24e+00,4.96e+00,
88,2.24e+00,5.04e+00,
89,2.16e+00,4.88e+00,
90,2.16e+00,5.04e+00,
91,2.00e+00,4.96e+00,
92,2.08e+00,5.04e+00,
93,1.92e+00,4.88e+00,
94,2.00e+00,5.04e+00,
95,1.84e+00,4.96e+00,
96,1.92e+00,5.04e+00,
97,1.76e+00,4.96e+00,
98,1.84e+00,4.96e+00,
99,1.68e+00,5.04e+00,
100,1.76e+00,5.04e+00,
101,1.60e+00,4.88e+00,
102,1.60e+00,4.88e+00,
103,1.52e+00,5.12e+00,
104,1.52e+00,5.04e+00,
105,1.36e+00,4.96e+00,
106,1.44e+00,5.04e+00,
107,1.28e+00,4.96e+00,
108,1.36e+00,5.04e+00,
109,1.20e+00,4.88e+00,
110,1.28e+00,5.04e+00,
111,1.12e+00,4.96e+00,
112,1.20e+00,5.04e+00,
113,1.04e+00,4.96e+00,
114,1.12e+00,5.04e+00,
115,9.60e-01,4.96e+00,
116,1.04e+00,5.04e+00,
117,8.80e-01,4.88e+00,
118,9.60e-01,5.04e+00,
119,8.00e-01,4.88e+00,
120,8.80e-01,5.04e+00,
121,7.20e-01,4.88e+00,
122,7.20e-01,4.96e+00,
123,8.00e-01,5.12e+00,
124,8.00e-01,5.04e+00,
125,6.40e-01,4.88e+00,
126,6.40e-01,5.04e+00,
127,5.60e-01,4.88e+00,
128,6.40e-01,5.04e+00,
129,4.80e-01,4.96e+00,
130,4.80e-01,5.04e+00,
131,4.80e-01,4.96e+00,
132,4.80e-01,5.04e+00,
133,3.20e-01,4.88e+00,
134,4.00e-01,5.04e+00,
135,3.20e-01,4.96e+00,
136,3.20e-01,5.04e+00,
137,2.40e-01,4.88e+00,
138,3.20e-01,4.96e+00,
139,1.60e-01,5.04e+00,
140,2.40e-01,5.04e+00,
141,1.60e-01,4.88e+00,
142,2.40e-01,4.88e+00,
143,8.00e-02,5.12e+00,
144,8.00e-02,5.04e+00,
145,1.60e-01,4.88e+00,
146,1.60e-01,5.04e+00,
147,0.00e+00,4.96e+00,
148,0.00e+00,5.04e+00,
149,8.00e-02,4.96e+00,
150,8.00e-02,5.04e+00,
151,-8.00e-02,4.96e+00,
152,-8.00e-02,5.04e+00,
153,8.00e-02,4.96e+00,
154,0.00e+00,5.04e+00,
155,-8.00e-02,4.96e+00,
156,-8.00e-02,4.96e+00,
157,0.00e+00,5.04e+00,
158,0.00e+00,5.04e+00,
159,-1.60e-01,4.88e+00,
160,-1.60e-01,5.04e+00,
161,-8.00e-02,4.96e+00,
162,-1.60e-01,4.96e+00,
163,-8.00e-02,5.12e+00,
164,-8.00e-02,5.04e+00,
165,-1.60e-01,5.12e+00,
166,-1.60e-01,5.04e+00,
167,-8.00e-02,5.12e+00,
168,-1.60e-01,5.04e+00,
169,-8.00e-02,4.96e+00,
170,-1.60e-01,5.04e+00,
171,-8.00e-02,4.72e+00,
172,-1.60e-01,4.64e+00,
173,0.00e+00,4.16e+00,
174,0.00e+00,4.08e+00,
175,-1.60e-01,3.44e+00,
176,-8.00e-02,3.44e+00,
177,0.00e+00,2.72e+00,
178,-8.00e-02,2.72e+00,
179,0.00e+00,2.08e+00,
180,0.00e+00,2.08e+00,
181,-8.00e-02,1.44e+00,
182,-8.00e-02,1.44e+00,
183,8.00e-02,8.80e-01,
184,-8.00e-02,9.60e-01,
185,8.00e-02,4.80e-01,
186,0.00e+00,4.80e-01,
187,8.00e-02,3.20e-01,
188,0.00e+00,3.20e-01,
189,1.60e-01,2.40e-01,
190,1.60e-01,2.40e-01,
191,8.00e-02,1.60e-01,
192,2.40e-01,2.40e-01,
193,8.00e-02,1.60e-01,
194,2.40e-01,2.40e-01,
195,1.60e-01,8.00e-02,
196,1.60e-01,2.40e-01,
197,3.20e-01,8.00e-02,
198,2.40e-01,2.40e-01,
199,4.00e-01,8.00e-02,
200,4.00e-01,2.40e-01,
201,3.20e-01,2.40e-01,
202,3.20e-01,2.40e-01,
203,4.80e-01,8.00e-02,
204,4.80e-01,2.40e-01,
205,6.40e-01,8.00e-02,
206,5.60e-01,2.40e-01,
207,6.40e-01,1.60e-01,
208,5.60e-01,2.40e-01,
209,6.40e-01,1.60e-01,
210,6.40e-01,2.40e-01,
211,8.00e-01,1.60e-01,
212,7.20e-01,1.60e-01,
213,8.80e-01,2.40e-01,
214,8.00e-01,1.60e-01,
215,9.60e-01,2.40e-01,
216,8.80e-01,2.40e-01,
217,1.04e+00,1.60e-01,
218,9.60e-01,2.40e-01,
219,1.12e+00,1.60e-01,
220,1.04e+00,2.40e-01,
221,1.20e+00,1.60e-01,
222,1.12e+00,2.40e-01,
223,1.28e+00,2.40e-01,
224,1.20e+00,2.40e-01,
225,1.28e+00,1.60e-01,
226,1.28e+00,2.40e-01,
227,1.44e+00,1.60e-01,
228,1.44e+00,1.60e-01,
229,1.52e+00,2.40e-01,
230,1.52e+00,2.40e-01,
231,1.60e+00,1.60e-01,
232,1.60e+00,3.20e-01,
233,1.76e+00,1.60e-01,
234,1.68e+00,3.20e-01,
235,1.84e+00,1.60e-01,
236,1.76e+00,2.40e-01,
237,1.92e+00,4.00e-01,
238,1.84e+00,3.20e-01,
239,2.00e+00,3.20e-01,
240,1.92e+00,3.20e-01,
241,2.08e+00,4.80e-01,
242,2.00e+00,4.80e-01,
243,2.16e+00,6.40e-01,
244,2.08e+00,6.40e-01,
245,2.24e+00,8.80e-01,
246,2.16e+00,8.00e-01,
247,2.32e+00,1.12e+00,
248,2.24e+00,1.04e+00,
249,2.40e+00,1.28e+00,
250,2.40e+00,1.36e+00,
251,2.56e+00,1.52e+00,
252,2.56e+00,1.52e+00,
253,2.64e+00,1.84e+00,
254,2.64e+00,1.76e+00,
255,2.72e+00,2.08e+00,
256,2.72e+00,2.00e+00,
257,2.88e+00,2.24e+00,
258,2.80e+00,2.24e+00,
259,2.96e+00,2.48e+00,
260,2.88e+00,2.48e+00,
261,3.04e+00,2.72e+00,
262,2.96e+00,2.72e+00,
263,3.12e+00,2.96e+00,
264,3.04e+00,2.88e+00,
265,3.20e+00,3.12e+00,
266,3.28e+00,3.12e+00,
267,3.12e+00,3.28e+00,
268,3.28e+00,3.28e+00,
269,3.36e+00,3.52e+00,
270,3.36e+00,3.44e+00,
271,3.44e+00,3.68e+00,
272,3.44e+00,3.60e+00,
273,3.52e+00,3.84e+00,
274,3.52e+00,3.76e+00,
275,3.68e+00,4.00e+00,
276,3.60e+00,3.92e+00,
277,3.76e+00,4.16e+00,
278,3.68e+00,4.08e+00,
279,3.84e+00,4.32e+00,
280,3.76e+00,4.24e+00,
281,3.92e+00,4.40e+00,
282,3.84e+00,4.32e+00,
283,4.00e+00,4.56e+00,
284,3.92e+00,4.48e+00,
285,4.08e+00,4.64e+00,
286,4.00e+00,4.56e+00,
287,4.16e+00,4.72e+00,
288,4.08e+00,4.64e+00,
289,4.24e+00,4.80e+00,
290,4.24e+00,4.72e+00,
291,4.24e+00,4.88e+00,
292,4.32e+00,4.80e+00,
293,4.24e+00,4.96e+00,
294,4.32e+00,4.88e+00,
295,4.48e+00,4.96e+00,
296,4.48e+00,5.04e+00,
297,4.40e+00,4.88e+00,
298,4.40e+00,4.96e+00,
299,4.56e+00,5.04e+00,
300,4.48e+00,5.04e+00,
301,4.64e+00,4.88e+00,
302,4.56e+00,4.96e+00,
303,4.72e+00,5.12e+00,
304,4.72e+00,5.04e+00,
305,4.56e+00,4.88e+00,
306,4.64e+00,5.04e+00,
307,4.80e+00,4.96e+00,
308,4.72e+00,5.04e+00,
309,4.80e+00,4.88e+00,
310,4.72e+00,4.96e+00,
311,4.88e+00,5.04e+00,
312,4.88e+00,5.04e+00,
313,4.72e+00,4.88e+00,
314,4.80e+00,4.88e+00,
315,4.96e+00,5.04e+00,
316,4.96e+00,5.04e+00,
317,4.80e+00,4.88e+00,
318,4.88e+00,5.04e+00,
319,4.96e+00,4.88e+00,
320,4.88e+00,5.04e+00,
321,4.96e+00,4.88e+00,
322,5.04e+00,4.88e+00,
323,4.88e+00,5.12e+00,
324,5.04e+00,5.04e+00,
325,4.88e+00,4.96e+00,
326,5.04e+00,4.96e+00,
327,4.88e+00,5.04e+00,
328,5.04e+00,5.04e+00,
329,4.96e+00,4.88e+00,
330,4.96e+00,5.04e+00,
331,5.04e+00,4.88e+00,
332,5.04e+00,5.04e+00,
333,4.96e+00,4.88e+00,
334,4.96e+00,4.88e+00,
335,5.04e+00,5.04e+00,
336,5.04e+00,5.04e+00,
337,4.96e+00,4.88e+00,
338,5.04e+00,4.96e+00,
339,4.96e+00,5.04e+00,
340,5.04e+00,5.04e+00,
341,4.96e+00,4.88e+00,
342,5.04e+00,4.96e+00,
343,4.88e+00,5.04e+00,
344,5.04e+00,5.04e+00,
345,4.88e+00,4.88e+00,
346,5.04e+00,5.04e+00,
347,4.88e+00,4.88e+00,
348,4.88e+00,4.96e+00,
349,4.96e+00,5.04e+00,
350,4.80e+00,4.96e+00,
351,4.96e+00,5.04e+00,
352,4.96e+00,4.96e+00,
353,4.80e+00,5.04e+00,
354,4.88e+00,4.88e+00,
355,4.72e+00,5.04e+00,
356,4.72e+00,5.04e+00,
357,4.88e+00,4.88e+00,
358,4.72e+00,4.96e+00,
359,4.80e+00,5.04e+00,
360,4.80e+00,4.88e+00,
361,4.64e+00,5.04e+00,
362,4.72e+00,4.96e+00,
363,4.56e+00,5.04e+00,
364,4.72e+00,5.04e+00,
365,4.56e+00,4.88e+00,
366,4.64e+00,4.96e+00,
367,4.48e+00,5.04e+00,
368,4.56e+00,5.04e+00,
369,4.40e+00,4.88e+00,
370,4.48e+00,4.96e+00,
371,4.40e+00,5.04e+00,
372,4.40e+00,5.04e+00,
373,4.32e+00,4.88e+00,
374,4.32e+00,5.04e+00,
375,4.16e+00,4.88e+00,
376,4.24e+00,4.96e+00,
377,4.16e+00,5.04e+00,
378,4.24e+00,5.04e+00,
379,4.08e+00,4.88e+00,
380,4.16e+00,5.04e+00,
381,4.00e+00,4.88e+00,
382,4.08e+00,4.88e+00,
383,3.92e+00,5.12e+00,
384,4.00e+00,5.04e+00,
385,3.84e+00,4.96e+00,
386,3.92e+00,4.96e+00,
387,3.76e+00,5.04e+00,
388,3.84e+00,4.96e+00,
389,3.68e+00,5.04e+00,
390,3.76e+00,5.04e+00,
391,3.60e+00,4.88e+00,
392,3.68e+00,4.96e+00,
393,3.52e+00,5.04e+00,
394,3.60e+00,5.04e+00,
395,3.44e+00,4.96e+00,
396,3.52e+00,4.88e+00,
397,3.36e+00,5.04e+00,
398,3.36e+00,5.04e+00,
399,3.20e+00,4.88e+00,
400,3.28e+00,5.04e+00,
401,3.20e+00,4.96e+00,
402,3.20e+00,4.88e+00,
403,3.04e+00,5.12e+00,
404,3.12e+00,5.04e+00,
405,2.96e+00,4.96e+00,
406,3.04e+00,5.04e+00,
407,2.88e+00,4.96e+00,
408,2.96e+00,5.04e+00,
409,2.80e+00,4.88e+00,
410,2.88e+00,5.04e+00,
411,2.72e+00,4.88e+00,
412,2.80e+00,4.96e+00,
413,2.64e+00,5.04e+00,
414,2.64e+00,4.96e+00,
415,2.48e+00,5.04e+00,
416,2.56e+00,5.04e+00,
417,2.40e+00,4.88e+00,
418,2.40e+00,5.04e+00,
419,2.24e+00,4.96e+00,
420,2.32e+00,5.04e+00,
421,2.16e+00,4.88e+00,
422,2.24e+00,5.04e+00,
423,2.08e+00,4.88e+00,
424,2.16e+00,5.04e+00,
425,2.00e+00,4.88e+00,
426,2.08e+00,5.04e+00,
427,1.92e+00,4.88e+00,
428,2.00e+00,5.04e+00,
429,1.84e+00,4.88e+00,
430,1.92e+00,5.04e+00,
431,1.76e+00,4.88e+00,
432,1.84e+00,4.96e+00,
433,1.68e+00,5.04e+00,
434,1.76e+00,4.96e+00,
435,1.60e+00,5.04e+00,
436,1.60e+00,5.04e+00,
437,1.52e+00,4.88e+00,
438,1.60e+00,5.04e+00,
439,1.44e+00,4.88e+00,
440,1.44e+00,5.04e+00,
441,1.28e+00,4.88e+00,
442,1.36e+00,4.88e+00,
443,1.20e+00,5.12e+00,
444,1.28e+00,5.04e+00,
445,1.12e+00,4.96e+00,
446,1.20e+00,5.04e+00,
447,1.04e+00,4.88e+00,
448,1.12e+00,5.04e+00,
449,9.60e-01,4.88e+00,
450,1.04e+00,4.96e+00,
451,8.80e-01,5.04e+00,
452,9.60e-01,5.04e+00,
453,8.00e-01,4.88e+00,
454,8.80e-01,5.04e+00,
455,7.20e-01,4.88e+00,
456,8.00e-01,5.04e+00,
457,6.40e-01,4.88e+00,
458,6.40e-01,5.04e+00,
459,7.20e-01,4.88e+00,
460,6.40e-01,4.96e+00,
461,5.60e-01,5.04e+00,
462,5.60e-01,4.96e+00,
463,4.80e-01,5.04e+00,
464,4.80e-01,5.04e+00,
465,4.00e-01,4.96e+00,
466,4.00e-01,5.04e+00,
467,3.20e-01,4.88e+00,
468,4.00e-01,4.88e+00,
469,2.40e-01,5.04e+00,
470,3.20e-01,4.96e+00,
471,2.40e-01,5.04e+00,
472,3.20e-01,5.04e+00,
473,1.60e-01,4.88e+00,
474,2.40e-01,4.96e+00,
475,1.60e-01,5.04e+00,
476,2.40e-01,5.04e+00,
477,8.00e-02,4.88e+00,
478,1.60e-01,4.88e+00,
479,8.00e-02,5.04e+00,
480,1.60e-01,5.04e+00,
481,0.00e+00,4.96e+00,
482,0.00e+00,5.04e+00,
483,8.00e-02,4.88e+00,
484,0.00e+00,5.04e+00,
485,8.00e-02,4.88e+00,
486,8.00e-02,4.96e+00,
487,-8.00e-02,5.04e+00,
488,-8.00e-02,4.96e+00,
489,0.00e+00,5.04e+00,
490,0.00e+00,5.04e+00,
491,-8.00e-02,4.88e+00,
492,-8.00e-02,5.04e+00,
493,0.00e+00,4.88e+00,
494,0.00e+00,4.96e+00,
495,-1.60e-01,5.04e+00,
496,-1.60e-01,5.04e+00,
497,0.00e+00,4.96e+00,
498,-1.60e-01,5.04e+00,
499,0.00e+00,4.96e+00,
500,-1.60e-01,5.04e+00,
501,0.00e+00,4.96e+00,
502,-1.60e-01,5.04e+00,
503,0.00e+00,4.96e+00,
504,-1.60e-01,4.96e+00,
505,0.00e+00,4.56e+00,
506,-1.60e-01,4.72e+00,
507,0.00e+00,4.16e+00,
508,0.00e+00,4.08e+00,
509,-8.00e-02,3.52e+00,
510,0.00e+00,3.52e+00,
511,-8.00e-02,2.80e+00,
512,0.00e+00,2.72e+00,
513,-8.00e-02,2.16e+00,
514,-8.00e-02,2.08e+00,
515,8.00e-02,1.60e+00,
516,8.00e-02,1.52e+00,
517,0.00e+00,9.60e-01,
518,8.00e-02,9.60e-01,
519,0.00e+00,4.80e-01,
520,0.00e+00,4.80e-01,
521,1.60e-01,3.20e-01,
522,8.00e-02,3.20e-01,
523,1.60e-01,1.60e-01,
524,8.00e-02,2.40e-01,
525,2.40e-01,2.40e-01,
526,2.40e-01,2.40e-01,
527,1.60e-01,1.60e-01,
528,2.40e-01,2.40e-01,
529,3.20e-01,1.60e-01,
530,2.40e-01,2.40e-01,
531,3.20e-01,8.00e-02,
532,4.00e-01,2.40e-01,
533,2.40e-01,1.60e-01,
534,4.00e-01,8.00e-02,
535,4.80e-01,2.40e-01,
536,4.80e-01,2.40e-01,
537,5.60e-01,8.00e-02,
538,4.00e-01,2.40e-01,
539,5.60e-01,8.00e-02,
540,5.60e-01,2.40e-01,
541,7.20e-01,8.00e-02,
542,6.40e-01,2.40e-01,
543,7.20e-01,1.60e-01,
544,7.20e-01,2.40e-01,
545,8.80e-01,8.00e-02,
546,8.00e-01,2.40e-01,
547,8.80e-01,8.00e-02,
548,8.00e-01,2.40e-01,
549,9.60e-01,1.60e-01,
550,8.80e-01,2.40e-01,
551,1.04e+00,8.00e-02,
552,9.60e-01,2.40e-01,
553,1.12e+00,1.60e-01,
554,1.04e+00,2.40e-01,
555,1.20e+00,1.60e-01,
556,1.12e+00,2.40e-01,
557,1.28e+00,1.60e-01,
558,1.28e+00,2.40e-01,
559,1.36e+00,1.60e-01,
560,1.36e+00,2.40e-01,
561,1.44e+00,2.40e-01,
562,1.44e+00,2.40e-01,
563,1.60e+00,1.60e-01,
564,1.52e+00,2.40e-01,
565,1.68e+00,2.40e-01,
566,1.60e+00,1.60e-01,
567,1.76e+00,3.20e-01,
568,1.68e+00,2.40e-01,
569,1.84e+00,3.20e-01,
570,1.76e+00,3.20e-01,
571,1.92e+00,3.20e-01,
572,1.92e+00,3.20e-01,
573,2.00e+00,4.00e-01,
574,2.00e+00,4.00e-01,
575,2.16e+00,5.60e-01,
576,2.08e+00,5.60e-01,
577,2.24e+00,8.00e-01,
578,2.16e+00,7.20e-01,
579,2.32e+00,1.04e+00,
580,2.24e+00,9.60e-01,
581,2.40e+00,1.20e+00,
582,2.40e+00,1.20e+00,
583,2.48e+00,1.44e+00,
584,2.48e+00,1.44e+00,
585,2.64e+00,1.68e+00,
586,2.56e+00,1.68e+00,
587,2.64e+00,1.92e+00,
588,2.64e+00,1.84e+00,
589,2.80e+00,2.16e+00,
590,2.72e+00,2.16e+00,
591,2.88e+00,2.48e+00,
592,2.80e+00,2.40e+00,
593,2.96e+00,2.64e+00,
594,3.04e+00,2.56e+00,
595,2.88e+00,2.88e+00,
596,3.04e+00,2.80e+00,
597,3.20e+00,3.04e+00,
598,3.12e+00,3.04e+00,
599,3.28e+00,3.28e+00,
600,3.28e+00,3.20e+00,
601,3.36e+00,3.52e+00,
602,3.36e+00,3.36e+00,
603,3.52e+00,3.60e+00,
604,3.44e+00,3.52e+00,
605,3.60e+00,3.76e+00,
606,3.52e+00,3.68e+00,
607,3.68e+00,3.92e+00,
608,3.60e+00,3.84e+00,
609,3.76e+00,4.08e+00,
610,3.68e+00,4.00e+00,
611,3.84e+00,4.16e+00,
612,3.68e+00,4.16e+00,
613,3.92e+00,4.40e+00,
614,3.84e+00,4.40e+00,
615,4.00e+00,4.32e+00,
616,4.00e+00,4.40e+00,
617,3.92e+00,4.64e+00,
618,3.92e+00,4.48e+00,
619,4.08e+00,4.72e+00,
620,4.00e+00,4.56e+00,
621,4.16e+00,4.80e+00,
622,4.16e+00,4.64e+00,
623,4.24e+00,4.88e+00,
624,4.16e+00,4.80e+00,
625,4.32e+00,4.96e+00,
626,4.32e+00,4.88e+00,
627,4.40e+00,4.96e+00,
628,4.40e+00,4.88e+00,
629,4.32e+00,5.04e+00,
630,4.40e+00,5.04e+00,
631,4.56e+00,4.88e+00,
632,4.48e+00,5.04e+00,
633,4.64e+00,4.88e+00,
634,4.48e+00,4.96e+00,
635,4.64e+00,5.04e+00,
636,4.56e+00,4.88e+00,
637,4.72e+00,5.04e+00,
638,4.72e+00,5.04e+00,
639,4.64e+00,4.96e+00,
640,4.64e+00,4.88e+00,
641,4.80e+00,5.04e+00,
642,4.72e+00,5.12e+00,
643,4.88e+00,4.88e+00,
644,4.88e+00,5.04e+00,
645,4.72e+00,4.88e+00,
646,4.80e+00,4.96e+00,
647,4.88e+00,5.04e+00,
648,4.96e+00,5.04e+00,
649,4.80e+00,4.88e+00,
650,4.96e+00,5.04e+00,
651,4.80e+00,4.88e+00,
652,4.88e+00,5.04e+00,
653,4.96e+00,4.88e+00,
654,4.88e+00,5.04e+00,
655,5.04e+00,4.88e+00,
656,5.04e+00,4.88e+00,
657,4.88e+00,5.04e+00,
658,5.04e+00,5.04e+00,
659,4.88e+00,4.88e+00,
660,5.04e+00,5.04e+00,
661,4.96e+00,4.88e+00,
662,4.96e+00,4.96e+00,
663,5.12e+00,5.12e+00,
664,5.12e+00,5.04e+00,
665,4.96e+00,4.96e+00,
666,5.04e+00,5.04e+00,
667,4.96e+00,4.88e+00,
668,4.96e+00,4.96e+00,
669,5.04e+00,5.04e+00,
670,5.04e+00,4.96e+00,
671,4.96e+00,5.04e+00,
672,5.04e+00,4.88e+00,
673,4.96e+00,5.04e+00,
674,5.04e+00,4.96e+00,
675,4.88e+00,5.04e+00,
676,5.04e+00,4.96e+00,
677,4.88e+00,5.04e+00,
678,5.04e+00,5.04e+00,
679,4.88e+00,4.88e+00,
680,4.88e+00,5.04e+00,
681,4.96e+00,4.88e+00,
682,4.96e+00,4.88e+00,
683,4.80e+00,5.12e+00,
684,4.96e+00,5.04e+00,
685,4.80e+00,4.96e+00,
686,4.88e+00,4.88e+00,
687,4.80e+00,5.04e+00,
688,4.88e+00,4.96e+00,
689,4.72e+00,5.04e+00,
690,4.88e+00,5.04e+00,
691,4.72e+00,4.88e+00,
692,4.80e+00,5.04e+00,
693,4.64e+00,4.96e+00,
694,4.64e+00,5.04e+00,
695,4.80e+00,4.96e+00,
696,4.72e+00,5.04e+00,
697,4.56e+00,4.88e+00,
698,4.56e+00,4.88e+00,
699,4.64e+00,5.04e+00,
700,4.56e+00,4.96e+00,
701,4.48e+00,5.04e+00,
702,4.56e+00,4.96e+00,
703,4.40e+00,5.12e+00,
704,4.48e+00,5.04e+00,
705,4.40e+00,4.96e+00,
706,4.48e+00,4.96e+00,
707,4.32e+00,5.04e+00,
708,4.32e+00,4.96e+00,
709,4.16e+00,5.04e+00,
710,4.24e+00,4.96e+00,
711,4.16e+00,5.04e+00,
712,4.16e+00,5.04e+00,
713,4.00e+00,4.88e+00,
714,4.16e+00,5.04e+00,
715,4.00e+00,4.96e+00,
716,4.08e+00,4.96e+00,
717,3.92e+00,5.04e+00,
718,3.84e+00,4.96e+00,
719,4.00e+00,5.04e+00,
720,3.76e+00,4.96e+00,
721,3.92e+00,5.04e+00,
722,3.84e+00,4.88e+00,
723,3.68e+00,5.12e+00,
724,3.76e+00,5.04e+00,
725,3.60e+00,4.88e+00,
726,3.60e+00,4.96e+00,
727,3.52e+00,5.04e+00,
728,3.52e+00,4.96e+00,
729,3.44e+00,5.04e+00,
730,3.44e+00,5.04e+00,
731,3.36e+00,4.96e+00,
732,3.36e+00,5.04e+00,
733,3.28e+00,4.88e+00,
734,3.28e+00,5.04e+00,
735,3.12e+00,4.88e+00,
736,3.20e+00,5.04e+00,
737,3.04e+00,4.96e+00,
738,3.12e+00,5.04e+00,
739,2.96e+00,4.88e+00,
740,3.04e+00,4.96e+00,
741,2.88e+00,5.04e+00,
742,2.88e+00,4.96e+00,
743,2.72e+00,5.12e+00,
744,2.80e+00,5.04e+00,
745,2.64e+00,4.96e+00,
746,2.72e+00,4.88e+00,
747,2.56e+00,5.04e+00,
748,2.64e+00,5.04e+00,
749,2.48e+00,4.88e+00,
750,2.56e+00,5.04e+00,
751,2.40e+00,4.88e+00,
752,2.40e+00,5.04e+00,
753,2.24e+00,4.88e+00,
754,2.32e+00,4.96e+00,
755,2.24e+00,5.04e+00,
756,2.24e+00,5.04e+00,
757,2.08e+00,4.88e+00,
758,2.16e+00,5.04e+00,
759,2.00e+00,4.96e+00,
760,2.08e+00,5.04e+00,
761,1.92e+00,4.88e+00,
762,1.92e+00,4.88e+00,
763,1.76e+00,5.12e+00,
764,1.92e+00,5.04e+00,
765,1.68e+00,4.96e+00,
766,1.76e+00,4.88e+00,
767,1.60e+00,5.04e+00,
768,1.68e+00,5.04e+00,
769,1.52e+00,4.96e+00,
770,1.60e+00,5.04e+00,
771,1.44e+00,4.88e+00,
772,1.44e+00,5.04e+00,
773,1.36e+00,4.96e+00,
774,1.36e+00,5.04e+00,
775,1.20e+00,5.04e+00,
776,1.28e+00,5.04e+00,
777,1.12e+00,4.96e+00,
778,1.20e+00,4.96e+00,
779,1.04e+00,5.04e+00,
780,1.12e+00,4.96e+00,
781,9.60e-01,5.04e+00,
782,1.04e+00,4.88e+00,
783,8.80e-01,5.12e+00,
784,9.60e-01,5.04e+00,
785,8.80e-01,4.88e+00,
786,9.60e-01,4.96e+00,
787,8.00e-01,5.04e+00,
788,8.00e-01,5.04e+00,
789,7.20e-01,4.96e+00,
790,8.00e-01,5.04e+00,
791,6.40e-01,4.96e+00,
792,6.40e-01,5.04e+00,
793,5.60e-01,4.96e+00,
794,5.60e-01,5.04e+00,
795,6.40e-01,4.96e+00,
796,4.80e-01,5.04e+00,
797,5.60e-01,4.96e+00,
798,4.80e-01,5.04e+00,
799,4.00e-01,4.88e+00,
800,4.00e-01,5.04e+00,
801,4.00e-01,4.96e+00,
802,4.00e-01,4.96e+00,
803,2.40e-01,5.12e+00,
804,3.20e-01,5.04e+00,
805,1.60e-01,4.96e+00,
806,2.40e-01,5.04e+00,
807,1.60e-01,4.88e+00,
808,2.40e-01,5.04e+00,
809,8.00e-02,4.96e+00,
810,8.00e-02,5.04e+00,
811,1.60e-01,4.96e+00,
812,1.60e-01,5.04e+00,
813,0.00e+00,4.96e+00,
814,0.00e+00,5.04e+00,
815,8.00e-02,4.96e+00,
816,8.00e-02,5.04e+00,
817,0.00e+00,4.96e+00,
818,8.00e-02,5.04e+00,
819,-8.00e-02,4.96e+00,
820,0.00e+00,4.96e+00,
821,-8.00e-02,5.04e+00,
822,-8.00e-02,4.96e+00,
823,0.00e+00,5.12e+00,
824,0.00e+00,5.04e+00,
825,-8.00e-02,4.96e+00,
826,0.00e+00,5.04e+00,
827,-1.60e-01,4.96e+00,
828,-1.60e-01,5.04e+00,
829,0.00e+00,4.96e+00,
830,-1.60e-01,5.04e+00,
831,0.00e+00,5.04e+00,
832,-8.00e-02,5.04e+00,
833,-1.60e-01,4.96e+00,
834,-1.60e-01,5.04e+00,
835,-8.00e-02,4.96e+00,
836,-1.60e-01,5.04e+00,
837,-8.00e-02,4.88e+00,
838,-1.60e-01,4.88e+00,
839,0.00e+00,4.40e+00,
840,-1.60e-01,4.40e+00,
841,0.00e+00,3.76e+00,
842,-8.00e-02,3.84e+00,
843,0.00e+00,3.20e+00,
844,0.00e+00,3.12e+00,
845,-8.00e-02,2.48e+00,
846,-8.00e-02,2.40e+00,
847,8.00e-02,1.84e+00,
848,-8.00e-02,1.84e+00,
849,8.00e-02,1.28e+00,
850,0.00e+00,1.20e+00,
851,8.00e-02,7.20e-01,
852,0.00e+00,8.00e-01,
853,8.00e-02,4.00e-01,
854,0.00e+00,4.00e-01,
855,1.60e-01,2.40e-01,
856,8.00e-02,2.40e-01,
857,1.60e-01,1.60e-01,
858,8.00e-02,2.40e-01,
859,2.40e-01,1.60e-01,
860,1.60e-01,2.40e-01,
861,2.40e-01,1.60e-01,
862,1.60e-01,2.40e-01,
863,3.20e-01,1.60e-01,
864,2.40e-01,1.60e-01,
865,4.00e-01,2.40e-01,
866,4.00e-01,2.40e-01,
867,3.20e-01,1.60e-01,
