project/matlab/project_exp3/4.5 kHz/NewFile1.csv

X,CH1,CH2,Start,Increment,
Sequence,Volt,Volt,4.200000e-04,5.000000e-07
0,1.44e+00,4.88e+00,
1,1.60e+00,5.12e+00,
2,1.52e+00,4.88e+00,
3,1.60e+00,5.12e+00,
4,1.52e+00,5.12e+00,
5,1.68e+00,4.88e+00,
6,1.60e+00,4.88e+00,
7,1.76e+00,5.12e+00,
8,1.68e+00,4.96e+00,
9,1.84e+00,4.88e+00,
10,1.76e+00,4.88e+00,
11,1.92e+00,5.12e+00,
12,1.76e+00,4.88e+00,
13,1.92e+00,5.12e+00,
14,2.00e+00,5.12e+00,
15,1.84e+00,4.88e+00,
16,1.92e+00,4.96e+00,
17,2.08e+00,4.88e+00,
18,2.00e+00,5.12e+00,
19,2.16e+00,4.88e+00,
20,2.08e+00,4.88e+00,
21,2.24e+00,5.12e+00,
22,2.08e+00,4.88e+00,
23,2.32e+00,5.12e+00,
24,2.32e+00,5.12e+00,
25,2.16e+00,4.88e+00,
26,2.32e+00,5.12e+00,
27,2.48e+00,4.88e+00,
28,2.40e+00,5.12e+00,
29,2.56e+00,4.88e+00,
30,2.48e+00,4.88e+00,
31,2.64e+00,5.20e+00,
32,2.48e+00,5.12e+00,
33,2.72e+00,4.88e+00,
34,2.72e+00,4.88e+00,
35,2.56e+00,5.12e+00,
36,2.64e+00,5.20e+00,
37,2.80e+00,4.88e+00,
38,2.72e+00,4.88e+00,
39,2.88e+00,5.20e+00,
40,2.80e+00,4.88e+00,
41,2.96e+00,5.20e+00,
42,2.80e+00,4.88e+00,
43,3.04e+00,5.12e+00,
44,3.04e+00,5.12e+00,
45,2.88e+00,4.88e+00,
46,2.96e+00,5.12e+00,
47,3.12e+00,4.88e+00,
48,3.04e+00,5.04e+00,
49,3.20e+00,4.88e+00,
50,3.12e+00,4.88e+00,
51,3.28e+00,5.12e+00,
52,3.12e+00,5.12e+00,
53,3.36e+00,4.88e+00,
54,3.20e+00,4.88e+00,
55,3.44e+00,5.12e+00,
56,3.36e+00,5.12e+00,
57,3.52e+00,4.88e+00,
58,3.44e+00,4.88e+00,
59,3.60e+00,5.12e+00,
60,3.60e+00,4.88e+00,
61,3.44e+00,5.20e+00,
62,3.52e+00,5.12e+00,
63,3.68e+00,4.88e+00,
64,3.60e+00,4.88e+00,
65,3.76e+00,5.20e+00,
66,3.60e+00,4.88e+00,
67,3.84e+00,5.12e+00,
68,3.84e+00,5.12e+00,
69,3.68e+00,4.88e+00,
70,3.76e+00,4.88e+00,
71,3.92e+00,5.12e+00,
72,3.76e+00,5.12e+00,
73,4.00e+00,4.88e+00,
74,3.84e+00,4.88e+00,
75,4.00e+00,5.12e+00,
76,3.92e+00,5.12e+00,
77,4.08e+00,4.88e+00,
78,4.08e+00,5.12e+00,
79,3.92e+00,4.88e+00,
80,4.16e+00,5.12e+00,
81,4.00e+00,4.88e+00,
82,4.08e+00,4.88e+00,
83,4.24e+00,5.12e+00,
84,4.24e+00,5.12e+00,
85,4.08e+00,4.88e+00,
86,4.16e+00,4.88e+00,
87,4.40e+00,5.20e+00,
88,4.24e+00,5.12e+00,
89,4.40e+00,4.88e+00,
90,4.32e+00,4.88e+00,
91,4.48e+00,5.12e+00,
92,4.48e+00,4.88e+00,
93,4.32e+00,5.20e+00,
94,4.40e+00,4.88e+00,
95,4.56e+00,5.20e+00,
96,4.40e+00,5.12e+00,
97,4.56e+00,4.88e+00,
98,4.48e+00,5.12e+00,
99,4.64e+00,4.88e+00,
100,4.48e+00,4.88e+00,
101,4.64e+00,5.12e+00,
102,4.64e+00,4.88e+00,
103,4.48e+00,5.12e+00,
104,4.72e+00,5.12e+00,
105,4.56e+00,4.88e+00,
106,4.72e+00,4.88e+00,
107,4.56e+00,5.12e+00,
108,4.56e+00,4.88e+00,
109,4.72e+00,5.04e+00,
110,4.64e+00,4.88e+00,
111,4.80e+00,5.20e+00,
112,4.64e+00,5.12e+00,
113,4.80e+00,4.88e+00,
114,4.80e+00,4.88e+00,
115,4.64e+00,5.12e+00,
116,4.72e+00,5.12e+00,
117,4.88e+00,4.88e+00,
118,4.88e+00,5.12e+00,
119,4.72e+00,4.88e+00,
120,4.88e+00,5.12e+00,
121,4.72e+00,4.88e+00,
122,4.88e+00,4.88e+00,
123,4.72e+00,5.12e+00,
124,4.96e+00,5.20e+00,
125,4.80e+00,4.88e+00,
126,4.80e+00,4.88e+00,
127,4.96e+00,5.12e+00,
128,4.80e+00,4.88e+00,
129,4.96e+00,5.20e+00,
130,4.80e+00,4.88e+00,
131,4.96e+00,5.12e+00,
132,4.96e+00,4.88e+00,
133,4.80e+00,5.12e+00,
134,4.96e+00,4.88e+00,
135,4.80e+00,5.12e+00,
136,4.80e+00,5.12e+00,
137,4.96e+00,4.88e+00,
138,4.96e+00,4.88e+00,
139,4.80e+00,5.20e+00,
140,4.96e+00,5.12e+00,
141,4.80e+00,4.88e+00,
142,4.96e+00,5.12e+00,
143,4.80e+00,4.88e+00,
144,4.96e+00,5.12e+00,
145,4.80e+00,4.88e+00,
146,4.80e+00,5.12e+00,
147,4.96e+00,4.88e+00,
148,4.96e+00,4.88e+00,
149,4.80e+00,5.20e+00,
150,4.96e+00,4.88e+00,
151,4.80e+00,5.20e+00,
152,4.80e+00,5.12e+00,
153,4.96e+00,4.88e+00,
154,4.80e+00,5.12e+00,
155,4.96e+00,4.88e+00,
156,4.88e+00,4.88e+00,
157,4.72e+00,5.20e+00,
158,4.72e+00,4.88e+00,
159,4.88e+00,5.12e+00,
160,4.72e+00,5.12e+00,
161,4.88e+00,4.88e+00,
162,4.88e+00,4.88e+00,
163,4.72e+00,5.12e+00,
164,4.88e+00,4.88e+00,
165,4.64e+00,5.12e+00,
166,4.80e+00,4.88e+00,
167,4.64e+00,5.12e+00,
168,4.64e+00,4.88e+00,
169,4.80e+00,5.12e+00,
170,4.80e+00,4.88e+00,
171,4.56e+00,5.20e+00,
172,4.56e+00,4.88e+00,
173,4.72e+00,5.12e+00,
174,4.72e+00,5.12e+00,
175,4.56e+00,4.88e+00,
176,4.64e+00,5.12e+00,
177,4.48e+00,4.88e+00,
178,4.64e+00,4.88e+00,
179,4.48e+00,5.20e+00,
180,4.56e+00,5.12e+00,
181,4.40e+00,4.88e+00,
182,4.40e+00,4.88e+00,
183,4.56e+00,5.12e+00,
184,4.48e+00,4.88e+00,
185,4.32e+00,5.12e+00,
186,4.32e+00,4.88e+00,
187,4.48e+00,5.20e+00,
188,4.32e+00,4.88e+00,
189,4.48e+00,5.12e+00,
190,4.40e+00,5.12e+00,
191,4.16e+00,4.88e+00,
192,4.40e+00,4.88e+00,
193,4.16e+00,5.20e+00,
194,4.24e+00,4.88e+00,
195,4.08e+00,5.20e+00,
196,4.24e+00,4.88e+00,
197,4.00e+00,5.12e+00,
198,4.16e+00,5.12e+00,
199,4.00e+00,4.88e+00,
200,4.16e+00,4.88e+00,
201,3.92e+00,5.20e+00,
202,4.08e+00,5.12e+00,
203,3.84e+00,4.88e+00,
204,3.84e+00,5.12e+00,
205,4.00e+00,4.88e+00,
206,3.92e+00,4.88e+00,
207,3.76e+00,5.20e+00,
208,3.92e+00,5.12e+00,
209,3.68e+00,4.88e+00,
210,3.84e+00,4.88e+00,
211,3.68e+00,5.12e+00,
212,3.76e+00,5.12e+00,
213,3.60e+00,4.88e+00,
214,3.76e+00,4.88e+00,
215,3.52e+00,5.12e+00,
216,3.52e+00,5.12e+00,
217,3.68e+00,4.88e+00,
218,3.60e+00,4.88e+00,
219,3.44e+00,5.12e+00,
220,3.60e+00,5.20e+00,
221,3.36e+00,4.88e+00,
222,3.44e+00,4.88e+00,
223,3.28e+00,5.12e+00,
224,3.28e+00,5.12e+00,
225,3.44e+00,4.96e+00,
226,3.28e+00,5.12e+00,
227,3.12e+00,4.88e+00,
228,3.28e+00,5.12e+00,
229,3.04e+00,4.88e+00,
230,3.04e+00,5.12e+00,
231,3.20e+00,4.88e+00,
232,3.12e+00,5.12e+00,
233,2.96e+00,4.88e+00,
234,3.04e+00,4.88e+00,
235,2.88e+00,5.20e+00,
236,2.96e+00,4.88e+00,
237,2.80e+00,5.12e+00,
238,2.88e+00,4.88e+00,
239,2.72e+00,5.12e+00,
240,2.72e+00,5.12e+00,
241,2.88e+00,4.88e+00,
242,2.80e+00,4.88e+00,
243,2.64e+00,5.12e+00,
244,2.72e+00,5.12e+00,
245,2.56e+00,4.88e+00,
246,2.64e+00,5.12e+00,
247,2.48e+00,4.88e+00,
248,2.56e+00,5.12e+00,
249,2.40e+00,4.88e+00,
250,2.40e+00,4.88e+00,
251,2.56e+00,5.12e+00,
252,2.40e+00,4.88e+00,
253,2.24e+00,5.12e+00,
254,2.32e+00,4.88e+00,
255,2.16e+00,5.12e+00,
256,2.24e+00,4.88e+00,
257,2.08e+00,5.12e+00,
258,2.16e+00,4.88e+00,
259,2.00e+00,5.20e+00,
260,2.16e+00,5.12e+00,
261,2.00e+00,4.88e+00,
262,2.08e+00,5.12e+00,
263,1.92e+00,4.88e+00,
264,2.00e+00,4.88e+00,
265,1.84e+00,5.12e+00,
266,1.92e+00,4.88e+00,
267,1.76e+00,5.20e+00,
268,1.84e+00,5.12e+00,
269,1.76e+00,4.88e+00,
270,1.84e+00,4.88e+00,
271,1.68e+00,5.20e+00,
272,1.76e+00,5.12e+00,
273,1.60e+00,4.88e+00,
274,1.68e+00,4.88e+00,
275,1.52e+00,5.12e+00,
276,1.60e+00,4.88e+00,
277,1.44e+00,5.12e+00,
278,1.52e+00,5.12e+00,
279,1.44e+00,4.88e+00,
280,1.36e+00,4.88e+00,
281,1.52e+00,5.12e+00,
282,1.36e+00,5.12e+00,
283,1.20e+00,4.88e+00,
284,1.28e+00,5.12e+00,
285,1.20e+00,4.88e+00,
286,1.28e+00,4.88e+00,
287,1.12e+00,5.12e+00,
288,1.20e+00,5.12e+00,
289,1.04e+00,4.88e+00,
290,1.12e+00,5.12e+00,
291,9.60e-01,4.88e+00,
292,1.12e+00,4.88e+00,
293,9.60e-01,5.12e+00,
294,1.04e+00,4.88e+00,
295,8.80e-01,5.12e+00,
296,9.60e-01,4.88e+00,
297,8.00e-01,5.12e+00,
298,8.00e-01,4.88e+00,
299,9.60e-01,5.12e+00,
300,8.80e-01,4.88e+00,
301,7.20e-01,5.12e+00,
302,7.20e-01,4.88e+00,
303,8.00e-01,5.20e+00,
304,8.00e-01,4.88e+00,
305,6.40e-01,5.12e+00,
306,7.20e-01,5.12e+00,
307,5.60e-01,4.88e+00,
308,6.40e-01,5.12e+00,
309,5.60e-01,4.88e+00,
310,6.40e-01,5.12e+00,
311,4.80e-01,4.88e+00,
312,6.40e-01,4.88e+00,
313,4.80e-01,5.12e+00,
314,5.60e-01,4.88e+00,
315,4.00e-01,5.12e+00,
316,4.80e-01,4.88e+00,
317,3.20e-01,5.12e+00,
318,4.00e-01,4.88e+00,
319,2.40e-01,5.12e+00,
320,4.00e-01,5.12e+00,
321,2.40e-01,4.88e+00,
322,3.20e-01,5.12e+00,
323,2.40e-01,4.88e+00,
324,3.20e-01,5.12e+00,
325,1.60e-01,9.60e-01,
326,2.40e-01,6.40e-01,
327,1.60e-01,1.60e-01,
328,2.40e-01,2.40e-01,
329,8.00e-02,1.60e-01,
330,2.40e-01,2.40e-01,
331,8.00e-02,1.60e-01,
332,8.00e-02,2.40e-01,
333,1.60e-01,8.00e-02,
334,1.60e-01,2.40e-01,
335,0.00e+00,8.00e-02,
336,1.60e-01,2.40e-01,
337,0.00e+00,8.00e-02,
338,8.00e-02,2.40e-01,
339,0.00e+00,8.00e-02,
340,8.00e-02,2.40e-01,
341,0.00e+00,8.00e-02,
342,8.00e-02,2.40e-01,
343,-8.00e-02,8.00e-02,
344,8.00e-02,2.40e-01,
345,-8.00e-02,8.00e-02,
346,0.00e+00,2.40e-01,
347,-8.00e-02,8.00e-02,
348,0.00e+00,2.40e-01,
349,-8.00e-02,8.00e-02,
350,0.00e+00,8.00e-02,
351,-8.00e-02,2.40e-01,
352,-8.00e-02,2.40e-01,
353,0.00e+00,8.00e-02,
354,0.00e+00,2.40e-01,
355,-1.60e-01,8.00e-02,
356,-1.60e-01,2.40e-01,
357,0.00e+00,8.00e-02,
358,-1.60e-01,2.40e-01,
359,0.00e+00,8.00e-02,
360,-1.60e-01,8.00e-02,
361,0.00e+00,2.40e-01,
362,-1.60e-01,2.40e-01,
363,0.00e+00,8.00e-02,
364,-1.60e-01,2.40e-01,
365,0.00e+00,8.00e-02,
366,0.00e+00,2.40e-01,
367,-1.60e-01,8.00e-02,
368,0.00e+00,2.40e-01,
369,-1.60e-01,8.00e-02,
370,0.00e+00,2.40e-01,
371,-8.00e-02,8.00e-02,
372,-8.00e-02,2.40e-01,
373,0.00e+00,8.00e-02,
374,0.00e+00,2.40e-01,
375,-8.00e-02,8.00e-02,
376,0.00e+00,2.40e-01,
377,-8.00e-02,8.00e-02,
378,-8.00e-02,8.00e-02,
379,8.00e-02,2.40e-01,
380,8.00e-02,8.00e-02,
381,-8.00e-02,2.40e-01,
382,8.00e-02,8.00e-02,
383,0.00e+00,2.40e-01,
384,8.00e-02,1.60e-01,
385,0.00e+00,8.00e-02,
386,0.00e+00,8.00e-02,
387,1.60e-01,2.40e-01,
388,1.60e-01,2.40e-01,
389,0.00e+00,8.00e-02,
390,8.00e-02,8.00e-02,
391,1.60e-01,2.40e-01,
392,8.00e-02,8.00e-02,
393,2.40e-01,2.40e-01,
394,2.40e-01,8.00e-02,
395,8.00e-02,2.40e-01,
396,2.40e-01,2.40e-01,
397,1.60e-01,8.00e-02,
398,1.60e-01,8.00e-02,
399,3.20e-01,2.40e-01,
400,3.20e-01,2.40e-01,
401,2.40e-01,8.00e-02,
402,2.40e-01,8.00e-02,
403,4.00e-01,2.40e-01,
404,2.40e-01,8.00e-02,
405,4.00e-01,2.40e-01,
406,4.00e-01,8.00e-02,
407,4.80e-01,2.40e-01,
408,4.00e-01,2.40e-01,
409,5.60e-01,8.00e-02,
410,4.80e-01,8.00e-02,
411,5.60e-01,2.40e-01,
412,4.80e-01,2.40e-01,
413,6.40e-01,8.00e-02,
414,5.60e-01,1.60e-01,
415,7.20e-01,8.00e-02,
416,5.60e-01,1.60e-01,
417,7.20e-01,8.00e-02,
418,6.40e-01,8.00e-02,
419,8.00e-01,2.40e-01,
420,7.20e-01,2.40e-01,
421,8.00e-01,8.00e-02,
422,7.20e-01,1.60e-01,
423,8.80e-01,3.20e-01,
424,8.00e-01,2.40e-01,
425,9.60e-01,4.08e+00,
426,9.60e-01,4.08e+00,
427,8.80e-01,5.04e+00,
428,8.80e-01,5.04e+00,
429,1.04e+00,4.88e+00,
430,9.60e-01,5.04e+00,
431,1.12e+00,4.88e+00,
432,1.04e+00,5.04e+00,
433,1.12e+00,4.88e+00,
434,1.04e+00,5.12e+00,
435,1.20e+00,4.88e+00,
436,1.12e+00,5.04e+00,
437,1.28e+00,4.88e+00,
438,1.28e+00,5.04e+00,
439,1.20e+00,4.88e+00,
440,1.36e+00,5.04e+00,
441,1.20e+00,4.88e+00,
442,1.28e+00,4.88e+00,
443,1.52e+00,5.12e+00,
444,1.44e+00,4.88e+00,
445,1.52e+00,5.20e+00,
446,1.52e+00,4.88e+00,
447,1.60e+00,5.12e+00,
448,1.52e+00,5.12e+00,
449,1.68e+00,4.88e+00,
450,1.60e+00,5.04e+00,
451,1.76e+00,4.88e+00,
452,1.68e+00,5.04e+00,
453,1.84e+00,4.88e+00,
454,1.76e+00,4.88e+00,
455,1.92e+00,5.12e+00,
456,1.92e+00,5.12e+00,
457,1.76e+00,4.88e+00,
458,1.84e+00,5.04e+00,
459,2.00e+00,4.88e+00,
460,1.92e+00,4.88e+00,
461,2.08e+00,5.12e+00,
462,2.00e+00,4.88e+00,
463,2.16e+00,5.12e+00,
464,2.08e+00,5.12e+00,
465,2.24e+00,4.88e+00,
466,2.24e+00,4.88e+00,
467,2.08e+00,5.12e+00,
468,2.32e+00,5.04e+00,
469,2.16e+00,4.88e+00,
470,2.32e+00,5.04e+00,
471,2.48e+00,4.88e+00,
472,2.40e+00,5.12e+00,
473,2.56e+00,4.88e+00,
474,2.48e+00,5.12e+00,
475,2.64e+00,4.88e+00,
476,2.48e+00,5.12e+00,
477,2.64e+00,4.88e+00,
478,2.56e+00,4.88e+00,
479,2.72e+00,5.04e+00,
480,2.64e+00,5.20e+00,
481,2.80e+00,4.88e+00,
482,2.72e+00,4.88e+00,
483,2.88e+00,5.12e+00,
484,2.72e+00,5.20e+00,
485,2.88e+00,4.88e+00,
486,2.96e+00,4.88e+00,
487,2.80e+00,5.12e+00,
488,3.04e+00,5.12e+00,
489,2.88e+00,4.88e+00,
490,2.96e+00,4.88e+00,
491,3.12e+00,5.12e+00,
492,2.96e+00,5.12e+00,
493,3.20e+00,4.88e+00,
494,3.04e+00,5.04e+00,
495,3.28e+00,4.88e+00,
496,3.28e+00,5.12e+00,
497,3.12e+00,4.88e+00,
498,3.28e+00,5.12e+00,
499,3.44e+00,4.88e+00,
500,3.36e+00,4.88e+00,
501,3.52e+00,5.12e+00,
502,3.36e+00,4.88e+00,
503,3.52e+00,5.12e+00,
504,3.60e+00,5.12e+00,
505,3.44e+00,4.88e+00,
506,3.52e+00,4.88e+00,
507,3.68e+00,5.12e+00,
508,3.52e+00,5.12e+00,
509,3.76e+00,4.88e+00,
510,3.60e+00,4.88e+00,
511,3.76e+00,5.12e+00,
512,3.84e+00,4.88e+00,
513,3.68e+00,5.20e+00,
514,3.76e+00,4.88e+00,
515,3.92e+00,5.12e+00,
516,3.92e+00,4.88e+00,
517,3.76e+00,5.20e+00,
518,3.84e+00,4.88e+00,
519,4.00e+00,5.12e+00,
520,3.92e+00,5.12e+00,
521,4.08e+00,4.88e+00,
522,3.92e+00,4.88e+00,
523,4.08e+00,5.20e+00,
524,4.16e+00,4.88e+00,
525,4.00e+00,5.12e+00,
526,4.00e+00,4.88e+00,
527,4.24e+00,5.12e+00,
528,4.24e+00,4.88e+00,
529,4.08e+00,5.12e+00,
530,4.16e+00,5.12e+00,
531,4.32e+00,4.88e+00,
532,4.24e+00,5.12e+00,
533,4.40e+00,4.88e+00,
534,4.32e+00,5.12e+00,
535,4.48e+00,4.88e+00,
536,4.32e+00,5.12e+00,
537,4.48e+00,4.88e+00,
538,4.40e+00,4.88e+00,
539,4.56e+00,5.12e+00,
540,4.40e+00,5.12e+00,
541,4.56e+00,4.88e+00,
542,4.56e+00,4.88e+00,
543,4.40e+00,5.20e+00,
544,4.48e+00,5.20e+00,
545,4.64e+00,4.88e+00,
546,4.48e+00,4.88e+00,
547,4.64e+00,5.20e+00,
548,4.56e+00,5.12e+00,
549,4.72e+00,4.88e+00,
550,4.56e+00,4.88e+00,
551,4.72e+00,5.12e+00,
552,4.56e+00,5.12e+00,
553,4.72e+00,4.88e+00,
554,4.64e+00,5.12e+00,
555,4.80e+00,4.88e+00,
556,4.64e+00,5.12e+00,
557,4.80e+00,4.88e+00,
558,4.80e+00,4.88e+00,
559,4.64e+00,5.12e+00,
560,4.88e+00,4.88e+00,
561,4.72e+00,5.12e+00,
562,4.88e+00,4.88e+00,
563,4.72e+00,5.12e+00,
564,4.88e+00,5.12e+00,
565,4.72e+00,4.88e+00,
566,4.72e+00,5.12e+00,
567,4.88e+00,4.88e+00,
568,4.72e+00,4.88e+00,
569,4.96e+00,5.12e+00,
570,4.80e+00,4.88e+00,
571,4.96e+00,5.12e+00,
572,4.96e+00,5.12e+00,
573,4.80e+00,4.88e+00,
574,4.96e+00,4.88e+00,
575,4.80e+00,5.20e+00,
576,4.96e+00,5.20e+00,
577,4.80e+00,4.88e+00,
578,4.96e+00,4.88e+00,
579,4.80e+00,5.12e+00,
580,4.80e+00,4.88e+00,
581,4.96e+00,5.12e+00,
582,4.96e+00,4.88e+00,
583,4.80e+00,5.12e+00,
584,4.80e+00,4.88e+00,
585,4.96e+00,5.12e+00,
586,4.96e+00,4.88e+00,
587,4.80e+00,5.12e+00,
588,4.96e+00,5.12e+00,
589,4.80e+00,4.88e+00,
590,4.96e+00,4.88e+00,
591,4.80e+00,5.20e+00,
592,4.96e+00,5.12e+00,
593,4.80e+00,4.88e+00,
594,4.96e+00,4.88e+00,
595,4.80e+00,5.12e+00,
596,4.96e+00,4.88e+00,
597,4.80e+00,5.20e+00,
598,4.96e+00,4.88e+00,
599,4.72e+00,5.12e+00,
600,4.96e+00,5.12e+00,
601,4.72e+00,4.88e+00,
602,4.88e+00,5.12e+00,
603,4.72e+00,4.88e+00,
604,4.88e+00,4.88e+00,
605,4.72e+00,5.20e+00,
606,4.88e+00,4.88e+00,
607,4.72e+00,5.12e+00,
608,4.88e+00,4.88e+00,
609,4.64e+00,5.12e+00,
610,4.80e+00,5.12e+00,
611,4.64e+00,4.88e+00,
612,4.80e+00,5.12e+00,
613,4.64e+00,4.88e+00,
614,4.80e+00,4.88e+00,
615,4.64e+00,5.12e+00,
616,4.72e+00,4.88e+00,
617,4.56e+00,5.20e+00,
618,4.56e+00,4.88e+00,
619,4.72e+00,5.12e+00,
620,4.72e+00,5.20e+00,
621,4.48e+00,4.88e+00,
622,4.48e+00,5.12e+00,
623,4.64e+00,4.88e+00,
624,4.48e+00,4.88e+00,
625,4.64e+00,5.20e+00,
626,4.56e+00,5.12e+00,
627,4.40e+00,4.88e+00,
628,4.40e+00,5.12e+00,
629,4.56e+00,4.88e+00,
630,4.48e+00,4.88e+00,
631,4.32e+00,5.12e+00,
632,4.48e+00,5.12e+00,
633,4.32e+00,4.88e+00,
634,4.24e+00,5.12e+00,
635,4.40e+00,4.88e+00,
636,4.40e+00,5.12e+00,
637,4.16e+00,4.88e+00,
638,4.24e+00,4.88e+00,
639,4.08e+00,5.12e+00,
640,4.24e+00,4.88e+00,
641,4.08e+00,5.12e+00,
642,4.16e+00,4.88e+00,
643,4.00e+00,5.12e+00,
644,4.16e+00,5.12e+00,
645,3.92e+00,4.88e+00,
646,4.08e+00,4.88e+00,
647,3.92e+00,5.12e+00,
648,3.84e+00,5.12e+00,
649,4.00e+00,4.88e+00,
650,4.00e+00,5.12e+00,
651,3.76e+00,4.88e+00,
652,3.92e+00,5.12e+00,
653,3.76e+00,4.88e+00,
654,3.84e+00,4.88e+00,
655,3.68e+00,5.12e+00,
656,3.76e+00,5.12e+00,
657,3.60e+00,4.88e+00,
658,3.76e+00,4.88e+00,
659,3.60e+00,5.12e+00,
660,3.52e+00,5.12e+00,
661,3.68e+00,4.88e+00,
662,3.60e+00,5.12e+00,
663,3.44e+00,4.88e+00,
664,3.60e+00,5.12e+00,
665,3.36e+00,4.88e+00,
666,3.36e+00,4.88e+00,
667,3.52e+00,5.12e+00,
668,3.28e+00,5.12e+00,
669,3.44e+00,4.88e+00,
670,3.28e+00,4.88e+00,
671,3.12e+00,5.12e+00,
672,3.28e+00,5.12e+00,
673,3.12e+00,4.88e+00,
674,3.20e+00,4.88e+00,
675,3.04e+00,5.12e+00,
676,3.12e+00,4.88e+00,
677,2.96e+00,5.12e+00,
678,3.04e+00,5.12e+00,
679,2.88e+00,4.88e+00,
680,3.04e+00,5.12e+00,
681,2.80e+00,4.88e+00,
682,2.96e+00,4.88e+00,
683,2.80e+00,5.12e+00,
684,2.88e+00,4.88e+00,
685,2.72e+00,5.12e+00,
686,2.80e+00,4.88e+00,
687,2.64e+00,5.12e+00,
688,2.72e+00,5.20e+00,
689,2.56e+00,4.88e+00,
690,2.64e+00,4.88e+00,
691,2.48e+00,5.12e+00,
692,2.48e+00,5.12e+00,
693,2.64e+00,4.88e+00,
694,2.40e+00,5.12e+00,
695,2.56e+00,4.88e+00,
696,2.48e+00,4.88e+00,
697,2.32e+00,5.12e+00,
698,2.32e+00,4.88e+00,
699,2.16e+00,5.12e+00,
700,2.24e+00,5.12e+00,
701,2.08e+00,4.88e+00,
702,2.24e+00,5.12e+00,
703,2.08e+00,4.88e+00,
704,2.00e+00,4.88e+00,
705,2.16e+00,5.12e+00,
706,2.08e+00,5.12e+00,
707,1.92e+00,4.88e+00,
708,2.00e+00,5.12e+00,
709,1.84e+00,4.88e+00,
710,1.92e+00,5.12e+00,
711,1.76e+00,4.88e+00,
712,1.76e+00,5.12e+00,
713,1.92e+00,4.88e+00,
714,1.84e+00,5.12e+00,
715,1.68e+00,4.88e+00,
716,1.76e+00,4.88e+00,
717,1.60e+00,5.20e+00,
718,1.68e+00,5.12e+00,
719,1.52e+00,4.88e+00,
720,1.60e+00,4.88e+00,
721,1.52e+00,5.20e+00,
722,1.60e+00,4.88e+00,
723,1.44e+00,5.12e+00,
724,1.52e+00,5.12e+00,
725,1.28e+00,4.88e+00,
726,1.36e+00,5.12e+00,
727,1.28e+00,4.88e+00,
728,1.28e+00,4.96e+00,
729,1.20e+00,5.12e+00,
730,1.28e+00,5.12e+00,
731,1.12e+00,4.88e+00,
732,1.20e+00,5.12e+00,
733,1.04e+00,4.88e+00,
734,1.12e+00,4.88e+00,
735,1.04e+00,5.12e+00,
736,1.12e+00,5.12e+00,
737,9.60e-01,4.88e+00,
738,1.04e+00,5.20e+00,
739,8.80e-01,4.88e+00,
740,8.80e-01,4.96e+00,
741,9.60e-01,5.12e+00,
742,9.60e-01,4.88e+00,
743,8.00e-01,5.12e+00,
744,8.80e-01,5.20e+00,
745,7.20e-01,4.88e+00,
746,7.20e-01,4.88e+00,
747,8.00e-01,5.12e+00,
748,8.00e-01,4.96e+00,
749,6.40e-01,5.20e+00,
750,6.40e-01,4.88e+00,
751,7.20e-01,5.20e+00,
752,7.20e-01,5.12e+00,
753,5.60e-01,4.88e+00,
754,6.40e-01,5.12e+00,
755,4.80e-01,4.88e+00,
756,4.80e-01,5.12e+00,
757,6.40e-01,4.88e+00,
758,5.60e-01,4.96e+00,
759,4.00e-01,5.12e+00,
760,4.00e-01,4.88e+00,
761,4.80e-01,5.12e+00,
762,4.00e-01,4.96e+00,
763,2.40e-01,5.12e+00,
764,4.00e-01,5.12e+00,
765,2.40e-01,4.88e+00,
766,3.20e-01,4.88e+00,
767,2.40e-01,5.12e+00,
768,3.20e-01,5.12e+00,
769,1.60e-01,3.20e+00,
770,2.40e-01,3.04e+00,
771,1.60e-01,2.40e-01,
772,2.40e-01,2.40e-01,
773,8.00e-02,1.60e-01,
774,2.40e-01,2.40e-01,
775,8.00e-02,8.00e-02,
776,8.00e-02,2.40e-01,
777,1.60e-01,8.00e-02,
778,1.60e-01,2.40e-01,
779,0.00e+00,8.00e-02,
780,1.60e-01,2.40e-01,
781,0.00e+00,8.00e-02,
782,8.00e-02,2.40e-01,
783,0.00e+00,8.00e-02,
784,0.00e+00,8.00e-02,
785,8.00e-02,2.40e-01,
786,8.00e-02,2.40e-01,
787,-8.00e-02,8.00e-02,
788,8.00e-02,2.40e-01,
789,-8.00e-02,8.00e-02,
790,0.00e+00,2.40e-01,
791,-8.00e-02,8.00e-02,
792,0.00e+00,2.40e-01,
793,-8.00e-02,8.00e-02,
794,-8.00e-02,8.00e-02,
795,0.00e+00,2.40e-01,
796,0.00e+00,2.40e-01,
797,-8.00e-02,8.00e-02,
798,0.00e+00,2.40e-01,
799,-1.60e-01,8.00e-02,
800,-1.60e-01,2.40e-01,
801,0.00e+00,8.00e-02,
802,0.00e+00,8.00e-02,
803,-1.60e-01,2.40e-01,
804,-1.60e-01,2.40e-01,
805,0.00e+00,8.00e-02,
806,-1.60e-01,8.00e-02,
807,0.00e+00,2.40e-01,
808,-1.60e-01,2.40e-01,
809,0.00e+00,8.00e-02,
810,-1.60e-01,2.40e-01,
811,0.00e+00,8.00e-02,
812,-1.60e-01,2.40e-01,
813,0.00e+00,8.00e-02,
814,0.00e+00,2.40e-01,
815,-1.60e-01,8.00e-02,
816,-8.00e-02,2.40e-01,
817,0.00e+00,8.00e-02,
818,-8.00e-02,2.40e-01,
819,0.00e+00,8.00e-02,
820,0.00e+00,2.40e-01,
821,-8.00e-02,8.00e-02,
822,-8.00e-02,2.40e-01,
823,8.00e-02,8.00e-02,
824,8.00e-02,2.40e-01,
825,-8.00e-02,8.00e-02,
826,8.00e-02,8.00e-02,
827,-8.00e-02,2.40e-01,
828,8.00e-02,2.40e-01,
829,0.00e+00,8.00e-02,
830,0.00e+00,2.40e-01,
831,1.60e-01,8.00e-02,
832,1.60e-01,8.00e-02,
833,0.00e+00,2.40e-01,
834,8.00e-02,8.00e-02,
835,1.60e-01,2.40e-01,
836,1.60e-01,1.60e-01,
837,8.00e-02,8.00e-02,
838,8.00e-02,1.60e-01,
839,2.40e-01,8.00e-02,
840,2.40e-01,8.00e-02,
841,1.60e-01,2.40e-01,
842,1.60e-01,1.60e-01,
843,3.20e-01,8.00e-02,
844,3.20e-01,8.00e-02,
845,1.60e-01,2.40e-01,
846,2.40e-01,8.00e-02,
847,4.00e-01,2.40e-01,
848,4.00e-01,2.40e-01,
849,3.20e-01,8.00e-02,
850,3.20e-01,2.40e-01,
851,4.00e-01,8.00e-02,
852,4.00e-01,8.00e-02,
853,5.60e-01,2.40e-01,
854,4.80e-01,2.40e-01,
855,5.60e-01,8.00e-02,
856,4.80e-01,2.40e-01,
857,6.40e-01,8.00e-02,
858,5.60e-01,8.00e-02,
859,6.40e-01,2.40e-01,
860,7.20e-01,2.40e-01,
861,5.60e-01,8.00e-02,
862,6.40e-01,8.00e-02,
863,8.00e-01,2.40e-01,
864,8.00e-01,2.40e-01,
865,6.40e-01,8.00e-02,
866,7.20e-01,2.40e-01,
867,8.80e-01,1.60e-01,
868,8.80e-01,2.40e-01,
