project/matlab/project_exp3/9 kHz/NewFile1.csv

X,CH1,CH2,Start,Increment,
Sequence,Volt,Volt,4.200000e-04,5.000000e-07
0,1.60e-01,2.40e-01,
1,3.20e-01,8.00e-02,
2,3.20e-01,2.40e-01,
3,1.60e-01,8.00e-02,
4,4.00e-01,8.00e-02,
5,2.40e-01,2.40e-01,
6,4.00e-01,2.40e-01,
7,5.60e-01,8.00e-02,
8,4.80e-01,2.40e-01,
9,7.20e-01,8.00e-02,
10,5.60e-01,2.40e-01,
11,8.00e-01,8.00e-02,
12,6.40e-01,2.40e-01,
13,8.80e-01,8.00e-02,
14,8.00e-01,2.40e-01,
15,9.60e-01,2.24e+00,
16,8.80e-01,2.32e+00,
17,1.04e+00,5.04e+00,
18,9.60e-01,4.96e+00,
19,1.20e+00,4.88e+00,
20,1.12e+00,4.96e+00,
21,1.28e+00,4.88e+00,
22,1.20e+00,4.88e+00,
23,1.52e+00,5.20e+00,
24,1.44e+00,4.88e+00,
25,1.60e+00,5.12e+00,
26,1.52e+00,5.12e+00,
27,1.76e+00,4.88e+00,
28,1.68e+00,4.88e+00,
29,1.84e+00,5.12e+00,
30,1.76e+00,5.12e+00,
31,2.00e+00,4.88e+00,
32,1.92e+00,4.88e+00,
33,2.16e+00,5.20e+00,
34,2.00e+00,5.12e+00,
35,2.24e+00,4.88e+00,
36,2.16e+00,5.12e+00,
37,2.48e+00,4.88e+00,
38,2.32e+00,5.20e+00,
39,2.56e+00,4.88e+00,
40,2.48e+00,5.20e+00,
41,2.72e+00,4.88e+00,
42,2.64e+00,5.12e+00,
43,2.88e+00,4.88e+00,
44,2.72e+00,4.88e+00,
45,2.96e+00,5.12e+00,
46,2.88e+00,4.88e+00,
47,3.12e+00,5.20e+00,
48,2.96e+00,4.88e+00,
49,3.20e+00,5.12e+00,
50,3.12e+00,5.12e+00,
51,3.36e+00,4.88e+00,
52,3.28e+00,5.12e+00,
53,3.52e+00,4.88e+00,
54,3.44e+00,5.12e+00,
55,3.68e+00,4.88e+00,
56,3.52e+00,4.88e+00,
57,3.76e+00,5.12e+00,
58,3.68e+00,4.88e+00,
59,3.92e+00,5.12e+00,
60,3.76e+00,5.12e+00,
61,4.00e+00,4.88e+00,
62,3.84e+00,5.12e+00,
63,4.08e+00,4.88e+00,
64,4.00e+00,4.88e+00,
65,4.16e+00,5.12e+00,
66,4.08e+00,4.88e+00,
67,4.40e+00,5.12e+00,
68,4.16e+00,4.88e+00,
69,4.40e+00,5.12e+00,
70,4.32e+00,5.12e+00,
71,4.56e+00,4.88e+00,
72,4.40e+00,4.88e+00,
73,4.56e+00,5.12e+00,
74,4.64e+00,4.88e+00,
75,4.48e+00,5.12e+00,
76,4.56e+00,4.88e+00,
77,4.72e+00,5.12e+00,
78,4.56e+00,5.20e+00,
79,4.80e+00,4.88e+00,
80,4.80e+00,4.88e+00,
81,4.64e+00,5.12e+00,
82,4.72e+00,5.12e+00,
83,4.88e+00,4.88e+00,
84,4.72e+00,4.88e+00,
85,4.96e+00,5.12e+00,
86,4.72e+00,5.12e+00,
87,4.96e+00,4.88e+00,
88,4.80e+00,4.88e+00,
89,4.96e+00,5.12e+00,
90,4.96e+00,4.88e+00,
91,4.80e+00,5.12e+00,
92,4.96e+00,4.88e+00,
93,4.80e+00,5.20e+00,
94,4.96e+00,5.12e+00,
95,4.80e+00,4.88e+00,
96,4.96e+00,5.12e+00,
97,4.80e+00,4.88e+00,
98,4.96e+00,5.12e+00,
99,4.80e+00,4.88e+00,
100,4.96e+00,4.88e+00,
101,4.80e+00,5.20e+00,
102,4.96e+00,4.88e+00,
103,4.72e+00,5.12e+00,
104,4.88e+00,4.88e+00,
105,4.72e+00,5.12e+00,
106,4.88e+00,5.12e+00,
107,4.64e+00,4.88e+00,
108,4.64e+00,4.88e+00,
109,4.80e+00,5.12e+00,
110,4.56e+00,5.12e+00,
111,4.72e+00,4.88e+00,
112,4.72e+00,4.88e+00,
113,4.48e+00,5.12e+00,
114,4.64e+00,5.12e+00,
115,4.40e+00,4.88e+00,
116,4.56e+00,4.88e+00,
117,4.32e+00,5.12e+00,
118,4.48e+00,5.12e+00,
119,4.24e+00,4.88e+00,
120,4.32e+00,5.12e+00,
121,4.08e+00,4.88e+00,
122,4.24e+00,5.12e+00,
123,4.00e+00,4.88e+00,
124,4.16e+00,5.12e+00,
125,3.92e+00,4.88e+00,
126,4.08e+00,5.12e+00,
127,3.84e+00,4.88e+00,
128,3.92e+00,4.88e+00,
129,3.68e+00,5.20e+00,
130,3.84e+00,4.88e+00,
131,3.60e+00,5.12e+00,
132,3.68e+00,5.12e+00,
133,3.44e+00,4.88e+00,
134,3.60e+00,4.88e+00,
135,3.36e+00,5.12e+00,
136,3.44e+00,4.88e+00,
137,3.20e+00,5.20e+00,
138,3.28e+00,5.12e+00,
139,3.04e+00,4.88e+00,
140,3.12e+00,4.88e+00,
141,2.88e+00,5.12e+00,
142,3.04e+00,5.20e+00,
143,2.80e+00,4.88e+00,
144,2.88e+00,4.88e+00,
145,2.64e+00,5.12e+00,
146,2.72e+00,5.12e+00,
147,2.56e+00,4.88e+00,
148,2.64e+00,4.88e+00,
149,2.40e+00,5.12e+00,
150,2.48e+00,5.12e+00,
151,2.24e+00,4.88e+00,
152,2.32e+00,4.88e+00,
153,2.08e+00,5.20e+00,
154,2.16e+00,4.88e+00,
155,1.92e+00,5.20e+00,
156,2.00e+00,4.88e+00,
157,1.84e+00,5.12e+00,
158,1.92e+00,5.12e+00,
159,1.68e+00,4.88e+00,
160,1.76e+00,4.88e+00,
161,1.52e+00,5.12e+00,
162,1.68e+00,4.88e+00,
163,1.44e+00,5.12e+00,
164,1.52e+00,5.20e+00,
165,1.28e+00,4.88e+00,
166,1.36e+00,4.88e+00,
167,1.12e+00,5.12e+00,
168,1.20e+00,4.88e+00,
169,1.04e+00,5.12e+00,
170,1.12e+00,4.88e+00,
171,8.80e-01,5.12e+00,
172,9.60e-01,5.12e+00,
173,8.00e-01,4.88e+00,
174,8.80e-01,5.12e+00,
175,7.20e-01,4.88e+00,
176,8.00e-01,5.12e+00,
177,6.40e-01,4.88e+00,
178,7.20e-01,5.12e+00,
179,5.60e-01,4.88e+00,
180,4.80e-01,4.88e+00,
181,6.40e-01,5.12e+00,
182,4.00e-01,4.88e+00,
183,4.80e-01,5.12e+00,
184,4.00e-01,5.12e+00,
185,2.40e-01,4.88e+00,
186,3.20e-01,5.12e+00,
187,1.60e-01,4.72e+00,
188,2.40e-01,4.72e+00,
189,8.00e-02,1.60e-01,
190,1.60e-01,2.40e-01,
191,0.00e+00,8.00e-02,
192,1.60e-01,2.40e-01,
193,0.00e+00,8.00e-02,
194,8.00e-02,8.00e-02,
195,-8.00e-02,2.40e-01,
196,-8.00e-02,2.40e-01,
197,8.00e-02,8.00e-02,
198,0.00e+00,8.00e-02,
199,-8.00e-02,2.40e-01,
200,0.00e+00,8.00e-02,
201,-1.60e-01,2.40e-01,
202,-1.60e-01,2.40e-01,
203,0.00e+00,8.00e-02,
204,-1.60e-01,2.40e-01,
205,0.00e+00,8.00e-02,
206,0.00e+00,2.40e-01,
207,-1.60e-01,8.00e-02,
208,0.00e+00,2.40e-01,
209,-1.60e-01,8.00e-02,
210,0.00e+00,8.00e-02,
211,-8.00e-02,2.40e-01,
212,-8.00e-02,8.00e-02,
213,0.00e+00,2.40e-01,
214,-8.00e-02,8.00e-02,
215,8.00e-02,2.40e-01,
216,8.00e-02,2.40e-01,
217,0.00e+00,8.00e-02,
218,0.00e+00,2.40e-01,
219,1.60e-01,8.00e-02,
220,8.00e-02,2.40e-01,
221,2.40e-01,8.00e-02,
222,1.60e-01,2.40e-01,
223,3.20e-01,8.00e-02,
224,3.20e-01,2.40e-01,
225,1.60e-01,8.00e-02,
226,2.40e-01,2.40e-01,
227,4.00e-01,8.00e-02,
228,3.20e-01,2.40e-01,
229,5.60e-01,8.00e-02,
230,4.80e-01,2.40e-01,
231,6.40e-01,8.00e-02,
232,5.60e-01,8.00e-02,
233,8.00e-01,2.40e-01,
234,6.40e-01,8.00e-02,
235,8.80e-01,2.40e-01,
236,8.00e-01,1.60e-01,
237,9.60e-01,1.76e+00,
238,8.80e-01,1.84e+00,
239,1.04e+00,5.04e+00,
240,9.60e-01,5.04e+00,
241,1.20e+00,4.88e+00,
242,1.12e+00,4.88e+00,
243,1.28e+00,5.04e+00,
244,1.20e+00,5.04e+00,
245,1.44e+00,4.88e+00,
246,1.36e+00,5.04e+00,
247,1.60e+00,4.88e+00,
248,1.52e+00,4.88e+00,
249,1.76e+00,5.12e+00,
250,1.60e+00,4.88e+00,
251,1.84e+00,5.12e+00,
252,1.76e+00,5.12e+00,
253,2.00e+00,4.88e+00,
254,1.92e+00,5.12e+00,
255,2.08e+00,4.88e+00,
256,2.00e+00,4.88e+00,
257,2.24e+00,5.12e+00,
258,2.16e+00,5.12e+00,
259,2.40e+00,4.88e+00,
260,2.32e+00,5.20e+00,
261,2.56e+00,4.88e+00,
262,2.48e+00,5.12e+00,
263,2.72e+00,4.88e+00,
264,2.64e+00,5.12e+00,
265,2.88e+00,4.88e+00,
266,2.72e+00,5.12e+00,
267,2.96e+00,4.88e+00,
268,2.88e+00,4.88e+00,
269,3.12e+00,5.20e+00,
270,3.04e+00,4.88e+00,
271,3.20e+00,5.12e+00,
272,3.12e+00,4.88e+00,
273,3.36e+00,5.12e+00,
274,3.28e+00,5.12e+00,
275,3.52e+00,4.88e+00,
276,3.44e+00,4.88e+00,
277,3.68e+00,5.12e+00,
278,3.52e+00,5.12e+00,
279,3.76e+00,4.88e+00,
280,3.68e+00,4.88e+00,
281,3.84e+00,5.20e+00,
282,3.76e+00,5.12e+00,
283,4.00e+00,4.88e+00,
284,3.84e+00,4.88e+00,
285,4.08e+00,5.12e+00,
286,4.00e+00,5.12e+00,
287,4.16e+00,4.88e+00,
288,4.16e+00,5.12e+00,
289,4.40e+00,4.88e+00,
290,4.24e+00,5.12e+00,
291,4.40e+00,4.88e+00,
292,4.48e+00,4.88e+00,
293,4.32e+00,5.20e+00,
294,4.40e+00,4.88e+00,
295,4.64e+00,5.12e+00,
296,4.48e+00,4.88e+00,
297,4.64e+00,5.12e+00,
298,4.48e+00,4.88e+00,
299,4.72e+00,5.12e+00,
300,4.56e+00,4.88e+00,
301,4.80e+00,5.12e+00,
302,4.80e+00,4.88e+00,
303,4.64e+00,5.20e+00,
304,4.72e+00,4.88e+00,
305,4.88e+00,5.12e+00,
306,4.88e+00,4.88e+00,
307,4.72e+00,5.12e+00,
308,4.80e+00,5.12e+00,
309,4.96e+00,4.88e+00,
310,4.96e+00,4.88e+00,
311,4.80e+00,5.12e+00,
312,4.96e+00,4.88e+00,
313,4.80e+00,5.20e+00,
314,4.80e+00,4.88e+00,
315,4.96e+00,5.12e+00,
316,4.96e+00,4.88e+00,
317,4.80e+00,5.12e+00,
318,4.80e+00,4.88e+00,
319,4.96e+00,5.12e+00,
320,4.96e+00,4.88e+00,
321,4.80e+00,5.12e+00,
322,4.96e+00,5.12e+00,
323,4.80e+00,4.88e+00,
324,4.96e+00,4.88e+00,
325,4.72e+00,5.12e+00,
326,4.88e+00,5.12e+00,
327,4.72e+00,4.88e+00,
328,4.88e+00,4.88e+00,
329,4.64e+00,5.12e+00,
330,4.80e+00,4.88e+00,
331,4.64e+00,5.12e+00,
332,4.72e+00,5.12e+00,
333,4.56e+00,4.88e+00,
334,4.72e+00,4.88e+00,
335,4.48e+00,5.12e+00,
336,4.64e+00,4.88e+00,
337,4.40e+00,5.12e+00,
338,4.56e+00,4.88e+00,
339,4.32e+00,5.20e+00,
340,4.48e+00,5.12e+00,
341,4.24e+00,4.88e+00,
342,4.40e+00,4.88e+00,
343,4.16e+00,5.12e+00,
344,4.24e+00,5.12e+00,
345,4.00e+00,4.88e+00,
346,4.16e+00,4.88e+00,
347,3.92e+00,5.12e+00,
348,4.00e+00,4.88e+00,
349,3.84e+00,5.12e+00,
350,3.92e+00,4.88e+00,
351,3.68e+00,5.12e+00,
352,3.84e+00,4.88e+00,
353,3.60e+00,5.12e+00,
354,3.68e+00,5.20e+00,
355,3.44e+00,4.88e+00,
356,3.60e+00,4.88e+00,
357,3.36e+00,5.12e+00,
358,3.44e+00,4.88e+00,
359,3.20e+00,5.20e+00,
360,3.28e+00,4.88e+00,
361,3.04e+00,5.12e+00,
362,3.20e+00,4.88e+00,
363,2.88e+00,5.12e+00,
364,3.04e+00,4.88e+00,
365,2.80e+00,5.20e+00,
366,2.88e+00,5.12e+00,
367,2.64e+00,4.88e+00,
368,2.80e+00,5.12e+00,
369,2.56e+00,4.88e+00,
370,2.64e+00,4.88e+00,
371,2.40e+00,5.12e+00,
372,2.48e+00,4.88e+00,
373,2.32e+00,5.20e+00,
374,2.32e+00,4.88e+00,
375,2.08e+00,5.12e+00,
376,2.16e+00,4.88e+00,
377,1.92e+00,5.12e+00,
378,2.00e+00,4.88e+00,
379,1.84e+00,5.12e+00,
380,1.92e+00,4.88e+00,
381,1.68e+00,5.12e+00,
382,1.76e+00,4.88e+00,
383,1.60e+00,5.12e+00,
384,1.68e+00,4.88e+00,
385,1.44e+00,5.12e+00,
386,1.52e+00,5.12e+00,
387,1.36e+00,4.88e+00,
388,1.36e+00,4.88e+00,
389,1.12e+00,5.12e+00,
390,1.20e+00,5.12e+00,
391,1.04e+00,4.88e+00,
392,1.12e+00,5.12e+00,
393,9.60e-01,4.88e+00,
394,1.04e+00,5.12e+00,
395,8.00e-01,4.88e+00,
396,8.80e-01,4.88e+00,
397,7.20e-01,5.20e+00,
398,8.00e-01,5.12e+00,
399,6.40e-01,4.88e+00,
400,7.20e-01,5.12e+00,
401,5.60e-01,4.88e+00,
402,6.40e-01,4.88e+00,
403,4.80e-01,5.20e+00,
404,5.60e-01,4.88e+00,
405,4.00e-01,5.12e+00,
406,4.00e-01,5.12e+00,
407,2.40e-01,4.88e+00,
408,3.20e-01,4.88e+00,
409,1.60e-01,5.12e+00,
410,2.40e-01,5.04e+00,
411,8.00e-02,1.60e-01,
412,1.60e-01,2.40e-01,
413,0.00e+00,1.60e-01,
414,1.60e-01,2.40e-01,
415,0.00e+00,8.00e-02,
416,8.00e-02,2.40e-01,
417,-8.00e-02,8.00e-02,
418,-8.00e-02,2.40e-01,
419,8.00e-02,8.00e-02,
420,-8.00e-02,2.40e-01,
421,0.00e+00,8.00e-02,
422,0.00e+00,2.40e-01,
423,-1.60e-01,8.00e-02,
424,-1.60e-01,2.40e-01,
425,0.00e+00,8.00e-02,
426,0.00e+00,2.40e-01,
427,-1.60e-01,8.00e-02,
428,0.00e+00,2.40e-01,
429,-1.60e-01,8.00e-02,
430,0.00e+00,2.40e-01,
431,-1.60e-01,8.00e-02,
432,-8.00e-02,2.40e-01,
433,0.00e+00,8.00e-02,
434,0.00e+00,2.40e-01,
435,-8.00e-02,8.00e-02,
436,-8.00e-02,2.40e-01,
437,8.00e-02,8.00e-02,
438,8.00e-02,2.40e-01,
439,0.00e+00,8.00e-02,
440,0.00e+00,2.40e-01,
441,1.60e-01,8.00e-02,
442,8.00e-02,2.40e-01,
443,2.40e-01,8.00e-02,
444,1.60e-01,2.40e-01,
445,2.40e-01,8.00e-02,
446,1.60e-01,2.40e-01,
447,3.20e-01,8.00e-02,
448,2.40e-01,2.40e-01,
449,4.00e-01,8.00e-02,
450,4.00e-01,2.40e-01,
451,5.60e-01,8.00e-02,
452,4.80e-01,2.40e-01,
453,6.40e-01,8.00e-02,
454,5.60e-01,8.00e-02,
455,7.20e-01,2.40e-01,
456,6.40e-01,8.00e-02,
457,8.80e-01,2.40e-01,
458,7.20e-01,1.60e-01,
459,9.60e-01,1.04e+00,
460,8.80e-01,1.12e+00,
461,1.04e+00,4.88e+00,
462,9.60e-01,4.80e+00,
463,1.12e+00,5.04e+00,
464,1.04e+00,5.04e+00,
465,1.28e+00,4.88e+00,
466,1.20e+00,4.88e+00,
467,1.36e+00,5.12e+00,
468,1.36e+00,4.88e+00,
469,1.60e+00,5.12e+00,
470,1.52e+00,5.12e+00,
471,1.68e+00,4.88e+00,
472,1.60e+00,4.88e+00,
473,1.84e+00,5.12e+00,
474,1.76e+00,5.12e+00,
475,1.92e+00,4.88e+00,
476,1.92e+00,4.88e+00,
477,2.08e+00,5.12e+00,
478,2.00e+00,4.88e+00,
479,2.24e+00,5.12e+00,
480,2.16e+00,4.88e+00,
481,2.32e+00,5.12e+00,
482,2.32e+00,5.12e+00,
483,2.56e+00,4.88e+00,
484,2.48e+00,5.12e+00,
485,2.72e+00,4.88e+00,
486,2.64e+00,5.12e+00,
487,2.80e+00,4.88e+00,
488,2.72e+00,4.88e+00,
489,2.96e+00,5.12e+00,
490,2.80e+00,5.12e+00,
491,3.04e+00,4.88e+00,
492,2.96e+00,4.88e+00,
493,3.20e+00,5.12e+00,
494,3.12e+00,4.88e+00,
495,3.28e+00,5.12e+00,
496,3.28e+00,5.20e+00,
497,3.52e+00,4.88e+00,
498,3.44e+00,5.12e+00,
499,3.68e+00,4.88e+00,
500,3.52e+00,4.88e+00,
501,3.76e+00,5.12e+00,
502,3.60e+00,5.12e+00,
503,3.84e+00,4.88e+00,
504,3.76e+00,4.88e+00,
505,4.00e+00,5.12e+00,
506,3.84e+00,5.12e+00,
507,4.08e+00,4.88e+00,
508,3.92e+00,4.88e+00,
509,4.16e+00,5.20e+00,
510,4.08e+00,4.88e+00,
511,4.24e+00,5.20e+00,
512,4.24e+00,4.88e+00,
513,4.40e+00,5.12e+00,
514,4.32e+00,5.12e+00,
515,4.48e+00,4.88e+00,
516,4.40e+00,5.12e+00,
517,4.56e+00,4.88e+00,
518,4.48e+00,4.88e+00,
519,4.64e+00,5.20e+00,
520,4.56e+00,5.12e+00,
521,4.72e+00,4.88e+00,
522,4.56e+00,4.88e+00,
523,4.80e+00,5.20e+00,
524,4.80e+00,4.88e+00,
525,4.64e+00,5.12e+00,
526,4.88e+00,5.12e+00,
527,4.72e+00,4.88e+00,
528,4.88e+00,4.88e+00,
529,4.72e+00,5.12e+00,
530,4.72e+00,4.88e+00,
531,4.96e+00,5.12e+00,
532,4.96e+00,4.88e+00,
533,4.80e+00,5.12e+00,
534,4.96e+00,5.12e+00,
535,4.80e+00,4.88e+00,
536,4.96e+00,4.88e+00,
537,4.80e+00,5.12e+00,
538,4.96e+00,5.12e+00,
539,4.80e+00,4.88e+00,
540,4.96e+00,5.12e+00,
541,4.80e+00,4.88e+00,
542,4.96e+00,5.12e+00,
543,4.80e+00,4.88e+00,
544,4.80e+00,5.12e+00,
545,4.96e+00,4.88e+00,
546,4.96e+00,4.88e+00,
547,4.72e+00,5.20e+00,
548,4.88e+00,4.88e+00,
549,4.72e+00,5.12e+00,
550,4.88e+00,5.12e+00,
551,4.64e+00,4.88e+00,
552,4.80e+00,4.88e+00,
553,4.64e+00,5.12e+00,
554,4.72e+00,4.88e+00,
555,4.56e+00,5.20e+00,
556,4.72e+00,4.88e+00,
557,4.48e+00,5.12e+00,
558,4.64e+00,4.88e+00,
559,4.40e+00,5.20e+00,
560,4.56e+00,4.88e+00,
561,4.32e+00,5.20e+00,
562,4.48e+00,5.12e+00,
563,4.24e+00,4.88e+00,
564,4.40e+00,4.88e+00,
565,4.16e+00,5.12e+00,
566,4.24e+00,5.12e+00,
567,4.00e+00,4.88e+00,
568,4.16e+00,4.88e+00,
569,3.92e+00,5.12e+00,
570,4.08e+00,5.12e+00,
571,3.84e+00,4.88e+00,
572,3.92e+00,4.88e+00,
573,3.76e+00,5.20e+00,
574,3.84e+00,5.20e+00,
575,3.60e+00,4.88e+00,
576,3.68e+00,4.88e+00,
577,3.52e+00,5.12e+00,
578,3.60e+00,5.12e+00,
579,3.36e+00,4.88e+00,
580,3.52e+00,5.12e+00,
581,3.28e+00,4.88e+00,
582,3.28e+00,4.88e+00,
583,3.04e+00,5.20e+00,
584,3.20e+00,4.88e+00,
585,2.96e+00,5.12e+00,
586,3.04e+00,5.12e+00,
587,2.80e+00,4.88e+00,
588,2.88e+00,4.88e+00,
589,2.72e+00,5.12e+00,
590,2.80e+00,5.12e+00,
591,2.56e+00,4.88e+00,
592,2.64e+00,4.88e+00,
593,2.40e+00,5.12e+00,
594,2.48e+00,5.12e+00,
595,2.32e+00,4.88e+00,
596,2.32e+00,4.88e+00,
597,2.08e+00,5.12e+00,
598,2.16e+00,5.12e+00,
599,1.92e+00,4.88e+00,
600,2.08e+00,5.12e+00,
601,1.84e+00,4.88e+00,
602,1.92e+00,5.12e+00,
603,1.68e+00,4.88e+00,
604,1.76e+00,5.12e+00,
605,1.60e+00,4.88e+00,
606,1.68e+00,5.12e+00,
607,1.44e+00,4.88e+00,
608,1.52e+00,4.88e+00,
609,1.36e+00,5.12e+00,
610,1.36e+00,5.12e+00,
611,1.20e+00,4.88e+00,
612,1.20e+00,5.12e+00,
613,1.04e+00,4.88e+00,
614,1.12e+00,5.12e+00,
615,9.60e-01,4.88e+00,
616,1.04e+00,4.88e+00,
617,8.00e-01,5.12e+00,
618,8.80e-01,4.88e+00,
619,7.20e-01,5.20e+00,
620,8.00e-01,4.88e+00,
621,6.40e-01,5.12e+00,
622,7.20e-01,5.12e+00,
623,5.60e-01,4.88e+00,
624,6.40e-01,4.88e+00,
625,4.80e-01,5.12e+00,
626,5.60e-01,5.20e+00,
627,3.20e-01,4.88e+00,
628,4.00e-01,4.88e+00,
629,2.40e-01,5.12e+00,
630,3.20e-01,4.88e+00,
631,1.60e-01,5.12e+00,
632,2.40e-01,5.04e+00,
633,8.00e-02,1.60e-01,
634,8.00e-02,2.40e-01,
635,1.60e-01,1.60e-01,
636,0.00e+00,2.40e-01,
637,1.60e-01,8.00e-02,
638,8.00e-02,2.40e-01,
639,-8.00e-02,8.00e-02,
640,8.00e-02,2.40e-01,
641,-8.00e-02,8.00e-02,
642,0.00e+00,2.40e-01,
643,-8.00e-02,8.00e-02,
644,0.00e+00,2.40e-01,
645,-1.60e-01,8.00e-02,
646,0.00e+00,2.40e-01,
647,-1.60e-01,8.00e-02,
648,-1.60e-01,2.40e-01,
649,0.00e+00,8.00e-02,
650,-1.60e-01,2.40e-01,
651,0.00e+00,8.00e-02,
652,0.00e+00,8.00e-02,
653,-1.60e-01,2.40e-01,
654,-8.00e-02,2.40e-01,
655,0.00e+00,8.00e-02,
656,-8.00e-02,2.40e-01,
657,0.00e+00,8.00e-02,
658,-8.00e-02,2.40e-01,
659,8.00e-02,8.00e-02,
660,0.00e+00,2.40e-01,
661,8.00e-02,8.00e-02,
662,0.00e+00,2.40e-01,
663,1.60e-01,8.00e-02,
664,8.00e-02,2.40e-01,
665,2.40e-01,8.00e-02,
666,2.40e-01,2.40e-01,
667,8.00e-02,8.00e-02,
668,1.60e-01,8.00e-02,
669,3.20e-01,2.40e-01,
670,2.40e-01,2.40e-01,
671,4.00e-01,8.00e-02,
672,4.00e-01,8.00e-02,
673,5.60e-01,2.40e-01,
674,4.80e-01,8.00e-02,
675,6.40e-01,2.40e-01,
676,5.60e-01,8.00e-02,
677,7.20e-01,2.40e-01,
678,6.40e-01,2.40e-01,
679,8.00e-01,8.00e-02,
680,7.20e-01,1.60e-01,
681,9.60e-01,5.60e-01,
682,8.80e-01,6.40e-01,
683,1.04e+00,4.72e+00,
684,9.60e-01,4.72e+00,
685,1.12e+00,5.04e+00,
686,1.04e+00,5.04e+00,
687,1.28e+00,4.88e+00,
688,1.20e+00,5.04e+00,
689,1.36e+00,4.88e+00,
690,1.36e+00,4.88e+00,
691,1.60e+00,5.12e+00,
692,1.52e+00,4.88e+00,
693,1.68e+00,5.12e+00,
694,1.60e+00,5.12e+00,
695,1.84e+00,4.88e+00,
696,1.76e+00,4.88e+00,
697,1.92e+00,5.12e+00,
698,1.84e+00,4.88e+00,
699,2.08e+00,5.20e+00,
700,2.00e+00,4.88e+00,
701,2.24e+00,5.12e+00,
702,2.16e+00,5.12e+00,
703,2.32e+00,4.88e+00,
704,2.32e+00,4.88e+00,
705,2.56e+00,5.12e+00,
706,2.48e+00,5.12e+00,
707,2.64e+00,4.88e+00,
708,2.56e+00,4.88e+00,
709,2.80e+00,5.20e+00,
710,2.72e+00,4.88e+00,
711,2.96e+00,5.20e+00,
712,2.80e+00,4.88e+00,
713,3.04e+00,5.20e+00,
714,2.96e+00,5.12e+00,
715,3.20e+00,4.88e+00,
716,3.12e+00,4.88e+00,
717,3.28e+00,5.12e+00,
718,3.28e+00,5.12e+00,
719,3.52e+00,4.88e+00,
720,3.44e+00,4.88e+00,
721,3.60e+00,5.20e+00,
722,3.52e+00,5.12e+00,
723,3.76e+00,4.88e+00,
724,3.68e+00,5.12e+00,
725,3.84e+00,4.88e+00,
726,3.76e+00,5.12e+00,
727,4.00e+00,4.88e+00,
728,3.84e+00,5.12e+00,
729,4.08e+00,4.88e+00,
730,4.00e+00,4.88e+00,
731,4.16e+00,5.20e+00,
732,4.08e+00,5.12e+00,
733,4.24e+00,4.88e+00,
734,4.16e+00,5.12e+00,
735,4.40e+00,4.88e+00,
736,4.32e+00,4.88e+00,
737,4.48e+00,5.12e+00,
738,4.56e+00,5.12e+00,
739,4.40e+00,4.88e+00,
740,4.48e+00,4.88e+00,
741,4.64e+00,5.12e+00,
742,4.48e+00,5.12e+00,
743,4.72e+00,4.88e+00,
744,4.56e+00,4.88e+00,
745,4.80e+00,5.12e+00,
746,4.64e+00,5.12e+00,
747,4.80e+00,4.88e+00,
748,4.72e+00,5.12e+00,
749,4.88e+00,4.88e+00,
750,4.88e+00,5.12e+00,
751,4.72e+00,4.88e+00,
752,4.80e+00,4.88e+00,
753,4.96e+00,5.12e+00,
754,4.80e+00,5.12e+00,
755,4.96e+00,4.88e+00,
756,4.96e+00,4.88e+00,
757,4.80e+00,5.12e+00,
758,4.96e+00,5.20e+00,
759,4.80e+00,4.88e+00,
760,4.96e+00,4.88e+00,
761,4.80e+00,5.12e+00,
762,4.96e+00,5.12e+00,
763,4.80e+00,4.88e+00,
764,4.96e+00,5.12e+00,
765,4.80e+00,4.88e+00,
766,4.96e+00,4.88e+00,
767,4.80e+00,5.20e+00,
768,4.96e+00,4.88e+00,
769,4.80e+00,5.12e+00,
770,4.88e+00,5.12e+00,
771,4.72e+00,4.88e+00,
772,4.88e+00,4.88e+00,
773,4.64e+00,5.12e+00,
774,4.64e+00,4.88e+00,
775,4.80e+00,5.20e+00,
776,4.72e+00,4.88e+00,
777,4.56e+00,5.12e+00,
778,4.72e+00,5.12e+00,
779,4.48e+00,4.88e+00,
780,4.48e+00,5.12e+00,
781,4.64e+00,4.88e+00,
782,4.40e+00,5.12e+00,
783,4.56e+00,4.88e+00,
784,4.48e+00,4.88e+00,
785,4.32e+00,5.12e+00,
786,4.40e+00,5.12e+00,
787,4.16e+00,4.88e+00,
788,4.24e+00,4.88e+00,
789,4.08e+00,5.12e+00,
790,4.16e+00,4.88e+00,
791,3.92e+00,5.12e+00,
792,4.08e+00,5.12e+00,
793,3.84e+00,4.88e+00,
794,3.92e+00,5.12e+00,
795,3.76e+00,4.88e+00,
796,3.84e+00,4.88e+00,
797,3.60e+00,5.12e+00,
798,3.76e+00,5.12e+00,
799,3.52e+00,4.88e+00,
800,3.60e+00,4.88e+00,
801,3.36e+00,5.12e+00,
802,3.52e+00,5.12e+00,
803,3.28e+00,4.88e+00,
804,3.28e+00,5.12e+00,
805,3.04e+00,4.88e+00,
806,3.20e+00,5.12e+00,
807,2.96e+00,4.88e+00,
808,3.04e+00,4.88e+00,
809,2.80e+00,5.12e+00,
810,2.96e+00,5.12e+00,
811,2.72e+00,4.88e+00,
812,2.80e+00,4.88e+00,
813,2.56e+00,5.12e+00,
814,2.64e+00,4.88e+00,
815,2.40e+00,5.20e+00,
816,2.56e+00,4.88e+00,
817,2.24e+00,5.12e+00,
818,2.32e+00,5.12e+00,
819,2.16e+00,4.88e+00,
820,2.16e+00,4.88e+00,
821,2.00e+00,5.20e+00,
822,2.08e+00,5.12e+00,
823,1.84e+00,4.88e+00,
824,1.92e+00,4.88e+00,
825,1.76e+00,5.12e+00,
826,1.84e+00,4.88e+00,
827,1.60e+00,5.12e+00,
828,1.68e+00,5.12e+00,
829,1.44e+00,4.88e+00,
830,1.52e+00,5.12e+00,
831,1.36e+00,4.88e+00,
832,1.36e+00,5.12e+00,
833,1.20e+00,4.88e+00,
834,1.28e+00,4.88e+00,
835,1.04e+00,5.12e+00,
836,1.12e+00,5.12e+00,
837,9.60e-01,4.88e+00,
838,1.04e+00,5.12e+00,
839,8.00e-01,4.88e+00,
840,9.60e-01,4.88e+00,
841,7.20e-01,5.12e+00,
842,8.00e-01,5.12e+00,
843,6.40e-01,4.88e+00,
844,7.20e-01,4.88e+00,
845,5.60e-01,5.12e+00,
846,6.40e-01,4.88e+00,
847,4.80e-01,5.20e+00,
848,5.60e-01,4.88e+00,
849,4.00e-01,5.12e+00,
850,4.00e-01,5.12e+00,
851,2.40e-01,4.88e+00,
852,3.20e-01,4.88e+00,
853,1.60e-01,5.12e+00,
854,2.40e-01,5.12e+00,
855,8.00e-02,1.60e-01,
856,1.60e-01,2.40e-01,
857,8.00e-02,1.60e-01,
858,1.60e-01,2.40e-01,
859,0.00e+00,8.00e-02,
860,8.00e-02,8.00e-02,
861,0.00e+00,2.40e-01,
862,-8.00e-02,2.40e-01,
863,8.00e-02,8.00e-02,
864,0.00e+00,2.40e-01,
865,-8.00e-02,8.00e-02,
866,0.00e+00,2.40e-01,
867,-1.60e-01,8.00e-02,
868,0.00e+00,2.40e-01,
