project/matlab/project_exp3/65 kHz/NewFile1.csv

X,CH1,CH2,Start,Increment,
Sequence,Volt,Volt,6.900000e-04,5.000000e-08
0,9.60e-01,2.40e-01,
1,1.12e+00,8.00e-02,
2,1.04e+00,2.40e-01,
3,1.20e+00,1.60e-01,
4,1.12e+00,2.40e-01,
5,1.28e+00,1.60e-01,
6,1.20e+00,1.60e-01,
7,1.36e+00,3.20e-01,
8,1.28e+00,2.40e-01,
9,1.44e+00,4.00e-01,
10,1.44e+00,4.00e-01,
11,1.60e+00,8.00e-01,
12,1.52e+00,7.20e-01,
13,1.68e+00,1.28e+00,
14,1.60e+00,1.28e+00,
15,1.76e+00,1.84e+00,
16,1.68e+00,1.84e+00,
17,1.84e+00,2.40e+00,
18,1.76e+00,2.32e+00,
19,1.92e+00,2.88e+00,
20,1.84e+00,2.80e+00,
21,2.00e+00,3.28e+00,
22,1.92e+00,3.28e+00,
23,2.16e+00,3.76e+00,
24,2.08e+00,3.60e+00,
25,2.24e+00,4.08e+00,
26,2.16e+00,4.00e+00,
27,2.32e+00,4.40e+00,
28,2.24e+00,4.32e+00,
29,2.40e+00,4.64e+00,
30,2.40e+00,4.56e+00,
31,2.56e+00,4.88e+00,
32,2.48e+00,4.72e+00,
33,2.72e+00,4.96e+00,
34,2.56e+00,4.88e+00,
35,2.80e+00,5.04e+00,
36,2.72e+00,5.04e+00,
37,2.88e+00,4.88e+00,
38,2.80e+00,4.88e+00,
39,2.96e+00,5.04e+00,
40,2.88e+00,5.04e+00,
41,3.04e+00,4.88e+00,
42,2.96e+00,5.04e+00,
43,3.12e+00,4.88e+00,
44,3.04e+00,5.04e+00,
45,3.20e+00,4.88e+00,
46,3.20e+00,5.04e+00,
47,3.36e+00,4.88e+00,
48,3.28e+00,5.04e+00,
49,3.52e+00,4.88e+00,
50,3.36e+00,4.88e+00,
51,3.60e+00,5.04e+00,
52,3.52e+00,5.04e+00,
53,3.68e+00,4.88e+00,
54,3.60e+00,5.04e+00,
55,3.76e+00,4.88e+00,
56,3.68e+00,5.04e+00,
57,3.84e+00,4.88e+00,
58,3.76e+00,5.04e+00,
59,3.92e+00,4.88e+00,
60,3.84e+00,5.04e+00,
61,4.00e+00,4.88e+00,
62,3.92e+00,5.04e+00,
63,4.08e+00,4.88e+00,
64,3.92e+00,4.88e+00,
65,4.16e+00,5.12e+00,
66,4.08e+00,5.04e+00,
67,4.24e+00,4.88e+00,
68,4.24e+00,5.04e+00,
69,4.08e+00,4.88e+00,
70,4.16e+00,5.04e+00,
71,4.32e+00,4.88e+00,
72,4.32e+00,5.12e+00,
73,4.48e+00,4.88e+00,
74,4.40e+00,5.04e+00,
75,4.56e+00,4.88e+00,
76,4.40e+00,4.96e+00,
77,4.56e+00,5.04e+00,
78,4.48e+00,5.04e+00,
79,4.64e+00,4.88e+00,
80,4.56e+00,4.96e+00,
81,4.72e+00,5.12e+00,
82,4.56e+00,4.88e+00,
83,4.72e+00,5.04e+00,
84,4.64e+00,5.04e+00,
85,4.80e+00,4.88e+00,
86,4.64e+00,5.04e+00,
87,4.80e+00,4.88e+00,
88,4.72e+00,4.88e+00,
89,4.88e+00,5.12e+00,
90,4.72e+00,5.04e+00,
91,4.88e+00,4.88e+00,
92,4.80e+00,5.04e+00,
93,4.96e+00,4.88e+00,
94,4.80e+00,5.04e+00,
95,4.96e+00,4.88e+00,
96,4.96e+00,5.12e+00,
97,4.80e+00,4.88e+00,
98,4.96e+00,4.88e+00,
99,4.88e+00,5.04e+00,
100,4.88e+00,4.88e+00,
101,5.04e+00,5.04e+00,
102,4.88e+00,4.96e+00,
103,5.04e+00,5.04e+00,
104,5.04e+00,4.88e+00,
105,4.88e+00,5.12e+00,
106,5.04e+00,5.04e+00,
107,4.88e+00,4.88e+00,
108,5.04e+00,5.04e+00,
109,4.88e+00,4.88e+00,
110,4.88e+00,5.04e+00,
111,5.04e+00,4.88e+00,
112,5.04e+00,4.88e+00,
113,4.88e+00,5.12e+00,
114,4.88e+00,5.04e+00,
115,5.04e+00,4.88e+00,
116,4.96e+00,4.96e+00,
117,4.88e+00,5.04e+00,
118,4.96e+00,5.04e+00,
119,4.80e+00,4.88e+00,
120,4.96e+00,4.88e+00,
121,4.80e+00,5.12e+00,
122,4.96e+00,5.04e+00,
123,4.80e+00,4.88e+00,
124,4.88e+00,5.04e+00,
125,4.72e+00,4.88e+00,
126,4.72e+00,5.04e+00,
127,4.88e+00,4.88e+00,
128,4.88e+00,5.12e+00,
129,4.64e+00,4.88e+00,
130,4.64e+00,4.96e+00,
131,4.80e+00,5.04e+00,
132,4.72e+00,5.04e+00,
133,4.56e+00,4.88e+00,
134,4.72e+00,5.04e+00,
135,4.56e+00,4.88e+00,
136,4.64e+00,4.88e+00,
137,4.48e+00,5.12e+00,
138,4.56e+00,5.04e+00,
139,4.40e+00,4.88e+00,
140,4.48e+00,5.04e+00,
141,4.40e+00,4.96e+00,
142,4.48e+00,5.04e+00,
143,4.32e+00,4.88e+00,
144,4.32e+00,4.96e+00,
145,4.16e+00,5.20e+00,
146,4.24e+00,5.04e+00,
147,4.08e+00,4.88e+00,
148,4.24e+00,5.04e+00,
149,4.08e+00,4.96e+00,
150,4.16e+00,5.04e+00,
151,3.92e+00,4.88e+00,
152,4.08e+00,5.12e+00,
153,3.92e+00,4.88e+00,
154,4.00e+00,5.04e+00,
155,3.84e+00,4.96e+00,
156,3.92e+00,5.04e+00,
157,3.76e+00,4.88e+00,
158,3.84e+00,5.04e+00,
159,3.68e+00,4.96e+00,
160,3.76e+00,4.96e+00,
161,3.60e+00,5.12e+00,
162,3.68e+00,5.04e+00,
163,3.52e+00,4.88e+00,
164,3.44e+00,5.04e+00,
165,3.60e+00,4.96e+00,
166,3.52e+00,5.04e+00,
167,3.20e+00,4.88e+00,
168,3.36e+00,4.88e+00,
169,3.20e+00,5.12e+00,
170,3.20e+00,4.88e+00,
171,3.04e+00,5.04e+00,
172,3.12e+00,5.04e+00,
173,2.96e+00,4.88e+00,
174,3.04e+00,5.04e+00,
175,2.88e+00,4.88e+00,
176,2.96e+00,5.20e+00,
177,2.80e+00,4.88e+00,
178,2.88e+00,5.04e+00,
179,2.72e+00,4.88e+00,
180,2.80e+00,5.04e+00,
181,2.56e+00,4.88e+00,
182,2.64e+00,5.04e+00,
183,2.48e+00,4.96e+00,
184,2.56e+00,5.04e+00,
185,2.40e+00,4.96e+00,
186,2.40e+00,5.04e+00,
187,2.24e+00,4.88e+00,
188,2.32e+00,5.04e+00,
189,2.16e+00,4.88e+00,
190,2.24e+00,5.04e+00,
191,2.08e+00,4.88e+00,
192,2.16e+00,5.12e+00,
193,2.00e+00,4.88e+00,
194,2.00e+00,5.04e+00,
195,1.84e+00,4.88e+00,
196,1.92e+00,5.04e+00,
197,1.76e+00,4.88e+00,
198,1.84e+00,5.04e+00,
199,1.68e+00,4.96e+00,
200,1.76e+00,5.12e+00,
201,1.60e+00,4.88e+00,
202,1.68e+00,4.88e+00,
203,1.52e+00,5.04e+00,
204,1.60e+00,5.04e+00,
205,1.44e+00,4.88e+00,
206,1.44e+00,5.04e+00,
207,1.28e+00,4.88e+00,
208,1.36e+00,4.88e+00,
209,1.20e+00,5.12e+00,
210,1.28e+00,5.04e+00,
211,1.12e+00,4.88e+00,
212,1.20e+00,5.04e+00,
213,1.04e+00,4.88e+00,
214,1.12e+00,5.04e+00,
215,9.60e-01,4.88e+00,
216,1.04e+00,5.12e+00,
217,8.80e-01,4.88e+00,
218,9.60e-01,5.04e+00,
219,8.00e-01,4.88e+00,
220,8.80e-01,5.04e+00,
221,7.20e-01,4.88e+00,
222,8.00e-01,5.04e+00,
223,6.40e-01,4.88e+00,
224,7.20e-01,5.12e+00,
225,5.60e-01,4.88e+00,
226,5.60e-01,5.04e+00,
227,6.40e-01,4.88e+00,
228,5.60e-01,5.04e+00,
229,4.80e-01,4.96e+00,
230,4.80e-01,5.04e+00,
231,3.20e-01,4.88e+00,
232,4.00e-01,4.88e+00,
233,2.40e-01,5.12e+00,
234,4.00e-01,4.96e+00,
235,2.40e-01,5.04e+00,
236,3.20e-01,5.04e+00,
237,1.60e-01,4.96e+00,
238,2.40e-01,5.04e+00,
239,1.60e-01,4.88e+00,
240,2.40e-01,4.88e+00,
241,8.00e-02,5.12e+00,
242,1.60e-01,5.04e+00,
243,8.00e-02,4.88e+00,
244,1.60e-01,5.04e+00,
245,0.00e+00,4.96e+00,
246,0.00e+00,5.04e+00,
247,1.60e-01,4.96e+00,
248,8.00e-02,4.96e+00,
249,0.00e+00,5.20e+00,
250,8.00e-02,5.04e+00,
251,-8.00e-02,4.24e+00,
252,8.00e-02,4.24e+00,
253,-8.00e-02,2.72e+00,
254,0.00e+00,2.72e+00,
255,-8.00e-02,1.20e+00,
256,-8.00e-02,1.20e+00,
257,0.00e+00,3.20e-01,
258,-8.00e-02,3.20e-01,
259,0.00e+00,1.60e-01,
260,0.00e+00,2.40e-01,
261,-8.00e-02,1.60e-01,
262,0.00e+00,2.40e-01,
263,-8.00e-02,1.60e-01,
264,0.00e+00,2.40e-01,
265,-8.00e-02,1.60e-01,
266,-8.00e-02,2.40e-01,
267,0.00e+00,1.60e-01,
268,0.00e+00,2.40e-01,
269,-8.00e-02,1.60e-01,
270,-8.00e-02,2.40e-01,
271,8.00e-02,1.60e-01,
272,-8.00e-02,2.40e-01,
273,8.00e-02,1.60e-01,
274,8.00e-02,2.40e-01,
275,0.00e+00,1.60e-01,
276,0.00e+00,2.40e-01,
277,1.60e-01,1.60e-01,
278,0.00e+00,2.40e-01,
279,1.60e-01,1.60e-01,
280,8.00e-02,2.40e-01,
281,1.60e-01,1.60e-01,
282,8.00e-02,2.40e-01,
283,2.40e-01,1.60e-01,
284,2.40e-01,2.40e-01,
285,1.60e-01,1.60e-01,
286,1.60e-01,2.40e-01,
287,3.20e-01,8.00e-02,
288,2.40e-01,2.40e-01,
289,4.00e-01,8.00e-02,
290,4.00e-01,1.60e-01,
291,3.20e-01,2.40e-01,
292,3.20e-01,2.40e-01,
293,4.80e-01,1.60e-01,
294,4.00e-01,2.40e-01,
295,6.40e-01,8.00e-02,
296,5.60e-01,2.40e-01,
297,6.40e-01,1.60e-01,
298,7.20e-01,2.40e-01,
299,5.60e-01,8.00e-02,
300,6.40e-01,2.40e-01,
301,8.00e-01,8.00e-02,
302,7.20e-01,2.40e-01,
303,8.80e-01,1.60e-01,
304,8.00e-01,2.40e-01,
305,9.60e-01,8.00e-02,
306,8.80e-01,2.40e-01,
307,1.04e+00,1.60e-01,
308,9.60e-01,2.40e-01,
309,1.12e+00,1.60e-01,
310,1.04e+00,2.40e-01,
311,1.20e+00,1.60e-01,
312,1.12e+00,2.40e-01,
313,1.28e+00,1.60e-01,
314,1.20e+00,1.60e-01,
315,1.36e+00,3.20e-01,
316,1.28e+00,3.20e-01,
317,1.44e+00,4.80e-01,
318,1.44e+00,4.00e-01,
319,1.60e+00,8.80e-01,
320,1.52e+00,8.00e-01,
321,1.68e+00,1.44e+00,
322,1.60e+00,1.36e+00,
323,1.76e+00,1.92e+00,
324,1.68e+00,1.84e+00,
325,1.84e+00,2.40e+00,
326,1.76e+00,2.40e+00,
327,2.00e+00,2.96e+00,
328,1.92e+00,2.88e+00,
329,2.08e+00,3.36e+00,
330,2.00e+00,3.28e+00,
331,2.16e+00,3.76e+00,
332,2.08e+00,3.68e+00,
333,2.24e+00,4.08e+00,
334,2.16e+00,4.00e+00,
335,2.32e+00,4.48e+00,
336,2.24e+00,4.32e+00,
337,2.40e+00,4.72e+00,
338,2.40e+00,4.56e+00,
339,2.56e+00,4.88e+00,
340,2.48e+00,4.72e+00,
341,2.72e+00,4.96e+00,
342,2.64e+00,5.04e+00,
343,2.80e+00,4.88e+00,
344,2.72e+00,5.04e+00,
345,2.88e+00,4.88e+00,
346,2.80e+00,5.04e+00,
347,2.96e+00,4.88e+00,
348,2.88e+00,5.04e+00,
349,3.04e+00,4.88e+00,
350,2.96e+00,5.04e+00,
351,3.12e+00,4.88e+00,
352,3.04e+00,5.12e+00,
353,3.28e+00,4.88e+00,
354,3.12e+00,5.04e+00,
355,3.36e+00,4.88e+00,
356,3.36e+00,5.04e+00,
357,3.52e+00,4.88e+00,
358,3.44e+00,4.88e+00,
359,3.52e+00,5.04e+00,
360,3.52e+00,4.88e+00,
361,3.68e+00,5.12e+00,
362,3.60e+00,5.04e+00,
363,3.76e+00,4.88e+00,
364,3.68e+00,5.04e+00,
365,3.84e+00,4.88e+00,
366,3.76e+00,5.04e+00,
367,3.92e+00,4.88e+00,
368,3.84e+00,5.04e+00,
369,4.00e+00,4.88e+00,
370,3.92e+00,5.04e+00,
371,4.08e+00,4.88e+00,
372,4.00e+00,4.96e+00,
373,4.16e+00,5.04e+00,
374,4.08e+00,5.04e+00,
375,4.24e+00,4.88e+00,
376,4.08e+00,4.88e+00,
377,4.32e+00,5.12e+00,
378,4.24e+00,5.04e+00,
379,4.32e+00,4.88e+00,
380,4.32e+00,5.04e+00,
381,4.48e+00,4.88e+00,
382,4.40e+00,5.04e+00,
383,4.56e+00,4.88e+00,
384,4.40e+00,5.04e+00,
385,4.64e+00,4.88e+00,
386,4.48e+00,5.04e+00,
387,4.64e+00,4.88e+00,
388,4.56e+00,5.04e+00,
389,4.72e+00,4.88e+00,
390,4.64e+00,5.04e+00,
391,4.72e+00,4.88e+00,
392,4.64e+00,5.12e+00,
393,4.80e+00,4.88e+00,
394,4.72e+00,5.04e+00,
395,4.80e+00,4.88e+00,
396,4.72e+00,5.04e+00,
397,4.88e+00,4.88e+00,
398,4.72e+00,5.04e+00,
399,4.88e+00,4.88e+00,
400,4.80e+00,4.88e+00,
401,4.96e+00,5.12e+00,
402,4.80e+00,5.04e+00,
403,4.96e+00,4.88e+00,
404,4.96e+00,5.04e+00,
405,4.80e+00,4.88e+00,
406,4.88e+00,5.04e+00,
407,4.96e+00,4.88e+00,
408,4.88e+00,4.88e+00,
409,5.04e+00,5.20e+00,
410,4.88e+00,4.88e+00,
411,5.04e+00,5.04e+00,
412,5.04e+00,5.04e+00,
413,4.88e+00,4.88e+00,
414,4.88e+00,5.04e+00,
415,5.04e+00,4.88e+00,
416,5.04e+00,4.96e+00,
417,4.88e+00,5.12e+00,
418,4.88e+00,5.04e+00,
419,5.04e+00,4.88e+00,
420,4.88e+00,5.04e+00,
421,5.04e+00,4.88e+00,
422,5.04e+00,5.04e+00,
423,4.88e+00,4.88e+00,
424,4.88e+00,4.88e+00,
425,5.04e+00,5.12e+00,
426,4.96e+00,5.04e+00,
427,4.80e+00,4.88e+00,
428,4.96e+00,5.04e+00,
429,4.80e+00,4.88e+00,
430,4.80e+00,5.04e+00,
431,4.88e+00,4.88e+00,
432,4.88e+00,5.20e+00,
433,4.72e+00,4.88e+00,
434,4.72e+00,5.04e+00,
435,4.88e+00,4.88e+00,
436,4.80e+00,5.04e+00,
437,4.64e+00,4.96e+00,
438,4.64e+00,5.04e+00,
439,4.80e+00,4.88e+00,
440,4.72e+00,4.96e+00,
441,4.56e+00,5.12e+00,
442,4.56e+00,5.04e+00,
443,4.72e+00,4.96e+00,
444,4.64e+00,5.04e+00,
445,4.48e+00,4.88e+00,
446,4.56e+00,5.04e+00,
447,4.40e+00,4.96e+00,
448,4.48e+00,4.96e+00,
449,4.40e+00,5.12e+00,
450,4.40e+00,5.04e+00,
451,4.32e+00,4.96e+00,
452,4.32e+00,5.04e+00,
453,4.24e+00,4.96e+00,
454,4.24e+00,5.04e+00,
455,4.08e+00,4.88e+00,
456,4.24e+00,4.96e+00,
457,4.00e+00,5.12e+00,
458,4.08e+00,5.04e+00,
459,3.92e+00,4.88e+00,
460,4.08e+00,5.04e+00,
461,3.92e+00,4.88e+00,
462,4.00e+00,5.04e+00,
463,3.76e+00,4.88e+00,
464,3.76e+00,5.12e+00,
465,3.92e+00,4.88e+00,
466,3.84e+00,5.04e+00,
467,3.68e+00,4.88e+00,
468,3.76e+00,5.04e+00,
469,3.52e+00,4.88e+00,
470,3.60e+00,4.96e+00,
471,3.44e+00,5.04e+00,
472,3.60e+00,4.96e+00,
473,3.36e+00,5.12e+00,
474,3.44e+00,5.04e+00,
475,3.20e+00,4.96e+00,
476,3.28e+00,5.04e+00,
477,3.12e+00,4.96e+00,
478,3.20e+00,5.04e+00,
479,3.04e+00,4.88e+00,
480,3.12e+00,4.96e+00,
481,2.96e+00,5.12e+00,
482,3.04e+00,4.96e+00,
483,2.88e+00,5.04e+00,
484,2.96e+00,5.04e+00,
485,2.80e+00,4.96e+00,
486,2.88e+00,5.04e+00,
487,2.64e+00,4.88e+00,
488,2.80e+00,5.04e+00,
489,2.56e+00,4.88e+00,
490,2.64e+00,5.04e+00,
491,2.48e+00,4.88e+00,
492,2.56e+00,5.04e+00,
493,2.40e+00,4.96e+00,
494,2.40e+00,5.04e+00,
495,2.24e+00,4.96e+00,
496,2.32e+00,5.12e+00,
497,2.16e+00,4.88e+00,
498,2.24e+00,5.04e+00,
499,2.08e+00,4.96e+00,
500,2.08e+00,5.04e+00,
501,1.92e+00,4.88e+00,
502,2.00e+00,5.04e+00,
503,1.84e+00,4.88e+00,
504,1.92e+00,5.12e+00,
505,1.76e+00,4.88e+00,
506,1.84e+00,5.04e+00,
507,1.68e+00,4.88e+00,
508,1.76e+00,5.04e+00,
509,1.60e+00,4.88e+00,
510,1.68e+00,5.04e+00,
511,1.52e+00,4.88e+00,
512,1.44e+00,4.88e+00,
513,1.60e+00,5.12e+00,
514,1.44e+00,5.04e+00,
515,1.28e+00,4.88e+00,
516,1.36e+00,5.04e+00,
517,1.20e+00,4.96e+00,
518,1.28e+00,5.04e+00,
519,1.12e+00,4.96e+00,
520,1.20e+00,5.12e+00,
521,1.04e+00,4.88e+00,
522,1.12e+00,5.04e+00,
523,9.60e-01,4.88e+00,
524,1.04e+00,5.04e+00,
525,8.80e-01,4.96e+00,
526,9.60e-01,5.04e+00,
527,8.00e-01,4.88e+00,
528,7.20e-01,4.96e+00,
529,8.80e-01,5.12e+00,
530,8.00e-01,4.96e+00,
531,6.40e-01,5.04e+00,
532,7.20e-01,5.04e+00,
533,5.60e-01,4.96e+00,
534,6.40e-01,5.04e+00,
535,4.80e-01,4.88e+00,
536,4.80e-01,5.12e+00,
537,6.40e-01,4.88e+00,
538,4.80e-01,5.04e+00,
539,3.20e-01,4.96e+00,
540,4.00e-01,5.04e+00,
541,3.20e-01,4.88e+00,
542,3.20e-01,5.04e+00,
543,2.40e-01,4.88e+00,
544,3.20e-01,4.96e+00,
545,1.60e-01,5.12e+00,
546,2.40e-01,5.04e+00,
547,1.60e-01,4.88e+00,
548,2.40e-01,5.04e+00,
549,8.00e-02,4.96e+00,
550,8.00e-02,5.04e+00,
551,1.60e-01,4.88e+00,
552,1.60e-01,5.20e+00,
553,0.00e+00,4.88e+00,
554,8.00e-02,5.04e+00,
555,0.00e+00,4.96e+00,
556,8.00e-02,5.04e+00,
557,0.00e+00,4.96e+00,
558,8.00e-02,5.04e+00,
559,-8.00e-02,4.08e+00,
560,8.00e-02,4.08e+00,
561,-8.00e-02,2.48e+00,
562,-8.00e-02,2.48e+00,
563,0.00e+00,1.04e+00,
564,0.00e+00,1.04e+00,
565,-8.00e-02,1.60e-01,
566,0.00e+00,3.20e-01,
567,-8.00e-02,1.60e-01,
568,0.00e+00,2.40e-01,
569,-8.00e-02,1.60e-01,
570,0.00e+00,1.60e-01,
571,-8.00e-02,2.40e-01,
572,-8.00e-02,2.40e-01,
573,0.00e+00,2.40e-01,
574,-8.00e-02,2.40e-01,
575,0.00e+00,1.60e-01,
576,0.00e+00,2.40e-01,
577,-8.00e-02,2.40e-01,
578,-8.00e-02,2.40e-01,
579,8.00e-02,1.60e-01,
580,-8.00e-02,2.40e-01,
581,8.00e-02,2.40e-01,
582,8.00e-02,2.40e-01,
583,0.00e+00,1.60e-01,
584,0.00e+00,2.40e-01,
585,1.60e-01,1.60e-01,
586,1.60e-01,2.40e-01,
587,0.00e+00,1.60e-01,
588,8.00e-02,1.60e-01,
589,2.40e-01,2.40e-01,
590,8.00e-02,2.40e-01,
591,2.40e-01,1.60e-01,
592,1.60e-01,2.40e-01,
593,2.40e-01,1.60e-01,
594,3.20e-01,2.40e-01,
595,1.60e-01,1.60e-01,
596,2.40e-01,2.40e-01,
597,4.00e-01,1.60e-01,
598,3.20e-01,2.40e-01,
599,4.00e-01,1.60e-01,
600,4.00e-01,2.40e-01,
601,4.80e-01,8.00e-02,
602,4.80e-01,2.40e-01,
603,6.40e-01,8.00e-02,
604,5.60e-01,2.40e-01,
605,7.20e-01,8.00e-02,
606,6.40e-01,2.40e-01,
607,7.20e-01,8.00e-02,
608,6.40e-01,2.40e-01,
609,8.00e-01,8.00e-02,
610,7.20e-01,2.40e-01,
611,8.80e-01,8.00e-02,
612,8.00e-01,1.60e-01,
613,9.60e-01,2.40e-01,
614,8.80e-01,2.40e-01,
615,1.04e+00,1.60e-01,
616,9.60e-01,2.40e-01,
617,1.12e+00,2.40e-01,
618,1.04e+00,2.40e-01,
619,1.20e+00,1.60e-01,
620,1.12e+00,2.40e-01,
621,1.28e+00,1.60e-01,
622,1.20e+00,1.60e-01,
623,1.36e+00,4.00e-01,
624,1.28e+00,3.20e-01,
625,1.44e+00,4.00e-01,
626,1.44e+00,4.00e-01,
627,1.52e+00,9.60e-01,
628,1.52e+00,9.60e-01,
629,1.68e+00,1.44e+00,
630,1.60e+00,1.44e+00,
631,1.76e+00,1.92e+00,
632,1.68e+00,1.92e+00,
633,1.92e+00,2.56e+00,
634,1.84e+00,2.48e+00,
635,2.00e+00,3.04e+00,
636,1.92e+00,2.88e+00,
637,2.08e+00,3.44e+00,
638,2.00e+00,3.36e+00,
639,2.16e+00,3.84e+00,
640,2.08e+00,3.76e+00,
641,2.24e+00,4.16e+00,
642,2.24e+00,4.08e+00,
643,2.32e+00,4.48e+00,
644,2.32e+00,4.40e+00,
645,2.48e+00,4.72e+00,
646,2.40e+00,4.64e+00,
647,2.56e+00,4.88e+00,
648,2.56e+00,4.80e+00,
649,2.72e+00,5.04e+00,
650,2.64e+00,5.04e+00,
651,2.80e+00,4.88e+00,
652,2.72e+00,5.04e+00,
653,2.88e+00,4.88e+00,
654,2.80e+00,4.96e+00,
655,2.96e+00,5.04e+00,
656,2.88e+00,5.04e+00,
657,3.12e+00,4.88e+00,
658,2.96e+00,5.04e+00,
659,3.20e+00,4.88e+00,
660,3.12e+00,5.04e+00,
661,3.28e+00,4.88e+00,
662,3.20e+00,5.04e+00,
663,3.36e+00,4.88e+00,
664,3.36e+00,4.88e+00,
665,3.52e+00,5.04e+00,
666,3.44e+00,5.04e+00,
667,3.60e+00,4.88e+00,
668,3.52e+00,5.04e+00,
669,3.68e+00,4.88e+00,
670,3.60e+00,4.88e+00,
671,3.76e+00,5.04e+00,
672,3.68e+00,5.12e+00,
673,3.84e+00,4.88e+00,
674,3.76e+00,5.04e+00,
675,3.92e+00,4.88e+00,
676,3.84e+00,5.04e+00,
677,4.00e+00,4.88e+00,
678,3.92e+00,5.04e+00,
679,4.08e+00,4.88e+00,
680,4.00e+00,5.12e+00,
681,4.16e+00,4.88e+00,
682,4.08e+00,4.88e+00,
683,4.24e+00,5.04e+00,
684,4.16e+00,4.88e+00,
685,4.32e+00,5.04e+00,
686,4.24e+00,5.04e+00,
687,4.40e+00,4.88e+00,
688,4.32e+00,5.04e+00,
689,4.48e+00,4.88e+00,
690,4.40e+00,5.04e+00,
691,4.56e+00,4.88e+00,
692,4.48e+00,5.04e+00,
693,4.64e+00,4.88e+00,
694,4.48e+00,4.96e+00,
695,4.64e+00,5.04e+00,
696,4.56e+00,5.04e+00,
697,4.72e+00,4.88e+00,
698,4.64e+00,4.96e+00,
699,4.72e+00,5.04e+00,
700,4.64e+00,4.96e+00,
701,4.80e+00,5.04e+00,
702,4.72e+00,5.04e+00,
703,4.80e+00,4.88e+00,
704,4.72e+00,4.88e+00,
705,4.88e+00,5.20e+00,
706,4.80e+00,5.04e+00,
707,4.88e+00,4.88e+00,
708,4.80e+00,4.88e+00,
709,4.96e+00,5.04e+00,
710,4.80e+00,5.04e+00,
711,4.96e+00,4.88e+00,
712,4.96e+00,5.04e+00,
713,4.80e+00,4.88e+00,
714,4.96e+00,5.04e+00,
715,4.88e+00,4.88e+00,
716,4.88e+00,5.04e+00,
717,5.04e+00,4.88e+00,
718,5.04e+00,5.04e+00,
719,4.88e+00,4.88e+00,
720,5.04e+00,4.88e+00,
721,4.88e+00,5.12e+00,
722,4.88e+00,5.04e+00,
723,5.04e+00,4.88e+00,
724,5.04e+00,5.04e+00,
725,4.88e+00,4.88e+00,
726,4.88e+00,5.04e+00,
727,5.04e+00,4.96e+00,
728,5.04e+00,4.88e+00,
729,4.88e+00,5.12e+00,
730,4.88e+00,5.04e+00,
731,5.04e+00,4.88e+00,
732,4.96e+00,5.04e+00,
733,4.88e+00,4.96e+00,
734,4.96e+00,5.04e+00,
735,4.80e+00,4.88e+00,
736,4.96e+00,5.12e+00,
737,4.80e+00,4.88e+00,
738,4.88e+00,5.04e+00,
739,4.80e+00,4.88e+00,
740,4.88e+00,5.04e+00,
741,4.72e+00,4.88e+00,
742,4.72e+00,5.04e+00,
743,4.88e+00,4.88e+00,
744,4.80e+00,4.96e+00,
745,4.64e+00,5.12e+00,
746,4.64e+00,5.04e+00,
747,4.80e+00,4.96e+00,
748,4.72e+00,5.04e+00,
749,4.56e+00,4.88e+00,
750,4.56e+00,5.04e+00,
751,4.64e+00,4.96e+00,
752,4.64e+00,4.96e+00,
753,4.48e+00,5.12e+00,
754,4.56e+00,5.04e+00,
755,4.40e+00,4.88e+00,
756,4.40e+00,5.04e+00,
757,4.48e+00,4.96e+00,
758,4.40e+00,5.04e+00,
759,4.24e+00,4.96e+00,
760,4.32e+00,4.88e+00,
761,4.16e+00,5.12e+00,
762,4.24e+00,5.04e+00,
763,4.08e+00,4.96e+00,
764,4.16e+00,5.04e+00,
765,4.00e+00,4.96e+00,
766,4.08e+00,5.04e+00,
767,3.92e+00,4.96e+00,
768,4.08e+00,5.12e+00,
769,3.84e+00,4.88e+00,
770,4.00e+00,4.96e+00,
771,3.76e+00,5.04e+00,
772,3.84e+00,5.04e+00,
773,3.68e+00,4.88e+00,
774,3.84e+00,5.04e+00,
775,3.60e+00,4.96e+00,
776,3.76e+00,4.88e+00,
777,3.52e+00,5.12e+00,
778,3.60e+00,5.04e+00,
779,3.44e+00,4.96e+00,
780,3.52e+00,5.04e+00,
781,3.36e+00,4.96e+00,
782,3.36e+00,5.04e+00,
783,3.20e+00,4.96e+00,
784,3.28e+00,5.12e+00,
785,3.12e+00,4.88e+00,
786,3.20e+00,5.04e+00,
787,3.04e+00,4.88e+00,
788,3.12e+00,5.04e+00,
789,2.96e+00,4.88e+00,
790,3.04e+00,5.04e+00,
791,2.88e+00,4.88e+00,
792,2.96e+00,4.88e+00,
793,2.80e+00,5.12e+00,
794,2.80e+00,4.88e+00,
795,2.64e+00,5.04e+00,
796,2.72e+00,5.04e+00,
797,2.56e+00,4.96e+00,
798,2.64e+00,5.04e+00,
799,2.48e+00,4.96e+00,
800,2.56e+00,4.88e+00,
801,2.40e+00,5.12e+00,
802,2.40e+00,5.04e+00,
803,2.24e+00,4.88e+00,
804,2.32e+00,5.04e+00,
805,2.16e+00,4.88e+00,
806,2.16e+00,5.04e+00,
807,2.00e+00,4.88e+00,
808,2.08e+00,5.12e+00,
809,1.92e+00,4.88e+00,
810,2.00e+00,5.04e+00,
811,1.84e+00,4.88e+00,
812,1.92e+00,5.04e+00,
813,1.76e+00,4.96e+00,
814,1.84e+00,5.04e+00,
815,1.68e+00,4.88e+00,
816,1.68e+00,4.96e+00,
817,1.60e+00,5.12e+00,
818,1.68e+00,5.04e+00,
819,1.52e+00,4.88e+00,
820,1.52e+00,5.04e+00,
821,1.36e+00,4.88e+00,
822,1.36e+00,5.04e+00,
823,1.28e+00,4.88e+00,
824,1.28e+00,4.96e+00,
825,1.12e+00,5.12e+00,
826,1.20e+00,4.96e+00,
827,1.04e+00,5.04e+00,
828,1.12e+00,5.04e+00,
829,9.60e-01,4.96e+00,
830,1.04e+00,5.04e+00,
831,9.60e-01,4.88e+00,
832,9.60e-01,4.96e+00,
833,8.00e-01,5.12e+00,
834,9.60e-01,5.04e+00,
835,8.00e-01,4.88e+00,
836,8.00e-01,5.04e+00,
837,7.20e-01,4.88e+00,
838,8.00e-01,5.04e+00,
839,6.40e-01,4.88e+00,
840,7.20e-01,5.12e+00,
841,5.60e-01,4.88e+00,
842,6.40e-01,5.04e+00,
843,4.80e-01,4.88e+00,
844,4.80e-01,5.04e+00,
845,4.80e-01,4.96e+00,
846,4.80e-01,5.04e+00,
847,3.20e-01,4.88e+00,
848,4.00e-01,5.12e+00,
849,2.40e-01,4.88e+00,
850,3.20e-01,4.96e+00,
851,2.40e-01,5.04e+00,
852,3.20e-01,5.04e+00,
853,1.60e-01,4.88e+00,
854,1.60e-01,5.04e+00,
855,2.40e-01,4.88e+00,
856,2.40e-01,5.04e+00,
857,8.00e-02,4.96e+00,
858,1.60e-01,5.04e+00,
859,8.00e-02,4.96e+00,
860,1.60e-01,5.04e+00,
861,0.00e+00,4.96e+00,
862,0.00e+00,5.04e+00,
863,8.00e-02,4.96e+00,
864,0.00e+00,5.12e+00,
865,8.00e-02,4.96e+00,
866,8.00e-02,4.96e+00,
867,-8.00e-02,3.84e+00,
868,8.00e-02,3.84e+00,
869,-8.00e-02,2.24e+00,
