project/matlab/project_exp3/850 Hz/NewFile1.csv

X,CH1,CH2,Start,Increment,
Sequence,Volt,Volt,-2.280000e-03,5.000000e-06
0,3.84e+00,4.88e+00,
1,4.08e+00,5.20e+00,
2,4.00e+00,4.88e+00,
3,4.24e+00,5.20e+00,
4,4.08e+00,5.20e+00,
5,4.40e+00,4.88e+00,
6,4.40e+00,4.88e+00,
7,4.16e+00,5.20e+00,
8,4.32e+00,5.20e+00,
9,4.56e+00,4.88e+00,
10,4.40e+00,4.88e+00,
11,4.56e+00,5.20e+00,
12,4.48e+00,4.88e+00,
13,4.64e+00,5.20e+00,
14,4.48e+00,4.88e+00,
15,4.72e+00,5.20e+00,
16,4.56e+00,5.12e+00,
17,4.80e+00,4.88e+00,
18,4.64e+00,4.88e+00,
19,4.80e+00,5.20e+00,
20,4.64e+00,4.88e+00,
21,4.88e+00,5.20e+00,
22,4.88e+00,4.88e+00,
23,4.72e+00,5.20e+00,
24,4.72e+00,4.88e+00,
25,4.96e+00,5.20e+00,
26,4.72e+00,5.20e+00,
27,4.96e+00,4.88e+00,
28,4.96e+00,4.88e+00,
29,4.80e+00,5.20e+00,
30,4.96e+00,5.20e+00,
31,4.80e+00,4.88e+00,
32,4.96e+00,5.20e+00,
33,4.80e+00,4.88e+00,
34,4.96e+00,5.20e+00,
35,4.80e+00,4.88e+00,
36,4.96e+00,5.20e+00,
37,4.80e+00,4.88e+00,
38,4.96e+00,4.88e+00,
39,4.80e+00,5.20e+00,
40,4.96e+00,4.88e+00,
41,4.72e+00,5.20e+00,
42,4.72e+00,4.88e+00,
43,4.88e+00,5.20e+00,
44,4.88e+00,4.88e+00,
45,4.72e+00,5.12e+00,
46,4.88e+00,4.88e+00,
47,4.64e+00,5.20e+00,
48,4.80e+00,4.88e+00,
49,4.56e+00,5.20e+00,
50,4.56e+00,4.88e+00,
51,4.72e+00,5.20e+00,
52,4.72e+00,4.88e+00,
53,4.48e+00,5.20e+00,
54,4.64e+00,4.88e+00,
55,4.40e+00,5.20e+00,
56,4.56e+00,4.88e+00,
57,4.32e+00,5.20e+00,
58,4.48e+00,5.20e+00,
59,4.24e+00,4.88e+00,
60,4.40e+00,4.88e+00,
61,4.16e+00,5.20e+00,
62,4.24e+00,5.20e+00,
63,4.00e+00,4.88e+00,
64,4.16e+00,4.88e+00,
65,3.92e+00,5.20e+00,
66,4.08e+00,4.88e+00,
67,3.84e+00,5.20e+00,
68,4.00e+00,5.20e+00,
69,3.76e+00,4.88e+00,
70,3.92e+00,5.20e+00,
71,3.68e+00,4.88e+00,
72,3.76e+00,5.20e+00,
73,3.52e+00,4.88e+00,
74,3.68e+00,4.88e+00,
75,3.44e+00,5.20e+00,
76,3.60e+00,5.12e+00,
77,3.36e+00,4.88e+00,
78,3.44e+00,5.20e+00,
79,3.12e+00,4.88e+00,
80,3.28e+00,4.88e+00,
81,3.04e+00,5.20e+00,
82,3.12e+00,5.20e+00,
83,2.88e+00,4.88e+00,
84,3.04e+00,4.88e+00,
85,2.80e+00,5.20e+00,
86,2.88e+00,5.12e+00,
87,2.64e+00,4.88e+00,
88,2.80e+00,4.88e+00,
89,2.56e+00,5.20e+00,
90,2.64e+00,4.88e+00,
91,2.40e+00,5.20e+00,
92,2.56e+00,5.20e+00,
93,2.24e+00,4.88e+00,
94,2.32e+00,5.12e+00,
95,2.08e+00,4.88e+00,
96,2.24e+00,4.88e+00,
97,2.00e+00,5.20e+00,
98,2.08e+00,5.20e+00,
99,1.84e+00,4.88e+00,
100,2.00e+00,4.88e+00,
101,1.76e+00,5.20e+00,
102,1.84e+00,5.20e+00,
103,1.60e+00,4.88e+00,
104,1.76e+00,4.88e+00,
105,1.52e+00,5.20e+00,
106,1.60e+00,4.88e+00,
107,1.44e+00,5.20e+00,
108,1.52e+00,4.88e+00,
109,1.20e+00,5.20e+00,
110,1.28e+00,4.88e+00,
111,1.12e+00,5.20e+00,
112,1.20e+00,4.88e+00,
113,1.04e+00,5.20e+00,
114,1.12e+00,4.88e+00,
115,8.80e-01,5.20e+00,
116,1.04e+00,4.88e+00,
117,8.00e-01,5.20e+00,
118,8.80e-01,4.88e+00,
119,7.20e-01,5.20e+00,
120,8.00e-01,5.20e+00,
121,6.40e-01,4.88e+00,
122,7.20e-01,4.96e+00,
123,5.60e-01,5.20e+00,
124,6.40e-01,5.20e+00,
125,4.80e-01,4.88e+00,
126,5.60e-01,5.20e+00,
127,3.20e-01,4.88e+00,
128,4.00e-01,5.20e+00,
129,2.40e-01,4.88e+00,
130,3.20e-01,5.20e+00,
131,1.60e-01,8.00e-02,
132,3.20e-01,2.40e-01,
133,1.60e-01,8.00e-02,
134,2.40e-01,2.40e-01,
135,8.00e-02,8.00e-02,
136,1.60e-01,2.40e-01,
137,0.00e+00,8.00e-02,
138,0.00e+00,2.40e-01,
139,1.60e-01,8.00e-02,
140,8.00e-02,2.40e-01,
141,-8.00e-02,8.00e-02,
142,8.00e-02,8.00e-02,
143,-8.00e-02,2.40e-01,
144,-8.00e-02,2.40e-01,
145,0.00e+00,8.00e-02,
146,0.00e+00,8.00e-02,
147,-8.00e-02,2.40e-01,
148,0.00e+00,8.00e-02,
149,-1.60e-01,2.40e-01,
150,0.00e+00,1.60e-01,
151,-1.60e-01,8.00e-02,
152,-1.60e-01,8.00e-02,
153,0.00e+00,2.40e-01,
154,0.00e+00,1.60e-01,
155,-1.60e-01,8.00e-02,
156,0.00e+00,1.60e-01,
157,-8.00e-02,8.00e-02,
158,-8.00e-02,8.00e-02,
159,8.00e-02,2.40e-01,
160,-8.00e-02,8.00e-02,
161,8.00e-02,2.40e-01,
162,0.00e+00,1.60e-01,
163,8.00e-02,8.00e-02,
164,1.60e-01,1.60e-01,
165,0.00e+00,8.00e-02,
166,8.00e-02,8.00e-02,
167,2.40e-01,2.40e-01,
168,2.40e-01,1.60e-01,
169,8.00e-02,8.00e-02,
170,1.60e-01,1.60e-01,
171,3.20e-01,8.00e-02,
172,2.40e-01,1.60e-01,
173,4.00e-01,8.00e-02,
174,3.20e-01,8.00e-02,
175,5.60e-01,2.40e-01,
176,4.00e-01,8.00e-02,
177,6.40e-01,2.40e-01,
178,5.60e-01,1.60e-01,
179,7.20e-01,8.00e-02,
180,6.40e-01,1.60e-01,
181,8.00e-01,8.00e-02,
182,7.20e-01,8.00e-02,
183,8.80e-01,5.04e+00,
184,8.00e-01,5.04e+00,
185,9.60e-01,4.88e+00,
186,8.80e-01,5.04e+00,
187,1.12e+00,4.88e+00,
188,9.60e-01,5.04e+00,
189,1.20e+00,4.88e+00,
190,1.12e+00,5.04e+00,
191,1.28e+00,4.88e+00,
192,1.20e+00,5.04e+00,
193,1.44e+00,4.88e+00,
194,1.36e+00,4.88e+00,
195,1.60e+00,5.12e+00,
196,1.52e+00,4.88e+00,
197,1.68e+00,5.20e+00,
198,1.60e+00,5.12e+00,
199,1.84e+00,4.88e+00,
200,1.68e+00,4.88e+00,
201,1.92e+00,5.20e+00,
202,1.84e+00,4.88e+00,
203,2.08e+00,5.20e+00,
204,1.92e+00,4.88e+00,
205,2.16e+00,5.12e+00,
206,2.08e+00,4.88e+00,
207,2.32e+00,5.20e+00,
208,2.24e+00,5.20e+00,
209,2.48e+00,4.88e+00,
210,2.40e+00,4.88e+00,
211,2.64e+00,5.20e+00,
212,2.48e+00,4.88e+00,
213,2.72e+00,5.20e+00,
214,2.64e+00,5.20e+00,
215,2.88e+00,4.88e+00,
216,2.72e+00,4.88e+00,
217,2.96e+00,5.20e+00,
218,2.88e+00,5.20e+00,
219,3.12e+00,4.88e+00,
220,2.96e+00,5.20e+00,
221,3.20e+00,4.88e+00,
222,3.12e+00,4.88e+00,
223,3.36e+00,5.20e+00,
224,3.28e+00,4.88e+00,
225,3.52e+00,5.20e+00,
226,3.44e+00,4.88e+00,
227,3.60e+00,5.20e+00,
228,3.52e+00,4.88e+00,
229,3.76e+00,5.20e+00,
230,3.60e+00,5.20e+00,
231,3.84e+00,4.88e+00,
232,3.68e+00,5.20e+00,
233,4.00e+00,4.88e+00,
234,3.84e+00,5.12e+00,
235,4.08e+00,4.88e+00,
236,3.92e+00,4.88e+00,
237,4.16e+00,5.20e+00,
238,4.00e+00,4.88e+00,
239,4.24e+00,5.20e+00,
240,4.08e+00,4.88e+00,
241,4.40e+00,5.20e+00,
242,4.16e+00,4.88e+00,
243,4.48e+00,5.20e+00,
244,4.32e+00,4.88e+00,
245,4.56e+00,5.20e+00,
246,4.40e+00,5.20e+00,
247,4.64e+00,4.88e+00,
248,4.48e+00,5.20e+00,
249,4.64e+00,4.88e+00,
250,4.56e+00,4.88e+00,
251,4.72e+00,5.20e+00,
252,4.56e+00,4.88e+00,
253,4.80e+00,5.20e+00,
254,4.64e+00,4.88e+00,
255,4.80e+00,5.20e+00,
256,4.64e+00,4.88e+00,
257,4.88e+00,5.12e+00,
258,4.88e+00,4.88e+00,
259,4.72e+00,5.20e+00,
260,4.72e+00,5.20e+00,
261,4.96e+00,4.88e+00,
262,4.80e+00,4.88e+00,
263,4.96e+00,5.20e+00,
264,4.96e+00,5.12e+00,
265,4.80e+00,4.88e+00,
266,4.96e+00,5.20e+00,
267,4.80e+00,4.88e+00,
268,4.96e+00,5.12e+00,
269,4.80e+00,4.88e+00,
270,4.96e+00,4.88e+00,
271,4.80e+00,5.20e+00,
272,4.96e+00,4.88e+00,
273,4.80e+00,5.20e+00,
274,4.96e+00,5.20e+00,
275,4.80e+00,4.88e+00,
276,4.72e+00,5.20e+00,
277,4.96e+00,4.88e+00,
278,4.72e+00,5.20e+00,
279,4.88e+00,4.88e+00,
280,4.88e+00,5.20e+00,
281,4.64e+00,4.88e+00,
282,4.64e+00,4.88e+00,
283,4.80e+00,5.20e+00,
284,4.80e+00,4.88e+00,
285,4.56e+00,5.20e+00,
286,4.56e+00,4.88e+00,
287,4.72e+00,5.20e+00,
288,4.48e+00,4.88e+00,
289,4.64e+00,5.20e+00,
290,4.64e+00,5.20e+00,
291,4.40e+00,4.88e+00,
292,4.56e+00,5.20e+00,
293,4.32e+00,4.88e+00,
294,4.48e+00,4.88e+00,
295,4.16e+00,5.20e+00,
296,4.40e+00,5.20e+00,
297,4.08e+00,4.88e+00,
298,4.24e+00,4.88e+00,
299,4.00e+00,5.20e+00,
300,4.16e+00,5.20e+00,
301,3.92e+00,4.88e+00,
302,4.08e+00,5.20e+00,
303,3.84e+00,4.88e+00,
304,3.92e+00,4.88e+00,
305,3.68e+00,5.20e+00,
306,3.84e+00,5.20e+00,
307,3.60e+00,4.88e+00,
308,3.76e+00,4.88e+00,
309,3.52e+00,5.20e+00,
310,3.68e+00,5.12e+00,
311,3.36e+00,4.88e+00,
312,3.52e+00,4.88e+00,
313,3.28e+00,5.20e+00,
314,3.36e+00,5.20e+00,
315,3.12e+00,4.88e+00,
316,3.20e+00,4.88e+00,
317,2.96e+00,5.20e+00,
318,3.12e+00,4.88e+00,
319,2.88e+00,5.20e+00,
320,2.96e+00,4.88e+00,
321,2.72e+00,5.20e+00,
322,2.88e+00,4.88e+00,
323,2.64e+00,5.20e+00,
324,2.72e+00,5.20e+00,
325,2.48e+00,4.88e+00,
326,2.64e+00,5.20e+00,
327,2.40e+00,4.88e+00,
328,2.48e+00,4.88e+00,
329,2.16e+00,5.20e+00,
330,2.32e+00,4.88e+00,
331,2.08e+00,5.20e+00,
332,2.16e+00,5.20e+00,
333,1.92e+00,4.88e+00,
334,2.08e+00,4.88e+00,
335,1.84e+00,5.20e+00,
336,1.92e+00,4.88e+00,
337,1.68e+00,5.20e+00,
338,1.84e+00,4.88e+00,
339,1.60e+00,5.20e+00,
340,1.68e+00,4.88e+00,
341,1.52e+00,5.20e+00,
342,1.60e+00,4.88e+00,
343,1.36e+00,5.20e+00,
344,1.36e+00,5.20e+00,
345,1.20e+00,4.88e+00,
346,1.28e+00,4.88e+00,
347,1.04e+00,5.20e+00,
348,1.20e+00,4.88e+00,
349,9.60e-01,5.20e+00,
350,1.04e+00,4.88e+00,
351,8.80e-01,5.20e+00,
352,9.60e-01,5.20e+00,
353,8.00e-01,4.88e+00,
354,8.80e-01,5.20e+00,
355,7.20e-01,4.88e+00,
356,6.40e-01,5.20e+00,
357,8.00e-01,4.88e+00,
358,5.60e-01,4.88e+00,
359,7.20e-01,5.20e+00,
360,4.80e-01,5.20e+00,
361,6.40e-01,4.88e+00,
362,5.60e-01,4.88e+00,
363,3.20e-01,5.20e+00,
364,4.00e-01,5.20e+00,
365,2.40e-01,1.60e-01,
366,3.20e-01,2.40e-01,
367,1.60e-01,8.00e-02,
368,2.40e-01,2.40e-01,
369,8.00e-02,8.00e-02,
370,2.40e-01,2.40e-01,
371,8.00e-02,8.00e-02,
372,1.60e-01,2.40e-01,
373,0.00e+00,8.00e-02,
374,8.00e-02,2.40e-01,
375,0.00e+00,8.00e-02,
376,8.00e-02,2.40e-01,
377,-8.00e-02,8.00e-02,
378,8.00e-02,8.00e-02,
379,-8.00e-02,2.40e-01,
380,0.00e+00,8.00e-02,
381,-8.00e-02,2.40e-01,
382,0.00e+00,8.00e-02,
383,-8.00e-02,2.40e-01,
384,0.00e+00,8.00e-02,
385,-1.60e-01,2.40e-01,
386,0.00e+00,1.60e-01,
387,-1.60e-01,8.00e-02,
388,0.00e+00,8.00e-02,
389,-1.60e-01,1.60e-01,
390,0.00e+00,8.00e-02,
391,-8.00e-02,2.40e-01,
392,0.00e+00,8.00e-02,
393,-8.00e-02,2.40e-01,
394,-8.00e-02,8.00e-02,
395,8.00e-02,2.40e-01,
396,-8.00e-02,1.60e-01,
397,8.00e-02,8.00e-02,
398,0.00e+00,2.40e-01,
399,1.60e-01,8.00e-02,
400,1.60e-01,8.00e-02,
401,0.00e+00,2.40e-01,
402,8.00e-02,1.60e-01,
403,2.40e-01,8.00e-02,
404,1.60e-01,1.60e-01,
405,3.20e-01,0.00e+00,
406,3.20e-01,8.00e-02,
407,1.60e-01,1.60e-01,
408,4.00e-01,1.60e-01,
409,2.40e-01,8.00e-02,
410,3.20e-01,2.40e-01,
411,5.60e-01,0.00e+00,
412,4.80e-01,8.00e-02,
413,6.40e-01,2.40e-01,
414,5.60e-01,1.60e-01,
415,7.20e-01,8.00e-02,
416,6.40e-01,0.00e+00,
417,8.00e-01,2.40e-01,
418,7.20e-01,8.00e-02,
419,9.60e-01,5.04e+00,
420,8.00e-01,5.04e+00,
421,1.04e+00,4.88e+00,
422,9.60e-01,4.88e+00,
423,1.12e+00,5.04e+00,
424,1.04e+00,5.04e+00,
425,1.20e+00,4.88e+00,
426,1.12e+00,5.04e+00,
427,1.36e+00,4.88e+00,
428,1.20e+00,5.04e+00,
429,1.44e+00,4.88e+00,
430,1.44e+00,4.88e+00,
431,1.60e+00,5.12e+00,
432,1.52e+00,5.12e+00,
433,1.76e+00,4.88e+00,
434,1.68e+00,4.88e+00,
435,1.84e+00,5.12e+00,
436,1.76e+00,4.88e+00,
437,2.00e+00,5.20e+00,
438,1.92e+00,4.88e+00,
439,2.08e+00,5.20e+00,
440,2.00e+00,4.88e+00,
441,2.24e+00,5.20e+00,
442,2.16e+00,4.88e+00,
443,2.32e+00,5.20e+00,
444,2.32e+00,4.88e+00,
445,2.56e+00,5.20e+00,
446,2.40e+00,4.88e+00,
447,2.64e+00,5.20e+00,
448,2.56e+00,5.20e+00,
449,2.80e+00,4.88e+00,
450,2.64e+00,5.12e+00,
451,2.88e+00,4.88e+00,
452,2.80e+00,4.88e+00,
453,3.04e+00,5.20e+00,
454,2.88e+00,5.20e+00,
455,3.12e+00,4.88e+00,
456,3.04e+00,4.88e+00,
457,3.28e+00,5.20e+00,
458,3.20e+00,4.88e+00,
459,3.44e+00,5.20e+00,
460,3.36e+00,5.20e+00,
461,3.60e+00,4.88e+00,
462,3.44e+00,4.88e+00,
463,3.68e+00,5.20e+00,
464,3.52e+00,5.20e+00,
465,3.76e+00,4.88e+00,
466,3.68e+00,5.20e+00,
467,3.92e+00,4.88e+00,
468,3.76e+00,5.12e+00,
469,4.00e+00,4.88e+00,
470,3.84e+00,4.88e+00,
471,4.08e+00,5.20e+00,
472,3.92e+00,4.88e+00,
473,4.16e+00,5.20e+00,
474,4.00e+00,4.88e+00,
475,4.24e+00,5.20e+00,
476,4.16e+00,4.88e+00,
477,4.40e+00,5.20e+00,
478,4.24e+00,4.88e+00,
479,4.48e+00,5.20e+00,
480,4.32e+00,5.20e+00,
481,4.56e+00,4.88e+00,
482,4.40e+00,4.88e+00,
483,4.64e+00,5.20e+00,
484,4.48e+00,4.88e+00,
485,4.72e+00,5.20e+00,
486,4.72e+00,4.88e+00,
487,4.56e+00,5.20e+00,
488,4.56e+00,5.20e+00,
489,4.80e+00,4.88e+00,
490,4.64e+00,4.88e+00,
491,4.88e+00,5.20e+00,
492,4.88e+00,4.88e+00,
493,4.64e+00,5.20e+00,
494,4.88e+00,4.88e+00,
495,4.72e+00,5.20e+00,
496,4.72e+00,4.88e+00,
497,4.96e+00,5.20e+00,
498,4.96e+00,4.88e+00,
499,4.80e+00,5.12e+00,
500,4.96e+00,4.88e+00,
501,4.80e+00,5.20e+00,
502,4.96e+00,4.88e+00,
503,4.80e+00,5.20e+00,
504,4.96e+00,4.88e+00,
505,4.80e+00,5.20e+00,
506,4.96e+00,5.12e+00,
507,4.80e+00,4.88e+00,
508,4.96e+00,4.88e+00,
509,4.80e+00,5.20e+00,
510,4.96e+00,4.88e+00,
511,4.72e+00,5.20e+00,
512,4.96e+00,5.20e+00,
513,4.72e+00,4.88e+00,
514,4.72e+00,4.88e+00,
515,4.88e+00,5.20e+00,
516,4.88e+00,4.88e+00,
517,4.64e+00,5.20e+00,
518,4.64e+00,4.88e+00,
519,4.80e+00,5.20e+00,
520,4.80e+00,4.88e+00,
521,4.56e+00,5.20e+00,
522,4.72e+00,4.88e+00,
523,4.48e+00,5.20e+00,
524,4.64e+00,4.88e+00,
525,4.40e+00,5.12e+00,
526,4.40e+00,4.88e+00,
527,4.56e+00,5.20e+00,
528,4.56e+00,5.20e+00,
529,4.32e+00,4.88e+00,
530,4.40e+00,4.88e+00,
531,4.16e+00,5.20e+00,
532,4.32e+00,4.88e+00,
533,4.08e+00,5.20e+00,
534,4.24e+00,5.12e+00,
535,4.00e+00,4.88e+00,
536,4.08e+00,5.20e+00,
537,3.84e+00,4.88e+00,
538,4.00e+00,5.20e+00,
539,3.76e+00,4.88e+00,
540,3.92e+00,4.88e+00,
541,3.68e+00,5.20e+00,
542,3.84e+00,4.88e+00,
543,3.60e+00,5.20e+00,
544,3.68e+00,4.88e+00,
545,3.44e+00,5.20e+00,
546,3.60e+00,4.88e+00,
547,3.36e+00,5.20e+00,
548,3.44e+00,4.88e+00,
549,3.28e+00,5.20e+00,
550,3.28e+00,5.20e+00,
551,3.04e+00,4.88e+00,
552,3.20e+00,4.96e+00,
553,2.96e+00,5.20e+00,
554,3.04e+00,5.20e+00,
555,2.80e+00,4.88e+00,
556,2.96e+00,4.88e+00,
557,2.72e+00,5.20e+00,
558,2.80e+00,5.20e+00,
559,2.56e+00,4.88e+00,
560,2.72e+00,4.88e+00,
561,2.48e+00,5.20e+00,
562,2.56e+00,4.88e+00,
563,2.32e+00,5.20e+00,
564,2.48e+00,4.88e+00,
565,2.16e+00,5.20e+00,
566,2.24e+00,4.88e+00,
567,2.00e+00,5.20e+00,
568,2.16e+00,5.12e+00,
569,1.92e+00,4.88e+00,
570,2.00e+00,4.88e+00,
571,1.76e+00,5.20e+00,
572,1.92e+00,4.88e+00,
573,1.68e+00,5.20e+00,
574,1.76e+00,4.88e+00,
575,1.52e+00,5.12e+00,
576,1.68e+00,4.88e+00,
577,1.44e+00,5.20e+00,
578,1.52e+00,4.88e+00,
579,1.36e+00,5.20e+00,
580,1.36e+00,4.88e+00,
581,1.12e+00,5.20e+00,
582,1.28e+00,4.88e+00,
583,1.04e+00,5.20e+00,
584,1.12e+00,5.20e+00,
585,9.60e-01,4.88e+00,
586,1.04e+00,5.20e+00,
587,8.80e-01,4.88e+00,
588,9.60e-01,4.88e+00,
589,7.20e-01,5.20e+00,
590,8.80e-01,4.88e+00,
591,6.40e-01,5.20e+00,
592,7.20e-01,5.20e+00,
593,5.60e-01,4.88e+00,
594,6.40e-01,4.88e+00,
595,4.80e-01,5.20e+00,
596,5.60e-01,5.20e+00,
597,3.20e-01,4.88e+00,
598,4.80e-01,4.88e+00,
599,2.40e-01,5.20e+00,
600,4.00e-01,5.12e+00,
601,1.60e-01,8.00e-02,
602,3.20e-01,2.40e-01,
603,1.60e-01,8.00e-02,
604,2.40e-01,2.40e-01,
605,8.00e-02,8.00e-02,
606,1.60e-01,2.40e-01,
607,0.00e+00,8.00e-02,
608,1.60e-01,8.00e-02,
609,0.00e+00,2.40e-01,
610,8.00e-02,2.40e-01,
611,-8.00e-02,8.00e-02,
612,-8.00e-02,2.40e-01,
613,8.00e-02,8.00e-02,
614,8.00e-02,2.40e-01,
615,-8.00e-02,8.00e-02,
616,0.00e+00,2.40e-01,
617,-8.00e-02,8.00e-02,
618,0.00e+00,8.00e-02,
619,-1.60e-01,2.40e-01,
620,-1.60e-01,8.00e-02,
621,0.00e+00,2.40e-01,
622,-1.60e-01,8.00e-02,
623,0.00e+00,2.40e-01,
624,-1.60e-01,8.00e-02,
625,0.00e+00,2.40e-01,
626,0.00e+00,1.60e-01,
627,-8.00e-02,8.00e-02,
628,-8.00e-02,8.00e-02,
629,8.00e-02,2.40e-01,
630,8.00e-02,8.00e-02,
631,-8.00e-02,2.40e-01,
632,0.00e+00,1.60e-01,
633,8.00e-02,8.00e-02,
634,0.00e+00,8.00e-02,
635,1.60e-01,2.40e-01,
636,1.60e-01,8.00e-02,
637,8.00e-02,2.40e-01,
638,2.40e-01,8.00e-02,
639,8.00e-02,1.60e-01,
640,1.60e-01,8.00e-02,
641,3.20e-01,2.40e-01,
642,2.40e-01,8.00e-02,
643,4.00e-01,2.40e-01,
644,2.40e-01,1.60e-01,
645,5.60e-01,8.00e-02,
646,3.20e-01,8.00e-02,
647,6.40e-01,2.40e-01,
648,4.80e-01,1.60e-01,
649,7.20e-01,8.00e-02,
650,5.60e-01,1.60e-01,
651,8.00e-01,0.00e+00,
652,6.40e-01,8.00e-02,
653,8.80e-01,3.28e+00,
654,8.00e-01,3.60e+00,
655,9.60e-01,5.04e+00,
656,8.80e-01,4.96e+00,
657,1.04e+00,4.88e+00,
658,9.60e-01,4.88e+00,
659,1.12e+00,5.04e+00,
660,1.04e+00,5.04e+00,
661,1.28e+00,4.88e+00,
662,1.20e+00,5.04e+00,
663,1.36e+00,4.88e+00,
664,1.36e+00,4.88e+00,
665,1.52e+00,5.04e+00,
666,1.44e+00,5.04e+00,
667,1.68e+00,4.88e+00,
668,1.60e+00,4.88e+00,
669,1.76e+00,5.12e+00,
670,1.68e+00,4.88e+00,
671,1.92e+00,5.12e+00,
672,1.84e+00,4.88e+00,
673,2.00e+00,5.20e+00,
674,1.92e+00,4.88e+00,
675,2.16e+00,5.20e+00,
676,2.08e+00,4.88e+00,
677,2.24e+00,5.20e+00,
678,2.16e+00,4.88e+00,
679,2.48e+00,5.20e+00,
680,2.32e+00,5.20e+00,
681,2.56e+00,4.88e+00,
682,2.48e+00,4.88e+00,
683,2.72e+00,5.20e+00,
684,2.56e+00,4.88e+00,
685,2.80e+00,5.20e+00,
686,2.72e+00,4.88e+00,
687,2.96e+00,5.20e+00,
688,2.80e+00,4.88e+00,
689,3.04e+00,5.20e+00,
690,2.96e+00,5.20e+00,
691,3.20e+00,4.88e+00,
692,3.04e+00,5.20e+00,
693,3.28e+00,4.88e+00,
694,3.28e+00,4.88e+00,
695,3.52e+00,5.20e+00,
696,3.36e+00,5.20e+00,
697,3.60e+00,4.88e+00,
698,3.44e+00,4.88e+00,
699,3.68e+00,5.20e+00,
700,3.60e+00,4.88e+00,
701,3.84e+00,5.20e+00,
702,3.68e+00,4.88e+00,
703,3.92e+00,5.20e+00,
704,3.76e+00,4.88e+00,
705,4.00e+00,5.20e+00,
706,3.92e+00,5.20e+00,
707,4.16e+00,4.88e+00,
708,4.00e+00,5.12e+00,
709,4.24e+00,4.88e+00,
710,4.08e+00,5.20e+00,
711,4.40e+00,4.88e+00,
712,4.40e+00,5.12e+00,
713,4.16e+00,4.88e+00,
714,4.32e+00,4.88e+00,
715,4.48e+00,5.20e+00,
716,4.56e+00,4.88e+00,
717,4.40e+00,5.20e+00,
718,4.48e+00,5.12e+00,
719,4.64e+00,4.88e+00,
720,4.48e+00,4.88e+00,
721,4.72e+00,5.20e+00,
722,4.56e+00,5.20e+00,
723,4.80e+00,4.88e+00,
724,4.64e+00,4.88e+00,
725,4.80e+00,5.20e+00,
726,4.64e+00,5.20e+00,
727,4.88e+00,4.88e+00,
728,4.88e+00,5.20e+00,
729,4.72e+00,4.88e+00,
730,4.88e+00,5.20e+00,
731,4.72e+00,4.88e+00,
732,4.72e+00,4.88e+00,
733,4.96e+00,5.20e+00,
734,4.96e+00,4.88e+00,
735,4.80e+00,5.20e+00,
736,4.96e+00,5.20e+00,
737,4.80e+00,4.88e+00,
738,4.96e+00,4.88e+00,
739,4.80e+00,5.20e+00,
740,4.80e+00,4.88e+00,
741,4.96e+00,5.20e+00,
742,4.96e+00,5.20e+00,
743,4.80e+00,4.88e+00,
744,4.80e+00,5.20e+00,
745,4.96e+00,4.88e+00,
746,4.96e+00,4.88e+00,
747,4.72e+00,5.20e+00,
748,4.72e+00,4.88e+00,
749,4.88e+00,5.20e+00,
750,4.88e+00,4.88e+00,
751,4.64e+00,5.20e+00,
752,4.88e+00,4.88e+00,
753,4.64e+00,5.20e+00,
754,4.80e+00,5.20e+00,
755,4.56e+00,4.88e+00,
756,4.56e+00,4.88e+00,
757,4.72e+00,5.20e+00,
758,4.72e+00,5.20e+00,
759,4.48e+00,4.88e+00,
760,4.64e+00,5.20e+00,
761,4.40e+00,4.88e+00,
762,4.56e+00,4.88e+00,
763,4.32e+00,5.20e+00,
764,4.48e+00,4.88e+00,
765,4.24e+00,5.20e+00,
766,4.40e+00,5.20e+00,
767,4.08e+00,4.88e+00,
768,4.24e+00,4.88e+00,
769,4.08e+00,5.20e+00,
770,4.16e+00,5.20e+00,
771,3.92e+00,4.88e+00,
772,4.08e+00,5.20e+00,
773,3.84e+00,4.88e+00,
774,4.00e+00,5.20e+00,
775,3.76e+00,4.88e+00,
776,3.84e+00,4.88e+00,
777,3.68e+00,5.20e+00,
778,3.76e+00,4.88e+00,
779,3.52e+00,5.20e+00,
780,3.68e+00,4.88e+00,
781,3.44e+00,5.20e+00,
782,3.52e+00,5.12e+00,
783,3.36e+00,4.88e+00,
784,3.44e+00,5.20e+00,
785,3.12e+00,4.88e+00,
786,3.28e+00,5.20e+00,
787,3.04e+00,4.88e+00,
788,3.12e+00,4.88e+00,
789,2.88e+00,5.20e+00,
790,3.04e+00,5.20e+00,
791,2.80e+00,4.88e+00,
792,2.88e+00,4.88e+00,
793,2.64e+00,5.20e+00,
794,2.80e+00,5.20e+00,
795,2.56e+00,4.88e+00,
796,2.64e+00,5.20e+00,
797,2.40e+00,4.88e+00,
798,2.56e+00,4.88e+00,
799,2.32e+00,5.20e+00,
800,2.32e+00,4.88e+00,
801,2.08e+00,5.20e+00,
802,2.24e+00,5.12e+00,
803,2.00e+00,4.88e+00,
804,2.08e+00,4.88e+00,
805,1.84e+00,5.20e+00,
806,2.00e+00,5.20e+00,
807,1.76e+00,4.88e+00,
808,1.84e+00,5.20e+00,
809,1.60e+00,4.88e+00,
810,1.76e+00,4.88e+00,
811,1.52e+00,5.20e+00,
812,1.60e+00,4.88e+00,
813,1.44e+00,5.20e+00,
814,1.44e+00,4.88e+00,
815,1.20e+00,5.20e+00,
816,1.28e+00,4.88e+00,
817,1.12e+00,5.20e+00,
818,1.20e+00,4.88e+00,
819,1.04e+00,5.20e+00,
820,1.12e+00,4.88e+00,
821,8.80e-01,5.20e+00,
822,1.04e+00,4.88e+00,
823,8.00e-01,5.20e+00,
824,8.80e-01,5.20e+00,
825,7.20e-01,4.88e+00,
826,8.00e-01,5.20e+00,
827,6.40e-01,4.88e+00,
828,7.20e-01,4.88e+00,
829,5.60e-01,5.20e+00,
830,6.40e-01,4.88e+00,
831,4.80e-01,5.20e+00,
832,5.60e-01,4.88e+00,
833,3.20e-01,5.20e+00,
834,4.00e-01,5.20e+00,
835,2.40e-01,4.88e+00,
836,3.20e-01,5.12e+00,
837,1.60e-01,8.00e-02,
838,3.20e-01,2.40e-01,
839,8.00e-02,8.00e-02,
840,2.40e-01,2.40e-01,
841,8.00e-02,8.00e-02,
842,1.60e-01,1.60e-01,
843,0.00e+00,2.40e-01,
844,1.60e-01,2.40e-01,
845,0.00e+00,8.00e-02,
846,8.00e-02,2.40e-01,
847,-8.00e-02,8.00e-02,
848,8.00e-02,2.40e-01,
849,-8.00e-02,8.00e-02,
850,-8.00e-02,8.00e-02,
851,0.00e+00,2.40e-01,
852,0.00e+00,8.00e-02,
853,-8.00e-02,2.40e-01,
854,0.00e+00,8.00e-02,
855,-1.60e-01,2.40e-01,
856,-1.60e-01,1.60e-01,
857,0.00e+00,8.00e-02,
858,0.00e+00,8.00e-02,
859,-1.60e-01,2.40e-01,
860,0.00e+00,8.00e-02,
861,-8.00e-02,2.40e-01,
862,-8.00e-02,1.60e-01,
863,0.00e+00,8.00e-02,
864,-8.00e-02,8.00e-02,
865,8.00e-02,2.40e-01,
866,8.00e-02,2.40e-01,
867,-8.00e-02,0.00e+00,
868,0.00e+00,8.00e-02,
