project/matlab/project_exp3/200 kHz/NewFile1.csv

X,CH1,CH2,Start,Increment,
Sequence,Volt,Volt,7.080000e-04,2.000000e-08
0,4.00e-01,5.04e+00,
1,4.00e-01,4.88e+00,
2,4.00e-01,5.04e+00,
3,2.40e-01,4.96e+00,
4,3.20e-01,5.04e+00,
5,1.60e-01,4.96e+00,
6,2.40e-01,5.04e+00,
7,8.00e-02,4.88e+00,
8,1.60e-01,5.04e+00,
9,8.00e-02,4.88e+00,
10,1.60e-01,5.04e+00,
11,0.00e+00,4.88e+00,
12,0.00e+00,5.04e+00,
13,8.00e-02,4.88e+00,
14,8.00e-02,5.04e+00,
15,-8.00e-02,4.88e+00,
16,-8.00e-02,5.04e+00,
17,0.00e+00,4.96e+00,
18,0.00e+00,5.12e+00,
19,-8.00e-02,4.88e+00,
20,0.00e+00,5.04e+00,
21,-8.00e-02,4.88e+00,
22,-1.60e-01,5.04e+00,
23,0.00e+00,4.96e+00,
24,-1.60e-01,5.04e+00,
25,0.00e+00,4.96e+00,
26,-1.60e-01,5.04e+00,
27,0.00e+00,4.88e+00,
28,0.00e+00,5.04e+00,
29,-1.60e-01,4.96e+00,
30,-8.00e-02,5.04e+00,
31,0.00e+00,4.96e+00,
32,-8.00e-02,4.96e+00,
33,0.00e+00,5.12e+00,
34,-8.00e-02,5.04e+00,
35,0.00e+00,5.04e+00,
36,-8.00e-02,5.04e+00,
37,8.00e-02,4.88e+00,
38,8.00e-02,4.96e+00,
39,0.00e+00,4.64e+00,
40,0.00e+00,4.72e+00,
41,1.60e-01,4.24e+00,
42,8.00e-02,4.24e+00,
43,2.40e-01,3.76e+00,
44,2.40e-01,3.84e+00,
45,1.60e-01,3.36e+00,
46,1.60e-01,3.36e+00,
47,3.20e-01,2.88e+00,
48,4.00e-01,2.88e+00,
49,2.40e-01,2.40e+00,
50,3.20e-01,2.40e+00,
51,4.80e-01,1.92e+00,
52,4.80e-01,2.00e+00,
53,5.60e-01,1.52e+00,
54,5.60e-01,1.60e+00,
55,6.40e-01,1.20e+00,
56,6.40e-01,1.12e+00,
57,8.00e-01,8.80e-01,
58,7.20e-01,8.80e-01,
59,8.80e-01,5.60e-01,
60,8.00e-01,6.40e-01,
61,9.60e-01,4.00e-01,
62,8.80e-01,3.20e-01,
63,1.04e+00,4.80e-01,
64,9.60e-01,3.20e-01,
65,1.12e+00,3.20e-01,
66,1.12e+00,3.20e-01,
67,1.28e+00,3.20e-01,
68,1.20e+00,3.20e-01,
69,1.36e+00,4.80e-01,
70,1.28e+00,4.00e-01,
71,1.44e+00,6.40e-01,
72,1.44e+00,6.40e-01,
73,1.60e+00,8.80e-01,
74,1.60e+00,8.80e-01,
75,1.76e+00,1.12e+00,
76,1.68e+00,1.12e+00,
77,1.84e+00,1.44e+00,
78,1.84e+00,1.44e+00,
79,2.00e+00,1.68e+00,
80,1.92e+00,1.68e+00,
81,2.08e+00,2.00e+00,
82,2.00e+00,1.92e+00,
83,2.24e+00,2.16e+00,
84,2.16e+00,2.16e+00,
85,2.32e+00,2.48e+00,
86,2.32e+00,2.40e+00,
87,2.48e+00,2.72e+00,
88,2.48e+00,2.64e+00,
89,2.64e+00,2.96e+00,
90,2.56e+00,2.80e+00,
91,2.80e+00,3.12e+00,
92,2.72e+00,3.12e+00,
93,2.88e+00,3.36e+00,
94,2.80e+00,3.36e+00,
95,3.04e+00,3.52e+00,
96,2.96e+00,3.44e+00,
97,3.12e+00,3.76e+00,
98,3.20e+00,3.68e+00,
99,3.04e+00,3.92e+00,
100,3.20e+00,3.76e+00,
101,3.36e+00,4.00e+00,
102,3.36e+00,3.92e+00,
103,3.52e+00,4.16e+00,
104,3.44e+00,4.16e+00,
105,3.60e+00,4.32e+00,
106,3.60e+00,4.24e+00,
107,3.68e+00,4.48e+00,
108,3.68e+00,4.40e+00,
109,3.84e+00,4.64e+00,
110,3.76e+00,4.48e+00,
111,3.92e+00,4.72e+00,
112,3.84e+00,4.64e+00,
113,4.08e+00,4.80e+00,
114,4.00e+00,4.72e+00,
115,4.16e+00,4.88e+00,
116,4.08e+00,4.96e+00,
117,4.24e+00,4.80e+00,
118,4.16e+00,4.80e+00,
119,4.32e+00,5.04e+00,
120,4.40e+00,5.04e+00,
121,4.24e+00,4.88e+00,
122,4.40e+00,4.96e+00,
123,4.56e+00,5.04e+00,
124,4.56e+00,5.04e+00,
125,4.48e+00,4.96e+00,
126,4.56e+00,5.04e+00,
127,4.72e+00,5.04e+00,
128,4.72e+00,5.04e+00,
129,4.56e+00,4.96e+00,
130,4.80e+00,5.04e+00,
131,4.64e+00,5.04e+00,
132,4.72e+00,5.04e+00,
133,4.88e+00,4.88e+00,
134,4.88e+00,5.04e+00,
135,4.72e+00,4.96e+00,
136,4.80e+00,5.04e+00,
137,4.96e+00,4.96e+00,
138,4.80e+00,5.12e+00,
139,4.96e+00,4.96e+00,
140,4.88e+00,5.04e+00,
141,5.04e+00,4.96e+00,
142,5.04e+00,4.96e+00,
143,4.88e+00,5.04e+00,
144,4.96e+00,5.04e+00,
145,5.04e+00,5.04e+00,
146,5.04e+00,5.04e+00,
147,4.96e+00,4.88e+00,
148,5.04e+00,5.04e+00,
149,4.96e+00,4.96e+00,
150,5.04e+00,5.04e+00,
151,4.96e+00,5.04e+00,
152,5.04e+00,5.04e+00,
153,4.96e+00,5.04e+00,
154,5.04e+00,5.04e+00,
155,4.96e+00,5.04e+00,
156,5.04e+00,5.04e+00,
157,4.88e+00,4.96e+00,
158,5.04e+00,5.12e+00,
159,4.88e+00,4.88e+00,
160,5.04e+00,5.04e+00,
161,4.88e+00,4.96e+00,
162,4.96e+00,5.04e+00,
163,4.80e+00,4.96e+00,
164,4.96e+00,5.04e+00,
165,4.80e+00,4.96e+00,
166,4.88e+00,5.04e+00,
167,4.72e+00,5.04e+00,
168,4.80e+00,5.04e+00,
169,4.64e+00,5.04e+00,
170,4.80e+00,5.04e+00,
171,4.64e+00,4.96e+00,
172,4.64e+00,5.04e+00,
173,4.56e+00,4.96e+00,
174,4.64e+00,5.04e+00,
175,4.48e+00,4.96e+00,
176,4.56e+00,5.04e+00,
177,4.40e+00,4.96e+00,
178,4.48e+00,4.88e+00,
179,4.32e+00,5.12e+00,
180,4.48e+00,5.04e+00,
181,4.24e+00,4.96e+00,
182,4.32e+00,5.04e+00,
183,4.16e+00,4.88e+00,
184,4.24e+00,5.04e+00,
185,4.00e+00,5.04e+00,
186,4.08e+00,5.04e+00,
187,3.92e+00,4.96e+00,
188,4.00e+00,5.04e+00,
189,3.84e+00,4.96e+00,
190,3.92e+00,5.04e+00,
191,3.76e+00,4.96e+00,
192,3.84e+00,5.04e+00,
193,3.60e+00,4.96e+00,
194,3.68e+00,5.04e+00,
195,3.52e+00,5.04e+00,
196,3.60e+00,5.04e+00,
197,3.44e+00,4.88e+00,
198,3.52e+00,4.96e+00,
199,3.28e+00,5.20e+00,
200,3.28e+00,5.04e+00,
201,3.12e+00,4.96e+00,
202,3.20e+00,5.04e+00,
203,3.04e+00,4.96e+00,
204,3.12e+00,5.04e+00,
205,2.88e+00,4.96e+00,
206,2.96e+00,5.04e+00,
207,2.80e+00,5.04e+00,
208,2.80e+00,5.04e+00,
209,2.64e+00,5.04e+00,
210,2.72e+00,5.04e+00,
211,2.56e+00,4.96e+00,
212,2.56e+00,5.04e+00,
213,2.40e+00,4.88e+00,
214,2.40e+00,5.04e+00,
215,2.24e+00,4.96e+00,
216,2.32e+00,5.04e+00,
217,2.08e+00,4.96e+00,
218,2.16e+00,5.12e+00,
219,2.00e+00,4.88e+00,
220,2.08e+00,5.04e+00,
221,1.92e+00,4.96e+00,
222,1.92e+00,5.04e+00,
223,1.76e+00,4.96e+00,
224,1.76e+00,5.04e+00,
225,1.68e+00,4.96e+00,
226,1.76e+00,5.04e+00,
227,1.52e+00,4.96e+00,
228,1.52e+00,5.04e+00,
229,1.44e+00,4.96e+00,
230,1.44e+00,5.04e+00,
231,1.28e+00,4.96e+00,
232,1.36e+00,5.04e+00,
233,1.12e+00,5.04e+00,
234,1.20e+00,5.04e+00,
235,1.04e+00,4.96e+00,
236,1.12e+00,5.04e+00,
237,9.60e-01,4.88e+00,
238,1.04e+00,5.12e+00,
239,8.80e-01,4.96e+00,
240,8.80e-01,5.12e+00,
241,7.20e-01,4.96e+00,
242,8.00e-01,5.04e+00,
243,7.20e-01,4.96e+00,
244,7.20e-01,5.04e+00,
245,5.60e-01,4.96e+00,
246,5.60e-01,5.04e+00,
247,4.80e-01,5.04e+00,
248,4.80e-01,5.04e+00,
249,4.00e-01,5.04e+00,
250,4.00e-01,5.04e+00,
251,3.20e-01,4.96e+00,
252,3.20e-01,5.04e+00,
253,2.40e-01,5.04e+00,
254,3.20e-01,5.04e+00,
255,1.60e-01,5.04e+00,
256,1.60e-01,5.04e+00,
257,2.40e-01,5.04e+00,
258,1.60e-01,5.12e+00,
259,8.00e-02,4.96e+00,
260,1.60e-01,5.04e+00,
261,0.00e+00,5.20e+00,
262,8.00e-02,5.04e+00,
263,0.00e+00,5.04e+00,
264,8.00e-02,5.04e+00,
265,-8.00e-02,5.04e+00,
266,0.00e+00,5.04e+00,
267,-8.00e-02,5.04e+00,
268,0.00e+00,5.04e+00,
269,-8.00e-02,5.04e+00,
270,0.00e+00,5.04e+00,
271,-8.00e-02,5.12e+00,
272,-1.60e-01,4.96e+00,
273,0.00e+00,5.12e+00,
274,-1.60e-01,5.04e+00,
275,0.00e+00,5.04e+00,
276,0.00e+00,5.04e+00,
277,-1.60e-01,5.12e+00,
278,-1.60e-01,5.12e+00,
279,0.00e+00,4.96e+00,
280,0.00e+00,5.04e+00,
281,-8.00e-02,5.12e+00,
282,0.00e+00,5.04e+00,
283,-8.00e-02,5.12e+00,
284,-8.00e-02,5.04e+00,
285,8.00e-02,5.12e+00,
286,-8.00e-02,5.12e+00,
287,8.00e-02,4.96e+00,
288,8.00e-02,4.96e+00,
289,0.00e+00,4.72e+00,
290,0.00e+00,4.72e+00,
291,1.60e-01,4.24e+00,
292,8.00e-02,4.24e+00,
293,2.40e-01,3.76e+00,
294,8.00e-02,3.76e+00,
295,2.40e-01,3.28e+00,
296,1.60e-01,3.28e+00,
297,3.20e-01,2.80e+00,
298,2.40e-01,2.80e+00,
299,4.00e-01,2.40e+00,
300,3.20e-01,2.32e+00,
301,4.80e-01,1.92e+00,
302,5.60e-01,1.84e+00,
303,4.00e-01,1.44e+00,
304,5.60e-01,1.44e+00,
305,6.40e-01,9.60e-01,
306,6.40e-01,1.04e+00,
307,8.00e-01,6.40e-01,
308,7.20e-01,7.20e-01,
309,8.00e-01,4.80e-01,
310,8.00e-01,4.80e-01,
311,9.60e-01,3.20e-01,
312,8.80e-01,3.20e-01,
313,1.04e+00,3.20e-01,
314,9.60e-01,3.20e-01,
315,1.12e+00,3.20e-01,
316,1.04e+00,3.20e-01,
317,1.20e+00,3.20e-01,
318,1.20e+00,3.20e-01,
319,1.36e+00,3.20e-01,
320,1.28e+00,3.20e-01,
321,1.44e+00,4.00e-01,
322,1.44e+00,4.00e-01,
323,1.60e+00,6.40e-01,
324,1.60e+00,6.40e-01,
325,1.68e+00,9.60e-01,
326,1.68e+00,9.60e-01,
327,1.84e+00,1.12e+00,
328,1.84e+00,1.20e+00,
329,2.00e+00,1.44e+00,
330,1.92e+00,1.44e+00,
331,2.08e+00,1.76e+00,
332,2.08e+00,1.68e+00,
333,2.24e+00,1.92e+00,
334,2.16e+00,1.92e+00,
335,2.32e+00,2.24e+00,
336,2.32e+00,2.16e+00,
337,2.48e+00,2.48e+00,
338,2.48e+00,2.40e+00,
339,2.64e+00,2.72e+00,
340,2.56e+00,2.64e+00,
341,2.72e+00,2.96e+00,
342,2.72e+00,2.88e+00,
343,2.88e+00,3.12e+00,
344,2.80e+00,3.12e+00,
345,2.96e+00,3.28e+00,
346,2.96e+00,3.28e+00,
347,3.12e+00,3.52e+00,
348,3.04e+00,3.52e+00,
349,3.20e+00,3.76e+00,
350,3.12e+00,3.68e+00,
351,3.36e+00,3.92e+00,
352,3.36e+00,3.84e+00,
353,3.44e+00,4.08e+00,
354,3.44e+00,3.92e+00,
355,3.60e+00,4.24e+00,
356,3.52e+00,4.16e+00,
357,3.76e+00,4.40e+00,
358,3.68e+00,4.32e+00,
359,3.84e+00,4.56e+00,
360,3.76e+00,4.40e+00,
361,3.92e+00,4.64e+00,
362,3.84e+00,4.48e+00,
363,4.08e+00,4.72e+00,
364,4.00e+00,4.80e+00,
365,4.16e+00,4.64e+00,
366,4.08e+00,4.88e+00,
367,4.24e+00,4.72e+00,
368,4.32e+00,4.96e+00,
369,4.16e+00,4.80e+00,
370,4.32e+00,4.80e+00,
371,4.40e+00,5.04e+00,
372,4.40e+00,5.04e+00,
373,4.56e+00,4.88e+00,
374,4.48e+00,4.96e+00,
375,4.56e+00,5.04e+00,
376,4.56e+00,5.04e+00,
377,4.72e+00,5.12e+00,
378,4.56e+00,5.12e+00,
379,4.72e+00,4.96e+00,
380,4.64e+00,5.04e+00,
381,4.80e+00,5.12e+00,
382,4.72e+00,5.04e+00,
383,4.88e+00,5.04e+00,
384,4.88e+00,5.04e+00,
385,4.72e+00,5.12e+00,
386,4.80e+00,5.04e+00,
387,4.96e+00,5.12e+00,
388,4.96e+00,5.04e+00,
389,4.80e+00,5.12e+00,
390,4.88e+00,5.04e+00,
391,4.96e+00,5.12e+00,
392,4.88e+00,5.04e+00,
393,5.04e+00,5.12e+00,
394,5.04e+00,5.04e+00,
395,4.88e+00,5.12e+00,
396,4.96e+00,5.04e+00,
397,5.04e+00,5.20e+00,
398,5.12e+00,5.12e+00,
399,4.88e+00,4.96e+00,
400,5.04e+00,5.12e+00,
401,4.96e+00,4.96e+00,
402,4.96e+00,5.04e+00,
403,5.04e+00,4.96e+00,
404,5.04e+00,5.04e+00,
405,4.96e+00,5.04e+00,
406,5.04e+00,5.04e+00,
407,4.88e+00,5.04e+00,
408,5.04e+00,5.04e+00,
409,4.88e+00,4.96e+00,
410,4.88e+00,5.04e+00,
411,4.96e+00,5.12e+00,
412,4.96e+00,5.04e+00,
413,4.80e+00,5.04e+00,
414,4.80e+00,5.04e+00,
415,4.88e+00,5.04e+00,
416,4.88e+00,4.96e+00,
417,4.72e+00,5.12e+00,
418,4.80e+00,5.12e+00,
419,4.64e+00,4.88e+00,
420,4.72e+00,5.04e+00,
421,4.64e+00,5.12e+00,
422,4.64e+00,5.04e+00,
423,4.56e+00,5.04e+00,
424,4.48e+00,4.96e+00,
425,4.64e+00,5.04e+00,
426,4.56e+00,5.04e+00,
427,4.40e+00,5.04e+00,
428,4.40e+00,5.04e+00,
429,4.32e+00,5.04e+00,
430,4.40e+00,5.04e+00,
431,4.24e+00,4.96e+00,
432,4.24e+00,5.04e+00,
433,4.16e+00,5.04e+00,
434,4.16e+00,5.04e+00,
435,4.00e+00,5.04e+00,
436,4.08e+00,4.88e+00,
437,3.92e+00,5.12e+00,
438,4.00e+00,5.12e+00,
439,3.84e+00,4.88e+00,
440,3.92e+00,5.12e+00,
441,3.68e+00,4.96e+00,
442,3.84e+00,5.04e+00,
443,3.60e+00,5.04e+00,
444,3.68e+00,5.04e+00,
445,3.52e+00,5.04e+00,
446,3.52e+00,5.04e+00,
447,3.36e+00,4.96e+00,
448,3.44e+00,5.04e+00,
449,3.28e+00,4.96e+00,
450,3.28e+00,5.04e+00,
451,3.12e+00,5.04e+00,
452,3.20e+00,5.04e+00,
453,2.96e+00,5.04e+00,
454,3.04e+00,5.04e+00,
455,2.88e+00,5.04e+00,
456,2.96e+00,5.04e+00,
457,2.72e+00,4.96e+00,
458,2.80e+00,5.12e+00,
459,2.64e+00,4.96e+00,
460,2.72e+00,5.04e+00,
461,2.56e+00,4.96e+00,
462,2.56e+00,5.04e+00,
463,2.40e+00,5.04e+00,
464,2.40e+00,5.04e+00,
465,2.32e+00,5.04e+00,
466,2.32e+00,5.04e+00,
467,2.08e+00,5.04e+00,
468,2.16e+00,5.04e+00,
469,2.00e+00,5.04e+00,
470,2.08e+00,5.04e+00,
471,1.84e+00,5.04e+00,
472,1.92e+00,5.04e+00,
473,1.76e+00,5.04e+00,
474,1.84e+00,5.04e+00,
475,1.60e+00,5.04e+00,
476,1.68e+00,5.04e+00,
477,1.52e+00,4.96e+00,
478,1.60e+00,4.96e+00,
479,1.44e+00,5.12e+00,
480,1.44e+00,5.04e+00,
481,1.20e+00,4.96e+00,
482,1.20e+00,5.04e+00,
483,1.28e+00,5.04e+00,
484,1.20e+00,5.04e+00,
485,1.04e+00,5.04e+00,
486,1.12e+00,5.04e+00,
487,9.60e-01,4.96e+00,
488,9.60e-01,5.04e+00,
489,8.00e-01,4.96e+00,
490,8.80e-01,5.04e+00,
491,7.20e-01,4.88e+00,
492,8.00e-01,5.04e+00,
493,6.40e-01,4.88e+00,
494,7.20e-01,5.04e+00,
495,5.60e-01,5.04e+00,
496,5.60e-01,5.04e+00,
497,4.80e-01,5.04e+00,
498,4.80e-01,5.12e+00,
499,4.00e-01,4.96e+00,
500,4.00e-01,5.12e+00,
501,3.20e-01,4.96e+00,
502,3.20e-01,5.04e+00,
503,2.40e-01,5.04e+00,
504,3.20e-01,5.04e+00,
505,1.60e-01,4.96e+00,
506,2.40e-01,5.04e+00,
507,8.00e-02,5.04e+00,
508,1.60e-01,5.04e+00,
509,8.00e-02,5.04e+00,
510,1.60e-01,5.04e+00,
511,0.00e+00,5.04e+00,
512,8.00e-02,4.96e+00,
513,0.00e+00,5.04e+00,
514,8.00e-02,5.04e+00,
515,-8.00e-02,5.04e+00,
516,-8.00e-02,5.04e+00,
517,0.00e+00,4.96e+00,
518,0.00e+00,5.12e+00,
519,-8.00e-02,4.88e+00,
520,-1.60e-01,5.04e+00,
521,0.00e+00,4.96e+00,
522,-1.60e-01,5.04e+00,
523,-8.00e-02,5.04e+00,
524,-1.60e-01,5.04e+00,
525,-8.00e-02,5.12e+00,
526,-1.60e-01,5.04e+00,
527,0.00e+00,4.96e+00,
528,-1.60e-01,5.04e+00,
529,0.00e+00,5.04e+00,
530,-1.60e-01,5.04e+00,
531,0.00e+00,5.04e+00,
532,0.00e+00,5.04e+00,
533,-8.00e-02,5.12e+00,
534,0.00e+00,4.96e+00,
535,-8.00e-02,5.12e+00,
536,-8.00e-02,5.04e+00,
537,8.00e-02,4.88e+00,
538,0.00e+00,4.88e+00,
539,8.00e-02,4.40e+00,
540,0.00e+00,4.40e+00,
541,1.60e-01,3.92e+00,
542,8.00e-02,4.00e+00,
543,2.40e-01,3.44e+00,
544,8.00e-02,3.44e+00,
545,2.40e-01,2.96e+00,
546,1.60e-01,2.88e+00,
547,3.20e-01,2.40e+00,
548,2.40e-01,2.32e+00,
549,4.00e-01,1.84e+00,
550,3.20e-01,1.84e+00,
551,4.80e-01,1.36e+00,
552,4.00e-01,1.36e+00,
553,5.60e-01,8.80e-01,
554,5.60e-01,8.80e-01,
555,6.40e-01,4.80e-01,
556,6.40e-01,5.60e-01,
557,7.20e-01,3.20e-01,
558,6.40e-01,3.20e-01,
559,8.80e-01,1.60e-01,
560,8.00e-01,2.40e-01,
561,9.60e-01,2.40e-01,
562,8.80e-01,2.40e-01,
563,1.04e+00,1.60e-01,
564,9.60e-01,2.40e-01,
565,1.12e+00,2.40e-01,
566,1.04e+00,2.40e-01,
567,1.20e+00,1.60e-01,
568,1.20e+00,2.40e-01,
569,1.36e+00,1.60e-01,
570,1.28e+00,2.40e-01,
571,1.44e+00,1.60e-01,
572,1.44e+00,2.40e-01,
573,1.60e+00,4.00e-01,
574,1.60e+00,3.20e-01,
575,1.76e+00,3.20e-01,
576,1.68e+00,3.20e-01,
577,1.84e+00,4.80e-01,
578,1.76e+00,4.00e-01,
579,2.00e+00,7.20e-01,
580,1.92e+00,6.40e-01,
581,2.08e+00,9.60e-01,
582,2.08e+00,8.80e-01,
583,2.24e+00,1.20e+00,
584,2.16e+00,1.12e+00,
585,2.32e+00,1.44e+00,
586,2.32e+00,1.44e+00,
587,2.48e+00,1.68e+00,
588,2.48e+00,1.68e+00,
589,2.56e+00,1.92e+00,
590,2.56e+00,1.92e+00,
591,2.72e+00,2.16e+00,
592,2.72e+00,2.16e+00,
593,2.88e+00,2.40e+00,
594,2.80e+00,2.40e+00,
595,3.04e+00,2.72e+00,
596,2.96e+00,2.64e+00,
597,3.12e+00,2.88e+00,
598,3.04e+00,2.80e+00,
599,3.20e+00,3.04e+00,
600,3.20e+00,3.12e+00,
601,3.36e+00,3.36e+00,
602,3.36e+00,3.28e+00,
603,3.52e+00,3.52e+00,
604,3.44e+00,3.44e+00,
605,3.60e+00,3.68e+00,
606,3.52e+00,3.60e+00,
607,3.76e+00,3.92e+00,
608,3.68e+00,3.76e+00,
609,3.84e+00,4.00e+00,
610,3.92e+00,4.00e+00,
611,3.76e+00,4.16e+00,
612,3.84e+00,4.16e+00,
613,4.00e+00,4.40e+00,
614,4.00e+00,4.32e+00,
615,4.16e+00,4.40e+00,
616,4.08e+00,4.40e+00,
617,4.24e+00,4.64e+00,
618,4.16e+00,4.48e+00,
619,4.32e+00,4.72e+00,
620,4.32e+00,4.56e+00,
621,4.40e+00,4.80e+00,
622,4.40e+00,4.72e+00,
623,4.48e+00,4.88e+00,
624,4.48e+00,4.80e+00,
625,4.56e+00,4.96e+00,
626,4.56e+00,4.88e+00,
627,4.64e+00,5.04e+00,
628,4.56e+00,5.04e+00,
629,4.72e+00,4.88e+00,
630,4.64e+00,5.04e+00,
631,4.80e+00,4.88e+00,
632,4.72e+00,4.96e+00,
633,4.80e+00,5.04e+00,
634,4.80e+00,5.04e+00,
635,4.88e+00,4.96e+00,
636,4.80e+00,5.04e+00,
637,4.96e+00,4.96e+00,
638,4.96e+00,5.12e+00,
639,4.88e+00,4.96e+00,
640,4.88e+00,5.04e+00,
641,4.96e+00,5.04e+00,
642,4.88e+00,5.04e+00,
643,5.04e+00,4.96e+00,
644,4.88e+00,4.96e+00,
645,5.04e+00,5.04e+00,
646,4.96e+00,5.04e+00,
647,5.04e+00,5.04e+00,
648,5.04e+00,5.04e+00,
649,4.96e+00,4.96e+00,
650,5.04e+00,5.04e+00,
651,4.96e+00,4.96e+00,
652,5.04e+00,5.04e+00,
653,4.96e+00,4.96e+00,
654,4.96e+00,5.04e+00,
655,5.04e+00,5.04e+00,
656,5.04e+00,5.04e+00,
657,4.88e+00,4.96e+00,
658,5.04e+00,5.12e+00,
659,4.88e+00,4.96e+00,
660,4.96e+00,5.04e+00,
661,4.88e+00,4.96e+00,
662,4.96e+00,5.04e+00,
663,4.80e+00,4.96e+00,
664,4.88e+00,5.04e+00,
665,4.80e+00,4.96e+00,
666,4.88e+00,5.04e+00,
667,4.72e+00,5.04e+00,
668,4.80e+00,5.04e+00,
669,4.64e+00,4.96e+00,
670,4.80e+00,5.04e+00,
671,4.64e+00,4.96e+00,
672,4.72e+00,5.04e+00,
673,4.56e+00,4.96e+00,
674,4.64e+00,5.04e+00,
675,4.48e+00,4.96e+00,
676,4.48e+00,5.04e+00,
677,4.40e+00,4.88e+00,
678,4.48e+00,4.96e+00,
679,4.32e+00,5.12e+00,
680,4.40e+00,5.04e+00,
681,4.24e+00,4.88e+00,
682,4.24e+00,5.04e+00,
683,4.08e+00,4.96e+00,
684,4.16e+00,5.04e+00,
685,4.00e+00,4.96e+00,
686,4.08e+00,5.04e+00,
687,3.92e+00,4.96e+00,
688,4.00e+00,5.04e+00,
689,3.84e+00,4.96e+00,
690,3.92e+00,5.04e+00,
691,3.68e+00,4.96e+00,
692,3.76e+00,5.04e+00,
693,3.60e+00,4.96e+00,
694,3.68e+00,5.04e+00,
695,3.52e+00,4.88e+00,
696,3.60e+00,5.04e+00,
697,3.44e+00,4.96e+00,
698,3.44e+00,4.96e+00,
699,3.28e+00,5.12e+00,
700,3.28e+00,5.04e+00,
701,3.12e+00,4.96e+00,
702,3.20e+00,5.04e+00,
703,3.04e+00,4.96e+00,
704,3.04e+00,5.04e+00,
705,2.88e+00,4.96e+00,
706,2.96e+00,5.04e+00,
707,2.72e+00,5.04e+00,
708,2.88e+00,5.04e+00,
709,2.64e+00,4.96e+00,
710,2.72e+00,4.96e+00,
711,2.56e+00,5.04e+00,
712,2.56e+00,5.04e+00,
713,2.40e+00,4.96e+00,
714,2.40e+00,5.04e+00,
715,2.32e+00,4.96e+00,
716,2.32e+00,5.04e+00,
717,2.08e+00,4.88e+00,
718,2.16e+00,4.96e+00,
719,2.08e+00,5.12e+00,
720,2.00e+00,5.04e+00,
721,1.84e+00,4.96e+00,
722,1.92e+00,5.04e+00,
723,1.76e+00,4.88e+00,
724,1.84e+00,5.04e+00,
725,1.60e+00,4.96e+00,
726,1.60e+00,5.04e+00,
727,1.52e+00,4.96e+00,
728,1.52e+00,5.04e+00,
729,1.44e+00,4.96e+00,
730,1.44e+00,5.04e+00,
731,1.20e+00,4.88e+00,
732,1.20e+00,5.04e+00,
733,1.28e+00,4.96e+00,
734,1.20e+00,5.04e+00,
735,1.04e+00,4.88e+00,
736,1.12e+00,5.04e+00,
737,9.60e-01,4.96e+00,
738,1.04e+00,5.12e+00,
739,8.80e-01,4.88e+00,
740,8.80e-01,5.04e+00,
741,7.20e-01,4.96e+00,
742,7.20e-01,5.04e+00,
743,6.40e-01,4.96e+00,
744,7.20e-01,5.04e+00,
745,5.60e-01,4.96e+00,
746,5.60e-01,5.04e+00,
747,4.80e-01,4.96e+00,
748,4.80e-01,5.04e+00,
749,4.00e-01,4.96e+00,
750,3.20e-01,5.04e+00,
751,4.00e-01,4.88e+00,
752,3.20e-01,5.04e+00,
753,2.40e-01,4.96e+00,
754,3.20e-01,4.96e+00,
755,1.60e-01,5.04e+00,
756,2.40e-01,5.04e+00,
757,8.00e-02,4.96e+00,
758,8.00e-02,4.88e+00,
759,1.60e-01,5.12e+00,
760,1.60e-01,5.04e+00,
761,0.00e+00,4.96e+00,
762,0.00e+00,5.04e+00,
763,8.00e-02,4.96e+00,
764,8.00e-02,5.04e+00,
765,-8.00e-02,4.96e+00,
766,0.00e+00,5.04e+00,
767,-8.00e-02,5.04e+00,
768,0.00e+00,5.04e+00,
769,-8.00e-02,5.04e+00,
770,0.00e+00,5.04e+00,
771,-1.60e-01,4.96e+00,
772,0.00e+00,5.04e+00,
773,-1.60e-01,4.96e+00,
774,0.00e+00,5.04e+00,
775,-1.60e-01,4.96e+00,
776,-1.60e-01,5.04e+00,
777,0.00e+00,4.96e+00,
778,-1.60e-01,5.12e+00,
779,0.00e+00,4.96e+00,
780,-8.00e-02,5.04e+00,
781,0.00e+00,5.04e+00,
782,-8.00e-02,5.04e+00,
783,0.00e+00,5.04e+00,
784,-8.00e-02,5.04e+00,
785,8.00e-02,5.04e+00,
786,-8.00e-02,5.04e+00,
787,8.00e-02,4.96e+00,
788,0.00e+00,4.96e+00,
789,8.00e-02,4.56e+00,
790,0.00e+00,4.56e+00,
791,1.60e-01,4.16e+00,
792,8.00e-02,4.24e+00,
793,2.40e-01,3.68e+00,
794,2.40e-01,3.76e+00,
795,1.60e-01,3.28e+00,
796,1.60e-01,3.20e+00,
797,3.20e-01,2.72e+00,
798,3.20e-01,2.72e+00,
799,4.00e-01,2.32e+00,
800,4.00e-01,2.24e+00,
801,4.80e-01,1.76e+00,
802,4.80e-01,1.84e+00,
803,5.60e-01,1.36e+00,
804,5.60e-01,1.36e+00,
805,7.20e-01,9.60e-01,
806,6.40e-01,1.04e+00,
807,8.00e-01,6.40e-01,
808,7.20e-01,6.40e-01,
809,8.80e-01,4.00e-01,
810,8.00e-01,4.00e-01,
811,9.60e-01,3.20e-01,
812,8.80e-01,4.00e-01,
813,1.04e+00,2.40e-01,
814,9.60e-01,3.20e-01,
815,1.12e+00,2.40e-01,
816,1.04e+00,3.20e-01,
817,1.28e+00,2.40e-01,
818,1.20e+00,3.20e-01,
819,1.36e+00,4.00e-01,
820,1.28e+00,3.20e-01,
821,1.44e+00,4.00e-01,
822,1.44e+00,4.00e-01,
823,1.60e+00,5.60e-01,
824,1.60e+00,5.60e-01,
825,1.76e+00,8.80e-01,
826,1.68e+00,8.00e-01,
827,1.84e+00,1.04e+00,
828,1.76e+00,1.04e+00,
829,2.00e+00,1.36e+00,
830,1.92e+00,1.36e+00,
831,2.08e+00,1.60e+00,
832,2.08e+00,1.60e+00,
833,2.24e+00,1.84e+00,
834,2.24e+00,1.84e+00,
835,2.32e+00,2.16e+00,
836,2.32e+00,2.16e+00,
837,2.48e+00,2.32e+00,
838,2.48e+00,2.32e+00,
839,2.56e+00,2.64e+00,
840,2.56e+00,2.64e+00,
841,2.72e+00,2.88e+00,
842,2.72e+00,2.88e+00,
843,2.88e+00,3.04e+00,
844,2.80e+00,3.04e+00,
845,3.04e+00,3.28e+00,
846,2.96e+00,3.20e+00,
847,3.12e+00,3.52e+00,
848,3.04e+00,3.44e+00,
849,3.20e+00,3.68e+00,
850,3.20e+00,3.60e+00,
851,3.36e+00,3.84e+00,
852,3.28e+00,3.76e+00,
853,3.44e+00,4.00e+00,
854,3.44e+00,3.92e+00,
855,3.60e+00,4.16e+00,
856,3.60e+00,4.16e+00,
857,3.68e+00,4.32e+00,
858,3.68e+00,4.24e+00,
859,3.84e+00,4.48e+00,
860,3.76e+00,4.40e+00,
861,3.92e+00,4.56e+00,
862,3.84e+00,4.64e+00,
863,4.08e+00,4.48e+00,
864,3.92e+00,4.56e+00,
865,4.16e+00,4.72e+00,
866,4.24e+00,4.64e+00,
867,4.08e+00,4.88e+00,
868,4.16e+00,4.72e+00,
