project/matlab/project_exp3/200 Hz/NewFile1.csv

X,CH1,CH2,Start,Increment,
Sequence,Volt,Volt,-1.128000e-02,2.000000e-05
0,8.00e-02,1.60e-01,
1,-8.00e-02,8.00e-02,
2,0.00e+00,1.60e-01,
3,1.60e-01,8.00e-02,
4,1.60e-01,1.60e-01,
5,0.00e+00,0.00e+00,
6,8.00e-02,2.40e-01,
7,2.40e-01,0.00e+00,
8,8.00e-02,8.00e-02,
9,2.40e-01,2.40e-01,
10,1.60e-01,1.60e-01,
11,3.20e-01,0.00e+00,
12,2.40e-01,1.60e-01,
13,4.00e-01,0.00e+00,
14,4.00e-01,1.60e-01,
15,5.60e-01,0.00e+00,
16,4.00e-01,1.60e-01,
17,6.40e-01,0.00e+00,
18,4.80e-01,1.60e-01,
19,7.20e-01,0.00e+00,
20,5.60e-01,2.40e-01,
21,8.00e-01,0.00e+00,
22,6.40e-01,8.00e-02,
23,8.80e-01,5.04e+00,
24,7.20e-01,5.04e+00,
25,9.60e-01,4.88e+00,
26,8.80e-01,5.04e+00,
27,1.04e+00,4.88e+00,
28,9.60e-01,5.04e+00,
29,1.12e+00,4.88e+00,
30,1.04e+00,5.04e+00,
31,1.20e+00,4.88e+00,
32,1.12e+00,5.04e+00,
33,1.36e+00,4.88e+00,
34,1.20e+00,4.88e+00,
35,1.52e+00,5.12e+00,
36,1.44e+00,5.12e+00,
37,1.60e+00,4.88e+00,
38,1.52e+00,5.12e+00,
39,1.76e+00,4.88e+00,
40,1.60e+00,4.88e+00,
41,1.84e+00,5.20e+00,
42,1.76e+00,4.88e+00,
43,1.92e+00,5.20e+00,
44,1.84e+00,5.12e+00,
45,2.08e+00,4.88e+00,
46,1.92e+00,4.88e+00,
47,2.16e+00,5.12e+00,
48,2.08e+00,5.12e+00,
49,2.32e+00,4.88e+00,
50,2.16e+00,5.12e+00,
51,2.48e+00,4.88e+00,
52,2.40e+00,4.88e+00,
53,2.56e+00,5.20e+00,
54,2.48e+00,5.20e+00,
55,2.72e+00,4.88e+00,
56,2.56e+00,4.88e+00,
57,2.80e+00,5.20e+00,
58,2.72e+00,4.88e+00,
59,2.96e+00,5.12e+00,
60,2.80e+00,4.96e+00,
61,3.04e+00,5.20e+00,
62,2.96e+00,4.96e+00,
63,3.20e+00,5.20e+00,
64,3.04e+00,4.96e+00,
65,3.28e+00,5.20e+00,
66,3.12e+00,4.96e+00,
67,3.44e+00,5.20e+00,
68,3.36e+00,5.20e+00,
69,3.52e+00,4.88e+00,
70,3.44e+00,4.96e+00,
71,3.68e+00,5.20e+00,
72,3.52e+00,5.20e+00,
73,3.76e+00,4.88e+00,
74,3.60e+00,4.96e+00,
75,3.84e+00,5.20e+00,
76,3.76e+00,4.96e+00,
77,3.92e+00,5.20e+00,
78,3.84e+00,5.04e+00,
79,4.08e+00,5.20e+00,
80,3.92e+00,5.04e+00,
81,4.16e+00,5.20e+00,
82,4.00e+00,5.20e+00,
83,4.24e+00,4.88e+00,
84,4.08e+00,4.88e+00,
85,4.40e+00,5.20e+00,
86,4.24e+00,5.20e+00,
87,4.48e+00,4.96e+00,
88,4.32e+00,5.04e+00,
89,4.48e+00,5.20e+00,
90,4.56e+00,5.20e+00,
91,4.40e+00,4.96e+00,
92,4.40e+00,5.20e+00,
93,4.64e+00,4.96e+00,
94,4.48e+00,5.20e+00,
95,4.72e+00,4.96e+00,
96,4.72e+00,5.20e+00,
97,4.56e+00,4.88e+00,
98,4.64e+00,5.20e+00,
99,4.80e+00,5.04e+00,
100,4.64e+00,5.20e+00,
101,4.88e+00,4.96e+00,
102,4.72e+00,5.20e+00,
103,4.88e+00,4.96e+00,
104,4.72e+00,5.20e+00,
105,4.88e+00,4.88e+00,
106,4.72e+00,5.20e+00,
107,4.96e+00,4.96e+00,
108,4.96e+00,5.20e+00,
109,4.80e+00,4.96e+00,
110,4.96e+00,5.20e+00,
111,4.80e+00,4.96e+00,
112,4.80e+00,5.04e+00,
113,4.96e+00,5.20e+00,
114,4.80e+00,5.20e+00,
115,4.88e+00,4.96e+00,
116,4.80e+00,4.96e+00,
117,4.96e+00,5.20e+00,
118,4.96e+00,4.96e+00,
119,4.80e+00,5.20e+00,
120,4.80e+00,5.20e+00,
121,4.96e+00,4.96e+00,
122,4.96e+00,5.04e+00,
123,4.72e+00,5.20e+00,
124,4.88e+00,5.20e+00,
125,4.72e+00,5.04e+00,
126,4.72e+00,5.04e+00,
127,4.88e+00,5.20e+00,
128,4.80e+00,5.20e+00,
129,4.64e+00,5.04e+00,
130,4.64e+00,5.20e+00,
131,4.80e+00,5.04e+00,
132,4.72e+00,4.96e+00,
133,4.56e+00,5.20e+00,
134,4.72e+00,5.20e+00,
135,4.48e+00,4.96e+00,
136,4.48e+00,4.96e+00,
137,4.64e+00,5.20e+00,
138,4.56e+00,5.20e+00,
139,4.40e+00,5.04e+00,
140,4.56e+00,4.96e+00,
141,4.32e+00,5.20e+00,
142,4.48e+00,5.20e+00,
143,4.24e+00,4.96e+00,
144,4.40e+00,5.20e+00,
145,4.08e+00,4.96e+00,
146,4.24e+00,5.20e+00,
147,4.00e+00,4.96e+00,
148,4.16e+00,5.20e+00,
149,3.92e+00,4.96e+00,
150,4.08e+00,4.96e+00,
151,3.84e+00,5.20e+00,
152,4.00e+00,5.20e+00,
153,3.76e+00,4.96e+00,
154,3.84e+00,5.04e+00,
155,3.68e+00,5.20e+00,
156,3.76e+00,5.20e+00,
157,3.52e+00,4.96e+00,
158,3.68e+00,4.96e+00,
159,3.44e+00,5.20e+00,
160,3.60e+00,4.96e+00,
161,3.36e+00,5.20e+00,
162,3.44e+00,5.20e+00,
163,3.12e+00,5.04e+00,
164,3.28e+00,5.04e+00,
165,3.04e+00,5.20e+00,
166,3.20e+00,5.04e+00,
167,2.96e+00,5.20e+00,
168,3.04e+00,5.20e+00,
169,2.80e+00,5.04e+00,
170,2.96e+00,5.12e+00,
171,2.72e+00,5.20e+00,
172,2.80e+00,5.12e+00,
173,2.64e+00,5.20e+00,
174,2.72e+00,5.20e+00,
175,2.48e+00,5.04e+00,
176,2.56e+00,5.20e+00,
177,2.40e+00,5.04e+00,
178,2.40e+00,5.20e+00,
179,2.16e+00,5.04e+00,
180,2.32e+00,4.96e+00,
181,2.08e+00,5.20e+00,
182,2.16e+00,5.04e+00,
183,1.92e+00,5.20e+00,
184,2.08e+00,5.20e+00,
185,1.84e+00,4.96e+00,
186,1.92e+00,5.20e+00,
187,1.76e+00,4.96e+00,
188,1.84e+00,5.20e+00,
189,1.60e+00,4.96e+00,
190,1.76e+00,5.20e+00,
191,1.52e+00,4.96e+00,
192,1.60e+00,4.96e+00,
193,1.44e+00,5.20e+00,
194,1.52e+00,5.20e+00,
195,1.28e+00,4.96e+00,
196,1.36e+00,5.04e+00,
197,1.12e+00,5.20e+00,
198,1.20e+00,5.20e+00,
199,1.04e+00,4.96e+00,
200,1.12e+00,5.20e+00,
201,9.60e-01,4.96e+00,
202,1.04e+00,5.20e+00,
203,8.80e-01,5.04e+00,
204,9.60e-01,5.20e+00,
205,7.20e-01,5.04e+00,
206,8.80e-01,5.12e+00,
207,6.40e-01,5.20e+00,
208,8.00e-01,5.12e+00,
209,5.60e-01,5.20e+00,
210,7.20e-01,5.12e+00,
211,4.80e-01,5.20e+00,
212,4.80e-01,5.20e+00,
213,6.40e-01,5.04e+00,
214,4.00e-01,5.20e+00,
215,5.60e-01,5.04e+00,
216,4.00e-01,5.20e+00,
217,2.40e-01,8.00e-02,
218,3.20e-01,8.00e-02,
219,1.60e-01,2.40e-01,
220,2.40e-01,2.40e-01,
221,8.00e-02,8.00e-02,
222,2.40e-01,8.00e-02,
223,8.00e-02,2.40e-01,
224,1.60e-01,1.60e-01,
225,0.00e+00,8.00e-02,
226,1.60e-01,1.60e-01,
227,0.00e+00,8.00e-02,
228,8.00e-02,1.60e-01,
229,-8.00e-02,8.00e-02,
230,-8.00e-02,1.60e-01,
231,8.00e-02,8.00e-02,
232,0.00e+00,1.60e-01,
233,-8.00e-02,8.00e-02,
234,0.00e+00,8.00e-02,
235,-8.00e-02,1.60e-01,
236,0.00e+00,1.60e-01,
237,-8.00e-02,8.00e-02,
238,0.00e+00,1.60e-01,
239,-1.60e-01,8.00e-02,
240,0.00e+00,1.60e-01,
241,-1.60e-01,8.00e-02,
242,0.00e+00,8.00e-02,
243,-8.00e-02,1.60e-01,
244,-8.00e-02,1.60e-01,
245,0.00e+00,8.00e-02,
246,0.00e+00,1.60e-01,
247,-8.00e-02,8.00e-02,
248,-8.00e-02,1.60e-01,
249,8.00e-02,8.00e-02,
250,-8.00e-02,1.60e-01,
251,8.00e-02,8.00e-02,
252,0.00e+00,8.00e-02,
253,1.60e-01,1.60e-01,
254,0.00e+00,1.60e-01,
255,1.60e-01,8.00e-02,
256,8.00e-02,0.00e+00,
257,2.40e-01,1.60e-01,
258,2.40e-01,1.60e-01,
259,8.00e-02,8.00e-02,
260,1.60e-01,1.60e-01,
261,3.20e-01,8.00e-02,
262,2.40e-01,1.60e-01,
263,4.00e-01,0.00e+00,
264,4.00e-01,1.60e-01,
265,5.60e-01,8.00e-02,
266,4.00e-01,1.60e-01,
267,6.40e-01,0.00e+00,
268,4.80e-01,1.60e-01,
269,7.20e-01,8.00e-02,
270,5.60e-01,8.00e-02,
271,8.00e-01,1.60e-01,
272,6.40e-01,8.00e-02,
273,8.80e-01,5.04e+00,
274,7.20e-01,5.04e+00,
275,9.60e-01,4.88e+00,
276,8.80e-01,5.04e+00,
277,1.04e+00,4.88e+00,
278,9.60e-01,5.04e+00,
279,1.12e+00,4.88e+00,
280,1.04e+00,4.88e+00,
281,1.20e+00,5.12e+00,
282,1.12e+00,4.88e+00,
283,1.36e+00,5.04e+00,
284,1.20e+00,5.04e+00,
285,1.52e+00,4.88e+00,
286,1.44e+00,5.04e+00,
287,1.60e+00,4.88e+00,
288,1.52e+00,4.88e+00,
289,1.76e+00,5.04e+00,
290,1.60e+00,5.12e+00,
291,1.84e+00,4.88e+00,
292,1.76e+00,4.88e+00,
293,1.92e+00,5.20e+00,
294,1.84e+00,4.88e+00,
295,2.08e+00,5.20e+00,
296,1.92e+00,4.88e+00,
297,2.16e+00,5.20e+00,
298,2.08e+00,5.12e+00,
299,2.32e+00,4.88e+00,
300,2.24e+00,4.88e+00,
301,2.48e+00,5.12e+00,
302,2.40e+00,5.20e+00,
303,2.56e+00,4.88e+00,
304,2.48e+00,5.12e+00,
305,2.72e+00,4.88e+00,
306,2.56e+00,5.20e+00,
307,2.80e+00,4.88e+00,
308,2.72e+00,4.88e+00,
309,2.96e+00,5.20e+00,
310,2.80e+00,5.20e+00,
311,3.04e+00,4.88e+00,
312,2.96e+00,4.88e+00,
313,3.20e+00,5.20e+00,
314,3.04e+00,5.20e+00,
315,3.28e+00,4.88e+00,
316,3.12e+00,4.96e+00,
317,3.44e+00,5.20e+00,
318,3.36e+00,5.20e+00,
319,3.60e+00,4.96e+00,
320,3.44e+00,4.88e+00,
321,3.68e+00,5.20e+00,
322,3.52e+00,5.20e+00,
323,3.76e+00,4.88e+00,
324,3.60e+00,4.96e+00,
325,3.84e+00,5.20e+00,
326,3.76e+00,5.20e+00,
327,3.92e+00,4.96e+00,
328,3.84e+00,4.96e+00,
329,4.08e+00,5.20e+00,
330,3.92e+00,5.20e+00,
331,4.16e+00,4.96e+00,
332,4.00e+00,5.20e+00,
333,4.24e+00,4.96e+00,
334,4.08e+00,5.20e+00,
335,4.32e+00,4.96e+00,
336,4.16e+00,5.20e+00,
337,4.48e+00,4.88e+00,
338,4.32e+00,4.96e+00,
339,4.56e+00,5.20e+00,
340,4.56e+00,5.20e+00,
341,4.40e+00,4.96e+00,
342,4.40e+00,4.96e+00,
343,4.64e+00,5.20e+00,
344,4.48e+00,5.20e+00,
345,4.72e+00,4.96e+00,
346,4.72e+00,4.88e+00,
347,4.56e+00,5.20e+00,
348,4.64e+00,5.20e+00,
349,4.80e+00,4.96e+00,
350,4.64e+00,4.96e+00,
351,4.80e+00,5.20e+00,
352,4.88e+00,5.20e+00,
353,4.72e+00,4.96e+00,
354,4.72e+00,5.20e+00,
355,4.88e+00,4.96e+00,
356,4.72e+00,5.20e+00,
357,4.96e+00,4.96e+00,
358,4.96e+00,5.20e+00,
359,4.80e+00,4.96e+00,
360,4.80e+00,5.20e+00,
361,4.96e+00,4.96e+00,
362,4.80e+00,5.20e+00,
363,4.96e+00,5.04e+00,
364,4.80e+00,5.20e+00,
365,4.96e+00,5.04e+00,
366,4.96e+00,5.20e+00,
367,4.80e+00,5.04e+00,
368,4.96e+00,5.12e+00,
369,4.80e+00,5.20e+00,
370,4.96e+00,5.04e+00,
371,4.80e+00,5.20e+00,
372,4.96e+00,5.20e+00,
373,4.72e+00,5.04e+00,
374,4.88e+00,5.12e+00,
375,4.72e+00,5.20e+00,
376,4.72e+00,5.20e+00,
377,4.88e+00,5.04e+00,
378,4.80e+00,5.20e+00,
379,4.64e+00,4.96e+00,
380,4.80e+00,4.96e+00,
381,4.64e+00,5.20e+00,
382,4.80e+00,5.04e+00,
383,4.56e+00,5.20e+00,
384,4.72e+00,4.96e+00,
385,4.48e+00,5.20e+00,
386,4.48e+00,5.20e+00,
387,4.64e+00,4.96e+00,
388,4.56e+00,4.96e+00,
389,4.40e+00,5.20e+00,
390,4.56e+00,5.20e+00,
391,4.32e+00,4.96e+00,
392,4.48e+00,5.04e+00,
393,4.16e+00,5.20e+00,
394,4.40e+00,5.20e+00,
395,4.08e+00,4.96e+00,
396,4.24e+00,5.20e+00,
397,4.00e+00,4.96e+00,
398,4.16e+00,4.96e+00,
399,3.92e+00,5.20e+00,
400,4.08e+00,5.20e+00,
401,3.84e+00,4.96e+00,
402,3.92e+00,5.20e+00,
403,3.76e+00,5.04e+00,
404,3.84e+00,5.20e+00,
405,3.60e+00,5.04e+00,
406,3.76e+00,5.12e+00,
407,3.52e+00,5.20e+00,
408,3.68e+00,5.20e+00,
409,3.44e+00,5.12e+00,
410,3.60e+00,5.20e+00,
411,3.36e+00,4.88e+00,
412,3.44e+00,5.20e+00,
413,3.20e+00,5.04e+00,
414,3.28e+00,5.20e+00,
415,3.04e+00,5.04e+00,
416,3.20e+00,5.12e+00,
417,2.96e+00,5.20e+00,
418,3.04e+00,5.20e+00,
419,2.80e+00,4.96e+00,
420,2.96e+00,5.20e+00,
421,2.72e+00,4.96e+00,
422,2.80e+00,4.96e+00,
423,2.64e+00,5.20e+00,
424,2.72e+00,5.20e+00,
425,2.48e+00,4.96e+00,
426,2.56e+00,5.04e+00,
427,2.40e+00,5.20e+00,
428,2.48e+00,5.20e+00,
429,2.16e+00,4.96e+00,
430,2.32e+00,4.96e+00,
431,2.08e+00,5.20e+00,
432,2.16e+00,5.20e+00,
433,1.92e+00,4.96e+00,
434,2.08e+00,5.04e+00,
435,1.84e+00,5.20e+00,
436,1.92e+00,4.96e+00,
437,1.76e+00,5.20e+00,
438,1.84e+00,5.20e+00,
439,1.60e+00,4.96e+00,
440,1.76e+00,4.96e+00,
441,1.52e+00,5.20e+00,
442,1.60e+00,5.12e+00,
443,1.44e+00,5.20e+00,
444,1.52e+00,5.20e+00,
445,1.20e+00,5.04e+00,
446,1.36e+00,5.20e+00,
447,1.12e+00,5.04e+00,
448,1.20e+00,5.20e+00,
449,1.04e+00,5.12e+00,
450,1.12e+00,5.20e+00,
451,9.60e-01,5.04e+00,
452,1.04e+00,5.12e+00,
453,8.00e-01,5.20e+00,
454,9.60e-01,5.20e+00,
455,7.20e-01,5.04e+00,
456,8.80e-01,5.20e+00,
457,6.40e-01,5.04e+00,
458,8.00e-01,5.20e+00,
459,5.60e-01,5.04e+00,
460,7.20e-01,5.20e+00,
461,4.80e-01,4.96e+00,
462,4.80e-01,5.20e+00,
463,6.40e-01,4.96e+00,
464,5.60e-01,5.20e+00,
465,4.00e-01,4.96e+00,
466,4.00e-01,5.20e+00,
467,2.40e-01,8.00e-02,
468,3.20e-01,2.40e-01,
469,1.60e-01,8.00e-02,
470,3.20e-01,2.40e-01,
471,8.00e-02,8.00e-02,
472,8.00e-02,8.00e-02,
473,2.40e-01,2.40e-01,
474,1.60e-01,2.40e-01,
475,0.00e+00,8.00e-02,
476,0.00e+00,2.40e-01,
477,1.60e-01,8.00e-02,
478,8.00e-02,8.00e-02,
479,-8.00e-02,2.40e-01,
480,8.00e-02,8.00e-02,
481,-8.00e-02,2.40e-01,
482,0.00e+00,8.00e-02,
483,-8.00e-02,2.40e-01,
484,0.00e+00,0.00e+00,
485,-8.00e-02,2.40e-01,
486,0.00e+00,1.60e-01,
487,-8.00e-02,0.00e+00,
488,-8.00e-02,1.60e-01,
489,0.00e+00,8.00e-02,
490,0.00e+00,1.60e-01,
491,-8.00e-02,0.00e+00,
492,0.00e+00,1.60e-01,
493,-8.00e-02,0.00e+00,
494,0.00e+00,1.60e-01,
495,-8.00e-02,0.00e+00,
496,-8.00e-02,1.60e-01,
497,0.00e+00,8.00e-02,
498,-8.00e-02,1.60e-01,
499,8.00e-02,8.00e-02,
500,-8.00e-02,1.60e-01,
501,8.00e-02,8.00e-02,
502,0.00e+00,1.60e-01,
503,1.60e-01,8.00e-02,
504,1.60e-01,1.60e-01,
505,0.00e+00,8.00e-02,
506,8.00e-02,2.40e-01,
507,2.40e-01,0.00e+00,
508,8.00e-02,1.60e-01,
509,2.40e-01,8.00e-02,
510,2.40e-01,1.60e-01,
511,3.20e-01,8.00e-02,
512,2.40e-01,1.60e-01,
513,4.00e-01,8.00e-02,
514,3.20e-01,8.00e-02,
515,5.60e-01,2.40e-01,
516,4.00e-01,1.60e-01,
517,6.40e-01,0.00e+00,
518,4.80e-01,1.60e-01,
519,7.20e-01,8.00e-02,
520,5.60e-01,8.00e-02,
521,8.00e-01,2.40e-01,
522,6.40e-01,8.00e-02,
523,8.80e-01,5.04e+00,
524,7.20e-01,4.88e+00,
525,9.60e-01,5.04e+00,
526,8.80e-01,4.96e+00,
527,1.04e+00,4.88e+00,
528,9.60e-01,4.96e+00,
529,1.12e+00,4.88e+00,
530,1.04e+00,4.88e+00,
531,1.20e+00,5.04e+00,
532,1.12e+00,4.88e+00,
533,1.36e+00,5.04e+00,
534,1.28e+00,5.04e+00,
535,1.52e+00,4.88e+00,
536,1.44e+00,4.88e+00,
537,1.60e+00,5.12e+00,
538,1.52e+00,4.88e+00,
539,1.76e+00,5.12e+00,
540,1.60e+00,5.12e+00,
541,1.84e+00,4.88e+00,
542,1.76e+00,4.88e+00,
543,1.92e+00,5.20e+00,
544,1.84e+00,5.20e+00,
545,2.08e+00,4.88e+00,
546,1.92e+00,4.88e+00,
547,2.16e+00,5.20e+00,
548,2.08e+00,4.88e+00,
549,2.32e+00,5.20e+00,
550,2.16e+00,5.20e+00,
551,2.40e+00,4.88e+00,
552,2.40e+00,4.88e+00,
553,2.64e+00,5.12e+00,
554,2.48e+00,5.20e+00,
555,2.72e+00,4.88e+00,
556,2.56e+00,5.12e+00,
557,2.80e+00,4.88e+00,
558,2.72e+00,4.88e+00,
559,2.96e+00,5.20e+00,
560,2.80e+00,4.88e+00,
561,3.04e+00,5.20e+00,
562,2.96e+00,5.20e+00,
563,3.12e+00,4.96e+00,
564,3.04e+00,5.20e+00,
565,3.28e+00,4.88e+00,
566,3.12e+00,4.88e+00,
567,3.44e+00,5.20e+00,
568,3.36e+00,5.20e+00,
569,3.52e+00,4.88e+00,
570,3.44e+00,4.96e+00,
571,3.68e+00,5.20e+00,
572,3.52e+00,4.88e+00,
573,3.76e+00,5.20e+00,
574,3.60e+00,5.20e+00,
575,3.84e+00,4.88e+00,
576,3.76e+00,4.96e+00,
577,3.92e+00,5.20e+00,
578,3.84e+00,5.20e+00,
579,4.08e+00,4.88e+00,
580,3.92e+00,5.20e+00,
581,4.16e+00,4.88e+00,
582,4.00e+00,5.20e+00,
583,4.24e+00,4.88e+00,
584,4.08e+00,5.20e+00,
585,4.40e+00,4.88e+00,
586,4.16e+00,4.96e+00,
587,4.48e+00,5.20e+00,
588,4.32e+00,5.20e+00,
589,4.56e+00,4.88e+00,
590,4.40e+00,5.20e+00,
591,4.56e+00,4.96e+00,
592,4.40e+00,4.96e+00,
593,4.64e+00,5.20e+00,
594,4.48e+00,5.20e+00,
595,4.72e+00,4.88e+00,
596,4.72e+00,5.20e+00,
597,4.56e+00,4.96e+00,
598,4.56e+00,4.96e+00,
599,4.80e+00,5.20e+00,
600,4.64e+00,4.96e+00,
601,4.80e+00,5.20e+00,
602,4.72e+00,5.20e+00,
603,4.88e+00,4.88e+00,
604,4.72e+00,4.96e+00,
605,4.88e+00,5.20e+00,
606,4.72e+00,5.04e+00,
607,4.96e+00,5.20e+00,
608,4.96e+00,5.20e+00,
609,4.80e+00,5.04e+00,
610,4.96e+00,5.20e+00,
611,4.80e+00,5.04e+00,
612,4.80e+00,5.20e+00,
613,4.96e+00,5.04e+00,
614,4.96e+00,5.04e+00,
615,4.80e+00,5.20e+00,
616,4.96e+00,5.20e+00,
617,4.80e+00,4.96e+00,
618,4.96e+00,5.20e+00,
619,4.80e+00,4.96e+00,
620,4.96e+00,5.20e+00,
621,4.80e+00,4.96e+00,
622,4.96e+00,4.96e+00,
623,4.72e+00,5.20e+00,
624,4.72e+00,5.20e+00,
625,4.88e+00,4.96e+00,
626,4.72e+00,5.20e+00,
627,4.88e+00,4.96e+00,
628,4.88e+00,5.20e+00,
629,4.64e+00,4.96e+00,
630,4.64e+00,5.20e+00,
631,4.80e+00,4.96e+00,
632,4.72e+00,5.20e+00,
633,4.56e+00,4.96e+00,
634,4.72e+00,5.20e+00,
635,4.48e+00,4.88e+00,
636,4.48e+00,5.04e+00,
637,4.64e+00,5.20e+00,
638,4.56e+00,5.20e+00,
639,4.40e+00,4.96e+00,
640,4.56e+00,4.96e+00,
641,4.32e+00,5.20e+00,
642,4.48e+00,5.20e+00,
643,4.16e+00,4.96e+00,
644,4.40e+00,5.20e+00,
645,4.08e+00,5.04e+00,
646,4.24e+00,5.12e+00,
647,4.00e+00,5.20e+00,
648,4.16e+00,5.12e+00,
649,3.92e+00,5.20e+00,
650,4.08e+00,5.20e+00,
651,3.84e+00,5.04e+00,
652,3.92e+00,5.20e+00,
653,3.76e+00,5.04e+00,
654,3.84e+00,5.04e+00,
655,3.60e+00,5.20e+00,
656,3.76e+00,5.20e+00,
657,3.52e+00,5.04e+00,
658,3.68e+00,5.20e+00,
659,3.44e+00,5.04e+00,
660,3.60e+00,5.20e+00,
661,3.36e+00,4.96e+00,
662,3.44e+00,5.20e+00,
663,3.12e+00,4.96e+00,
664,3.28e+00,4.96e+00,
665,3.04e+00,5.20e+00,
666,3.20e+00,5.20e+00,
667,2.96e+00,4.96e+00,
668,3.04e+00,5.20e+00,
669,2.80e+00,4.96e+00,
670,2.96e+00,5.20e+00,
671,2.72e+00,4.96e+00,
672,2.80e+00,5.20e+00,
673,2.56e+00,4.96e+00,
674,2.72e+00,4.96e+00,
675,2.48e+00,5.20e+00,
676,2.56e+00,5.20e+00,
677,2.40e+00,4.96e+00,
678,2.48e+00,5.04e+00,
679,2.16e+00,5.20e+00,
680,2.32e+00,5.20e+00,
681,2.08e+00,4.96e+00,
682,2.16e+00,5.04e+00,
683,2.00e+00,5.20e+00,
684,2.08e+00,5.20e+00,
685,1.84e+00,5.04e+00,
686,1.92e+00,5.12e+00,
687,1.76e+00,5.20e+00,
688,1.84e+00,5.12e+00,
689,1.60e+00,5.20e+00,
690,1.76e+00,5.20e+00,
691,1.52e+00,5.12e+00,
692,1.60e+00,5.20e+00,
693,1.44e+00,5.04e+00,
694,1.52e+00,5.04e+00,
695,1.20e+00,5.20e+00,
696,1.36e+00,5.20e+00,
697,1.12e+00,5.04e+00,
698,1.20e+00,5.20e+00,
699,1.04e+00,5.04e+00,
700,1.12e+00,5.20e+00,
701,9.60e-01,4.96e+00,
702,1.04e+00,5.20e+00,
703,8.80e-01,4.96e+00,
704,9.60e-01,4.96e+00,
705,7.20e-01,5.20e+00,
706,8.80e-01,5.04e+00,
707,6.40e-01,5.20e+00,
708,8.00e-01,5.20e+00,
709,5.60e-01,4.96e+00,
710,7.20e-01,5.20e+00,
711,4.80e-01,4.96e+00,
712,4.80e-01,5.20e+00,
713,5.60e-01,4.96e+00,
714,4.80e-01,5.20e+00,
715,4.00e-01,4.96e+00,
716,4.00e-01,5.20e+00,
717,2.40e-01,8.00e-02,
718,3.20e-01,2.40e-01,
719,1.60e-01,8.00e-02,
720,2.40e-01,2.40e-01,
721,8.00e-02,8.00e-02,
722,2.40e-01,8.00e-02,
723,8.00e-02,2.40e-01,
724,1.60e-01,8.00e-02,
725,0.00e+00,2.40e-01,
726,1.60e-01,1.60e-01,
727,0.00e+00,8.00e-02,
728,8.00e-02,1.60e-01,
729,-8.00e-02,8.00e-02,
730,8.00e-02,1.60e-01,
731,-8.00e-02,8.00e-02,
732,-8.00e-02,1.60e-01,
733,0.00e+00,8.00e-02,
734,0.00e+00,1.60e-01,
735,-8.00e-02,8.00e-02,
736,0.00e+00,1.60e-01,
737,-8.00e-02,8.00e-02,
738,0.00e+00,1.60e-01,
739,-1.60e-01,8.00e-02,
740,0.00e+00,1.60e-01,
741,-1.60e-01,8.00e-02,
742,-8.00e-02,8.00e-02,
743,0.00e+00,1.60e-01,
744,-8.00e-02,1.60e-01,
745,0.00e+00,8.00e-02,
746,-8.00e-02,1.60e-01,
747,0.00e+00,8.00e-02,
748,-8.00e-02,1.60e-01,
749,8.00e-02,8.00e-02,
750,8.00e-02,1.60e-01,
751,-8.00e-02,8.00e-02,
752,0.00e+00,1.60e-01,
753,1.60e-01,8.00e-02,
754,1.60e-01,1.60e-01,
755,0.00e+00,8.00e-02,
756,8.00e-02,8.00e-02,
757,2.40e-01,1.60e-01,
758,2.40e-01,1.60e-01,
759,8.00e-02,0.00e+00,
760,1.60e-01,1.60e-01,
761,3.20e-01,8.00e-02,
762,2.40e-01,1.60e-01,
763,4.00e-01,8.00e-02,
764,3.20e-01,1.60e-01,
765,4.80e-01,0.00e+00,
766,4.00e-01,1.60e-01,
767,6.40e-01,8.00e-02,
768,4.80e-01,1.60e-01,
769,7.20e-01,0.00e+00,
770,5.60e-01,1.60e-01,
771,8.00e-01,8.00e-02,
772,6.40e-01,8.00e-02,
773,8.80e-01,5.04e+00,
774,7.20e-01,5.04e+00,
775,9.60e-01,4.88e+00,
776,8.80e-01,4.88e+00,
777,1.04e+00,4.96e+00,
778,9.60e-01,4.88e+00,
779,1.12e+00,5.04e+00,
780,1.04e+00,4.88e+00,
781,1.20e+00,5.04e+00,
782,1.12e+00,5.04e+00,
783,1.36e+00,4.88e+00,
784,1.20e+00,4.88e+00,
785,1.52e+00,5.12e+00,
786,1.44e+00,5.12e+00,
787,1.60e+00,4.88e+00,
788,1.52e+00,4.88e+00,
789,1.76e+00,5.12e+00,
790,1.60e+00,5.12e+00,
791,1.84e+00,4.88e+00,
792,1.76e+00,4.88e+00,
793,1.92e+00,5.20e+00,
794,1.84e+00,5.20e+00,
795,2.08e+00,4.88e+00,
796,1.92e+00,4.88e+00,
797,2.16e+00,5.12e+00,
798,2.08e+00,4.88e+00,
799,2.32e+00,5.12e+00,
800,2.16e+00,5.20e+00,
801,2.48e+00,4.88e+00,
802,2.40e+00,5.20e+00,
803,2.56e+00,4.88e+00,
804,2.48e+00,4.88e+00,
805,2.72e+00,5.20e+00,
806,2.56e+00,4.88e+00,
807,2.80e+00,5.20e+00,
808,2.72e+00,5.20e+00,
809,2.96e+00,4.88e+00,
810,2.80e+00,5.20e+00,
811,3.04e+00,4.88e+00,
812,2.96e+00,4.88e+00,
813,3.20e+00,5.20e+00,
814,3.04e+00,5.20e+00,
815,3.28e+00,4.88e+00,
816,3.20e+00,5.20e+00,
817,3.44e+00,4.88e+00,
818,3.36e+00,5.20e+00,
819,3.60e+00,4.88e+00,
820,3.44e+00,5.12e+00,
821,3.68e+00,4.88e+00,
822,3.52e+00,5.20e+00,
823,3.76e+00,4.88e+00,
824,3.60e+00,5.12e+00,
825,3.84e+00,4.88e+00,
826,3.76e+00,5.20e+00,
827,3.92e+00,4.88e+00,
828,3.84e+00,4.96e+00,
829,4.08e+00,5.20e+00,
830,3.92e+00,5.20e+00,
831,4.16e+00,4.96e+00,
832,4.00e+00,5.04e+00,
833,4.24e+00,5.20e+00,
834,4.08e+00,5.20e+00,
835,4.40e+00,4.96e+00,
836,4.24e+00,5.20e+00,
837,4.48e+00,4.96e+00,
838,4.32e+00,5.20e+00,
839,4.56e+00,4.96e+00,
840,4.40e+00,4.96e+00,
841,4.56e+00,5.20e+00,
842,4.40e+00,4.96e+00,
843,4.64e+00,5.20e+00,
844,4.48e+00,5.04e+00,
845,4.72e+00,5.20e+00,
846,4.56e+00,5.20e+00,
847,4.72e+00,4.96e+00,
848,4.64e+00,5.20e+00,
849,4.80e+00,4.96e+00,
850,4.64e+00,5.20e+00,
851,4.88e+00,4.96e+00,
852,4.72e+00,5.20e+00,
853,4.88e+00,4.96e+00,
854,4.72e+00,5.20e+00,
855,4.88e+00,4.96e+00,
856,4.72e+00,5.20e+00,
857,4.96e+00,4.96e+00,
858,4.96e+00,5.20e+00,
859,4.80e+00,4.96e+00,
860,4.96e+00,4.96e+00,
861,4.80e+00,5.20e+00,
862,4.80e+00,4.96e+00,
863,4.96e+00,5.20e+00,
864,4.80e+00,5.04e+00,
865,4.96e+00,5.20e+00,
866,4.96e+00,4.96e+00,
867,4.80e+00,5.20e+00,
868,4.96e+00,5.20e+00,
