project/matlab/project_exp3/300 Hz/NewFile1.csv

X,CH1,CH2,Start,Increment,
Sequence,Volt,Volt,-5.280000e-03,1.000000e-05
0,3.04e+00,4.88e+00,
1,2.88e+00,5.20e+00,
2,2.96e+00,4.88e+00,
3,2.80e+00,5.20e+00,
4,2.88e+00,5.20e+00,
5,2.72e+00,4.88e+00,
6,2.80e+00,4.88e+00,
7,2.56e+00,5.20e+00,
8,2.72e+00,5.20e+00,
9,2.48e+00,4.88e+00,
10,2.64e+00,4.88e+00,
11,2.40e+00,5.20e+00,
12,2.56e+00,5.20e+00,
13,2.24e+00,4.88e+00,
14,2.48e+00,4.88e+00,
15,2.16e+00,5.20e+00,
16,2.32e+00,4.88e+00,
17,2.08e+00,5.20e+00,
18,2.24e+00,5.20e+00,
19,2.00e+00,4.88e+00,
20,2.16e+00,4.88e+00,
21,1.92e+00,5.20e+00,
22,2.08e+00,4.88e+00,
23,1.84e+00,5.20e+00,
24,1.92e+00,5.20e+00,
25,1.76e+00,4.88e+00,
26,1.84e+00,5.20e+00,
27,1.68e+00,4.88e+00,
28,1.76e+00,4.88e+00,
29,1.60e+00,5.20e+00,
30,1.68e+00,5.20e+00,
31,1.52e+00,4.88e+00,
32,1.60e+00,5.20e+00,
33,1.44e+00,4.88e+00,
34,1.52e+00,5.20e+00,
35,1.36e+00,4.88e+00,
36,1.36e+00,5.20e+00,
37,1.20e+00,4.88e+00,
38,1.28e+00,4.88e+00,
39,1.12e+00,5.20e+00,
40,1.20e+00,4.88e+00,
41,1.04e+00,5.20e+00,
42,1.12e+00,4.88e+00,
43,9.60e-01,5.20e+00,
44,9.60e-01,4.88e+00,
45,1.12e+00,5.20e+00,
46,1.04e+00,4.88e+00,
47,8.80e-01,5.20e+00,
48,9.60e-01,4.88e+00,
49,8.00e-01,5.20e+00,
50,8.80e-01,4.88e+00,
51,7.20e-01,5.20e+00,
52,8.00e-01,4.88e+00,
53,6.40e-01,5.20e+00,
54,7.20e-01,4.88e+00,
55,5.60e-01,5.20e+00,
56,5.60e-01,4.88e+00,
57,7.20e-01,5.20e+00,
58,6.40e-01,5.20e+00,
59,4.80e-01,4.88e+00,
60,5.60e-01,5.20e+00,
61,4.00e-01,4.88e+00,
62,5.60e-01,5.20e+00,
63,3.20e-01,4.88e+00,
64,4.00e-01,4.88e+00,
65,2.40e-01,5.20e+00,
66,2.40e-01,4.88e+00,
67,3.20e-01,8.00e-02,
68,3.20e-01,2.40e-01,
69,1.60e-01,8.00e-02,
70,2.40e-01,2.40e-01,
71,1.60e-01,8.00e-02,
72,2.40e-01,2.40e-01,
73,8.00e-02,8.00e-02,
74,8.00e-02,2.40e-01,
75,1.60e-01,8.00e-02,
76,1.60e-01,8.00e-02,
77,0.00e+00,2.40e-01,
78,1.60e-01,8.00e-02,
79,0.00e+00,2.40e-01,
80,8.00e-02,8.00e-02,
81,0.00e+00,1.60e-01,
82,8.00e-02,8.00e-02,
83,-8.00e-02,2.40e-01,
84,8.00e-02,8.00e-02,
85,-8.00e-02,2.40e-01,
86,0.00e+00,8.00e-02,
87,-8.00e-02,2.40e-01,
88,-8.00e-02,8.00e-02,
89,0.00e+00,2.40e-01,
90,0.00e+00,1.60e-01,
91,-8.00e-02,8.00e-02,
92,0.00e+00,8.00e-02,
93,-8.00e-02,2.40e-01,
94,-8.00e-02,1.60e-01,
95,0.00e+00,8.00e-02,
96,-8.00e-02,8.00e-02,
97,0.00e+00,2.40e-01,
98,0.00e+00,8.00e-02,
99,-8.00e-02,2.40e-01,
100,0.00e+00,2.40e-01,
101,-8.00e-02,0.00e+00,
102,-8.00e-02,1.60e-01,
103,0.00e+00,8.00e-02,
104,-8.00e-02,1.60e-01,
105,0.00e+00,0.00e+00,
106,-8.00e-02,8.00e-02,
107,8.00e-02,1.60e-01,
108,-8.00e-02,1.60e-01,
109,8.00e-02,8.00e-02,
110,8.00e-02,1.60e-01,
111,0.00e+00,8.00e-02,
112,8.00e-02,1.60e-01,
113,0.00e+00,8.00e-02,
114,0.00e+00,8.00e-02,
115,1.60e-01,1.60e-01,
116,1.60e-01,1.60e-01,
117,8.00e-02,8.00e-02,
118,8.00e-02,1.60e-01,
119,2.40e-01,8.00e-02,
120,1.60e-01,1.60e-01,
121,2.40e-01,0.00e+00,
122,1.60e-01,1.60e-01,
123,3.20e-01,8.00e-02,
124,3.20e-01,1.60e-01,
125,1.60e-01,8.00e-02,
126,2.40e-01,1.60e-01,
127,4.00e-01,8.00e-02,
128,4.00e-01,1.60e-01,
129,4.00e-01,8.00e-02,
130,4.00e-01,1.60e-01,
131,5.60e-01,0.00e+00,
132,4.80e-01,1.60e-01,
133,6.40e-01,8.00e-02,
134,5.60e-01,1.60e-01,
135,7.20e-01,8.00e-02,
136,5.60e-01,2.40e-01,
137,7.20e-01,0.00e+00,
138,6.40e-01,8.00e-02,
139,8.00e-01,2.40e-01,
140,7.20e-01,8.00e-02,
141,8.80e-01,5.04e+00,
142,8.00e-01,5.04e+00,
143,9.60e-01,4.88e+00,
144,8.00e-01,5.04e+00,
145,9.60e-01,4.88e+00,
146,1.04e+00,5.04e+00,
147,8.80e-01,4.88e+00,
148,9.60e-01,5.04e+00,
149,1.12e+00,4.88e+00,
150,1.04e+00,4.88e+00,
151,1.20e+00,5.12e+00,
152,1.12e+00,4.88e+00,
153,1.28e+00,5.20e+00,
154,1.20e+00,4.88e+00,
155,1.36e+00,5.20e+00,
156,1.28e+00,4.88e+00,
157,1.52e+00,5.20e+00,
158,1.44e+00,4.88e+00,
159,1.60e+00,5.20e+00,
160,1.52e+00,4.88e+00,
161,1.68e+00,5.20e+00,
162,1.60e+00,5.20e+00,
163,1.76e+00,4.88e+00,
164,1.68e+00,5.20e+00,
165,1.84e+00,4.88e+00,
166,1.76e+00,5.20e+00,
167,1.92e+00,4.88e+00,
168,1.84e+00,4.88e+00,
169,2.00e+00,5.20e+00,
170,1.92e+00,4.88e+00,
171,2.08e+00,5.20e+00,
172,2.00e+00,4.88e+00,
173,2.16e+00,5.20e+00,
174,2.08e+00,4.88e+00,
175,2.32e+00,5.20e+00,
176,2.16e+00,4.88e+00,
177,2.48e+00,5.20e+00,
178,2.24e+00,5.20e+00,
179,2.56e+00,4.88e+00,
180,2.40e+00,4.88e+00,
181,2.64e+00,5.20e+00,
182,2.48e+00,5.20e+00,
183,2.72e+00,4.88e+00,
184,2.56e+00,5.20e+00,
185,2.80e+00,4.88e+00,
186,2.64e+00,5.20e+00,
187,2.88e+00,4.88e+00,
188,2.72e+00,4.88e+00,
189,2.96e+00,5.20e+00,
190,2.88e+00,5.20e+00,
191,3.04e+00,4.88e+00,
192,2.96e+00,4.88e+00,
193,3.12e+00,5.20e+00,
194,3.04e+00,4.88e+00,
195,3.20e+00,5.20e+00,
196,3.12e+00,4.88e+00,
197,3.28e+00,5.20e+00,
198,3.20e+00,4.88e+00,
199,3.44e+00,5.20e+00,
200,3.28e+00,4.88e+00,
201,3.52e+00,5.20e+00,
202,3.36e+00,4.88e+00,
203,3.60e+00,5.20e+00,
204,3.44e+00,5.20e+00,
205,3.68e+00,4.88e+00,
206,3.52e+00,4.88e+00,
207,3.76e+00,5.20e+00,
208,3.60e+00,5.20e+00,
209,3.84e+00,4.88e+00,
210,3.68e+00,4.88e+00,
211,3.92e+00,5.20e+00,
212,3.76e+00,4.88e+00,
213,4.00e+00,5.20e+00,
214,3.84e+00,5.20e+00,
215,4.08e+00,4.88e+00,
216,3.92e+00,4.88e+00,
217,4.16e+00,5.20e+00,
218,4.00e+00,5.20e+00,
219,4.16e+00,4.88e+00,
220,4.00e+00,5.20e+00,
221,4.24e+00,4.88e+00,
222,4.08e+00,4.88e+00,
223,4.40e+00,5.20e+00,
224,4.40e+00,4.88e+00,
225,4.24e+00,5.20e+00,
226,4.32e+00,4.88e+00,
227,4.48e+00,5.20e+00,
228,4.32e+00,5.20e+00,
229,4.56e+00,4.88e+00,
230,4.56e+00,5.20e+00,
231,4.40e+00,4.88e+00,
232,4.40e+00,5.20e+00,
233,4.64e+00,4.88e+00,
234,4.64e+00,4.88e+00,
235,4.48e+00,5.20e+00,
236,4.48e+00,5.20e+00,
237,4.72e+00,4.88e+00,
238,4.56e+00,5.20e+00,
239,4.80e+00,4.88e+00,
240,4.56e+00,4.88e+00,
241,4.80e+00,5.20e+00,
242,4.80e+00,4.88e+00,
243,4.64e+00,5.20e+00,
244,4.64e+00,4.88e+00,
245,4.88e+00,5.20e+00,
246,4.88e+00,5.20e+00,
247,4.64e+00,4.88e+00,
248,4.88e+00,5.20e+00,
249,4.72e+00,4.88e+00,
250,4.72e+00,5.20e+00,
251,4.88e+00,4.88e+00,
252,4.96e+00,4.88e+00,
253,4.72e+00,5.20e+00,
254,4.80e+00,4.88e+00,
255,4.96e+00,5.20e+00,
256,4.96e+00,4.88e+00,
257,4.80e+00,5.20e+00,
258,4.80e+00,4.88e+00,
259,4.96e+00,5.20e+00,
260,4.96e+00,5.20e+00,
261,4.80e+00,4.88e+00,
262,4.88e+00,5.20e+00,
263,4.96e+00,4.88e+00,
264,4.96e+00,4.88e+00,
265,4.80e+00,5.20e+00,
266,4.96e+00,5.20e+00,
267,4.88e+00,4.88e+00,
268,4.96e+00,4.88e+00,
269,4.80e+00,5.20e+00,
270,4.96e+00,5.20e+00,
271,4.72e+00,4.88e+00,
272,4.96e+00,4.88e+00,
273,4.72e+00,5.20e+00,
274,4.72e+00,5.20e+00,
275,4.96e+00,4.88e+00,
276,4.72e+00,5.20e+00,
277,4.88e+00,4.88e+00,
278,4.88e+00,5.20e+00,
279,4.72e+00,4.88e+00,
280,4.88e+00,4.88e+00,
281,4.64e+00,5.20e+00,
282,4.64e+00,4.88e+00,
283,4.80e+00,5.20e+00,
284,4.80e+00,4.88e+00,
285,4.56e+00,5.20e+00,
286,4.56e+00,4.88e+00,
287,4.72e+00,5.20e+00,
288,4.72e+00,5.20e+00,
289,4.48e+00,4.88e+00,
290,4.48e+00,5.20e+00,
291,4.64e+00,4.88e+00,
292,4.64e+00,5.20e+00,
293,4.40e+00,4.88e+00,
294,4.40e+00,4.88e+00,
295,4.56e+00,5.20e+00,
296,4.56e+00,4.88e+00,
297,4.32e+00,5.20e+00,
298,4.48e+00,4.88e+00,
299,4.24e+00,5.20e+00,
300,4.24e+00,5.20e+00,
301,4.40e+00,4.88e+00,
302,4.40e+00,5.20e+00,
303,4.08e+00,4.88e+00,
304,4.24e+00,5.20e+00,
305,4.00e+00,4.88e+00,
306,4.16e+00,4.88e+00,
307,4.00e+00,5.20e+00,
308,4.08e+00,4.88e+00,
309,3.92e+00,5.20e+00,
310,4.00e+00,4.88e+00,
311,3.84e+00,5.20e+00,
312,4.00e+00,5.20e+00,
313,3.76e+00,4.88e+00,
314,3.92e+00,5.20e+00,
315,3.68e+00,4.88e+00,
316,3.84e+00,4.88e+00,
317,3.60e+00,5.20e+00,
318,3.76e+00,5.20e+00,
319,3.52e+00,4.88e+00,
320,3.68e+00,4.88e+00,
321,3.44e+00,5.20e+00,
322,3.60e+00,4.88e+00,
323,3.36e+00,5.20e+00,
324,3.52e+00,5.20e+00,
325,3.28e+00,4.88e+00,
326,3.44e+00,5.20e+00,
327,3.12e+00,4.88e+00,
328,3.28e+00,4.88e+00,
329,3.04e+00,5.20e+00,
330,3.20e+00,4.88e+00,
331,2.96e+00,5.20e+00,
332,3.12e+00,5.20e+00,
333,2.88e+00,4.88e+00,
334,3.04e+00,4.88e+00,
335,2.80e+00,5.20e+00,
336,2.96e+00,4.88e+00,
337,2.72e+00,5.20e+00,
338,2.88e+00,4.88e+00,
339,2.64e+00,5.20e+00,
340,2.80e+00,5.20e+00,
341,2.56e+00,4.88e+00,
342,2.72e+00,4.88e+00,
343,2.48e+00,5.20e+00,
344,2.64e+00,5.20e+00,
345,2.40e+00,4.88e+00,
346,2.48e+00,4.88e+00,
347,2.24e+00,5.20e+00,
348,2.32e+00,5.20e+00,
349,2.16e+00,4.88e+00,
350,2.24e+00,4.88e+00,
351,2.08e+00,5.20e+00,
352,2.16e+00,4.88e+00,
353,2.00e+00,5.20e+00,
354,2.08e+00,5.20e+00,
355,1.92e+00,4.88e+00,
356,2.00e+00,5.20e+00,
357,1.84e+00,4.88e+00,
358,1.92e+00,4.88e+00,
359,1.76e+00,5.20e+00,
360,1.84e+00,5.20e+00,
361,1.68e+00,4.88e+00,
362,1.76e+00,5.20e+00,
363,1.60e+00,4.88e+00,
364,1.68e+00,4.88e+00,
365,1.52e+00,5.20e+00,
366,1.60e+00,4.88e+00,
367,1.44e+00,5.20e+00,
368,1.52e+00,5.20e+00,
369,1.28e+00,4.88e+00,
370,1.36e+00,5.20e+00,
371,1.20e+00,4.88e+00,
372,1.28e+00,5.20e+00,
373,1.12e+00,4.88e+00,
374,1.20e+00,5.20e+00,
375,1.04e+00,4.88e+00,
376,1.12e+00,5.20e+00,
377,9.60e-01,4.88e+00,
378,1.04e+00,4.88e+00,
379,8.80e-01,5.20e+00,
380,9.60e-01,4.88e+00,
381,8.00e-01,5.20e+00,
382,8.00e-01,4.88e+00,
383,9.60e-01,5.20e+00,
384,8.80e-01,4.88e+00,
385,7.20e-01,5.20e+00,
386,8.00e-01,5.20e+00,
387,6.40e-01,4.88e+00,
388,7.20e-01,4.88e+00,
389,5.60e-01,5.20e+00,
390,6.40e-01,4.88e+00,
391,5.60e-01,5.20e+00,
392,4.80e-01,4.88e+00,
393,6.40e-01,5.20e+00,
394,5.60e-01,5.20e+00,
395,4.00e-01,4.88e+00,
396,4.00e-01,5.20e+00,
397,3.20e-01,4.88e+00,
398,4.00e-01,5.20e+00,
399,2.40e-01,8.00e-02,
400,3.20e-01,2.40e-01,
401,1.60e-01,8.00e-02,
402,1.60e-01,2.40e-01,
403,3.20e-01,8.00e-02,
404,2.40e-01,2.40e-01,
405,8.00e-02,8.00e-02,
406,2.40e-01,2.40e-01,
407,8.00e-02,8.00e-02,
408,8.00e-02,2.40e-01,
409,1.60e-01,8.00e-02,
410,1.60e-01,8.00e-02,
411,0.00e+00,2.40e-01,
412,8.00e-02,8.00e-02,
413,0.00e+00,2.40e-01,
414,8.00e-02,8.00e-02,
415,-8.00e-02,2.40e-01,
416,8.00e-02,8.00e-02,
417,-8.00e-02,2.40e-01,
418,8.00e-02,1.60e-01,
419,-8.00e-02,8.00e-02,
420,-8.00e-02,8.00e-02,
421,0.00e+00,2.40e-01,
422,0.00e+00,8.00e-02,
423,-8.00e-02,2.40e-01,
424,-8.00e-02,1.60e-01,
425,0.00e+00,8.00e-02,
426,0.00e+00,0.00e+00,
427,-1.60e-01,2.40e-01,
428,0.00e+00,2.40e-01,
429,-1.60e-01,8.00e-02,
430,0.00e+00,1.60e-01,
431,-8.00e-02,8.00e-02,
432,-8.00e-02,1.60e-01,
433,0.00e+00,0.00e+00,
434,0.00e+00,8.00e-02,
435,-8.00e-02,2.40e-01,
436,-8.00e-02,1.60e-01,
437,0.00e+00,8.00e-02,
438,0.00e+00,8.00e-02,
439,-8.00e-02,2.40e-01,
440,-8.00e-02,0.00e+00,
441,8.00e-02,2.40e-01,
442,8.00e-02,1.60e-01,
443,-8.00e-02,8.00e-02,
444,0.00e+00,1.60e-01,
445,8.00e-02,0.00e+00,
446,0.00e+00,1.60e-01,
447,1.60e-01,8.00e-02,
448,1.60e-01,1.60e-01,
449,0.00e+00,8.00e-02,
450,8.00e-02,1.60e-01,
451,1.60e-01,0.00e+00,
452,8.00e-02,1.60e-01,
453,2.40e-01,0.00e+00,
454,1.60e-01,2.40e-01,
455,2.40e-01,0.00e+00,
456,1.60e-01,2.40e-01,
457,3.20e-01,0.00e+00,
458,3.20e-01,0.00e+00,
459,2.40e-01,2.40e-01,
460,2.40e-01,0.00e+00,
461,4.00e-01,2.40e-01,
462,3.20e-01,1.60e-01,
463,5.60e-01,8.00e-02,
464,4.00e-01,8.00e-02,
465,5.60e-01,2.40e-01,
466,4.80e-01,1.60e-01,
467,6.40e-01,0.00e+00,
468,5.60e-01,8.00e-02,
469,7.20e-01,2.40e-01,
470,6.40e-01,8.00e-02,
471,8.00e-01,2.40e-01,
472,8.00e-01,8.00e-02,
473,6.40e-01,2.40e-01,
474,7.20e-01,1.60e-01,
475,8.80e-01,5.04e+00,
476,8.00e-01,5.04e+00,
477,9.60e-01,4.88e+00,
478,8.80e-01,4.88e+00,
479,1.04e+00,5.04e+00,
480,9.60e-01,5.04e+00,
481,1.12e+00,4.88e+00,
482,1.04e+00,5.04e+00,
483,1.20e+00,4.96e+00,
484,1.04e+00,4.88e+00,
485,1.28e+00,5.20e+00,
486,1.12e+00,4.96e+00,
487,1.36e+00,5.12e+00,
488,1.20e+00,5.20e+00,
489,1.52e+00,4.96e+00,
490,1.36e+00,4.88e+00,
491,1.52e+00,5.20e+00,
492,1.44e+00,4.88e+00,
493,1.60e+00,5.20e+00,
494,1.52e+00,5.20e+00,
495,1.68e+00,4.88e+00,
496,1.60e+00,4.88e+00,
497,1.76e+00,5.20e+00,
498,1.68e+00,5.20e+00,
499,1.92e+00,4.88e+00,
500,1.76e+00,4.88e+00,
501,2.00e+00,5.20e+00,
502,1.84e+00,5.20e+00,
503,2.08e+00,4.88e+00,
504,1.92e+00,4.88e+00,
505,2.16e+00,5.20e+00,
506,2.00e+00,4.88e+00,
507,2.24e+00,5.20e+00,
508,2.08e+00,4.88e+00,
509,2.32e+00,5.20e+00,
510,2.24e+00,4.88e+00,
511,2.48e+00,5.20e+00,
512,2.40e+00,4.88e+00,
513,2.56e+00,5.20e+00,
514,2.48e+00,4.88e+00,
515,2.64e+00,5.20e+00,
516,2.56e+00,4.88e+00,
517,2.72e+00,5.20e+00,
518,2.64e+00,4.88e+00,
519,2.80e+00,5.20e+00,
520,2.72e+00,4.88e+00,
521,2.88e+00,5.20e+00,
522,2.80e+00,5.20e+00,
523,2.96e+00,4.88e+00,
524,3.04e+00,4.88e+00,
525,2.88e+00,5.20e+00,
526,2.96e+00,4.88e+00,
527,3.12e+00,5.20e+00,
528,3.04e+00,4.88e+00,
529,3.28e+00,5.20e+00,
530,3.12e+00,4.88e+00,
531,3.36e+00,5.20e+00,
532,3.28e+00,5.20e+00,
533,3.44e+00,4.88e+00,
534,3.36e+00,4.88e+00,
535,3.60e+00,5.20e+00,
536,3.44e+00,5.20e+00,
537,3.60e+00,4.88e+00,
538,3.52e+00,4.88e+00,
539,3.68e+00,5.20e+00,
540,3.60e+00,5.20e+00,
541,3.76e+00,4.88e+00,
542,3.68e+00,4.88e+00,
543,3.84e+00,5.20e+00,
544,3.68e+00,4.88e+00,
545,3.92e+00,5.20e+00,
546,3.76e+00,4.88e+00,
547,4.00e+00,5.20e+00,
548,3.84e+00,4.88e+00,
549,4.08e+00,5.20e+00,
550,3.92e+00,5.20e+00,
551,4.16e+00,4.88e+00,
552,4.16e+00,4.88e+00,
553,4.00e+00,5.20e+00,
554,4.24e+00,5.20e+00,
555,4.08e+00,4.88e+00,
556,4.08e+00,4.88e+00,
557,4.40e+00,5.20e+00,
558,4.24e+00,5.20e+00,
559,4.48e+00,4.88e+00,
560,4.32e+00,4.88e+00,
561,4.48e+00,5.20e+00,
562,4.32e+00,4.88e+00,
563,4.56e+00,5.20e+00,
564,4.40e+00,5.20e+00,
565,4.64e+00,4.88e+00,
566,4.64e+00,4.88e+00,
567,4.48e+00,5.20e+00,
568,4.48e+00,5.20e+00,
569,4.72e+00,4.88e+00,
570,4.72e+00,4.88e+00,
571,4.56e+00,5.20e+00,
572,4.56e+00,4.88e+00,
573,4.80e+00,5.20e+00,
574,4.56e+00,4.88e+00,
575,4.80e+00,5.20e+00,
576,4.80e+00,4.88e+00,
577,4.64e+00,5.20e+00,
578,4.64e+00,4.88e+00,
579,4.88e+00,5.20e+00,
580,4.88e+00,4.88e+00,
581,4.72e+00,5.20e+00,
582,4.88e+00,5.20e+00,
583,4.72e+00,4.88e+00,
584,4.72e+00,5.20e+00,
585,4.88e+00,4.88e+00,
586,4.72e+00,4.88e+00,
587,4.96e+00,5.20e+00,
588,4.96e+00,4.88e+00,
589,4.80e+00,5.20e+00,
590,4.88e+00,4.88e+00,
591,4.96e+00,5.20e+00,
592,4.96e+00,4.88e+00,
593,4.88e+00,5.20e+00,
594,4.96e+00,4.88e+00,
595,4.88e+00,5.20e+00,
596,4.96e+00,5.20e+00,
597,4.88e+00,4.88e+00,
598,4.96e+00,5.20e+00,
599,4.80e+00,4.88e+00,
600,4.96e+00,4.88e+00,
601,4.80e+00,5.20e+00,
602,4.96e+00,5.20e+00,
603,4.80e+00,4.88e+00,
604,4.96e+00,4.88e+00,
605,4.72e+00,5.20e+00,
606,4.72e+00,5.20e+00,
607,4.96e+00,4.88e+00,
608,4.88e+00,4.88e+00,
609,4.72e+00,5.20e+00,
610,4.88e+00,5.20e+00,
611,4.72e+00,4.88e+00,
612,4.88e+00,4.88e+00,
613,4.64e+00,5.20e+00,
614,4.64e+00,4.88e+00,
615,4.80e+00,5.20e+00,
616,4.80e+00,4.88e+00,
617,4.64e+00,5.20e+00,
618,4.80e+00,4.88e+00,
619,4.56e+00,5.20e+00,
620,4.56e+00,4.88e+00,
621,4.72e+00,5.20e+00,
622,4.72e+00,4.88e+00,
623,4.48e+00,5.20e+00,
624,4.48e+00,4.88e+00,
625,4.64e+00,5.20e+00,
626,4.64e+00,5.20e+00,
627,4.40e+00,4.88e+00,
628,4.56e+00,4.88e+00,
629,4.32e+00,5.20e+00,
630,4.32e+00,4.88e+00,
631,4.48e+00,5.20e+00,
632,4.48e+00,4.88e+00,
633,4.24e+00,5.20e+00,
634,4.24e+00,4.88e+00,
635,4.40e+00,5.20e+00,
636,4.24e+00,4.88e+00,
637,4.08e+00,5.20e+00,
638,4.24e+00,5.20e+00,
639,4.00e+00,4.88e+00,
640,4.16e+00,4.88e+00,
641,3.92e+00,5.20e+00,
642,4.08e+00,4.88e+00,
643,3.84e+00,5.20e+00,
644,4.00e+00,5.20e+00,
645,3.76e+00,4.88e+00,
646,3.92e+00,4.96e+00,
647,3.76e+00,5.20e+00,
648,3.84e+00,5.20e+00,
649,3.68e+00,4.88e+00,
650,3.84e+00,4.88e+00,
651,3.60e+00,5.20e+00,
652,3.76e+00,5.20e+00,
653,3.52e+00,4.88e+00,
654,3.68e+00,5.20e+00,
655,3.44e+00,4.88e+00,
656,3.60e+00,4.88e+00,
657,3.36e+00,5.20e+00,
658,3.52e+00,4.88e+00,
659,3.20e+00,5.20e+00,
660,3.44e+00,5.20e+00,
661,3.12e+00,4.88e+00,
662,3.28e+00,5.20e+00,
663,3.04e+00,4.88e+00,
664,3.20e+00,4.88e+00,
665,2.96e+00,5.20e+00,
666,3.12e+00,4.88e+00,
667,2.88e+00,5.20e+00,
668,3.04e+00,5.20e+00,
669,2.80e+00,4.88e+00,
670,2.96e+00,4.88e+00,
671,2.72e+00,5.20e+00,
672,2.80e+00,4.88e+00,
673,2.64e+00,5.20e+00,
674,2.72e+00,4.88e+00,
675,2.56e+00,5.20e+00,
676,2.64e+00,4.88e+00,
677,2.48e+00,5.20e+00,
678,2.56e+00,5.20e+00,
679,2.40e+00,4.88e+00,
680,2.48e+00,5.20e+00,
681,2.24e+00,4.88e+00,
682,2.32e+00,4.88e+00,
683,2.16e+00,5.20e+00,
684,2.24e+00,5.20e+00,
685,2.08e+00,4.88e+00,
686,2.16e+00,4.88e+00,
687,1.92e+00,5.20e+00,
688,1.92e+00,5.20e+00,
689,2.08e+00,4.88e+00,
690,2.00e+00,5.20e+00,
691,1.76e+00,4.88e+00,
692,1.92e+00,5.20e+00,
693,1.68e+00,4.88e+00,
694,1.84e+00,4.88e+00,
695,1.60e+00,5.20e+00,
696,1.76e+00,5.20e+00,
697,1.52e+00,4.88e+00,
698,1.68e+00,4.88e+00,
699,1.44e+00,5.20e+00,
700,1.60e+00,4.88e+00,
701,1.36e+00,5.20e+00,
702,1.44e+00,5.20e+00,
703,1.28e+00,4.88e+00,
704,1.36e+00,5.20e+00,
705,1.20e+00,4.88e+00,
706,1.28e+00,5.20e+00,
707,1.12e+00,4.88e+00,
708,1.20e+00,5.20e+00,
709,1.04e+00,4.88e+00,
710,1.12e+00,5.20e+00,
711,9.60e-01,4.88e+00,
712,1.04e+00,5.20e+00,
713,8.80e-01,4.88e+00,
714,9.60e-01,4.88e+00,
715,8.00e-01,5.20e+00,
716,8.80e-01,4.88e+00,
717,7.20e-01,5.20e+00,
718,8.00e-01,4.88e+00,
719,6.40e-01,5.20e+00,
720,6.40e-01,4.88e+00,
721,8.00e-01,5.20e+00,
722,7.20e-01,5.20e+00,
723,5.60e-01,4.88e+00,
724,6.40e-01,4.88e+00,
725,4.80e-01,5.20e+00,
726,4.80e-01,5.20e+00,
727,5.60e-01,4.88e+00,
728,5.60e-01,5.20e+00,
729,3.20e-01,4.88e+00,
730,4.00e-01,5.20e+00,
731,2.40e-01,4.88e+00,
732,4.00e-01,5.20e+00,
733,2.40e-01,8.00e-02,
734,3.20e-01,8.00e-02,
735,1.60e-01,2.40e-01,
736,2.40e-01,2.40e-01,
737,1.60e-01,8.00e-02,
738,2.40e-01,2.40e-01,
739,8.00e-02,8.00e-02,
740,2.40e-01,2.40e-01,
741,8.00e-02,8.00e-02,
742,1.60e-01,8.00e-02,
743,0.00e+00,2.40e-01,
744,0.00e+00,8.00e-02,
745,1.60e-01,2.40e-01,
746,8.00e-02,8.00e-02,
747,0.00e+00,2.40e-01,
748,8.00e-02,8.00e-02,
749,-8.00e-02,2.40e-01,
750,-8.00e-02,8.00e-02,
751,8.00e-02,2.40e-01,
752,0.00e+00,8.00e-02,
753,-8.00e-02,2.40e-01,
754,0.00e+00,8.00e-02,
755,-8.00e-02,2.40e-01,
756,0.00e+00,1.60e-01,
757,-8.00e-02,8.00e-02,
758,-8.00e-02,8.00e-02,
759,0.00e+00,2.40e-01,
760,-8.00e-02,1.60e-01,
761,0.00e+00,8.00e-02,
762,-8.00e-02,8.00e-02,
763,0.00e+00,2.40e-01,
764,0.00e+00,1.60e-01,
765,-8.00e-02,0.00e+00,
766,0.00e+00,1.60e-01,
767,-8.00e-02,0.00e+00,
768,-8.00e-02,8.00e-02,
769,0.00e+00,2.40e-01,
770,0.00e+00,1.60e-01,
771,-8.00e-02,0.00e+00,
772,-8.00e-02,1.60e-01,
773,0.00e+00,0.00e+00,
774,-8.00e-02,1.60e-01,
775,8.00e-02,8.00e-02,
776,-8.00e-02,8.00e-02,
777,8.00e-02,1.60e-01,
778,0.00e+00,1.60e-01,
779,8.00e-02,8.00e-02,
780,0.00e+00,1.60e-01,
781,1.60e-01,0.00e+00,
782,0.00e+00,1.60e-01,
783,1.60e-01,0.00e+00,
784,8.00e-02,1.60e-01,
785,2.40e-01,8.00e-02,
786,8.00e-02,1.60e-01,
787,2.40e-01,0.00e+00,
788,2.40e-01,1.60e-01,
789,1.60e-01,0.00e+00,
790,3.20e-01,1.60e-01,
791,1.60e-01,8.00e-02,
792,2.40e-01,1.60e-01,
793,4.00e-01,8.00e-02,
794,4.00e-01,8.00e-02,
795,2.40e-01,2.40e-01,
796,3.20e-01,1.60e-01,
797,5.60e-01,8.00e-02,
798,4.80e-01,1.60e-01,
799,6.40e-01,8.00e-02,
800,4.80e-01,1.60e-01,
801,6.40e-01,0.00e+00,
802,5.60e-01,8.00e-02,
803,7.20e-01,2.40e-01,
804,6.40e-01,2.40e-01,
805,8.00e-01,0.00e+00,
806,7.20e-01,8.00e-02,
807,8.80e-01,5.04e+00,
808,7.20e-01,5.04e+00,
809,8.80e-01,4.80e+00,
810,8.00e-01,5.04e+00,
811,9.60e-01,4.96e+00,
812,8.80e-01,5.04e+00,
813,1.04e+00,4.96e+00,
814,9.60e-01,5.04e+00,
815,1.12e+00,4.96e+00,
816,1.04e+00,4.96e+00,
817,1.20e+00,5.12e+00,
818,1.12e+00,5.12e+00,
819,1.28e+00,4.88e+00,
820,1.20e+00,4.88e+00,
821,1.36e+00,5.20e+00,
822,1.52e+00,4.88e+00,
823,1.28e+00,5.20e+00,
824,1.44e+00,5.20e+00,
825,1.60e+00,4.88e+00,
826,1.52e+00,5.20e+00,
827,1.68e+00,4.88e+00,
828,1.60e+00,4.88e+00,
829,1.76e+00,5.20e+00,
830,1.68e+00,5.20e+00,
831,1.84e+00,4.88e+00,
832,1.76e+00,4.88e+00,
833,1.92e+00,5.20e+00,
834,1.84e+00,5.20e+00,
835,2.00e+00,4.88e+00,
836,1.92e+00,4.88e+00,
837,2.08e+00,5.20e+00,
838,2.00e+00,4.88e+00,
839,2.16e+00,5.20e+00,
840,2.08e+00,4.88e+00,
841,2.24e+00,5.20e+00,
842,2.16e+00,4.88e+00,
843,2.32e+00,5.20e+00,
844,2.32e+00,4.88e+00,
845,2.48e+00,5.20e+00,
846,2.40e+00,4.88e+00,
847,2.56e+00,5.20e+00,
848,2.48e+00,5.20e+00,
849,2.64e+00,4.88e+00,
850,2.56e+00,5.20e+00,
851,2.80e+00,4.88e+00,
852,2.64e+00,4.88e+00,
853,2.88e+00,5.20e+00,
854,2.72e+00,5.20e+00,
855,2.96e+00,4.88e+00,
856,2.80e+00,5.20e+00,
857,3.04e+00,4.88e+00,
858,2.88e+00,4.88e+00,
859,3.12e+00,5.20e+00,
860,2.96e+00,4.88e+00,
861,3.20e+00,5.20e+00,
862,3.04e+00,4.88e+00,
863,3.28e+00,5.20e+00,
864,3.12e+00,4.88e+00,
865,3.44e+00,5.20e+00,
866,3.28e+00,4.88e+00,
867,3.52e+00,5.20e+00,
868,3.36e+00,5.20e+00,
