project/matlab/project_exp2/sine_200kHz/NewFile1.csv

X,CH1,CH2,Start,Increment,
Sequence,Volt,Volt,-6.000000e-06,1.000000e-08
0,-8.00e-02,5.04e+00,
1,8.00e-02,4.88e+00,
2,8.00e-02,4.96e+00,
3,-8.00e-02,5.04e+00,
4,8.00e-02,5.04e+00,
5,-8.00e-02,4.88e+00,
6,8.00e-02,5.04e+00,
7,-8.00e-02,4.88e+00,
8,8.00e-02,4.96e+00,
9,0.00e+00,5.04e+00,
10,8.00e-02,4.96e+00,
11,0.00e+00,5.04e+00,
12,8.00e-02,5.04e+00,
13,0.00e+00,4.88e+00,
14,8.00e-02,4.96e+00,
15,0.00e+00,5.04e+00,
16,0.00e+00,5.04e+00,
17,8.00e-02,4.88e+00,
18,0.00e+00,4.96e+00,
19,8.00e-02,5.04e+00,
20,8.00e-02,4.96e+00,
21,1.60e-01,4.88e+00,
22,1.60e-01,4.88e+00,
23,8.00e-02,4.64e+00,
24,1.60e-01,4.72e+00,
25,8.00e-02,4.40e+00,
26,1.60e-01,4.48e+00,
27,8.00e-02,4.24e+00,
28,8.00e-02,4.32e+00,
29,2.40e-01,4.00e+00,
30,2.40e-01,4.00e+00,
31,1.60e-01,3.84e+00,
32,2.40e-01,3.76e+00,
33,2.40e-01,3.60e+00,
34,1.60e-01,3.52e+00,
35,2.40e-01,3.28e+00,
36,1.60e-01,3.28e+00,
37,3.20e-01,3.04e+00,
38,3.20e-01,2.96e+00,
39,3.20e-01,2.80e+00,
40,3.20e-01,2.72e+00,
41,4.00e-01,2.48e+00,
42,4.00e-01,2.40e+00,
43,4.00e-01,2.24e+00,
44,4.00e-01,2.16e+00,
45,4.00e-01,2.00e+00,
46,4.00e-01,1.92e+00,
47,5.60e-01,1.68e+00,
48,4.80e-01,1.68e+00,
49,5.60e-01,1.44e+00,
50,4.80e-01,1.36e+00,
51,6.40e-01,1.20e+00,
52,6.40e-01,1.20e+00,
53,5.60e-01,9.60e-01,
54,5.60e-01,9.60e-01,
55,5.60e-01,8.00e-01,
56,5.60e-01,8.00e-01,
57,7.20e-01,5.60e-01,
58,6.40e-01,6.40e-01,
59,7.20e-01,4.00e-01,
60,6.40e-01,4.80e-01,
61,8.00e-01,3.20e-01,
62,7.20e-01,3.20e-01,
63,8.80e-01,3.20e-01,
64,8.00e-01,3.20e-01,
65,8.80e-01,2.40e-01,
66,8.00e-01,2.40e-01,
67,9.60e-01,2.40e-01,
68,8.80e-01,2.40e-01,
69,9.60e-01,2.40e-01,
70,9.60e-01,2.40e-01,
71,1.04e+00,1.60e-01,
72,9.60e-01,2.40e-01,
73,1.04e+00,2.40e-01,
74,9.60e-01,2.40e-01,
75,1.12e+00,1.60e-01,
76,1.12e+00,1.60e-01,
77,1.04e+00,2.40e-01,
78,1.04e+00,2.40e-01,
79,1.20e+00,1.60e-01,
80,1.20e+00,2.40e-01,
81,1.28e+00,2.40e-01,
82,1.28e+00,2.40e-01,
83,1.20e+00,2.40e-01,
84,1.28e+00,2.40e-01,
85,1.36e+00,2.40e-01,
86,1.36e+00,2.40e-01,
87,1.44e+00,2.40e-01,
88,1.44e+00,2.40e-01,
89,1.52e+00,2.40e-01,
90,1.44e+00,2.40e-01,
91,1.52e+00,2.40e-01,
92,1.52e+00,2.40e-01,
93,1.52e+00,3.20e-01,
94,1.52e+00,3.20e-01,
95,1.68e+00,3.20e-01,
96,1.60e+00,3.20e-01,
97,1.76e+00,3.20e-01,
98,1.76e+00,3.20e-01,
99,1.68e+00,4.00e-01,
100,1.76e+00,4.00e-01,
101,1.84e+00,4.80e-01,
102,1.76e+00,4.80e-01,
103,1.92e+00,6.40e-01,
104,1.84e+00,5.60e-01,
105,2.00e+00,7.20e-01,
106,1.92e+00,6.40e-01,
107,2.00e+00,8.80e-01,
108,2.00e+00,8.00e-01,
109,2.08e+00,9.60e-01,
110,2.00e+00,8.80e-01,
111,2.08e+00,1.04e+00,
112,2.16e+00,1.04e+00,
113,2.08e+00,1.20e+00,
114,2.16e+00,1.20e+00,
115,2.24e+00,1.44e+00,
116,2.24e+00,1.44e+00,
117,2.32e+00,1.36e+00,
118,2.32e+00,1.44e+00,
119,2.32e+00,1.60e+00,
120,2.32e+00,1.60e+00,
121,2.48e+00,1.76e+00,
122,2.48e+00,1.68e+00,
123,2.40e+00,1.92e+00,
124,2.48e+00,1.84e+00,
125,2.56e+00,2.00e+00,
126,2.48e+00,1.92e+00,
127,2.64e+00,2.16e+00,
128,2.56e+00,2.08e+00,
129,2.72e+00,2.32e+00,
130,2.64e+00,2.32e+00,
131,2.80e+00,2.24e+00,
132,2.80e+00,2.32e+00,
133,2.72e+00,2.56e+00,
134,2.72e+00,2.48e+00,
135,2.88e+00,2.64e+00,
136,2.80e+00,2.56e+00,
137,2.88e+00,2.72e+00,
138,2.88e+00,2.64e+00,
139,2.96e+00,2.88e+00,
140,2.88e+00,2.96e+00,
141,3.04e+00,2.80e+00,
142,2.96e+00,2.88e+00,
143,3.12e+00,3.04e+00,
144,3.12e+00,2.96e+00,
145,3.04e+00,3.20e+00,
146,3.12e+00,3.12e+00,
147,3.20e+00,3.28e+00,
148,3.20e+00,3.28e+00,
149,3.28e+00,3.36e+00,
150,3.28e+00,3.36e+00,
151,3.28e+00,3.52e+00,
152,3.28e+00,3.44e+00,
153,3.36e+00,3.60e+00,
154,3.36e+00,3.52e+00,
155,3.44e+00,3.68e+00,
156,3.44e+00,3.60e+00,
157,3.44e+00,3.76e+00,
158,3.44e+00,3.76e+00,
159,3.60e+00,3.84e+00,
160,3.52e+00,3.76e+00,
161,3.68e+00,3.92e+00,
162,3.60e+00,3.84e+00,
163,3.68e+00,4.00e+00,
164,3.60e+00,3.92e+00,
165,3.76e+00,4.08e+00,
166,3.68e+00,4.00e+00,
167,3.76e+00,4.16e+00,
168,3.68e+00,4.08e+00,
169,3.84e+00,4.24e+00,
170,3.84e+00,4.16e+00,
171,3.76e+00,4.32e+00,
172,3.76e+00,4.24e+00,
173,3.92e+00,4.40e+00,
174,3.84e+00,4.32e+00,
175,4.00e+00,4.48e+00,
176,4.00e+00,4.32e+00,
177,3.92e+00,4.48e+00,
178,3.92e+00,4.40e+00,
179,4.08e+00,4.56e+00,
180,4.08e+00,4.48e+00,
181,4.00e+00,4.64e+00,
182,4.00e+00,4.56e+00,
183,4.16e+00,4.72e+00,
184,4.16e+00,4.56e+00,
185,4.16e+00,4.72e+00,
186,4.16e+00,4.64e+00,
187,4.24e+00,4.80e+00,
188,4.24e+00,4.64e+00,
189,4.08e+00,4.80e+00,
190,4.24e+00,4.72e+00,
191,4.40e+00,4.88e+00,
192,4.32e+00,4.88e+00,
193,4.32e+00,4.72e+00,
194,4.32e+00,4.88e+00,
195,4.40e+00,4.96e+00,
196,4.32e+00,4.80e+00,
197,4.48e+00,4.96e+00,
198,4.40e+00,4.88e+00,
199,4.40e+00,4.96e+00,
200,4.40e+00,4.88e+00,
201,4.48e+00,4.96e+00,
202,4.48e+00,4.96e+00,
203,4.56e+00,5.04e+00,
204,4.48e+00,4.96e+00,
205,4.56e+00,5.04e+00,
206,4.56e+00,4.88e+00,
207,4.48e+00,5.04e+00,
208,4.56e+00,5.04e+00,
209,4.64e+00,4.88e+00,
210,4.64e+00,4.88e+00,
211,4.56e+00,5.04e+00,
212,4.72e+00,4.96e+00,
213,4.56e+00,5.04e+00,
214,4.64e+00,4.96e+00,
215,4.72e+00,5.04e+00,
216,4.64e+00,4.96e+00,
217,4.72e+00,5.04e+00,
218,4.64e+00,4.96e+00,
219,4.80e+00,5.04e+00,
220,4.64e+00,5.04e+00,
221,4.80e+00,4.88e+00,
222,4.64e+00,4.96e+00,
223,4.80e+00,5.04e+00,
224,4.72e+00,5.04e+00,
225,4.80e+00,4.88e+00,
226,4.80e+00,4.96e+00,
227,4.72e+00,5.04e+00,
228,4.88e+00,4.96e+00,
229,4.72e+00,5.04e+00,
230,4.72e+00,5.04e+00,
231,4.88e+00,4.88e+00,
232,4.88e+00,4.88e+00,
233,4.72e+00,5.04e+00,
234,4.80e+00,4.96e+00,
235,4.88e+00,5.04e+00,
236,4.88e+00,5.04e+00,
237,4.80e+00,4.88e+00,
238,4.88e+00,4.96e+00,
239,4.80e+00,5.04e+00,
240,4.80e+00,5.04e+00,
241,4.88e+00,4.88e+00,
242,4.80e+00,4.96e+00,
243,4.88e+00,5.04e+00,
244,4.88e+00,4.96e+00,
245,4.80e+00,5.04e+00,
246,4.88e+00,5.04e+00,
247,4.80e+00,4.88e+00,
248,4.80e+00,4.88e+00,
249,4.88e+00,5.04e+00,
250,4.88e+00,4.96e+00,
251,4.80e+00,5.04e+00,
252,4.80e+00,4.96e+00,
253,4.88e+00,5.04e+00,
254,4.88e+00,5.04e+00,
255,4.80e+00,4.88e+00,
256,4.88e+00,4.96e+00,
257,4.88e+00,5.04e+00,
258,4.88e+00,4.96e+00,
259,4.80e+00,5.04e+00,
260,4.80e+00,4.88e+00,
261,4.88e+00,5.04e+00,
262,4.72e+00,5.04e+00,
263,4.88e+00,4.88e+00,
264,4.88e+00,4.96e+00,
265,4.72e+00,5.04e+00,
266,4.72e+00,4.96e+00,
267,4.80e+00,5.04e+00,
268,4.72e+00,5.04e+00,
269,4.88e+00,4.96e+00,
270,4.72e+00,4.88e+00,
271,4.80e+00,5.04e+00,
272,4.80e+00,4.96e+00,
273,4.72e+00,5.04e+00,
274,4.80e+00,5.04e+00,
275,4.64e+00,4.88e+00,
276,4.64e+00,4.96e+00,
277,4.72e+00,5.04e+00,
278,4.64e+00,4.96e+00,
279,4.72e+00,5.04e+00,
280,4.72e+00,5.04e+00,
281,4.64e+00,4.88e+00,
282,4.56e+00,5.04e+00,
283,4.72e+00,4.88e+00,
284,4.56e+00,4.96e+00,
285,4.64e+00,5.04e+00,
286,4.64e+00,4.96e+00,
287,4.48e+00,5.04e+00,
288,4.56e+00,4.96e+00,
289,4.48e+00,5.04e+00,
290,4.48e+00,4.96e+00,
291,4.56e+00,5.04e+00,
292,4.56e+00,4.96e+00,
293,4.48e+00,5.04e+00,
294,4.40e+00,4.96e+00,
295,4.48e+00,5.04e+00,
296,4.40e+00,4.96e+00,
297,4.40e+00,5.04e+00,
298,4.32e+00,4.88e+00,
299,4.48e+00,5.04e+00,
300,4.32e+00,4.96e+00,
301,4.40e+00,5.04e+00,
302,4.40e+00,4.96e+00,
303,4.24e+00,5.04e+00,
304,4.24e+00,4.96e+00,
305,4.32e+00,5.04e+00,
306,4.24e+00,4.96e+00,
307,4.16e+00,5.04e+00,
308,4.24e+00,5.04e+00,
309,4.16e+00,4.88e+00,
310,4.16e+00,4.96e+00,
311,4.08e+00,5.04e+00,
312,4.08e+00,4.96e+00,
313,4.16e+00,5.04e+00,
314,4.08e+00,4.96e+00,
315,4.00e+00,5.04e+00,
316,4.08e+00,5.04e+00,
317,3.92e+00,4.88e+00,
318,3.92e+00,4.96e+00,
319,4.00e+00,5.04e+00,
320,4.00e+00,4.96e+00,
321,3.84e+00,5.04e+00,
322,3.92e+00,4.88e+00,
323,3.76e+00,5.04e+00,
324,3.76e+00,4.96e+00,
325,3.84e+00,5.04e+00,
326,3.84e+00,5.04e+00,
327,3.68e+00,4.96e+00,
328,3.68e+00,4.96e+00,
329,3.76e+00,5.04e+00,
330,3.60e+00,4.96e+00,
331,3.68e+00,5.04e+00,
332,3.68e+00,4.96e+00,
333,3.52e+00,5.04e+00,
334,3.60e+00,4.96e+00,
335,3.52e+00,5.04e+00,
336,3.60e+00,4.88e+00,
337,3.44e+00,5.04e+00,
338,3.44e+00,4.96e+00,
339,3.36e+00,5.04e+00,
340,3.36e+00,5.04e+00,
341,3.36e+00,4.88e+00,
342,3.36e+00,4.96e+00,
343,3.28e+00,5.04e+00,
344,3.20e+00,4.96e+00,
345,3.28e+00,5.04e+00,
346,3.20e+00,4.96e+00,
347,3.12e+00,5.04e+00,
348,3.20e+00,5.04e+00,
349,3.04e+00,4.88e+00,
350,3.12e+00,4.88e+00,
351,3.04e+00,5.04e+00,
352,2.96e+00,4.96e+00,
353,3.12e+00,5.04e+00,
354,3.04e+00,4.88e+00,
355,2.96e+00,5.04e+00,
356,2.96e+00,5.04e+00,
357,2.88e+00,4.88e+00,
358,2.88e+00,5.04e+00,
359,2.80e+00,4.88e+00,
360,2.88e+00,4.96e+00,
361,2.72e+00,5.04e+00,
362,2.80e+00,4.96e+00,
363,2.64e+00,5.04e+00,
364,2.72e+00,5.04e+00,
365,2.64e+00,4.88e+00,
366,2.72e+00,4.88e+00,
367,2.56e+00,5.04e+00,
368,2.64e+00,5.04e+00,
369,2.48e+00,4.88e+00,
370,2.56e+00,5.04e+00,
371,2.48e+00,4.96e+00,
372,2.48e+00,5.04e+00,
373,2.40e+00,4.88e+00,
374,2.40e+00,5.04e+00,
375,2.32e+00,4.88e+00,
376,2.32e+00,4.96e+00,
377,2.32e+00,5.04e+00,
378,2.24e+00,4.96e+00,
379,2.24e+00,5.04e+00,
380,2.24e+00,4.88e+00,
381,2.08e+00,5.04e+00,
382,2.16e+00,4.88e+00,
383,2.00e+00,5.04e+00,
384,2.00e+00,5.04e+00,
385,2.08e+00,4.88e+00,
386,2.08e+00,4.96e+00,
387,1.92e+00,5.04e+00,
388,1.92e+00,5.04e+00,
389,2.00e+00,4.88e+00,
390,1.92e+00,5.04e+00,
391,1.84e+00,4.88e+00,
392,1.92e+00,5.04e+00,
393,1.76e+00,4.88e+00,
394,1.76e+00,5.04e+00,
395,1.84e+00,4.88e+00,
396,1.68e+00,5.04e+00,
397,1.76e+00,4.88e+00,
398,1.76e+00,4.96e+00,
399,1.60e+00,5.04e+00,
400,1.68e+00,5.04e+00,
401,1.52e+00,4.88e+00,
402,1.60e+00,4.96e+00,
403,1.52e+00,5.04e+00,
404,1.60e+00,5.04e+00,
405,1.44e+00,4.88e+00,
406,1.52e+00,4.96e+00,
407,1.36e+00,5.04e+00,
408,1.36e+00,4.96e+00,
409,1.36e+00,5.04e+00,
410,1.36e+00,5.04e+00,
411,1.28e+00,4.88e+00,
412,1.20e+00,4.96e+00,
413,1.28e+00,5.04e+00,
414,1.20e+00,4.88e+00,
415,1.20e+00,5.04e+00,
416,1.20e+00,4.88e+00,
417,1.04e+00,5.04e+00,
418,1.04e+00,5.04e+00,
419,1.12e+00,4.96e+00,
420,1.12e+00,4.96e+00,
421,9.60e-01,5.04e+00,
422,9.60e-01,5.04e+00,
423,1.04e+00,4.88e+00,
424,1.04e+00,4.96e+00,
425,8.80e-01,5.04e+00,
426,8.80e-01,4.88e+00,
427,9.60e-01,5.04e+00,
428,8.80e-01,5.04e+00,
429,8.00e-01,4.88e+00,
430,8.80e-01,4.96e+00,
431,7.20e-01,5.04e+00,
432,8.00e-01,4.96e+00,
433,7.20e-01,5.04e+00,
434,7.20e-01,4.96e+00,
435,8.00e-01,5.04e+00,
436,6.40e-01,5.04e+00,
437,7.20e-01,4.88e+00,
438,7.20e-01,4.96e+00,
439,5.60e-01,5.04e+00,
440,5.60e-01,4.96e+00,
441,5.60e-01,5.04e+00,
442,5.60e-01,4.96e+00,
443,6.40e-01,5.04e+00,
444,4.80e-01,4.96e+00,
445,5.60e-01,5.04e+00,
446,4.80e-01,5.04e+00,
447,5.60e-01,4.88e+00,
448,5.60e-01,4.96e+00,
449,4.00e-01,5.04e+00,
450,4.00e-01,5.04e+00,
451,4.00e-01,4.88e+00,
452,4.00e-01,5.04e+00,
453,4.00e-01,4.88e+00,
454,4.00e-01,5.04e+00,
455,2.40e-01,4.88e+00,
456,3.20e-01,4.96e+00,
457,3.20e-01,5.04e+00,
458,3.20e-01,5.04e+00,
459,2.40e-01,4.88e+00,
460,1.60e-01,4.96e+00,
461,2.40e-01,5.04e+00,
462,2.40e-01,4.96e+00,
463,1.60e-01,5.04e+00,
464,2.40e-01,5.04e+00,
465,2.40e-01,4.88e+00,
466,2.40e-01,4.96e+00,
467,8.00e-02,5.04e+00,
468,1.60e-01,4.88e+00,
469,8.00e-02,5.04e+00,
470,8.00e-02,4.96e+00,
471,1.60e-01,5.04e+00,
472,8.00e-02,5.04e+00,
473,1.60e-01,4.88e+00,
474,1.60e-01,4.96e+00,
475,0.00e+00,5.04e+00,
476,8.00e-02,4.96e+00,
477,8.00e-02,5.04e+00,
478,8.00e-02,4.96e+00,
479,0.00e+00,5.04e+00,
480,0.00e+00,4.96e+00,
481,8.00e-02,5.04e+00,
482,0.00e+00,4.96e+00,
483,8.00e-02,5.04e+00,
484,8.00e-02,4.88e+00,
485,0.00e+00,5.04e+00,
486,8.00e-02,4.96e+00,
487,0.00e+00,5.04e+00,
488,8.00e-02,4.96e+00,
489,-8.00e-02,5.04e+00,
490,8.00e-02,4.96e+00,
491,-8.00e-02,5.04e+00,
492,-8.00e-02,4.96e+00,
493,8.00e-02,5.04e+00,
494,0.00e+00,4.96e+00,
495,-8.00e-02,5.04e+00,
496,-8.00e-02,5.04e+00,
497,0.00e+00,4.96e+00,
498,0.00e+00,4.96e+00,
499,-8.00e-02,5.04e+00,
500,-8.00e-02,5.04e+00,
501,8.00e-02,4.88e+00,
502,-8.00e-02,4.96e+00,
503,8.00e-02,5.04e+00,
504,-8.00e-02,4.96e+00,
505,8.00e-02,5.04e+00,
506,8.00e-02,4.96e+00,
507,-8.00e-02,5.04e+00,
508,0.00e+00,4.96e+00,
509,8.00e-02,5.04e+00,
510,0.00e+00,4.96e+00,
511,8.00e-02,5.04e+00,
512,8.00e-02,4.96e+00,
513,0.00e+00,5.04e+00,
514,0.00e+00,4.96e+00,
515,8.00e-02,5.04e+00,
516,8.00e-02,4.96e+00,
517,0.00e+00,5.04e+00,
518,0.00e+00,4.96e+00,
519,1.60e-01,5.04e+00,
520,0.00e+00,4.96e+00,
521,1.60e-01,4.80e+00,
522,1.60e-01,4.88e+00,
523,8.00e-02,4.64e+00,
524,1.60e-01,4.64e+00,
525,8.00e-02,4.56e+00,
526,1.60e-01,4.48e+00,
527,8.00e-02,4.24e+00,
528,8.00e-02,4.24e+00,
529,2.40e-01,4.00e+00,
530,2.40e-01,4.00e+00,
531,2.40e-01,3.84e+00,
532,2.40e-01,3.76e+00,
533,2.40e-01,3.52e+00,
534,1.60e-01,3.52e+00,
535,3.20e-01,3.28e+00,
536,2.40e-01,3.20e+00,
537,3.20e-01,2.96e+00,
538,3.20e-01,2.96e+00,
539,3.20e-01,2.80e+00,
540,3.20e-01,2.64e+00,
541,4.00e-01,2.48e+00,
542,4.00e-01,2.40e+00,
543,4.00e-01,2.24e+00,
544,4.00e-01,2.16e+00,
545,4.00e-01,1.92e+00,
546,4.00e-01,1.92e+00,
547,5.60e-01,1.68e+00,
548,4.80e-01,1.68e+00,
549,4.80e-01,1.44e+00,
550,4.80e-01,1.36e+00,
551,6.40e-01,1.20e+00,
552,6.40e-01,1.20e+00,
553,5.60e-01,8.80e-01,
554,6.40e-01,8.80e-01,
555,5.60e-01,7.20e-01,
556,5.60e-01,7.20e-01,
557,7.20e-01,5.60e-01,
558,6.40e-01,5.60e-01,
559,7.20e-01,4.00e-01,
560,6.40e-01,4.00e-01,
561,7.20e-01,3.20e-01,
562,7.20e-01,3.20e-01,
563,8.00e-01,3.20e-01,
564,7.20e-01,3.20e-01,
565,8.80e-01,2.40e-01,
566,8.00e-01,2.40e-01,
567,9.60e-01,2.40e-01,
568,8.80e-01,2.40e-01,
569,9.60e-01,1.60e-01,
570,8.80e-01,1.60e-01,
571,1.04e+00,2.40e-01,
572,1.04e+00,2.40e-01,
573,9.60e-01,2.40e-01,
574,9.60e-01,1.60e-01,
575,1.12e+00,2.40e-01,
576,1.12e+00,2.40e-01,
577,1.04e+00,2.40e-01,
578,1.12e+00,2.40e-01,
579,1.20e+00,2.40e-01,
580,1.20e+00,2.40e-01,
581,1.28e+00,1.60e-01,
582,1.28e+00,2.40e-01,
583,1.28e+00,2.40e-01,
584,1.28e+00,2.40e-01,
585,1.36e+00,1.60e-01,
586,1.36e+00,2.40e-01,
587,1.44e+00,1.60e-01,
588,1.44e+00,2.40e-01,
589,1.52e+00,2.40e-01,
590,1.44e+00,2.40e-01,
591,1.60e+00,2.40e-01,
592,1.52e+00,2.40e-01,
593,1.52e+00,3.20e-01,
594,1.52e+00,3.20e-01,
595,1.68e+00,3.20e-01,
596,1.60e+00,3.20e-01,
597,1.76e+00,3.20e-01,
598,1.68e+00,3.20e-01,
599,1.76e+00,4.00e-01,
600,1.68e+00,4.00e-01,
601,1.84e+00,4.80e-01,
602,1.76e+00,4.80e-01,
603,1.92e+00,6.40e-01,
604,1.92e+00,5.60e-01,
605,1.84e+00,7.20e-01,
606,1.92e+00,6.40e-01,
607,2.00e+00,8.00e-01,
608,1.92e+00,8.00e-01,
609,2.08e+00,9.60e-01,
610,2.08e+00,8.80e-01,
611,2.08e+00,1.04e+00,
612,2.16e+00,1.12e+00,
613,2.08e+00,1.20e+00,
614,2.08e+00,1.20e+00,
615,2.24e+00,1.36e+00,
616,2.16e+00,1.36e+00,
617,2.32e+00,1.44e+00,
618,2.32e+00,1.44e+00,
619,2.32e+00,1.52e+00,
620,2.32e+00,1.60e+00,
621,2.40e+00,1.76e+00,
622,2.40e+00,1.68e+00,
623,2.48e+00,1.92e+00,
624,2.48e+00,1.76e+00,
625,2.56e+00,2.00e+00,
626,2.48e+00,2.00e+00,
627,2.64e+00,2.16e+00,
628,2.56e+00,2.16e+00,
629,2.72e+00,2.24e+00,
630,2.64e+00,2.24e+00,
631,2.72e+00,2.32e+00,
632,2.72e+00,2.32e+00,
633,2.80e+00,2.48e+00,
634,2.72e+00,2.40e+00,
635,2.88e+00,2.64e+00,
636,2.80e+00,2.56e+00,
637,2.96e+00,2.72e+00,
638,2.80e+00,2.64e+00,
639,2.96e+00,2.88e+00,
640,2.96e+00,2.80e+00,
641,3.04e+00,2.96e+00,
642,2.96e+00,2.96e+00,
643,3.12e+00,3.04e+00,
644,3.12e+00,3.04e+00,
645,3.04e+00,3.12e+00,
646,3.12e+00,3.12e+00,
647,3.20e+00,3.20e+00,
648,3.12e+00,3.20e+00,
649,3.28e+00,3.36e+00,
650,3.28e+00,3.28e+00,
651,3.28e+00,3.44e+00,
652,3.28e+00,3.36e+00,
653,3.36e+00,3.60e+00,
654,3.36e+00,3.52e+00,
655,3.52e+00,3.68e+00,
656,3.52e+00,3.60e+00,
657,3.44e+00,3.68e+00,
658,3.44e+00,3.68e+00,
659,3.60e+00,3.84e+00,
660,3.60e+00,3.76e+00,
661,3.52e+00,3.92e+00,
662,3.60e+00,4.00e+00,
663,3.68e+00,3.84e+00,
664,3.60e+00,3.84e+00,
665,3.76e+00,4.08e+00,
666,3.68e+00,4.00e+00,
667,3.76e+00,4.16e+00,
668,3.68e+00,4.08e+00,
669,3.84e+00,4.24e+00,
670,3.84e+00,4.16e+00,
671,3.76e+00,4.32e+00,
672,3.76e+00,4.24e+00,
673,3.92e+00,4.40e+00,
674,3.84e+00,4.48e+00,
675,4.00e+00,4.32e+00,
676,4.00e+00,4.32e+00,
677,3.84e+00,4.48e+00,
678,3.92e+00,4.40e+00,
679,4.08e+00,4.56e+00,
680,4.00e+00,4.48e+00,
681,4.08e+00,4.64e+00,
682,4.16e+00,4.56e+00,
683,4.00e+00,4.64e+00,
684,4.16e+00,4.56e+00,
685,4.08e+00,4.72e+00,
686,4.08e+00,4.64e+00,
687,4.24e+00,4.80e+00,
688,4.24e+00,4.64e+00,
689,4.24e+00,4.80e+00,
690,4.24e+00,4.80e+00,
691,4.32e+00,4.88e+00,
692,4.32e+00,4.88e+00,
693,4.32e+00,4.72e+00,
694,4.32e+00,4.88e+00,
695,4.40e+00,4.96e+00,
696,4.40e+00,4.88e+00,
697,4.32e+00,4.96e+00,
698,4.48e+00,4.96e+00,
699,4.40e+00,4.80e+00,
700,4.40e+00,4.96e+00,
701,4.56e+00,5.04e+00,
702,4.40e+00,5.04e+00,
703,4.56e+00,4.96e+00,
704,4.48e+00,4.96e+00,
705,4.64e+00,5.04e+00,
706,4.48e+00,5.04e+00,
707,4.64e+00,4.88e+00,
708,4.48e+00,4.88e+00,
709,4.64e+00,5.04e+00,
710,4.64e+00,4.96e+00,
711,4.56e+00,5.04e+00,
712,4.64e+00,4.96e+00,
713,4.56e+00,5.04e+00,
714,4.64e+00,4.96e+00,
715,4.72e+00,5.04e+00,
716,4.64e+00,4.96e+00,
717,4.72e+00,5.04e+00,
718,4.72e+00,4.88e+00,
719,4.64e+00,5.04e+00,
720,4.64e+00,4.96e+00,
721,4.80e+00,5.04e+00,
722,4.72e+00,4.96e+00,
723,4.80e+00,5.04e+00,
724,4.80e+00,5.04e+00,
725,4.72e+00,4.88e+00,
726,4.80e+00,4.96e+00,
727,4.72e+00,5.04e+00,
728,4.72e+00,4.96e+00,
729,4.88e+00,5.04e+00,
730,4.72e+00,5.04e+00,
731,4.88e+00,4.88e+00,
732,4.80e+00,4.96e+00,
733,4.88e+00,5.04e+00,
734,4.80e+00,4.96e+00,
735,4.88e+00,5.04e+00,
736,4.80e+00,4.96e+00,
737,4.88e+00,5.04e+00,
738,4.88e+00,4.96e+00,
739,4.80e+00,5.04e+00,
740,4.88e+00,5.04e+00,
741,4.80e+00,4.96e+00,
742,4.88e+00,4.96e+00,
743,4.80e+00,5.04e+00,
744,4.88e+00,5.04e+00,
745,4.80e+00,4.88e+00,
746,4.80e+00,5.04e+00,
747,4.88e+00,4.88e+00,
748,4.88e+00,5.04e+00,
749,4.80e+00,4.88e+00,
750,4.88e+00,4.96e+00,
751,4.88e+00,5.04e+00,
752,4.88e+00,4.96e+00,
753,4.80e+00,5.04e+00,
754,4.88e+00,4.96e+00,
755,4.80e+00,5.04e+00,
756,4.88e+00,4.96e+00,
757,4.80e+00,5.04e+00,
758,4.88e+00,5.04e+00,
759,4.80e+00,4.88e+00,
760,4.88e+00,5.04e+00,
761,4.80e+00,4.88e+00,
762,4.88e+00,5.04e+00,
763,4.72e+00,4.88e+00,
764,4.88e+00,4.96e+00,
765,4.72e+00,5.04e+00,
766,4.72e+00,4.88e+00,
767,4.80e+00,5.04e+00,
768,4.72e+00,5.04e+00,
769,4.80e+00,4.88e+00,
770,4.80e+00,5.04e+00,
771,4.72e+00,4.96e+00,
772,4.80e+00,5.04e+00,
773,4.72e+00,4.88e+00,
774,4.64e+00,4.88e+00,
775,4.80e+00,5.04e+00,
776,4.64e+00,4.88e+00,
777,4.72e+00,5.04e+00,
778,4.72e+00,5.04e+00,
779,4.64e+00,4.88e+00,
780,4.72e+00,5.04e+00,
781,4.64e+00,4.88e+00,
782,4.56e+00,4.96e+00,
783,4.72e+00,5.04e+00,
784,4.64e+00,5.04e+00,
785,4.56e+00,4.88e+00,
786,4.64e+00,4.96e+00,
787,4.48e+00,5.04e+00,
788,4.48e+00,5.04e+00,
789,4.64e+00,4.88e+00,
790,4.48e+00,5.04e+00,
791,4.56e+00,4.88e+00,
792,4.56e+00,4.96e+00,
793,4.40e+00,5.04e+00,
794,4.40e+00,4.96e+00,
795,4.56e+00,5.04e+00,
796,4.40e+00,4.96e+00,
797,4.40e+00,5.04e+00,
798,4.40e+00,5.04e+00,
799,4.32e+00,4.88e+00,
800,4.32e+00,5.04e+00,
801,4.40e+00,4.88e+00,
802,4.40e+00,4.88e+00,
803,4.24e+00,5.04e+00,
804,4.32e+00,5.04e+00,
805,4.24e+00,4.88e+00,
806,4.24e+00,5.04e+00,
807,4.16e+00,4.88e+00,
808,4.24e+00,4.96e+00,
809,4.08e+00,5.04e+00,
810,4.16e+00,4.96e+00,
811,4.08e+00,5.04e+00,
812,4.16e+00,5.04e+00,
813,4.00e+00,4.88e+00,
814,4.00e+00,4.96e+00,
815,4.08e+00,5.04e+00,
816,4.08e+00,4.88e+00,
817,3.92e+00,5.04e+00,
818,4.00e+00,5.04e+00,
819,3.92e+00,4.88e+00,
820,3.92e+00,4.88e+00,
821,3.84e+00,5.04e+00,
822,3.92e+00,4.96e+00,
823,3.76e+00,5.04e+00,
824,3.84e+00,5.04e+00,
825,3.76e+00,4.88e+00,
826,3.84e+00,4.96e+00,
827,3.68e+00,5.04e+00,
828,3.60e+00,5.04e+00,
829,3.76e+00,4.88e+00,
830,3.60e+00,4.96e+00,
831,3.68e+00,5.04e+00,
832,3.68e+00,4.96e+00,
833,3.52e+00,5.04e+00,
834,3.52e+00,5.04e+00,
835,3.60e+00,4.88e+00,
836,3.60e+00,4.96e+00,
837,3.44e+00,5.04e+00,
838,3.52e+00,5.04e+00,
839,3.36e+00,4.88e+00,
840,3.36e+00,5.04e+00,
841,3.36e+00,4.88e+00,
842,3.36e+00,4.96e+00,
843,3.28e+00,5.04e+00,
844,3.28e+00,4.96e+00,
845,3.28e+00,5.04e+00,
846,3.28e+00,5.04e+00,
847,3.12e+00,4.88e+00,
848,3.20e+00,4.96e+00,
849,3.04e+00,5.04e+00,
850,3.12e+00,5.04e+00,
851,3.04e+00,4.88e+00,
852,3.12e+00,4.96e+00,
853,2.96e+00,5.04e+00,
854,3.04e+00,4.88e+00,
855,2.88e+00,5.04e+00,
856,2.96e+00,4.96e+00,
857,2.88e+00,5.04e+00,
858,2.80e+00,4.96e+00,
859,2.88e+00,5.04e+00,
860,2.88e+00,5.04e+00,
861,2.72e+00,4.88e+00,
862,2.80e+00,4.96e+00,
863,2.64e+00,5.04e+00,
864,2.64e+00,4.96e+00,
865,2.72e+00,5.04e+00,
866,2.72e+00,4.96e+00,
867,2.56e+00,5.04e+00,
868,2.56e+00,4.96e+00,
869,2.48e+00,5.04e+00,
