project/matlab/project_exp3/90 kHz/NewFile1.csv

X,CH1,CH2,Start,Increment,
Sequence,Volt,Volt,7.080000e-04,2.000000e-08
0,0.00e+00,2.40e-01,
1,-8.00e-02,1.60e-01,
2,-8.00e-02,2.40e-01,
3,0.00e+00,1.60e-01,
4,-8.00e-02,2.40e-01,
5,0.00e+00,8.00e-02,
6,-8.00e-02,2.40e-01,
7,8.00e-02,1.60e-01,
8,-8.00e-02,2.40e-01,
9,8.00e-02,1.60e-01,
10,8.00e-02,2.40e-01,
11,-8.00e-02,1.60e-01,
12,0.00e+00,2.40e-01,
13,8.00e-02,1.60e-01,
14,0.00e+00,2.40e-01,
15,8.00e-02,8.00e-02,
16,0.00e+00,2.40e-01,
17,8.00e-02,1.60e-01,
18,0.00e+00,2.40e-01,
19,1.60e-01,1.60e-01,
20,0.00e+00,2.40e-01,
21,1.60e-01,1.60e-01,
22,1.60e-01,2.40e-01,
23,8.00e-02,8.00e-02,
24,8.00e-02,2.40e-01,
25,1.60e-01,1.60e-01,
26,8.00e-02,2.40e-01,
27,2.40e-01,1.60e-01,
28,2.40e-01,2.40e-01,
29,1.60e-01,1.60e-01,
30,2.40e-01,2.40e-01,
31,1.60e-01,1.60e-01,
32,1.60e-01,1.60e-01,
33,2.40e-01,2.40e-01,
34,1.60e-01,2.40e-01,
35,3.20e-01,2.40e-01,
36,3.20e-01,2.40e-01,
37,2.40e-01,1.60e-01,
38,3.20e-01,2.40e-01,
39,2.40e-01,1.60e-01,
40,2.40e-01,2.40e-01,
41,4.00e-01,1.60e-01,
42,4.00e-01,2.40e-01,
43,3.20e-01,1.60e-01,
44,4.00e-01,2.40e-01,
45,4.80e-01,1.60e-01,
46,4.80e-01,2.40e-01,
47,4.80e-01,8.00e-02,
48,4.80e-01,2.40e-01,
49,4.80e-01,2.40e-01,
50,4.80e-01,2.40e-01,
51,6.40e-01,8.00e-02,
52,5.60e-01,2.40e-01,
53,6.40e-01,1.60e-01,
54,5.60e-01,2.40e-01,
55,6.40e-01,1.60e-01,
56,6.40e-01,2.40e-01,
57,7.20e-01,1.60e-01,
58,6.40e-01,2.40e-01,
59,8.00e-01,1.60e-01,
60,7.20e-01,2.40e-01,
61,8.00e-01,8.00e-02,
62,7.20e-01,2.40e-01,
63,8.80e-01,1.60e-01,
64,8.00e-01,2.40e-01,
65,8.80e-01,1.60e-01,
66,8.00e-01,2.40e-01,
67,9.60e-01,1.60e-01,
68,8.80e-01,2.40e-01,
69,9.60e-01,8.00e-02,
70,8.80e-01,2.40e-01,
71,1.04e+00,2.40e-01,
72,1.04e+00,2.40e-01,
73,9.60e-01,2.40e-01,
74,9.60e-01,2.40e-01,
75,1.12e+00,2.40e-01,
76,1.12e+00,2.40e-01,
77,1.04e+00,1.60e-01,
78,1.04e+00,2.40e-01,
79,1.20e+00,2.40e-01,
80,1.20e+00,2.40e-01,
81,1.12e+00,2.40e-01,
82,1.12e+00,2.40e-01,
83,1.28e+00,2.40e-01,
84,1.20e+00,2.40e-01,
85,1.28e+00,1.60e-01,
86,1.36e+00,2.40e-01,
87,1.36e+00,2.40e-01,
88,1.28e+00,2.40e-01,
89,1.44e+00,1.60e-01,
90,1.44e+00,2.40e-01,
91,1.44e+00,3.20e-01,
92,1.44e+00,3.20e-01,
93,1.60e+00,2.40e-01,
94,1.52e+00,3.20e-01,
95,1.60e+00,4.00e-01,
96,1.52e+00,3.20e-01,
97,1.68e+00,4.00e-01,
98,1.68e+00,4.00e-01,
99,1.60e+00,5.60e-01,
100,1.76e+00,4.80e-01,
101,1.68e+00,6.40e-01,
102,1.68e+00,6.40e-01,
103,1.84e+00,9.60e-01,
104,1.76e+00,8.80e-01,
105,1.84e+00,1.12e+00,
106,1.84e+00,1.04e+00,
107,1.92e+00,1.44e+00,
108,1.84e+00,1.36e+00,
109,2.00e+00,1.52e+00,
110,1.92e+00,1.60e+00,
111,2.08e+00,1.84e+00,
112,2.00e+00,1.76e+00,
113,2.08e+00,2.08e+00,
114,2.00e+00,2.00e+00,
115,2.16e+00,2.24e+00,
116,2.16e+00,2.24e+00,
117,2.08e+00,2.40e+00,
118,2.24e+00,2.40e+00,
119,2.08e+00,2.72e+00,
120,2.16e+00,2.64e+00,
121,2.32e+00,2.88e+00,
122,2.32e+00,2.80e+00,
123,2.24e+00,3.04e+00,
124,2.32e+00,3.04e+00,
125,2.40e+00,3.20e+00,
126,2.40e+00,3.20e+00,
127,2.48e+00,3.36e+00,
128,2.48e+00,3.36e+00,
129,2.56e+00,3.60e+00,
130,2.48e+00,3.52e+00,
131,2.64e+00,3.76e+00,
132,2.56e+00,3.68e+00,
133,2.64e+00,3.92e+00,
134,2.64e+00,3.76e+00,
135,2.72e+00,4.00e+00,
136,2.64e+00,4.00e+00,
137,2.80e+00,4.24e+00,
138,2.72e+00,4.08e+00,
139,2.88e+00,4.32e+00,
140,2.88e+00,4.24e+00,
141,2.80e+00,4.40e+00,
142,2.80e+00,4.32e+00,
143,2.96e+00,4.56e+00,
144,2.88e+00,4.40e+00,
145,2.96e+00,4.64e+00,
146,3.04e+00,4.56e+00,
147,2.88e+00,4.72e+00,
148,2.96e+00,4.64e+00,
149,3.12e+00,4.80e+00,
150,3.12e+00,4.72e+00,
151,3.04e+00,4.88e+00,
152,3.12e+00,4.80e+00,
153,3.20e+00,4.96e+00,
154,3.12e+00,4.80e+00,
155,3.28e+00,4.96e+00,
156,3.28e+00,4.88e+00,
157,3.20e+00,5.04e+00,
158,3.36e+00,5.04e+00,
159,3.20e+00,4.88e+00,
160,3.36e+00,5.04e+00,
161,3.36e+00,4.88e+00,
162,3.44e+00,5.04e+00,
163,3.36e+00,4.88e+00,
164,3.44e+00,5.04e+00,
165,3.60e+00,4.88e+00,
166,3.52e+00,5.04e+00,
167,3.52e+00,4.88e+00,
168,3.52e+00,5.12e+00,
169,3.68e+00,4.88e+00,
170,3.60e+00,5.04e+00,
171,3.76e+00,4.88e+00,
172,3.60e+00,4.96e+00,
173,3.76e+00,5.04e+00,
174,3.68e+00,4.96e+00,
175,3.84e+00,5.04e+00,
176,3.84e+00,4.96e+00,
177,3.68e+00,5.04e+00,
178,3.76e+00,5.04e+00,
179,3.92e+00,4.88e+00,
180,3.92e+00,4.96e+00,
181,3.84e+00,5.04e+00,
182,3.84e+00,5.04e+00,
183,4.00e+00,4.88e+00,
184,4.00e+00,5.04e+00,
185,3.92e+00,4.96e+00,
186,3.92e+00,5.04e+00,
187,4.08e+00,4.88e+00,
188,4.08e+00,4.96e+00,
189,4.00e+00,5.12e+00,
190,4.00e+00,5.04e+00,
191,4.16e+00,4.88e+00,
192,4.16e+00,4.96e+00,
193,4.16e+00,5.04e+00,
194,4.08e+00,4.96e+00,
195,4.24e+00,5.04e+00,
196,4.24e+00,5.04e+00,
197,4.24e+00,4.88e+00,
198,4.32e+00,5.04e+00,
199,4.16e+00,4.88e+00,
200,4.32e+00,4.96e+00,
201,4.24e+00,5.04e+00,
202,4.32e+00,4.96e+00,
203,4.40e+00,5.04e+00,
204,4.48e+00,5.04e+00,
205,4.32e+00,4.88e+00,
206,4.40e+00,5.04e+00,
207,4.40e+00,4.88e+00,
208,4.40e+00,4.96e+00,
209,4.48e+00,5.12e+00,
210,4.48e+00,5.04e+00,
211,4.48e+00,4.88e+00,
212,4.48e+00,4.88e+00,
213,4.64e+00,5.04e+00,
214,4.64e+00,4.88e+00,
215,4.48e+00,5.04e+00,
216,4.56e+00,4.96e+00,
217,4.64e+00,5.04e+00,
218,4.56e+00,5.04e+00,
219,4.72e+00,4.88e+00,
220,4.72e+00,5.04e+00,
221,4.56e+00,4.88e+00,
222,4.72e+00,5.04e+00,
223,4.64e+00,4.88e+00,
224,4.64e+00,4.96e+00,
225,4.80e+00,5.04e+00,
226,4.80e+00,5.04e+00,
227,4.64e+00,4.88e+00,
228,4.64e+00,4.88e+00,
229,4.80e+00,5.12e+00,
230,4.80e+00,5.04e+00,
231,4.72e+00,4.88e+00,
232,4.88e+00,5.04e+00,
233,4.72e+00,4.88e+00,
234,4.72e+00,5.04e+00,
235,4.88e+00,4.88e+00,
236,4.80e+00,5.04e+00,
237,4.88e+00,4.88e+00,
238,4.80e+00,5.04e+00,
239,4.88e+00,4.88e+00,
240,4.80e+00,4.96e+00,
241,4.88e+00,5.04e+00,
242,4.96e+00,5.04e+00,
243,4.80e+00,4.88e+00,
244,4.96e+00,5.04e+00,
245,4.80e+00,4.88e+00,
246,4.96e+00,5.04e+00,
247,4.80e+00,4.96e+00,
248,4.88e+00,4.96e+00,
249,4.96e+00,5.12e+00,
250,4.96e+00,4.88e+00,
251,4.88e+00,5.04e+00,
252,4.96e+00,4.96e+00,
253,4.88e+00,5.04e+00,
254,4.88e+00,5.04e+00,
255,5.04e+00,4.88e+00,
256,4.88e+00,4.96e+00,
257,5.04e+00,5.04e+00,
258,5.04e+00,4.96e+00,
259,4.88e+00,5.04e+00,
260,5.04e+00,5.04e+00,
261,4.88e+00,4.88e+00,
262,5.04e+00,5.04e+00,
263,4.88e+00,4.88e+00,
264,5.04e+00,4.96e+00,
265,4.88e+00,5.04e+00,
266,5.04e+00,5.04e+00,
267,4.88e+00,4.88e+00,
268,5.04e+00,4.96e+00,
269,4.88e+00,5.20e+00,
270,5.04e+00,5.04e+00,
271,4.88e+00,4.88e+00,
272,5.04e+00,5.04e+00,
273,4.88e+00,4.88e+00,
274,5.04e+00,4.96e+00,
275,4.88e+00,5.04e+00,
276,5.04e+00,4.96e+00,
277,4.88e+00,5.04e+00,
278,5.04e+00,5.04e+00,
279,4.88e+00,4.88e+00,
280,5.04e+00,4.96e+00,
281,4.88e+00,5.04e+00,
282,4.96e+00,4.96e+00,
283,4.88e+00,5.04e+00,
284,4.96e+00,5.04e+00,
285,4.88e+00,4.96e+00,
286,4.96e+00,5.04e+00,
287,4.88e+00,4.88e+00,
288,4.96e+00,4.88e+00,
289,4.80e+00,5.12e+00,
290,4.96e+00,4.96e+00,
291,4.80e+00,5.04e+00,
292,4.80e+00,4.96e+00,
293,4.96e+00,5.04e+00,
294,4.80e+00,4.96e+00,
295,4.88e+00,5.04e+00,
296,4.88e+00,5.04e+00,
297,4.80e+00,4.88e+00,
298,4.88e+00,4.96e+00,
299,4.72e+00,5.04e+00,
300,4.88e+00,5.04e+00,
301,4.72e+00,4.88e+00,
302,4.72e+00,5.04e+00,
303,4.88e+00,4.96e+00,
304,4.80e+00,5.04e+00,
305,4.64e+00,4.88e+00,
306,4.80e+00,5.04e+00,
307,4.64e+00,4.88e+00,
308,4.80e+00,4.88e+00,
309,4.64e+00,5.12e+00,
310,4.64e+00,4.96e+00,
311,4.64e+00,5.04e+00,
312,4.72e+00,4.96e+00,
313,4.56e+00,5.04e+00,
314,4.56e+00,4.88e+00,
315,4.72e+00,5.04e+00,
316,4.56e+00,5.04e+00,
317,4.64e+00,4.88e+00,
318,4.64e+00,5.04e+00,
319,4.48e+00,4.88e+00,
320,4.48e+00,4.96e+00,
321,4.64e+00,5.04e+00,
322,4.48e+00,4.96e+00,
323,4.56e+00,5.04e+00,
324,4.40e+00,5.04e+00,
325,4.56e+00,4.96e+00,
326,4.40e+00,4.96e+00,
327,4.40e+00,5.04e+00,
328,4.48e+00,5.12e+00,
329,4.32e+00,4.88e+00,
330,4.40e+00,5.04e+00,
331,4.32e+00,4.88e+00,
332,4.32e+00,4.96e+00,
333,4.24e+00,5.04e+00,
334,4.32e+00,4.88e+00,
335,4.16e+00,5.04e+00,
336,4.24e+00,5.04e+00,
337,4.16e+00,4.88e+00,
338,4.24e+00,4.96e+00,
339,4.16e+00,5.04e+00,
340,4.24e+00,5.04e+00,
341,4.08e+00,4.88e+00,
342,4.16e+00,4.96e+00,
343,4.00e+00,5.04e+00,
344,4.16e+00,5.04e+00,
345,4.00e+00,4.88e+00,
346,4.08e+00,5.04e+00,
347,3.92e+00,4.96e+00,
348,3.92e+00,4.96e+00,
349,4.00e+00,5.12e+00,
350,4.00e+00,4.96e+00,
351,3.84e+00,5.04e+00,
352,3.92e+00,5.04e+00,
353,3.84e+00,4.88e+00,
354,3.92e+00,4.88e+00,
355,3.76e+00,5.04e+00,
356,3.76e+00,5.04e+00,
357,3.84e+00,4.88e+00,
358,3.68e+00,4.96e+00,
359,3.84e+00,5.04e+00,
360,3.76e+00,5.04e+00,
361,3.60e+00,4.88e+00,
362,3.68e+00,5.04e+00,
363,3.60e+00,4.96e+00,
364,3.68e+00,5.04e+00,
365,3.52e+00,4.88e+00,
366,3.52e+00,5.04e+00,
367,3.60e+00,4.96e+00,
368,3.44e+00,5.12e+00,
369,3.60e+00,4.88e+00,
370,3.52e+00,5.04e+00,
371,3.36e+00,4.88e+00,
372,3.44e+00,4.96e+00,
373,3.36e+00,5.04e+00,
374,3.36e+00,5.04e+00,
375,3.20e+00,4.88e+00,
376,3.28e+00,5.04e+00,
377,3.20e+00,4.88e+00,
378,3.28e+00,4.96e+00,
379,3.12e+00,5.04e+00,
380,3.20e+00,4.96e+00,
381,3.12e+00,5.04e+00,
382,3.20e+00,5.04e+00,
383,3.04e+00,4.88e+00,
384,3.12e+00,5.04e+00,
385,2.96e+00,4.96e+00,
386,2.96e+00,4.96e+00,
387,3.04e+00,5.04e+00,
388,3.04e+00,4.96e+00,
389,2.88e+00,5.12e+00,
390,2.96e+00,5.04e+00,
391,2.80e+00,4.88e+00,
392,2.80e+00,5.04e+00,
393,2.88e+00,4.96e+00,
394,2.88e+00,4.96e+00,
395,2.72e+00,5.04e+00,
396,2.80e+00,5.04e+00,
397,2.64e+00,4.96e+00,
398,2.72e+00,5.04e+00,
399,2.64e+00,4.88e+00,
400,2.56e+00,4.96e+00,
401,2.72e+00,5.04e+00,
402,2.64e+00,4.96e+00,
403,2.48e+00,5.04e+00,
404,2.48e+00,5.04e+00,
405,2.56e+00,4.96e+00,
406,2.56e+00,5.04e+00,
407,2.40e+00,4.96e+00,
408,2.40e+00,5.20e+00,
409,2.32e+00,4.88e+00,
410,2.40e+00,5.04e+00,
411,2.24e+00,4.96e+00,
412,2.32e+00,4.96e+00,
413,2.16e+00,5.04e+00,
414,2.24e+00,4.96e+00,
415,2.08e+00,5.04e+00,
416,2.24e+00,5.04e+00,
417,2.08e+00,4.88e+00,
418,2.16e+00,5.04e+00,
419,2.00e+00,4.88e+00,
420,2.00e+00,5.04e+00,
421,2.08e+00,4.88e+00,
422,2.08e+00,5.04e+00,
423,1.92e+00,4.96e+00,
424,2.00e+00,4.96e+00,
425,1.84e+00,5.04e+00,
426,1.92e+00,5.04e+00,
427,1.84e+00,4.88e+00,
428,1.76e+00,4.96e+00,
429,1.92e+00,5.12e+00,
430,1.84e+00,5.04e+00,
431,1.68e+00,4.96e+00,
432,1.68e+00,5.04e+00,
433,1.76e+00,4.88e+00,
434,1.76e+00,4.96e+00,
435,1.60e+00,5.04e+00,
436,1.60e+00,4.96e+00,
437,1.60e+00,5.04e+00,
438,1.68e+00,4.88e+00,
439,1.52e+00,5.04e+00,
440,1.52e+00,4.96e+00,
441,1.44e+00,5.04e+00,
442,1.44e+00,5.04e+00,
443,1.44e+00,4.96e+00,
444,1.44e+00,5.04e+00,
445,1.28e+00,4.96e+00,
446,1.36e+00,5.04e+00,
447,1.28e+00,4.88e+00,
448,1.36e+00,4.88e+00,
449,1.28e+00,5.12e+00,
450,1.28e+00,5.04e+00,
451,1.12e+00,4.96e+00,
452,1.20e+00,5.04e+00,
453,1.12e+00,4.96e+00,
454,1.20e+00,5.04e+00,
455,1.04e+00,4.88e+00,
456,1.12e+00,4.96e+00,
457,1.04e+00,5.04e+00,
458,1.12e+00,5.04e+00,
459,9.60e-01,4.88e+00,
460,9.60e-01,4.96e+00,
461,1.04e+00,5.04e+00,
462,1.04e+00,5.04e+00,
463,8.80e-01,4.96e+00,
464,9.60e-01,5.04e+00,
465,8.80e-01,4.88e+00,
466,9.60e-01,5.04e+00,
467,8.00e-01,4.96e+00,
468,8.00e-01,4.96e+00,
469,8.80e-01,5.12e+00,
470,8.80e-01,4.96e+00,
471,7.20e-01,5.04e+00,
472,7.20e-01,5.04e+00,
473,8.00e-01,4.96e+00,
474,8.00e-01,5.04e+00,
475,6.40e-01,4.88e+00,
476,6.40e-01,5.04e+00,
477,7.20e-01,4.96e+00,
478,7.20e-01,4.88e+00,
479,5.60e-01,5.04e+00,
480,5.60e-01,4.96e+00,
481,6.40e-01,5.04e+00,
482,5.60e-01,5.04e+00,
483,5.60e-01,4.96e+00,
484,4.80e-01,5.04e+00,
485,4.80e-01,4.88e+00,
486,4.80e-01,4.96e+00,
487,4.80e-01,5.04e+00,
488,4.80e-01,4.96e+00,
489,3.20e-01,5.12e+00,
490,4.00e-01,5.04e+00,
491,4.00e-01,4.96e+00,
492,4.00e-01,5.04e+00,
493,4.00e-01,4.96e+00,
494,4.00e-01,4.96e+00,
495,2.40e-01,5.04e+00,
496,3.20e-01,5.04e+00,
497,2.40e-01,4.96e+00,
498,3.20e-01,4.96e+00,
499,2.40e-01,5.04e+00,
500,3.20e-01,5.04e+00,
501,1.60e-01,4.96e+00,
502,1.60e-01,5.04e+00,
503,2.40e-01,4.88e+00,
504,2.40e-01,5.04e+00,
505,1.60e-01,4.96e+00,
506,1.60e-01,5.04e+00,
507,2.40e-01,4.96e+00,
508,1.60e-01,5.12e+00,
509,8.00e-02,4.88e+00,
510,1.60e-01,5.04e+00,
511,8.00e-02,4.96e+00,
512,1.60e-01,4.96e+00,
513,8.00e-02,5.04e+00,
514,1.60e-01,5.04e+00,
515,0.00e+00,4.96e+00,
516,8.00e-02,4.96e+00,
517,0.00e+00,5.04e+00,
518,8.00e-02,5.04e+00,
519,0.00e+00,4.88e+00,
520,8.00e-02,5.04e+00,
521,0.00e+00,4.96e+00,
522,0.00e+00,5.04e+00,
523,8.00e-02,4.96e+00,
524,8.00e-02,5.04e+00,
525,-8.00e-02,5.04e+00,
526,-8.00e-02,5.04e+00,
527,8.00e-02,4.88e+00,
528,-8.00e-02,5.12e+00,
529,8.00e-02,4.96e+00,
530,-8.00e-02,5.04e+00,
531,0.00e+00,5.04e+00,
532,0.00e+00,5.04e+00,
533,-8.00e-02,4.80e+00,
534,0.00e+00,4.88e+00,
535,-8.00e-02,4.48e+00,
536,-8.00e-02,4.48e+00,
537,0.00e+00,4.00e+00,
538,-8.00e-02,3.92e+00,
539,0.00e+00,3.36e+00,
540,-8.00e-02,3.28e+00,
541,0.00e+00,2.64e+00,
542,-8.00e-02,2.64e+00,
543,0.00e+00,2.00e+00,
544,-8.00e-02,2.00e+00,
545,0.00e+00,1.36e+00,
546,0.00e+00,1.36e+00,
547,-8.00e-02,8.00e-01,
548,-8.00e-02,8.80e-01,
549,0.00e+00,4.00e-01,
550,-8.00e-02,4.00e-01,
551,0.00e+00,2.40e-01,
552,0.00e+00,3.20e-01,
553,-8.00e-02,2.40e-01,
554,0.00e+00,2.40e-01,
555,-8.00e-02,2.40e-01,
556,0.00e+00,2.40e-01,
557,-8.00e-02,1.60e-01,
558,0.00e+00,2.40e-01,
559,-8.00e-02,1.60e-01,
560,-8.00e-02,2.40e-01,
561,0.00e+00,1.60e-01,
562,-8.00e-02,2.40e-01,
563,8.00e-02,1.60e-01,
564,-8.00e-02,2.40e-01,
565,8.00e-02,1.60e-01,
566,-8.00e-02,2.40e-01,
567,8.00e-02,1.60e-01,
568,8.00e-02,2.40e-01,
569,0.00e+00,1.60e-01,
570,0.00e+00,2.40e-01,
571,8.00e-02,8.00e-02,
572,8.00e-02,2.40e-01,
573,0.00e+00,1.60e-01,
574,0.00e+00,1.60e-01,
575,1.60e-01,2.40e-01,
576,0.00e+00,2.40e-01,
577,1.60e-01,1.60e-01,
578,1.60e-01,2.40e-01,
579,8.00e-02,1.60e-01,
580,8.00e-02,2.40e-01,
581,1.60e-01,1.60e-01,
582,2.40e-01,2.40e-01,
583,8.00e-02,1.60e-01,
584,1.60e-01,2.40e-01,
585,2.40e-01,1.60e-01,
586,2.40e-01,2.40e-01,
587,1.60e-01,1.60e-01,
588,1.60e-01,1.60e-01,
589,3.20e-01,2.40e-01,
590,3.20e-01,2.40e-01,
591,1.60e-01,1.60e-01,
592,3.20e-01,2.40e-01,
593,3.20e-01,1.60e-01,
594,3.20e-01,2.40e-01,
595,4.00e-01,8.00e-02,
596,3.20e-01,2.40e-01,
597,4.00e-01,2.40e-01,
598,4.00e-01,2.40e-01,
599,3.20e-01,2.40e-01,
600,4.00e-01,2.40e-01,
601,4.80e-01,1.60e-01,
602,4.80e-01,2.40e-01,
603,4.80e-01,1.60e-01,
604,4.80e-01,2.40e-01,
605,5.60e-01,1.60e-01,
606,5.60e-01,2.40e-01,
607,4.80e-01,8.00e-02,
608,5.60e-01,2.40e-01,
609,6.40e-01,1.60e-01,
610,5.60e-01,2.40e-01,
611,7.20e-01,1.60e-01,
612,6.40e-01,2.40e-01,
613,7.20e-01,1.60e-01,
614,6.40e-01,2.40e-01,
615,8.00e-01,8.00e-02,
616,7.20e-01,2.40e-01,
617,8.00e-01,1.60e-01,
618,7.20e-01,2.40e-01,
619,8.80e-01,1.60e-01,
620,8.00e-01,2.40e-01,
621,8.80e-01,1.60e-01,
622,8.00e-01,1.60e-01,
623,9.60e-01,2.40e-01,
624,8.80e-01,2.40e-01,
625,9.60e-01,1.60e-01,
626,8.80e-01,2.40e-01,
627,1.04e+00,1.60e-01,
628,1.04e+00,2.40e-01,
629,9.60e-01,8.00e-02,
630,9.60e-01,2.40e-01,
631,1.12e+00,1.60e-01,
632,1.12e+00,2.40e-01,
633,1.04e+00,1.60e-01,
634,1.04e+00,2.40e-01,
635,1.20e+00,2.40e-01,
636,1.20e+00,2.40e-01,
637,1.12e+00,1.60e-01,
638,1.28e+00,2.40e-01,
639,1.20e+00,1.60e-01,
640,1.20e+00,2.40e-01,
641,1.36e+00,1.60e-01,
642,1.36e+00,2.40e-01,
643,1.28e+00,1.60e-01,
644,1.28e+00,1.60e-01,
645,1.44e+00,2.40e-01,
646,1.44e+00,2.40e-01,
647,1.44e+00,3.20e-01,
648,1.44e+00,3.20e-01,
649,1.60e+00,2.40e-01,
650,1.52e+00,3.20e-01,
651,1.68e+00,3.20e-01,
652,1.60e+00,3.20e-01,
653,1.68e+00,4.80e-01,
654,1.60e+00,4.00e-01,
655,1.76e+00,5.60e-01,
656,1.68e+00,5.60e-01,
657,1.76e+00,8.00e-01,
658,1.76e+00,7.20e-01,
659,1.84e+00,9.60e-01,
660,1.76e+00,8.80e-01,
661,1.92e+00,1.20e+00,
662,1.84e+00,1.20e+00,
663,1.92e+00,1.44e+00,
664,1.84e+00,1.44e+00,
665,2.00e+00,1.68e+00,
666,1.92e+00,1.60e+00,
667,2.08e+00,1.92e+00,
668,2.00e+00,1.84e+00,
669,2.08e+00,2.08e+00,
670,2.16e+00,2.08e+00,
671,2.00e+00,2.32e+00,
672,2.08e+00,2.32e+00,
673,2.24e+00,2.56e+00,
674,2.24e+00,2.48e+00,
675,2.16e+00,2.72e+00,
676,2.16e+00,2.64e+00,
677,2.32e+00,2.96e+00,
678,2.32e+00,2.88e+00,
679,2.40e+00,3.12e+00,
680,2.40e+00,2.96e+00,
681,2.32e+00,3.36e+00,
682,2.40e+00,3.20e+00,
683,2.56e+00,3.44e+00,
684,2.48e+00,3.36e+00,
685,2.56e+00,3.68e+00,
686,2.56e+00,3.52e+00,
687,2.48e+00,3.76e+00,
688,2.56e+00,3.76e+00,
689,2.64e+00,3.92e+00,
690,2.64e+00,3.84e+00,
691,2.72e+00,4.08e+00,
692,2.64e+00,4.00e+00,
693,2.80e+00,4.16e+00,
694,2.72e+00,4.16e+00,
695,2.88e+00,4.32e+00,
696,2.88e+00,4.24e+00,
697,2.80e+00,4.48e+00,
698,2.80e+00,4.32e+00,
699,2.96e+00,4.56e+00,
700,2.88e+00,4.48e+00,
701,3.04e+00,4.64e+00,
702,3.04e+00,4.72e+00,
703,2.96e+00,4.56e+00,
704,2.96e+00,4.64e+00,
705,3.12e+00,4.80e+00,
706,3.04e+00,4.88e+00,
707,3.20e+00,4.72e+00,
708,3.20e+00,4.96e+00,
709,3.12e+00,4.80e+00,
710,3.12e+00,4.96e+00,
711,3.28e+00,4.80e+00,
712,3.28e+00,5.04e+00,
713,3.20e+00,4.88e+00,
714,3.36e+00,5.04e+00,
715,3.28e+00,4.88e+00,
716,3.36e+00,5.04e+00,
717,3.52e+00,4.88e+00,
718,3.36e+00,4.96e+00,
719,3.52e+00,5.04e+00,
720,3.44e+00,4.96e+00,
721,3.60e+00,5.04e+00,
722,3.52e+00,4.88e+00,
723,3.60e+00,5.04e+00,
724,3.68e+00,5.04e+00,
725,3.52e+00,4.88e+00,
726,3.60e+00,4.96e+00,
727,3.68e+00,5.04e+00,
728,3.60e+00,4.96e+00,
729,3.76e+00,5.12e+00,
730,3.68e+00,5.04e+00,
731,3.84e+00,4.88e+00,
732,3.76e+00,5.04e+00,
733,3.84e+00,4.88e+00,
734,3.76e+00,5.04e+00,
735,3.92e+00,4.88e+00,
736,3.84e+00,4.96e+00,
737,3.92e+00,5.04e+00,
738,4.00e+00,5.04e+00,
739,3.84e+00,4.88e+00,
740,3.92e+00,4.96e+00,
741,4.00e+00,5.04e+00,
742,4.08e+00,4.96e+00,
743,3.92e+00,5.04e+00,
744,4.08e+00,4.96e+00,
745,4.00e+00,5.04e+00,
746,4.16e+00,4.88e+00,
747,4.00e+00,5.04e+00,
748,4.08e+00,4.88e+00,
749,4.24e+00,5.20e+00,
750,4.08e+00,5.04e+00,
751,4.24e+00,4.88e+00,
752,4.24e+00,4.96e+00,
753,4.16e+00,5.04e+00,
754,4.32e+00,4.88e+00,
755,4.16e+00,5.04e+00,
756,4.32e+00,5.04e+00,
757,4.32e+00,4.88e+00,
758,4.32e+00,5.04e+00,
759,4.40e+00,4.88e+00,
760,4.40e+00,5.04e+00,
761,4.32e+00,4.88e+00,
762,4.40e+00,4.88e+00,
763,4.48e+00,5.04e+00,
764,4.40e+00,5.04e+00,
765,4.56e+00,4.96e+00,
766,4.48e+00,4.88e+00,
767,4.56e+00,5.04e+00,
768,4.48e+00,4.96e+00,
769,4.64e+00,5.12e+00,
770,4.64e+00,5.04e+00,
771,4.48e+00,4.88e+00,
772,4.64e+00,4.96e+00,
773,4.56e+00,5.04e+00,
774,4.56e+00,5.04e+00,
775,4.72e+00,4.88e+00,
776,4.72e+00,4.96e+00,
777,4.56e+00,5.04e+00,
778,4.64e+00,5.04e+00,
779,4.72e+00,4.88e+00,
780,4.64e+00,4.96e+00,
781,4.80e+00,5.04e+00,
782,4.64e+00,4.88e+00,
783,4.80e+00,5.04e+00,
784,4.80e+00,5.04e+00,
785,4.72e+00,4.96e+00,
786,4.80e+00,5.04e+00,
787,4.72e+00,4.88e+00,
788,4.72e+00,5.04e+00,
789,4.88e+00,4.88e+00,
790,4.88e+00,4.96e+00,
791,4.72e+00,5.04e+00,
792,4.80e+00,5.04e+00,
793,4.88e+00,4.88e+00,
794,4.88e+00,5.04e+00,
795,4.80e+00,4.88e+00,
796,4.80e+00,4.88e+00,
797,4.96e+00,5.04e+00,
798,4.80e+00,5.04e+00,
799,4.96e+00,4.88e+00,
800,4.96e+00,4.96e+00,
801,4.80e+00,5.04e+00,
802,4.96e+00,5.04e+00,
803,4.88e+00,4.96e+00,
804,4.88e+00,5.04e+00,
805,4.96e+00,4.96e+00,
806,4.96e+00,4.96e+00,
807,4.88e+00,5.04e+00,
808,4.88e+00,4.96e+00,
809,5.04e+00,5.12e+00,
810,4.88e+00,4.96e+00,
811,5.04e+00,5.04e+00,
812,5.04e+00,5.04e+00,
813,4.88e+00,4.96e+00,
814,5.04e+00,4.96e+00,
815,4.88e+00,5.04e+00,
816,5.04e+00,5.04e+00,
817,4.88e+00,4.88e+00,
818,5.04e+00,4.96e+00,
819,4.88e+00,5.04e+00,
820,5.04e+00,4.96e+00,
821,4.88e+00,5.04e+00,
822,5.04e+00,5.04e+00,
823,4.88e+00,4.96e+00,
824,5.04e+00,5.04e+00,
825,4.88e+00,4.88e+00,
826,5.04e+00,5.04e+00,
827,4.88e+00,4.88e+00,
828,5.04e+00,4.88e+00,
829,4.88e+00,5.12e+00,
830,4.88e+00,5.04e+00,
831,5.04e+00,4.96e+00,
832,5.04e+00,5.04e+00,
833,4.88e+00,4.88e+00,
834,5.04e+00,4.88e+00,
835,4.88e+00,5.04e+00,
836,4.88e+00,5.04e+00,
837,4.96e+00,4.88e+00,
838,4.88e+00,4.96e+00,
839,4.96e+00,5.04e+00,
840,4.88e+00,5.04e+00,
841,4.96e+00,4.96e+00,
842,4.96e+00,5.04e+00,
843,4.80e+00,4.96e+00,
844,4.96e+00,5.04e+00,
845,4.80e+00,4.88e+00,
846,4.96e+00,5.04e+00,
847,4.80e+00,4.88e+00,
848,4.96e+00,4.88e+00,
849,4.80e+00,5.12e+00,
850,4.80e+00,4.96e+00,
851,4.88e+00,5.04e+00,
852,4.88e+00,5.04e+00,
853,4.72e+00,4.88e+00,
854,4.88e+00,4.88e+00,
855,4.72e+00,5.04e+00,
856,4.88e+00,4.88e+00,
857,4.72e+00,5.04e+00,
858,4.72e+00,4.96e+00,
859,4.88e+00,5.04e+00,
860,4.72e+00,5.04e+00,
861,4.80e+00,4.96e+00,
862,4.64e+00,5.04e+00,
863,4.80e+00,4.88e+00,
864,4.80e+00,5.04e+00,
865,4.64e+00,4.88e+00,
866,4.72e+00,5.04e+00,
867,4.64e+00,4.96e+00,
868,4.56e+00,5.04e+00,
869,4.72e+00,4.88e+00,
