project/matlab/project_exp3/100 Hz/NewFile1.csv

X,CH1,CH2,Start,Increment,
Sequence,Volt,Volt,-2.928000e-02,5.000000e-05
0,3.92e+00,4.88e+00,
1,4.16e+00,5.20e+00,
2,4.00e+00,4.88e+00,
3,4.24e+00,5.20e+00,
4,4.24e+00,5.20e+00,
5,4.40e+00,4.88e+00,
6,4.32e+00,4.88e+00,
7,4.56e+00,5.20e+00,
8,4.40e+00,5.20e+00,
9,4.64e+00,4.88e+00,
10,4.48e+00,4.88e+00,
11,4.64e+00,5.20e+00,
12,4.56e+00,5.20e+00,
13,4.72e+00,4.88e+00,
14,4.64e+00,5.20e+00,
15,4.80e+00,4.88e+00,
16,4.64e+00,5.20e+00,
17,4.88e+00,4.88e+00,
18,4.88e+00,5.20e+00,
19,4.72e+00,4.88e+00,
20,4.72e+00,5.20e+00,
21,4.96e+00,4.88e+00,
22,4.96e+00,4.88e+00,
23,4.80e+00,5.20e+00,
24,4.88e+00,5.20e+00,
25,4.96e+00,4.88e+00,
26,4.96e+00,5.20e+00,
27,4.80e+00,4.88e+00,
28,4.96e+00,4.88e+00,
29,4.80e+00,5.20e+00,
30,4.96e+00,5.20e+00,
31,4.88e+00,4.88e+00,
32,4.96e+00,4.88e+00,
33,4.80e+00,5.20e+00,
34,4.88e+00,5.20e+00,
35,4.72e+00,4.88e+00,
36,4.88e+00,5.20e+00,
37,4.72e+00,4.88e+00,
38,4.80e+00,4.88e+00,
39,4.64e+00,5.20e+00,
40,4.80e+00,4.88e+00,
41,4.56e+00,5.20e+00,
42,4.56e+00,4.88e+00,
43,4.72e+00,5.20e+00,
44,4.64e+00,4.88e+00,
45,4.48e+00,5.20e+00,
46,4.56e+00,4.88e+00,
47,4.40e+00,5.20e+00,
48,4.48e+00,4.88e+00,
49,4.32e+00,5.20e+00,
50,4.40e+00,4.88e+00,
51,4.08e+00,5.20e+00,
52,4.24e+00,4.88e+00,
53,4.00e+00,5.12e+00,
54,4.16e+00,4.88e+00,
55,3.92e+00,5.20e+00,
56,4.00e+00,4.88e+00,
57,3.76e+00,5.12e+00,
58,3.92e+00,4.88e+00,
59,3.68e+00,5.12e+00,
60,3.84e+00,4.88e+00,
61,3.52e+00,5.12e+00,
62,3.68e+00,5.04e+00,
63,3.44e+00,4.88e+00,
64,3.52e+00,4.88e+00,
65,3.28e+00,5.12e+00,
66,3.36e+00,4.88e+00,
67,3.12e+00,5.12e+00,
68,3.20e+00,5.12e+00,
69,2.96e+00,4.88e+00,
70,3.04e+00,4.88e+00,
71,2.80e+00,5.12e+00,
72,2.88e+00,4.88e+00,
73,2.64e+00,5.12e+00,
74,2.80e+00,5.04e+00,
75,2.56e+00,4.88e+00,
76,2.64e+00,5.04e+00,
77,2.40e+00,4.88e+00,
78,2.48e+00,5.04e+00,
79,2.16e+00,4.88e+00,
80,2.24e+00,4.88e+00,
81,2.00e+00,5.04e+00,
82,2.16e+00,5.04e+00,
83,1.92e+00,4.88e+00,
84,2.00e+00,5.04e+00,
85,1.76e+00,4.88e+00,
86,1.84e+00,4.88e+00,
87,1.60e+00,5.04e+00,
88,1.68e+00,5.04e+00,
89,1.44e+00,4.88e+00,
90,1.60e+00,5.04e+00,
91,1.36e+00,4.88e+00,
92,1.36e+00,5.04e+00,
93,1.12e+00,4.88e+00,
94,1.20e+00,5.04e+00,
95,1.04e+00,4.88e+00,
96,1.12e+00,5.04e+00,
97,8.80e-01,4.88e+00,
98,9.60e-01,5.04e+00,
99,8.00e-01,4.88e+00,
100,8.80e-01,5.04e+00,
101,6.40e-01,4.88e+00,
102,8.00e-01,4.88e+00,
103,5.60e-01,5.12e+00,
104,6.40e-01,5.04e+00,
105,4.80e-01,4.88e+00,
106,5.60e-01,5.04e+00,
107,4.00e-01,4.88e+00,
108,4.00e-01,5.04e+00,
109,2.40e-01,8.00e-02,
110,3.20e-01,2.40e-01,
111,1.60e-01,8.00e-02,
112,2.40e-01,8.00e-02,
113,8.00e-02,2.40e-01,
114,1.60e-01,0.00e+00,
115,0.00e+00,2.40e-01,
116,1.60e-01,1.60e-01,
117,0.00e+00,0.00e+00,
118,8.00e-02,1.60e-01,
119,-8.00e-02,0.00e+00,
120,-8.00e-02,1.60e-01,
121,0.00e+00,0.00e+00,
122,-8.00e-02,1.60e-01,
123,0.00e+00,0.00e+00,
124,0.00e+00,1.60e-01,
125,-1.60e-01,0.00e+00,
126,-1.60e-01,1.60e-01,
127,0.00e+00,0.00e+00,
128,-1.60e-01,1.60e-01,
129,0.00e+00,0.00e+00,
130,-1.60e-01,1.60e-01,
131,0.00e+00,0.00e+00,
132,-8.00e-02,1.60e-01,
133,0.00e+00,0.00e+00,
134,-8.00e-02,1.60e-01,
135,8.00e-02,0.00e+00,
136,-8.00e-02,1.60e-01,
137,8.00e-02,0.00e+00,
138,0.00e+00,1.60e-01,
139,1.60e-01,0.00e+00,
140,0.00e+00,1.60e-01,
141,2.40e-01,0.00e+00,
142,2.40e-01,1.60e-01,
143,8.00e-02,0.00e+00,
144,1.60e-01,1.60e-01,
145,3.20e-01,0.00e+00,
146,4.00e-01,0.00e+00,
147,2.40e-01,2.40e-01,
148,3.20e-01,1.60e-01,
149,5.60e-01,0.00e+00,
150,4.80e-01,1.60e-01,
151,7.20e-01,0.00e+00,
152,5.60e-01,0.00e+00,
153,8.00e-01,2.40e-01,
154,7.20e-01,1.60e-01,
155,8.80e-01,5.04e+00,
156,8.00e-01,5.04e+00,
157,1.04e+00,4.88e+00,
158,8.80e-01,5.04e+00,
159,1.12e+00,4.88e+00,
160,1.04e+00,5.04e+00,
161,1.28e+00,4.88e+00,
162,1.20e+00,5.04e+00,
163,1.36e+00,4.96e+00,
164,1.36e+00,5.04e+00,
165,1.60e+00,5.04e+00,
166,1.52e+00,5.04e+00,
167,1.76e+00,4.96e+00,
168,1.60e+00,5.04e+00,
169,1.84e+00,4.96e+00,
170,1.76e+00,5.04e+00,
171,2.00e+00,4.96e+00,
172,1.92e+00,5.04e+00,
173,2.16e+00,4.88e+00,
174,2.08e+00,5.04e+00,
175,2.32e+00,4.96e+00,
176,2.24e+00,5.04e+00,
177,2.56e+00,4.88e+00,
178,2.40e+00,5.04e+00,
179,2.64e+00,4.88e+00,
180,2.56e+00,5.04e+00,
181,2.80e+00,4.88e+00,
182,2.72e+00,4.88e+00,
183,2.96e+00,5.12e+00,
184,2.88e+00,5.04e+00,
185,3.12e+00,4.88e+00,
186,2.96e+00,4.88e+00,
187,3.20e+00,5.12e+00,
188,3.12e+00,4.88e+00,
189,3.44e+00,5.12e+00,
190,3.36e+00,4.88e+00,
191,3.60e+00,5.12e+00,
192,3.44e+00,4.88e+00,
193,3.68e+00,5.20e+00,
194,3.60e+00,4.88e+00,
195,3.84e+00,5.12e+00,
196,3.68e+00,5.04e+00,
197,3.92e+00,4.88e+00,
198,3.84e+00,4.88e+00,
199,4.08e+00,5.20e+00,
200,3.92e+00,5.20e+00,
201,4.16e+00,4.88e+00,
202,4.08e+00,4.88e+00,
203,4.24e+00,5.20e+00,
204,4.24e+00,4.88e+00,
205,4.40e+00,5.20e+00,
206,4.32e+00,5.20e+00,
207,4.56e+00,4.88e+00,
208,4.40e+00,4.88e+00,
209,4.56e+00,5.20e+00,
210,4.48e+00,4.88e+00,
211,4.64e+00,5.20e+00,
212,4.56e+00,4.88e+00,
213,4.72e+00,5.20e+00,
214,4.64e+00,5.20e+00,
215,4.80e+00,4.88e+00,
216,4.64e+00,4.88e+00,
217,4.88e+00,5.20e+00,
218,4.88e+00,5.20e+00,
219,4.72e+00,4.88e+00,
220,4.72e+00,5.20e+00,
221,4.96e+00,4.88e+00,
222,4.80e+00,4.88e+00,
223,4.96e+00,5.20e+00,
224,4.96e+00,5.20e+00,
225,4.88e+00,4.88e+00,
226,4.96e+00,4.88e+00,
227,4.80e+00,5.20e+00,
228,4.96e+00,5.20e+00,
229,4.80e+00,4.88e+00,
230,4.96e+00,5.20e+00,
231,4.88e+00,4.88e+00,
232,4.96e+00,5.20e+00,
233,4.80e+00,4.88e+00,
234,4.88e+00,4.88e+00,
235,4.72e+00,5.20e+00,
236,4.88e+00,4.88e+00,
237,4.72e+00,5.20e+00,
238,4.80e+00,4.88e+00,
239,4.64e+00,5.20e+00,
240,4.80e+00,4.88e+00,
241,4.56e+00,5.20e+00,
242,4.56e+00,4.88e+00,
243,4.72e+00,5.20e+00,
244,4.64e+00,4.88e+00,
245,4.48e+00,5.20e+00,
246,4.56e+00,4.88e+00,
247,4.40e+00,5.20e+00,
248,4.32e+00,5.12e+00,
249,4.48e+00,4.88e+00,
250,4.40e+00,5.12e+00,
251,4.08e+00,4.88e+00,
252,4.24e+00,4.88e+00,
253,4.00e+00,5.20e+00,
254,4.16e+00,4.88e+00,
255,3.92e+00,5.12e+00,
256,4.00e+00,4.88e+00,
257,3.76e+00,5.20e+00,
258,3.92e+00,4.88e+00,
259,3.68e+00,5.12e+00,
260,3.76e+00,5.12e+00,
261,3.52e+00,4.88e+00,
262,3.68e+00,4.88e+00,
263,3.44e+00,5.12e+00,
264,3.52e+00,4.88e+00,
265,3.28e+00,5.12e+00,
266,3.44e+00,4.88e+00,
267,3.12e+00,5.12e+00,
268,3.20e+00,4.88e+00,
269,2.96e+00,5.12e+00,
270,3.04e+00,5.04e+00,
271,2.80e+00,4.88e+00,
272,2.88e+00,4.88e+00,
273,2.64e+00,5.04e+00,
274,2.80e+00,4.88e+00,
275,2.56e+00,5.12e+00,
276,2.64e+00,5.20e+00,
277,2.40e+00,4.88e+00,
278,2.48e+00,5.12e+00,
279,2.16e+00,4.88e+00,
280,2.24e+00,5.04e+00,
281,2.00e+00,4.88e+00,
282,2.16e+00,5.04e+00,
283,1.84e+00,4.88e+00,
284,2.00e+00,5.04e+00,
285,1.76e+00,4.88e+00,
286,1.84e+00,5.04e+00,
287,1.60e+00,4.88e+00,
288,1.68e+00,5.04e+00,
289,1.44e+00,4.96e+00,
290,1.52e+00,5.04e+00,
291,1.36e+00,4.88e+00,
292,1.36e+00,5.04e+00,
293,1.12e+00,4.88e+00,
294,1.20e+00,5.04e+00,
295,1.04e+00,4.88e+00,
296,1.12e+00,4.88e+00,
297,8.80e-01,5.12e+00,
298,9.60e-01,4.88e+00,
299,8.00e-01,5.04e+00,
300,8.80e-01,4.88e+00,
301,6.40e-01,5.12e+00,
302,8.00e-01,5.04e+00,
303,5.60e-01,4.88e+00,
304,6.40e-01,5.04e+00,
305,4.80e-01,4.88e+00,
306,5.60e-01,4.88e+00,
307,4.00e-01,5.12e+00,
308,4.00e-01,5.04e+00,
309,2.40e-01,8.00e-02,
310,3.20e-01,2.40e-01,
311,1.60e-01,8.00e-02,
312,2.40e-01,8.00e-02,
313,8.00e-02,2.40e-01,
314,1.60e-01,2.40e-01,
315,0.00e+00,0.00e+00,
316,1.60e-01,2.40e-01,
317,0.00e+00,0.00e+00,
318,8.00e-02,2.40e-01,
319,-8.00e-02,0.00e+00,
320,-8.00e-02,0.00e+00,
321,8.00e-02,2.40e-01,
322,0.00e+00,1.60e-01,
323,-8.00e-02,0.00e+00,
324,0.00e+00,1.60e-01,
325,-1.60e-01,0.00e+00,
326,-1.60e-01,1.60e-01,
327,0.00e+00,0.00e+00,
328,-1.60e-01,1.60e-01,
329,0.00e+00,0.00e+00,
330,-1.60e-01,1.60e-01,
331,0.00e+00,0.00e+00,
332,-8.00e-02,1.60e-01,
333,0.00e+00,0.00e+00,
334,-8.00e-02,1.60e-01,
335,8.00e-02,0.00e+00,
336,8.00e-02,1.60e-01,
337,-8.00e-02,0.00e+00,
338,0.00e+00,1.60e-01,
339,1.60e-01,0.00e+00,
340,8.00e-02,1.60e-01,
341,2.40e-01,0.00e+00,
342,8.00e-02,1.60e-01,
343,2.40e-01,0.00e+00,
344,1.60e-01,1.60e-01,
345,3.20e-01,0.00e+00,
346,2.40e-01,0.00e+00,
347,4.00e-01,1.60e-01,
348,4.00e-01,1.60e-01,
349,5.60e-01,0.00e+00,
350,4.80e-01,0.00e+00,
351,7.20e-01,1.60e-01,
352,5.60e-01,1.60e-01,
353,8.00e-01,8.00e-02,
354,7.20e-01,8.00e-02,
355,8.80e-01,5.04e+00,
356,8.00e-01,5.04e+00,
357,1.04e+00,4.88e+00,
358,8.80e-01,5.04e+00,
359,1.12e+00,4.88e+00,
360,1.04e+00,5.04e+00,
361,1.28e+00,4.88e+00,
362,1.12e+00,5.04e+00,
363,1.36e+00,4.96e+00,
364,1.36e+00,5.04e+00,
365,1.60e+00,4.96e+00,
366,1.52e+00,5.04e+00,
367,1.76e+00,4.96e+00,
368,1.60e+00,5.04e+00,
369,1.84e+00,4.96e+00,
370,1.76e+00,5.04e+00,
371,2.00e+00,4.96e+00,
372,1.92e+00,5.04e+00,
373,2.16e+00,4.96e+00,
374,2.08e+00,5.04e+00,
375,2.32e+00,4.96e+00,
376,2.16e+00,5.04e+00,
377,2.56e+00,4.88e+00,
378,2.40e+00,5.04e+00,
379,2.64e+00,4.88e+00,
380,2.56e+00,4.88e+00,
381,2.80e+00,5.12e+00,
382,2.72e+00,5.04e+00,
383,2.96e+00,4.88e+00,
384,2.80e+00,4.88e+00,
385,3.12e+00,5.12e+00,
386,2.96e+00,5.04e+00,
387,3.20e+00,4.88e+00,
388,3.12e+00,4.88e+00,
389,3.44e+00,5.20e+00,
390,3.36e+00,4.88e+00,
391,3.60e+00,5.12e+00,
392,3.44e+00,5.12e+00,
393,3.68e+00,4.88e+00,
394,3.60e+00,5.12e+00,
395,3.84e+00,4.88e+00,
396,3.68e+00,4.88e+00,
397,3.92e+00,5.20e+00,
398,3.84e+00,4.88e+00,
399,4.08e+00,5.20e+00,
400,3.92e+00,5.20e+00,
401,4.16e+00,4.88e+00,
402,4.00e+00,4.88e+00,
403,4.24e+00,5.12e+00,
404,4.16e+00,5.20e+00,
405,4.48e+00,4.88e+00,
406,4.32e+00,5.20e+00,
407,4.56e+00,4.88e+00,
408,4.40e+00,5.20e+00,
409,4.64e+00,4.88e+00,
410,4.48e+00,4.88e+00,
411,4.72e+00,5.20e+00,
412,4.72e+00,5.20e+00,
413,4.56e+00,4.88e+00,
414,4.64e+00,4.88e+00,
415,4.80e+00,5.20e+00,
416,4.64e+00,4.88e+00,
417,4.88e+00,5.20e+00,
418,4.88e+00,5.20e+00,
419,4.72e+00,4.88e+00,
420,4.72e+00,4.88e+00,
421,4.96e+00,5.20e+00,
422,4.96e+00,4.88e+00,
423,4.80e+00,5.20e+00,
424,4.88e+00,5.20e+00,
425,4.96e+00,4.88e+00,
426,4.96e+00,4.88e+00,
427,4.80e+00,5.20e+00,
428,4.96e+00,4.88e+00,
429,4.88e+00,5.20e+00,
430,4.96e+00,4.88e+00,
431,4.80e+00,5.20e+00,
432,4.96e+00,5.20e+00,
433,4.80e+00,4.88e+00,
434,4.88e+00,4.88e+00,
435,4.72e+00,5.20e+00,
436,4.88e+00,4.88e+00,
437,4.72e+00,5.12e+00,
438,4.88e+00,5.12e+00,
439,4.64e+00,4.88e+00,
440,4.80e+00,4.88e+00,
441,4.56e+00,5.20e+00,
442,4.56e+00,4.88e+00,
443,4.72e+00,5.20e+00,
444,4.64e+00,4.88e+00,
445,4.48e+00,5.04e+00,
446,4.56e+00,4.88e+00,
447,4.40e+00,5.20e+00,
448,4.48e+00,5.20e+00,
449,4.32e+00,4.88e+00,
450,4.40e+00,4.88e+00,
451,4.08e+00,5.20e+00,
452,4.24e+00,4.88e+00,
453,4.00e+00,5.12e+00,
454,4.16e+00,4.88e+00,
455,3.92e+00,5.12e+00,
456,4.00e+00,5.04e+00,
457,3.76e+00,4.88e+00,
458,3.92e+00,4.88e+00,
459,3.68e+00,5.20e+00,
460,3.76e+00,4.88e+00,
461,3.52e+00,5.12e+00,
462,3.68e+00,4.88e+00,
463,3.44e+00,5.12e+00,
464,3.52e+00,4.88e+00,
465,3.28e+00,5.12e+00,
466,3.44e+00,4.88e+00,
467,3.12e+00,5.12e+00,
468,3.20e+00,5.12e+00,
469,2.96e+00,4.88e+00,
470,3.04e+00,5.04e+00,
471,2.80e+00,4.88e+00,
472,2.96e+00,5.04e+00,
473,2.64e+00,4.88e+00,
474,2.80e+00,5.04e+00,
475,2.56e+00,4.88e+00,
476,2.64e+00,5.04e+00,
477,2.40e+00,4.88e+00,
478,2.48e+00,4.88e+00,
479,2.16e+00,5.04e+00,
480,2.24e+00,5.04e+00,
481,2.00e+00,4.88e+00,
482,2.16e+00,5.04e+00,
483,1.84e+00,4.88e+00,
484,2.00e+00,5.04e+00,
485,1.76e+00,4.88e+00,
486,1.84e+00,5.04e+00,
487,1.60e+00,4.88e+00,
488,1.68e+00,5.04e+00,
489,1.44e+00,4.88e+00,
490,1.60e+00,5.04e+00,
491,1.36e+00,4.96e+00,
492,1.36e+00,5.04e+00,
493,1.12e+00,4.88e+00,
494,1.20e+00,5.04e+00,
495,1.04e+00,4.88e+00,
496,1.12e+00,5.04e+00,
497,8.80e-01,4.88e+00,
498,9.60e-01,5.04e+00,
499,8.00e-01,4.88e+00,
500,8.80e-01,5.04e+00,
501,6.40e-01,4.88e+00,
502,8.00e-01,4.88e+00,
503,5.60e-01,5.12e+00,
504,6.40e-01,4.88e+00,
505,4.80e-01,5.12e+00,
506,4.00e-01,5.04e+00,
507,5.60e-01,4.88e+00,
508,4.00e-01,5.04e+00,
509,2.40e-01,8.00e-02,
510,3.20e-01,2.40e-01,
511,1.60e-01,8.00e-02,
512,2.40e-01,8.00e-02,
513,8.00e-02,2.40e-01,
514,1.60e-01,2.40e-01,
515,0.00e+00,0.00e+00,
516,1.60e-01,1.60e-01,
517,0.00e+00,0.00e+00,
518,8.00e-02,0.00e+00,
519,-8.00e-02,2.40e-01,
520,8.00e-02,1.60e-01,
521,-8.00e-02,0.00e+00,
522,0.00e+00,1.60e-01,
523,-8.00e-02,0.00e+00,
524,0.00e+00,0.00e+00,
525,-1.60e-01,1.60e-01,
526,-1.60e-01,1.60e-01,
527,0.00e+00,0.00e+00,
528,0.00e+00,1.60e-01,
529,-1.60e-01,0.00e+00,
530,-1.60e-01,1.60e-01,
531,0.00e+00,0.00e+00,
532,0.00e+00,1.60e-01,
533,-8.00e-02,0.00e+00,
534,-8.00e-02,1.60e-01,
535,8.00e-02,0.00e+00,
536,-8.00e-02,1.60e-01,
537,8.00e-02,0.00e+00,
538,0.00e+00,1.60e-01,
539,1.60e-01,0.00e+00,
540,0.00e+00,1.60e-01,
541,2.40e-01,0.00e+00,
542,2.40e-01,1.60e-01,
543,8.00e-02,0.00e+00,
544,1.60e-01,0.00e+00,
545,3.20e-01,1.60e-01,
546,2.40e-01,1.60e-01,
547,4.00e-01,0.00e+00,
548,4.00e-01,1.60e-01,
549,5.60e-01,0.00e+00,
550,4.80e-01,1.60e-01,
551,7.20e-01,0.00e+00,
552,5.60e-01,1.60e-01,
553,8.00e-01,0.00e+00,
554,7.20e-01,8.00e-02,
555,8.80e-01,5.04e+00,
556,8.00e-01,5.04e+00,
557,1.04e+00,4.88e+00,
558,9.60e-01,5.04e+00,
559,1.12e+00,4.88e+00,
560,1.04e+00,5.04e+00,
561,1.28e+00,4.88e+00,
562,1.20e+00,5.04e+00,
563,1.36e+00,5.04e+00,
564,1.36e+00,5.04e+00,
565,1.60e+00,4.96e+00,
566,1.52e+00,5.04e+00,
567,1.76e+00,4.96e+00,
568,1.60e+00,5.04e+00,
569,1.84e+00,4.96e+00,
570,1.76e+00,5.04e+00,
571,2.00e+00,4.96e+00,
572,1.92e+00,5.04e+00,
573,2.16e+00,4.88e+00,
574,2.08e+00,5.04e+00,
575,2.32e+00,4.96e+00,
576,2.24e+00,5.04e+00,
577,2.56e+00,4.96e+00,
578,2.40e+00,5.04e+00,
579,2.64e+00,4.88e+00,
580,2.56e+00,4.88e+00,
581,2.80e+00,5.12e+00,
582,2.72e+00,5.04e+00,
583,2.96e+00,4.88e+00,
584,2.80e+00,5.04e+00,
585,3.12e+00,4.88e+00,
586,2.96e+00,5.12e+00,
587,3.20e+00,4.88e+00,
588,3.12e+00,4.88e+00,
589,3.44e+00,5.20e+00,
590,3.28e+00,4.88e+00,
591,3.60e+00,5.12e+00,
592,3.44e+00,4.88e+00,
593,3.68e+00,5.20e+00,
594,3.60e+00,4.88e+00,
595,3.84e+00,5.20e+00,
596,3.68e+00,4.88e+00,
597,3.92e+00,5.12e+00,
598,3.84e+00,4.88e+00,
599,4.08e+00,5.20e+00,
600,3.92e+00,4.88e+00,
601,4.16e+00,5.12e+00,
602,4.00e+00,4.88e+00,
603,4.24e+00,5.12e+00,
604,4.16e+00,4.88e+00,
605,4.40e+00,5.20e+00,
606,4.32e+00,4.88e+00,
607,4.56e+00,5.20e+00,
608,4.40e+00,4.88e+00,
609,4.64e+00,5.20e+00,
610,4.64e+00,5.20e+00,
611,4.48e+00,4.88e+00,
612,4.56e+00,4.88e+00,
613,4.72e+00,5.20e+00,
614,4.64e+00,4.88e+00,
615,4.80e+00,5.20e+00,
616,4.64e+00,4.88e+00,
617,4.88e+00,5.20e+00,
618,4.88e+00,4.88e+00,
619,4.72e+00,5.20e+00,
620,4.72e+00,5.20e+00,
621,4.96e+00,4.88e+00,
622,4.96e+00,4.88e+00,
623,4.80e+00,5.20e+00,
624,4.88e+00,5.20e+00,
625,4.96e+00,4.88e+00,
626,4.96e+00,5.12e+00,
627,4.88e+00,4.88e+00,
628,4.96e+00,4.88e+00,
629,4.80e+00,5.20e+00,
630,4.88e+00,5.20e+00,
631,4.96e+00,4.88e+00,
632,4.96e+00,4.88e+00,
633,4.72e+00,5.20e+00,
634,4.88e+00,5.20e+00,
635,4.72e+00,4.88e+00,
636,4.88e+00,5.20e+00,
637,4.72e+00,4.88e+00,
638,4.88e+00,4.88e+00,
639,4.64e+00,5.20e+00,
640,4.80e+00,4.88e+00,
641,4.56e+00,5.20e+00,
642,4.56e+00,4.88e+00,
643,4.72e+00,5.20e+00,
644,4.64e+00,4.88e+00,
645,4.48e+00,5.20e+00,
646,4.56e+00,4.88e+00,
647,4.40e+00,5.12e+00,
648,4.48e+00,4.88e+00,
649,4.32e+00,5.20e+00,
650,4.40e+00,4.88e+00,
651,4.16e+00,5.12e+00,
652,4.24e+00,5.12e+00,
653,4.00e+00,4.88e+00,
654,4.16e+00,5.12e+00,
655,3.92e+00,4.88e+00,
656,4.08e+00,4.88e+00,
657,3.76e+00,5.04e+00,
658,3.92e+00,4.88e+00,
659,3.68e+00,5.20e+00,
660,3.76e+00,4.88e+00,
661,3.52e+00,5.12e+00,
662,3.68e+00,4.88e+00,
663,3.44e+00,5.12e+00,
664,3.52e+00,4.88e+00,
665,3.28e+00,5.12e+00,
666,3.44e+00,5.04e+00,
667,3.04e+00,4.88e+00,
668,3.20e+00,4.88e+00,
669,2.96e+00,5.12e+00,
670,3.04e+00,5.04e+00,
671,2.80e+00,4.88e+00,
672,2.88e+00,4.88e+00,
673,2.64e+00,5.12e+00,
674,2.80e+00,5.04e+00,
675,2.48e+00,4.88e+00,
676,2.64e+00,4.88e+00,
677,2.40e+00,5.12e+00,
678,2.48e+00,4.88e+00,
679,2.16e+00,5.12e+00,
680,2.24e+00,4.88e+00,
681,2.00e+00,5.12e+00,
682,2.16e+00,4.88e+00,
683,1.84e+00,5.04e+00,
684,2.00e+00,5.04e+00,
685,1.76e+00,4.88e+00,
686,1.84e+00,4.88e+00,
687,1.60e+00,5.04e+00,
688,1.68e+00,5.04e+00,
689,1.44e+00,4.88e+00,
690,1.60e+00,5.04e+00,
691,1.28e+00,4.88e+00,
692,1.36e+00,5.04e+00,
693,1.12e+00,4.88e+00,
694,1.20e+00,4.88e+00,
695,1.04e+00,5.04e+00,
696,1.12e+00,5.04e+00,
697,8.80e-01,4.88e+00,
698,9.60e-01,5.04e+00,
699,8.00e-01,4.88e+00,
700,8.80e-01,5.04e+00,
701,6.40e-01,4.88e+00,
702,8.00e-01,5.04e+00,
703,5.60e-01,4.88e+00,
704,6.40e-01,5.04e+00,
705,4.80e-01,4.88e+00,
706,5.60e-01,5.04e+00,
707,4.00e-01,4.88e+00,
708,4.00e-01,5.12e+00,
709,2.40e-01,1.60e-01,
710,3.20e-01,2.40e-01,
711,1.60e-01,8.00e-02,
712,2.40e-01,8.00e-02,
713,8.00e-02,2.40e-01,
714,1.60e-01,1.60e-01,
715,0.00e+00,8.00e-02,
716,1.60e-01,1.60e-01,
717,0.00e+00,8.00e-02,
718,8.00e-02,1.60e-01,
719,-8.00e-02,8.00e-02,
720,-8.00e-02,1.60e-01,
721,8.00e-02,0.00e+00,
722,0.00e+00,1.60e-01,
723,-8.00e-02,0.00e+00,
724,0.00e+00,1.60e-01,
725,-1.60e-01,8.00e-02,
726,0.00e+00,1.60e-01,
727,-1.60e-01,8.00e-02,
728,-1.60e-01,1.60e-01,
729,0.00e+00,0.00e+00,
730,0.00e+00,1.60e-01,
731,-1.60e-01,0.00e+00,
732,-8.00e-02,1.60e-01,
733,0.00e+00,0.00e+00,
734,-8.00e-02,1.60e-01,
735,8.00e-02,0.00e+00,
736,8.00e-02,1.60e-01,
737,-8.00e-02,0.00e+00,
738,0.00e+00,1.60e-01,
739,1.60e-01,0.00e+00,
740,8.00e-02,1.60e-01,
741,2.40e-01,0.00e+00,
742,2.40e-01,1.60e-01,
743,8.00e-02,0.00e+00,
744,1.60e-01,1.60e-01,
745,3.20e-01,0.00e+00,
746,2.40e-01,1.60e-01,
747,4.00e-01,0.00e+00,
748,4.00e-01,1.60e-01,
749,5.60e-01,0.00e+00,
750,4.80e-01,1.60e-01,
751,7.20e-01,0.00e+00,
752,5.60e-01,1.60e-01,
753,8.00e-01,0.00e+00,
754,7.20e-01,8.00e-02,
755,8.80e-01,5.04e+00,
756,8.00e-01,5.04e+00,
757,1.04e+00,4.88e+00,
758,8.80e-01,4.88e+00,
759,1.12e+00,5.04e+00,
760,1.04e+00,5.04e+00,
761,1.28e+00,4.88e+00,
762,1.20e+00,5.04e+00,
763,1.36e+00,4.96e+00,
764,1.36e+00,5.04e+00,
765,1.52e+00,4.96e+00,
766,1.52e+00,5.04e+00,
767,1.76e+00,4.96e+00,
768,1.60e+00,5.04e+00,
769,1.84e+00,4.96e+00,
770,1.76e+00,5.04e+00,
771,2.00e+00,4.96e+00,
772,1.92e+00,5.04e+00,
773,2.16e+00,4.96e+00,
774,2.08e+00,5.04e+00,
775,2.32e+00,4.88e+00,
776,2.24e+00,4.96e+00,
777,2.56e+00,5.04e+00,
778,2.40e+00,5.04e+00,
779,2.64e+00,4.88e+00,
780,2.56e+00,4.88e+00,
781,2.80e+00,5.12e+00,
782,2.72e+00,5.04e+00,
783,2.96e+00,4.88e+00,
784,2.80e+00,5.04e+00,
785,3.12e+00,4.88e+00,
786,2.96e+00,4.88e+00,
787,3.20e+00,5.12e+00,
788,3.12e+00,5.04e+00,
789,3.44e+00,4.88e+00,
790,3.36e+00,4.88e+00,
791,3.60e+00,5.20e+00,
792,3.44e+00,4.88e+00,
793,3.68e+00,5.12e+00,
794,3.60e+00,4.88e+00,
795,3.84e+00,5.20e+00,
796,3.68e+00,5.20e+00,
797,3.92e+00,4.88e+00,
798,3.84e+00,5.20e+00,
799,4.08e+00,4.88e+00,
800,3.92e+00,4.88e+00,
801,4.16e+00,5.20e+00,
802,4.00e+00,5.20e+00,
803,4.24e+00,4.88e+00,
804,4.24e+00,4.88e+00,
805,4.48e+00,5.20e+00,
806,4.32e+00,4.88e+00,
807,4.56e+00,5.20e+00,
808,4.40e+00,5.20e+00,
809,4.64e+00,4.88e+00,
810,4.64e+00,4.88e+00,
811,4.48e+00,5.20e+00,
812,4.72e+00,4.96e+00,
813,4.56e+00,5.20e+00,
814,4.64e+00,5.20e+00,
815,4.80e+00,4.88e+00,
816,4.64e+00,4.88e+00,
817,4.88e+00,5.20e+00,
818,4.88e+00,4.88e+00,
819,4.72e+00,5.20e+00,
820,4.72e+00,4.88e+00,
821,4.96e+00,5.20e+00,
822,4.80e+00,5.20e+00,
823,4.96e+00,4.88e+00,
824,4.96e+00,5.20e+00,
825,4.88e+00,4.88e+00,
826,4.96e+00,5.20e+00,
827,4.80e+00,4.88e+00,
828,4.96e+00,5.20e+00,
829,4.80e+00,4.88e+00,
830,4.96e+00,5.20e+00,
831,4.88e+00,4.88e+00,
832,4.96e+00,4.88e+00,
833,4.80e+00,5.20e+00,
834,4.88e+00,5.20e+00,
835,4.72e+00,4.88e+00,
836,4.88e+00,4.88e+00,
837,4.72e+00,5.20e+00,
838,4.80e+00,4.88e+00,
839,4.64e+00,5.20e+00,
840,4.80e+00,4.88e+00,
841,4.56e+00,5.20e+00,
842,4.56e+00,5.04e+00,
843,4.72e+00,4.88e+00,
844,4.64e+00,4.88e+00,
845,4.48e+00,5.20e+00,
846,4.56e+00,5.20e+00,
847,4.40e+00,4.88e+00,
848,4.48e+00,5.04e+00,
849,4.32e+00,4.88e+00,
850,4.40e+00,4.88e+00,
851,4.08e+00,5.20e+00,
852,4.24e+00,4.88e+00,
853,4.00e+00,5.20e+00,
854,4.16e+00,4.88e+00,
855,3.92e+00,5.20e+00,
856,4.00e+00,4.88e+00,
857,3.76e+00,5.20e+00,
858,3.92e+00,4.88e+00,
859,3.68e+00,5.20e+00,
860,3.76e+00,4.88e+00,
861,3.52e+00,5.12e+00,
862,3.68e+00,5.12e+00,
863,3.44e+00,4.88e+00,
864,3.52e+00,4.88e+00,
865,3.20e+00,5.12e+00,
866,3.36e+00,4.88e+00,
867,3.04e+00,5.12e+00,
868,3.20e+00,5.04e+00,
