project/matlab/project_exp3/20 kHz/NewFile1.csv

X,CH1,CH2,Start,Increment,
Sequence,Volt,Volt,6.000000e-04,2.000000e-07
0,3.12e+00,5.12e+00,
1,3.36e+00,4.88e+00,
2,3.28e+00,5.12e+00,
3,3.52e+00,4.88e+00,
4,3.44e+00,5.12e+00,
5,3.60e+00,4.88e+00,
6,3.52e+00,5.12e+00,
7,3.76e+00,4.88e+00,
8,3.60e+00,5.12e+00,
9,3.84e+00,4.88e+00,
10,3.76e+00,5.12e+00,
11,3.92e+00,4.88e+00,
12,3.84e+00,5.12e+00,
13,4.00e+00,4.88e+00,
14,3.92e+00,5.12e+00,
15,4.16e+00,4.88e+00,
16,4.00e+00,5.12e+00,
17,4.24e+00,4.88e+00,
18,4.08e+00,5.20e+00,
19,4.32e+00,4.88e+00,
20,4.16e+00,5.12e+00,
21,4.40e+00,4.88e+00,
22,4.48e+00,5.12e+00,
23,4.24e+00,4.88e+00,
24,4.40e+00,5.12e+00,
25,4.56e+00,4.88e+00,
26,4.48e+00,5.12e+00,
27,4.64e+00,4.88e+00,
28,4.72e+00,5.12e+00,
29,4.56e+00,4.88e+00,
30,4.56e+00,5.12e+00,
31,4.80e+00,4.88e+00,
32,4.64e+00,5.12e+00,
33,4.80e+00,4.88e+00,
34,4.72e+00,5.12e+00,
35,4.88e+00,4.88e+00,
36,4.80e+00,5.12e+00,
37,4.96e+00,4.88e+00,
38,4.96e+00,5.12e+00,
39,4.80e+00,4.88e+00,
40,4.96e+00,5.12e+00,
41,4.80e+00,4.88e+00,
42,4.80e+00,5.12e+00,
43,5.04e+00,4.88e+00,
44,4.88e+00,5.12e+00,
45,5.04e+00,4.88e+00,
46,4.88e+00,5.12e+00,
47,5.04e+00,4.88e+00,
48,5.04e+00,5.12e+00,
49,4.88e+00,4.88e+00,
50,5.04e+00,5.12e+00,
51,4.88e+00,4.88e+00,
52,5.04e+00,5.12e+00,
53,4.88e+00,4.88e+00,
54,5.04e+00,5.12e+00,
55,4.88e+00,4.88e+00,
56,5.04e+00,5.12e+00,
57,4.88e+00,4.88e+00,
58,5.04e+00,5.12e+00,
59,4.88e+00,4.88e+00,
60,5.04e+00,4.96e+00,
61,4.80e+00,5.12e+00,
62,4.96e+00,5.12e+00,
63,4.80e+00,4.88e+00,
64,4.80e+00,4.88e+00,
65,4.96e+00,5.12e+00,
66,4.88e+00,5.12e+00,
67,4.72e+00,4.88e+00,
68,4.88e+00,5.12e+00,
69,4.64e+00,4.88e+00,
70,4.64e+00,5.12e+00,
71,4.80e+00,4.88e+00,
72,4.72e+00,5.12e+00,
73,4.56e+00,4.88e+00,
74,4.72e+00,5.12e+00,
75,4.48e+00,4.88e+00,
76,4.64e+00,5.12e+00,
77,4.40e+00,4.88e+00,
78,4.56e+00,5.04e+00,
79,4.32e+00,4.88e+00,
80,4.48e+00,5.12e+00,
81,4.24e+00,4.88e+00,
82,4.32e+00,5.12e+00,
83,4.16e+00,4.88e+00,
84,4.24e+00,5.12e+00,
85,4.00e+00,4.88e+00,
86,4.16e+00,5.12e+00,
87,3.92e+00,4.88e+00,
88,4.08e+00,4.96e+00,
89,3.84e+00,5.12e+00,
90,4.00e+00,5.12e+00,
91,3.76e+00,4.88e+00,
92,3.84e+00,5.12e+00,
93,3.68e+00,4.88e+00,
94,3.76e+00,5.12e+00,
95,3.52e+00,4.88e+00,
96,3.68e+00,5.20e+00,
97,3.44e+00,4.88e+00,
98,3.52e+00,5.12e+00,
99,3.36e+00,4.88e+00,
100,3.36e+00,5.12e+00,
101,3.12e+00,4.88e+00,
102,3.28e+00,4.88e+00,
103,3.04e+00,5.12e+00,
104,3.12e+00,5.20e+00,
105,2.96e+00,4.88e+00,
106,3.04e+00,5.12e+00,
107,2.80e+00,4.88e+00,
108,2.96e+00,5.12e+00,
109,2.72e+00,4.88e+00,
110,2.80e+00,5.12e+00,
111,2.56e+00,4.88e+00,
112,2.64e+00,5.12e+00,
113,2.48e+00,4.88e+00,
114,2.56e+00,5.20e+00,
115,2.24e+00,4.88e+00,
116,2.40e+00,5.12e+00,
117,2.16e+00,4.88e+00,
118,2.24e+00,4.88e+00,
119,2.08e+00,5.12e+00,
120,2.16e+00,5.12e+00,
121,1.92e+00,4.88e+00,
122,2.00e+00,5.12e+00,
123,1.84e+00,4.88e+00,
124,1.92e+00,5.12e+00,
125,1.68e+00,4.88e+00,
126,1.84e+00,5.12e+00,
127,1.60e+00,4.88e+00,
128,1.68e+00,5.12e+00,
129,1.52e+00,4.88e+00,
130,1.60e+00,5.04e+00,
131,1.36e+00,4.88e+00,
132,1.44e+00,5.12e+00,
133,1.20e+00,4.88e+00,
134,1.28e+00,5.20e+00,
135,1.12e+00,4.88e+00,
136,1.20e+00,5.12e+00,
137,1.04e+00,4.88e+00,
138,1.12e+00,5.12e+00,
139,9.60e-01,4.88e+00,
140,1.04e+00,4.88e+00,
141,8.00e-01,5.12e+00,
142,9.60e-01,5.20e+00,
143,7.20e-01,4.88e+00,
144,8.00e-01,5.12e+00,
145,6.40e-01,4.88e+00,
146,7.20e-01,5.12e+00,
147,5.60e-01,4.88e+00,
148,5.60e-01,5.20e+00,
149,6.40e-01,4.88e+00,
150,4.80e-01,5.12e+00,
151,6.40e-01,4.88e+00,
152,4.80e-01,5.12e+00,
153,3.20e-01,4.88e+00,
154,4.00e-01,5.12e+00,
155,2.40e-01,4.88e+00,
156,3.20e-01,5.12e+00,
157,1.60e-01,4.88e+00,
158,3.20e-01,5.12e+00,
159,1.60e-01,3.52e+00,
160,2.40e-01,3.60e+00,
161,8.00e-02,1.60e-01,
162,1.60e-01,2.40e-01,
163,8.00e-02,1.60e-01,
164,1.60e-01,2.40e-01,
165,0.00e+00,1.60e-01,
166,0.00e+00,1.60e-01,
167,1.60e-01,2.40e-01,
168,8.00e-02,2.40e-01,
169,0.00e+00,8.00e-02,
170,8.00e-02,2.40e-01,
171,-8.00e-02,8.00e-02,
172,-8.00e-02,2.40e-01,
173,8.00e-02,8.00e-02,
174,-8.00e-02,2.40e-01,
175,8.00e-02,8.00e-02,
176,-8.00e-02,2.40e-01,
177,8.00e-02,8.00e-02,
178,-8.00e-02,2.40e-01,
179,8.00e-02,8.00e-02,
180,-8.00e-02,2.40e-01,
181,8.00e-02,8.00e-02,
182,8.00e-02,8.00e-02,
183,-8.00e-02,2.40e-01,
184,0.00e+00,2.40e-01,
185,8.00e-02,8.00e-02,
186,0.00e+00,2.40e-01,
187,1.60e-01,8.00e-02,
188,8.00e-02,8.00e-02,
189,1.60e-01,2.40e-01,
190,8.00e-02,8.00e-02,
191,2.40e-01,2.40e-01,
192,2.40e-01,2.40e-01,
193,1.60e-01,8.00e-02,
194,1.60e-01,2.40e-01,
195,3.20e-01,8.00e-02,
196,2.40e-01,2.40e-01,
197,4.00e-01,8.00e-02,
198,3.20e-01,8.00e-02,
199,4.80e-01,2.40e-01,
200,3.20e-01,2.40e-01,
201,4.80e-01,8.00e-02,
202,4.80e-01,2.40e-01,
203,6.40e-01,8.00e-02,
204,5.60e-01,8.00e-02,
205,7.20e-01,2.40e-01,
206,6.40e-01,8.00e-02,
207,8.00e-01,2.40e-01,
208,7.20e-01,8.00e-02,
209,8.80e-01,2.40e-01,
210,8.00e-01,2.40e-01,
211,9.60e-01,8.00e-02,
212,8.80e-01,2.40e-01,
213,1.12e+00,1.60e-01,
214,9.60e-01,2.40e-01,
215,1.20e+00,1.92e+00,
216,1.12e+00,1.84e+00,
217,1.28e+00,3.68e+00,
218,1.20e+00,3.60e+00,
219,1.36e+00,4.80e+00,
220,1.28e+00,4.72e+00,
221,1.52e+00,5.04e+00,
222,1.44e+00,5.04e+00,
223,1.68e+00,4.88e+00,
224,1.60e+00,5.04e+00,
225,1.76e+00,4.88e+00,
226,1.68e+00,5.04e+00,
227,1.92e+00,4.88e+00,
228,1.76e+00,5.04e+00,
229,2.00e+00,4.88e+00,
230,1.92e+00,5.12e+00,
231,2.08e+00,4.88e+00,
232,2.00e+00,5.12e+00,
233,2.24e+00,4.88e+00,
234,2.16e+00,5.04e+00,
235,2.32e+00,4.88e+00,
236,2.24e+00,5.12e+00,
237,2.56e+00,4.88e+00,
238,2.48e+00,5.12e+00,
239,2.64e+00,4.88e+00,
240,2.56e+00,5.12e+00,
241,2.80e+00,4.88e+00,
242,2.64e+00,5.12e+00,
243,2.88e+00,4.88e+00,
244,2.80e+00,5.12e+00,
245,2.96e+00,4.88e+00,
246,2.88e+00,5.12e+00,
247,3.12e+00,4.88e+00,
248,3.04e+00,5.12e+00,
249,3.20e+00,4.88e+00,
250,3.12e+00,5.12e+00,
251,3.36e+00,4.88e+00,
252,3.28e+00,5.12e+00,
253,3.52e+00,4.88e+00,
254,3.44e+00,5.12e+00,
255,3.60e+00,4.88e+00,
256,3.52e+00,5.12e+00,
257,3.76e+00,4.88e+00,
258,3.60e+00,5.12e+00,
259,3.84e+00,4.88e+00,
260,3.76e+00,5.20e+00,
261,3.92e+00,4.88e+00,
262,3.84e+00,5.12e+00,
263,4.00e+00,4.88e+00,
264,3.92e+00,5.12e+00,
265,4.16e+00,4.88e+00,
266,4.00e+00,5.20e+00,
267,4.24e+00,4.88e+00,
268,4.08e+00,5.12e+00,
269,4.32e+00,4.96e+00,
270,4.16e+00,5.12e+00,
271,4.40e+00,4.88e+00,
272,4.48e+00,5.12e+00,
273,4.24e+00,4.88e+00,
274,4.40e+00,4.88e+00,
275,4.56e+00,5.12e+00,
276,4.48e+00,5.12e+00,
277,4.64e+00,4.88e+00,
278,4.72e+00,5.12e+00,
279,4.56e+00,4.88e+00,
280,4.56e+00,5.12e+00,
281,4.80e+00,4.88e+00,
282,4.80e+00,5.12e+00,
283,4.64e+00,4.88e+00,
284,4.72e+00,5.12e+00,
285,4.88e+00,4.88e+00,
286,4.88e+00,5.12e+00,
287,4.72e+00,4.88e+00,
288,4.80e+00,4.88e+00,
289,4.96e+00,5.04e+00,
290,4.96e+00,5.12e+00,
291,4.80e+00,4.88e+00,
292,5.04e+00,5.12e+00,
293,4.80e+00,4.88e+00,
294,4.88e+00,4.88e+00,
295,5.04e+00,5.04e+00,
296,5.04e+00,5.12e+00,
297,4.88e+00,4.88e+00,
298,5.04e+00,5.12e+00,
299,4.88e+00,4.88e+00,
300,5.04e+00,5.12e+00,
301,4.96e+00,4.88e+00,
302,5.04e+00,5.12e+00,
303,4.88e+00,4.88e+00,
304,5.04e+00,5.12e+00,
305,4.88e+00,4.88e+00,
306,5.04e+00,5.12e+00,
307,4.88e+00,4.88e+00,
308,5.04e+00,5.12e+00,
309,4.88e+00,4.88e+00,
310,4.80e+00,5.12e+00,
311,5.04e+00,4.88e+00,
312,4.96e+00,5.12e+00,
313,4.80e+00,4.88e+00,
314,4.80e+00,5.12e+00,
315,4.96e+00,4.88e+00,
316,4.88e+00,5.12e+00,
317,4.72e+00,4.88e+00,
318,4.88e+00,5.12e+00,
319,4.72e+00,4.88e+00,
320,4.80e+00,5.04e+00,
321,4.64e+00,4.88e+00,
322,4.56e+00,5.12e+00,
323,4.80e+00,4.88e+00,
324,4.72e+00,5.12e+00,
325,4.48e+00,4.88e+00,
326,4.64e+00,5.04e+00,
327,4.40e+00,4.88e+00,
328,4.56e+00,5.12e+00,
329,4.32e+00,4.88e+00,
330,4.48e+00,5.12e+00,
331,4.24e+00,4.88e+00,
332,4.32e+00,5.04e+00,
333,4.08e+00,4.88e+00,
334,4.24e+00,5.12e+00,
335,4.00e+00,4.88e+00,
336,4.16e+00,5.12e+00,
337,3.92e+00,4.88e+00,
338,4.08e+00,5.12e+00,
339,3.84e+00,4.88e+00,
340,4.00e+00,5.12e+00,
341,3.76e+00,4.88e+00,
342,3.92e+00,5.12e+00,
343,3.68e+00,4.88e+00,
344,3.76e+00,5.20e+00,
345,3.52e+00,4.88e+00,
346,3.68e+00,5.12e+00,
347,3.44e+00,4.88e+00,
348,3.52e+00,5.12e+00,
349,3.36e+00,4.88e+00,
350,3.36e+00,5.12e+00,
351,3.20e+00,4.88e+00,
352,3.28e+00,5.12e+00,
353,3.04e+00,4.88e+00,
354,3.20e+00,5.12e+00,
355,2.96e+00,4.88e+00,
356,3.04e+00,5.12e+00,
357,2.80e+00,4.88e+00,
358,2.88e+00,5.12e+00,
359,2.72e+00,4.88e+00,
360,2.80e+00,5.20e+00,
361,2.56e+00,4.88e+00,
362,2.64e+00,5.12e+00,
363,2.48e+00,4.88e+00,
364,2.56e+00,5.12e+00,
365,2.32e+00,4.88e+00,
366,2.40e+00,5.12e+00,
367,2.16e+00,4.88e+00,
368,2.24e+00,5.12e+00,
369,2.08e+00,4.88e+00,
370,2.16e+00,4.88e+00,
371,1.92e+00,5.12e+00,
372,2.00e+00,5.12e+00,
373,1.84e+00,4.88e+00,
374,1.92e+00,5.12e+00,
375,1.68e+00,4.88e+00,
376,1.84e+00,5.12e+00,
377,1.60e+00,4.88e+00,
378,1.68e+00,5.12e+00,
379,1.52e+00,4.88e+00,
380,1.60e+00,5.12e+00,
381,1.28e+00,4.88e+00,
382,1.44e+00,4.88e+00,
383,1.20e+00,5.12e+00,
384,1.28e+00,5.12e+00,
385,1.12e+00,4.88e+00,
386,1.20e+00,5.12e+00,
387,1.04e+00,4.88e+00,
388,1.12e+00,5.12e+00,
389,9.60e-01,4.88e+00,
390,1.04e+00,5.12e+00,
391,8.00e-01,4.88e+00,
392,8.80e-01,5.12e+00,
393,7.20e-01,4.88e+00,
394,8.00e-01,5.12e+00,
395,6.40e-01,4.88e+00,
396,7.20e-01,5.12e+00,
397,5.60e-01,4.88e+00,
398,6.40e-01,5.12e+00,
399,4.80e-01,4.88e+00,
400,5.60e-01,5.12e+00,
401,4.80e-01,4.88e+00,
402,4.80e-01,5.20e+00,
403,3.20e-01,4.88e+00,
404,4.00e-01,4.88e+00,
405,2.40e-01,5.12e+00,
406,3.20e-01,5.12e+00,
407,1.60e-01,4.88e+00,
408,3.20e-01,5.12e+00,
409,1.60e-01,3.44e+00,
410,2.40e-01,3.52e+00,
411,8.00e-02,1.60e-01,
412,8.00e-02,2.40e-01,
413,1.60e-01,1.60e-01,
414,1.60e-01,2.40e-01,
415,0.00e+00,1.60e-01,
416,0.00e+00,2.40e-01,
417,1.60e-01,8.00e-02,
418,0.00e+00,2.40e-01,
419,8.00e-02,8.00e-02,
420,8.00e-02,8.00e-02,
421,-8.00e-02,2.40e-01,
422,-8.00e-02,2.40e-01,
423,8.00e-02,8.00e-02,
424,8.00e-02,2.40e-01,
425,-8.00e-02,8.00e-02,
426,-8.00e-02,2.40e-01,
427,8.00e-02,8.00e-02,
428,-8.00e-02,2.40e-01,
429,8.00e-02,8.00e-02,
430,-8.00e-02,2.40e-01,
431,8.00e-02,8.00e-02,
432,0.00e+00,8.00e-02,
433,8.00e-02,2.40e-01,
434,0.00e+00,2.40e-01,
435,8.00e-02,8.00e-02,
436,0.00e+00,2.40e-01,
437,1.60e-01,8.00e-02,
438,8.00e-02,8.00e-02,
439,1.60e-01,2.40e-01,
440,8.00e-02,2.40e-01,
441,2.40e-01,8.00e-02,
442,2.40e-01,2.40e-01,
443,1.60e-01,8.00e-02,
444,1.60e-01,2.40e-01,
445,3.20e-01,8.00e-02,
446,2.40e-01,2.40e-01,
447,4.00e-01,8.00e-02,
448,2.40e-01,2.40e-01,
449,4.80e-01,8.00e-02,
450,4.80e-01,8.00e-02,
451,3.20e-01,2.40e-01,
452,4.80e-01,2.40e-01,
453,6.40e-01,8.00e-02,
454,5.60e-01,2.40e-01,
455,7.20e-01,8.00e-02,
456,6.40e-01,8.00e-02,
457,8.00e-01,2.40e-01,
458,7.20e-01,2.40e-01,
459,8.80e-01,8.00e-02,
460,8.00e-01,2.40e-01,
461,9.60e-01,8.00e-02,
462,8.80e-01,2.40e-01,
463,1.12e+00,1.60e-01,
464,9.60e-01,2.40e-01,
465,1.20e+00,1.92e+00,
466,1.12e+00,1.92e+00,
467,1.28e+00,3.76e+00,
468,1.20e+00,3.68e+00,
469,1.36e+00,4.80e+00,
470,1.28e+00,4.72e+00,
471,1.60e+00,5.04e+00,
472,1.44e+00,5.04e+00,
473,1.68e+00,4.88e+00,
474,1.60e+00,5.04e+00,
475,1.76e+00,4.88e+00,
476,1.68e+00,5.04e+00,
477,1.92e+00,4.88e+00,
478,1.76e+00,4.88e+00,
479,2.00e+00,5.04e+00,
480,1.92e+00,5.04e+00,
481,2.08e+00,4.88e+00,
482,2.00e+00,5.04e+00,
483,2.24e+00,4.88e+00,
484,2.16e+00,4.88e+00,
485,2.32e+00,5.12e+00,
486,2.24e+00,5.12e+00,
487,2.56e+00,4.88e+00,
488,2.40e+00,5.12e+00,
489,2.64e+00,4.88e+00,
490,2.56e+00,5.12e+00,
491,2.80e+00,4.88e+00,
492,2.64e+00,5.12e+00,
493,2.88e+00,4.88e+00,
494,2.80e+00,5.20e+00,
495,3.04e+00,4.88e+00,
496,2.88e+00,5.12e+00,
497,3.12e+00,4.88e+00,
498,3.04e+00,5.20e+00,
499,3.20e+00,4.88e+00,
500,3.12e+00,5.12e+00,
501,3.36e+00,4.88e+00,
502,3.20e+00,5.12e+00,
503,3.52e+00,4.88e+00,
504,3.44e+00,5.12e+00,
505,3.60e+00,4.88e+00,
506,3.52e+00,5.12e+00,
507,3.76e+00,4.88e+00,
508,3.60e+00,5.12e+00,
509,3.84e+00,4.88e+00,
510,3.68e+00,5.12e+00,
511,3.92e+00,4.88e+00,
512,3.84e+00,5.12e+00,
513,4.00e+00,4.88e+00,
514,3.92e+00,5.20e+00,
515,4.16e+00,4.88e+00,
516,4.00e+00,5.12e+00,
517,4.24e+00,4.88e+00,
518,4.08e+00,5.12e+00,
519,4.32e+00,4.96e+00,
520,4.16e+00,5.12e+00,
521,4.40e+00,4.88e+00,
522,4.32e+00,5.12e+00,
523,4.56e+00,4.88e+00,
524,4.40e+00,5.12e+00,
525,4.56e+00,4.88e+00,
526,4.48e+00,5.12e+00,
527,4.64e+00,4.88e+00,
528,4.56e+00,4.96e+00,
529,4.72e+00,5.12e+00,
530,4.56e+00,5.12e+00,
531,4.80e+00,4.88e+00,
532,4.64e+00,4.96e+00,
533,4.80e+00,5.12e+00,
534,4.72e+00,5.12e+00,
535,4.88e+00,4.88e+00,
536,4.72e+00,5.12e+00,
537,4.96e+00,4.88e+00,
538,4.80e+00,5.12e+00,
539,4.96e+00,4.88e+00,
540,4.96e+00,5.12e+00,
541,4.80e+00,4.88e+00,
542,5.04e+00,5.12e+00,
543,4.88e+00,4.88e+00,
544,5.04e+00,5.12e+00,
545,4.88e+00,4.88e+00,
546,5.04e+00,5.12e+00,
547,4.88e+00,4.88e+00,
548,5.04e+00,5.12e+00,
549,4.88e+00,4.88e+00,
550,5.04e+00,5.12e+00,
551,4.88e+00,4.88e+00,
552,5.04e+00,5.20e+00,
553,4.88e+00,4.88e+00,
554,5.04e+00,5.20e+00,
555,4.88e+00,4.88e+00,
556,5.04e+00,5.12e+00,
557,4.88e+00,4.88e+00,
558,5.04e+00,5.12e+00,
559,4.88e+00,4.88e+00,
560,5.04e+00,5.12e+00,
561,4.80e+00,4.88e+00,
562,4.96e+00,5.12e+00,
563,4.80e+00,4.88e+00,
564,4.96e+00,4.88e+00,
565,4.80e+00,5.12e+00,
566,4.72e+00,5.12e+00,
567,4.88e+00,4.88e+00,
568,4.88e+00,5.20e+00,
569,4.64e+00,4.88e+00,
570,4.80e+00,5.12e+00,
571,4.64e+00,4.88e+00,
572,4.80e+00,5.04e+00,
573,4.56e+00,4.88e+00,
574,4.72e+00,5.12e+00,
575,4.48e+00,4.88e+00,
576,4.64e+00,4.88e+00,
577,4.40e+00,5.12e+00,
578,4.56e+00,5.12e+00,
579,4.32e+00,4.88e+00,
580,4.48e+00,5.12e+00,
581,4.24e+00,4.88e+00,
582,4.32e+00,5.12e+00,
583,4.16e+00,4.96e+00,
584,4.24e+00,5.12e+00,
585,4.00e+00,4.88e+00,
586,4.16e+00,5.12e+00,
587,3.92e+00,4.88e+00,
588,4.08e+00,5.12e+00,
589,3.84e+00,4.96e+00,
590,3.92e+00,5.12e+00,
591,3.76e+00,4.88e+00,
592,3.92e+00,4.96e+00,
593,3.68e+00,5.20e+00,
594,3.76e+00,5.12e+00,
595,3.52e+00,4.88e+00,
596,3.68e+00,4.88e+00,
597,3.44e+00,5.12e+00,
598,3.60e+00,5.12e+00,
599,3.36e+00,4.96e+00,
600,3.36e+00,5.12e+00,
601,3.20e+00,4.88e+00,
602,3.28e+00,4.88e+00,
603,3.04e+00,5.20e+00,
604,3.20e+00,4.88e+00,
605,2.96e+00,5.20e+00,
606,3.04e+00,5.12e+00,
607,2.80e+00,4.88e+00,
608,2.96e+00,5.12e+00,
609,2.72e+00,4.88e+00,
610,2.80e+00,5.12e+00,
611,2.56e+00,4.88e+00,
612,2.64e+00,5.12e+00,
613,2.48e+00,4.96e+00,
614,2.56e+00,5.12e+00,
615,2.32e+00,4.88e+00,
616,2.40e+00,4.96e+00,
617,2.16e+00,5.12e+00,
618,2.24e+00,5.12e+00,
619,2.08e+00,4.88e+00,
620,2.16e+00,5.12e+00,
621,1.92e+00,4.88e+00,
622,2.00e+00,5.12e+00,
623,1.84e+00,4.88e+00,
624,1.92e+00,5.12e+00,
625,1.68e+00,4.88e+00,
626,1.84e+00,5.12e+00,
627,1.60e+00,4.88e+00,
628,1.68e+00,5.12e+00,
629,1.52e+00,4.88e+00,
630,1.60e+00,5.12e+00,
631,1.36e+00,4.88e+00,
632,1.44e+00,5.12e+00,
633,1.20e+00,4.88e+00,
634,1.28e+00,5.12e+00,
635,1.12e+00,4.88e+00,
636,1.20e+00,5.12e+00,
637,1.04e+00,4.88e+00,
638,1.12e+00,5.12e+00,
639,9.60e-01,4.88e+00,
640,1.04e+00,5.12e+00,
641,8.00e-01,4.88e+00,
642,9.60e-01,5.12e+00,
643,7.20e-01,4.88e+00,
644,8.00e-01,5.12e+00,
645,6.40e-01,4.88e+00,
646,7.20e-01,5.12e+00,
647,5.60e-01,4.88e+00,
648,6.40e-01,4.88e+00,
649,4.80e-01,5.04e+00,
650,5.60e-01,5.12e+00,
651,4.80e-01,4.88e+00,
652,4.80e-01,5.12e+00,
653,3.20e-01,4.88e+00,
654,4.00e-01,5.12e+00,
655,2.40e-01,4.88e+00,
656,3.20e-01,5.12e+00,
657,1.60e-01,4.88e+00,
658,1.60e-01,5.20e+00,
659,3.20e-01,3.44e+00,
660,2.40e-01,3.52e+00,
661,8.00e-02,1.60e-01,
662,1.60e-01,2.40e-01,
663,8.00e-02,1.60e-01,
664,1.60e-01,2.40e-01,
665,0.00e+00,8.00e-02,
666,0.00e+00,2.40e-01,
667,1.60e-01,8.00e-02,
668,0.00e+00,2.40e-01,
669,8.00e-02,8.00e-02,
670,8.00e-02,2.40e-01,
671,-8.00e-02,8.00e-02,
672,8.00e-02,2.40e-01,
673,-8.00e-02,8.00e-02,
674,-8.00e-02,2.40e-01,
675,8.00e-02,8.00e-02,
676,8.00e-02,2.40e-01,
677,-8.00e-02,8.00e-02,
678,-8.00e-02,2.40e-01,
679,8.00e-02,8.00e-02,
680,8.00e-02,2.40e-01,
681,-8.00e-02,8.00e-02,
682,8.00e-02,2.40e-01,
683,0.00e+00,8.00e-02,
684,8.00e-02,8.00e-02,
685,0.00e+00,2.40e-01,
686,0.00e+00,2.40e-01,
687,1.60e-01,8.00e-02,
688,8.00e-02,2.40e-01,
689,1.60e-01,8.00e-02,
690,8.00e-02,2.40e-01,
691,2.40e-01,8.00e-02,
692,2.40e-01,2.40e-01,
693,1.60e-01,8.00e-02,
694,1.60e-01,2.40e-01,
695,3.20e-01,8.00e-02,
696,2.40e-01,2.40e-01,
697,4.00e-01,8.00e-02,
698,3.20e-01,2.40e-01,
699,4.80e-01,8.00e-02,
700,4.80e-01,2.40e-01,
701,3.20e-01,8.00e-02,
702,4.80e-01,2.40e-01,
703,6.40e-01,8.00e-02,
704,5.60e-01,2.40e-01,
705,7.20e-01,8.00e-02,
706,6.40e-01,2.40e-01,
707,8.00e-01,8.00e-02,
708,7.20e-01,2.40e-01,
709,8.80e-01,8.00e-02,
710,8.00e-01,2.40e-01,
711,9.60e-01,8.00e-02,
712,8.80e-01,1.60e-01,
713,1.12e+00,3.20e-01,
714,9.60e-01,2.40e-01,
715,1.20e+00,1.92e+00,
716,1.12e+00,1.84e+00,
717,1.28e+00,3.68e+00,
718,1.20e+00,3.68e+00,
719,1.36e+00,4.80e+00,
720,1.28e+00,4.72e+00,
721,1.52e+00,5.04e+00,
722,1.44e+00,5.04e+00,
723,1.68e+00,4.88e+00,
724,1.60e+00,5.04e+00,
725,1.76e+00,4.88e+00,
726,1.68e+00,4.88e+00,
727,1.92e+00,5.04e+00,
728,1.76e+00,5.04e+00,
729,2.00e+00,4.88e+00,
730,1.92e+00,5.04e+00,
731,2.08e+00,4.88e+00,
732,2.00e+00,5.04e+00,
733,2.24e+00,4.88e+00,
734,2.16e+00,5.04e+00,
735,2.32e+00,4.88e+00,
736,2.24e+00,5.04e+00,
737,2.56e+00,4.88e+00,
738,2.48e+00,5.12e+00,
739,2.64e+00,4.88e+00,
740,2.56e+00,5.12e+00,
741,2.80e+00,4.88e+00,
742,2.64e+00,5.12e+00,
743,2.88e+00,4.88e+00,
744,2.80e+00,5.12e+00,
745,2.96e+00,4.88e+00,
746,2.88e+00,5.12e+00,
747,3.12e+00,4.88e+00,
748,3.04e+00,5.12e+00,
749,3.20e+00,4.88e+00,
750,3.12e+00,5.12e+00,
751,3.36e+00,4.88e+00,
752,3.20e+00,5.12e+00,
753,3.52e+00,4.88e+00,
754,3.44e+00,5.12e+00,
755,3.60e+00,4.88e+00,
756,3.52e+00,5.12e+00,
757,3.76e+00,4.88e+00,
758,3.60e+00,5.12e+00,
759,3.84e+00,4.88e+00,
760,3.76e+00,5.12e+00,
761,3.92e+00,4.88e+00,
762,4.00e+00,5.12e+00,
763,3.84e+00,4.88e+00,
764,3.92e+00,5.12e+00,
765,4.16e+00,4.88e+00,
766,4.00e+00,5.12e+00,
767,4.24e+00,4.88e+00,
768,4.08e+00,5.12e+00,
769,4.32e+00,4.96e+00,
770,4.16e+00,5.12e+00,
771,4.40e+00,4.88e+00,
772,4.32e+00,5.12e+00,
773,4.48e+00,4.88e+00,
774,4.56e+00,5.12e+00,
775,4.40e+00,4.88e+00,
776,4.48e+00,5.12e+00,
777,4.64e+00,4.88e+00,
778,4.56e+00,5.12e+00,
779,4.72e+00,4.88e+00,
780,4.56e+00,4.88e+00,
781,4.80e+00,5.12e+00,
782,4.64e+00,5.12e+00,
783,4.80e+00,4.88e+00,
784,4.72e+00,5.12e+00,
785,4.88e+00,4.88e+00,
786,4.72e+00,5.12e+00,
787,4.96e+00,4.88e+00,
788,4.96e+00,5.12e+00,
789,4.80e+00,4.88e+00,
790,4.96e+00,5.12e+00,
791,4.80e+00,4.88e+00,
792,5.04e+00,5.12e+00,
793,4.88e+00,4.88e+00,
794,4.88e+00,5.12e+00,
795,5.04e+00,4.88e+00,
796,5.04e+00,5.12e+00,
797,4.88e+00,4.88e+00,
798,5.04e+00,5.12e+00,
799,4.88e+00,4.88e+00,
800,5.04e+00,5.04e+00,
801,4.88e+00,4.88e+00,
802,5.04e+00,5.12e+00,
803,4.88e+00,4.88e+00,
804,4.88e+00,5.12e+00,
805,5.04e+00,4.88e+00,
806,5.04e+00,5.12e+00,
807,4.88e+00,4.88e+00,
808,4.88e+00,5.12e+00,
809,5.04e+00,4.88e+00,
810,5.04e+00,5.12e+00,
811,4.80e+00,4.88e+00,
812,4.96e+00,5.12e+00,
813,4.80e+00,4.88e+00,
814,4.96e+00,5.12e+00,
815,4.80e+00,4.88e+00,
816,4.88e+00,5.12e+00,
817,4.72e+00,4.88e+00,
818,4.88e+00,5.04e+00,
819,4.64e+00,4.88e+00,
820,4.64e+00,5.12e+00,
821,4.80e+00,4.88e+00,
822,4.80e+00,5.12e+00,
823,4.56e+00,4.88e+00,
824,4.64e+00,5.12e+00,
825,4.48e+00,4.88e+00,
826,4.64e+00,5.12e+00,
827,4.40e+00,4.88e+00,
828,4.56e+00,5.12e+00,
829,4.32e+00,4.88e+00,
830,4.48e+00,5.12e+00,
831,4.24e+00,4.88e+00,
832,4.32e+00,5.12e+00,
833,4.08e+00,4.88e+00,
834,4.24e+00,5.12e+00,
835,4.08e+00,4.88e+00,
836,4.16e+00,5.12e+00,
837,3.92e+00,4.88e+00,
838,4.08e+00,5.12e+00,
839,3.84e+00,4.88e+00,
840,4.00e+00,5.12e+00,
841,3.76e+00,4.88e+00,
842,3.92e+00,5.12e+00,
843,3.68e+00,4.88e+00,
844,3.76e+00,5.20e+00,
845,3.52e+00,4.88e+00,
846,3.68e+00,5.12e+00,
847,3.44e+00,4.88e+00,
848,3.52e+00,5.12e+00,
849,3.36e+00,4.88e+00,
850,3.36e+00,5.12e+00,
851,3.20e+00,4.88e+00,
852,3.28e+00,5.12e+00,
853,3.04e+00,4.88e+00,
854,3.12e+00,5.20e+00,
855,2.96e+00,4.88e+00,
856,3.04e+00,5.20e+00,
857,2.80e+00,4.88e+00,
858,2.96e+00,5.12e+00,
859,2.72e+00,4.88e+00,
860,2.80e+00,5.12e+00,
861,2.56e+00,4.96e+00,
862,2.72e+00,5.12e+00,
863,2.48e+00,4.88e+00,
864,2.56e+00,4.88e+00,
865,2.32e+00,5.12e+00,
866,2.40e+00,5.12e+00,
867,2.16e+00,4.88e+00,
868,2.24e+00,5.12e+00,
869,2.08e+00,4.88e+00,
