project/matlab/project_exp3/1.5 kHz/NewFile1.csv

X,CH1,CH2,Start,Increment,
Sequence,Volt,Volt,-4.800000e-04,2.000000e-06
0,4.56e+00,4.88e+00,
1,4.72e+00,5.12e+00,
2,4.48e+00,5.12e+00,
3,4.64e+00,4.88e+00,
4,4.64e+00,5.12e+00,
5,4.40e+00,4.88e+00,
6,4.40e+00,4.88e+00,
7,4.56e+00,5.12e+00,
8,4.56e+00,4.88e+00,
9,4.32e+00,5.12e+00,
10,4.32e+00,4.88e+00,
11,4.48e+00,5.12e+00,
12,4.40e+00,4.88e+00,
13,4.16e+00,5.12e+00,
14,4.32e+00,4.88e+00,
15,4.08e+00,5.20e+00,
16,4.24e+00,4.88e+00,
17,4.00e+00,5.12e+00,
18,4.16e+00,5.12e+00,
19,4.00e+00,4.88e+00,
20,4.08e+00,5.20e+00,
21,3.92e+00,4.88e+00,
22,4.08e+00,4.88e+00,
23,3.84e+00,5.20e+00,
24,4.00e+00,5.12e+00,
25,3.76e+00,4.88e+00,
26,3.92e+00,4.96e+00,
27,3.68e+00,5.20e+00,
28,3.84e+00,4.88e+00,
29,3.60e+00,5.20e+00,
30,3.76e+00,5.20e+00,
31,3.52e+00,4.88e+00,
32,3.52e+00,5.12e+00,
33,3.68e+00,4.88e+00,
34,3.44e+00,4.88e+00,
35,3.60e+00,5.20e+00,
36,3.52e+00,4.88e+00,
37,3.36e+00,5.20e+00,
38,3.28e+00,5.12e+00,
39,3.44e+00,4.88e+00,
40,3.28e+00,5.20e+00,
41,3.12e+00,4.88e+00,
42,3.20e+00,5.12e+00,
43,3.04e+00,4.88e+00,
44,3.12e+00,4.88e+00,
45,2.96e+00,5.20e+00,
46,3.04e+00,4.88e+00,
47,2.80e+00,5.12e+00,
48,2.96e+00,5.12e+00,
49,2.72e+00,4.88e+00,
50,2.88e+00,4.88e+00,
51,2.64e+00,5.20e+00,
52,2.80e+00,4.88e+00,
53,2.56e+00,5.20e+00,
54,2.72e+00,4.88e+00,
55,2.48e+00,5.20e+00,
56,2.64e+00,4.88e+00,
57,2.40e+00,5.12e+00,
58,2.56e+00,4.88e+00,
59,2.32e+00,5.12e+00,
60,2.40e+00,5.12e+00,
61,2.16e+00,4.88e+00,
62,2.24e+00,4.88e+00,
63,2.08e+00,5.20e+00,
64,2.16e+00,4.88e+00,
65,2.00e+00,5.12e+00,
66,2.08e+00,4.88e+00,
67,1.92e+00,5.20e+00,
68,2.00e+00,5.12e+00,
69,1.84e+00,4.88e+00,
70,1.92e+00,5.12e+00,
71,1.76e+00,4.88e+00,
72,1.84e+00,5.20e+00,
73,1.68e+00,4.88e+00,
74,1.76e+00,5.12e+00,
75,1.60e+00,4.88e+00,
76,1.68e+00,5.20e+00,
77,1.52e+00,4.88e+00,
78,1.60e+00,4.88e+00,
79,1.44e+00,5.12e+00,
80,1.36e+00,4.88e+00,
81,1.52e+00,5.20e+00,
82,1.36e+00,5.20e+00,
83,1.20e+00,4.88e+00,
84,1.28e+00,4.88e+00,
85,1.12e+00,5.12e+00,
86,1.20e+00,4.88e+00,
87,1.04e+00,5.20e+00,
88,1.12e+00,4.88e+00,
89,9.60e-01,5.12e+00,
90,1.04e+00,4.88e+00,
91,8.80e-01,5.20e+00,
92,9.60e-01,5.20e+00,
93,8.00e-01,4.88e+00,
94,9.60e-01,4.88e+00,
95,8.00e-01,5.12e+00,
96,8.80e-01,4.88e+00,
97,7.20e-01,5.12e+00,
98,8.00e-01,4.88e+00,
99,6.40e-01,5.12e+00,
100,7.20e-01,5.12e+00,
101,5.60e-01,4.88e+00,
102,6.40e-01,5.12e+00,
103,4.80e-01,4.88e+00,
104,6.40e-01,5.20e+00,
105,4.80e-01,4.88e+00,
106,5.60e-01,4.88e+00,
107,4.00e-01,5.20e+00,
108,4.00e-01,5.12e+00,
109,4.00e-01,4.88e+00,
110,4.00e-01,5.12e+00,
111,2.40e-01,4.88e+00,
112,3.20e-01,5.12e+00,
113,1.60e-01,1.60e-01,
114,3.20e-01,2.40e-01,
115,1.60e-01,8.00e-02,
116,2.40e-01,2.40e-01,
117,8.00e-02,8.00e-02,
118,2.40e-01,2.40e-01,
119,8.00e-02,8.00e-02,
120,1.60e-01,2.40e-01,
121,0.00e+00,8.00e-02,
122,0.00e+00,2.40e-01,
123,1.60e-01,8.00e-02,
124,8.00e-02,2.40e-01,
125,0.00e+00,8.00e-02,
126,8.00e-02,2.40e-01,
127,-8.00e-02,8.00e-02,
128,-8.00e-02,2.40e-01,
129,8.00e-02,8.00e-02,
130,0.00e+00,2.40e-01,
131,-8.00e-02,8.00e-02,
132,-8.00e-02,2.40e-01,
133,0.00e+00,8.00e-02,
134,-8.00e-02,2.40e-01,
135,0.00e+00,8.00e-02,
136,0.00e+00,2.40e-01,
137,-1.60e-01,8.00e-02,
138,0.00e+00,2.40e-01,
139,-1.60e-01,8.00e-02,
140,0.00e+00,8.00e-02,
141,-1.60e-01,2.40e-01,
142,0.00e+00,2.40e-01,
143,-1.60e-01,8.00e-02,
144,-1.60e-01,2.40e-01,
145,0.00e+00,8.00e-02,
146,0.00e+00,8.00e-02,
147,-8.00e-02,2.40e-01,
148,0.00e+00,8.00e-02,
149,-8.00e-02,2.40e-01,
150,0.00e+00,1.60e-01,
151,-8.00e-02,8.00e-02,
152,-8.00e-02,1.60e-01,
153,8.00e-02,8.00e-02,
154,8.00e-02,1.60e-01,
155,-8.00e-02,8.00e-02,
156,0.00e+00,8.00e-02,
157,8.00e-02,2.40e-01,
158,8.00e-02,8.00e-02,
159,0.00e+00,2.40e-01,
160,0.00e+00,8.00e-02,
161,1.60e-01,1.60e-01,
162,8.00e-02,1.60e-01,
163,1.60e-01,8.00e-02,
164,8.00e-02,8.00e-02,
165,2.40e-01,2.40e-01,
166,1.60e-01,1.60e-01,
167,2.40e-01,8.00e-02,
168,1.60e-01,1.60e-01,
169,3.20e-01,8.00e-02,
170,3.20e-01,1.60e-01,
171,2.40e-01,8.00e-02,
172,2.40e-01,8.00e-02,
173,4.00e-01,2.40e-01,
174,3.20e-01,1.60e-01,
175,5.60e-01,8.00e-02,
176,4.00e-01,1.60e-01,
177,5.60e-01,8.00e-02,
178,4.80e-01,1.60e-01,
179,6.40e-01,8.00e-02,
180,5.60e-01,8.00e-02,
181,7.20e-01,2.40e-01,
182,5.60e-01,1.60e-01,
183,7.20e-01,8.00e-02,
184,6.40e-01,8.00e-02,
185,8.00e-01,2.40e-01,
186,7.20e-01,8.00e-02,
187,8.80e-01,4.96e+00,
188,8.00e-01,5.04e+00,
189,9.60e-01,4.88e+00,
190,8.80e-01,5.04e+00,
191,1.04e+00,4.88e+00,
192,9.60e-01,5.04e+00,
193,1.12e+00,4.88e+00,
194,9.60e-01,5.04e+00,
195,1.12e+00,4.88e+00,
196,1.20e+00,5.04e+00,
197,1.04e+00,4.88e+00,
198,1.12e+00,5.04e+00,
199,1.28e+00,4.88e+00,
200,1.20e+00,5.04e+00,
201,1.36e+00,4.88e+00,
202,1.36e+00,5.04e+00,
203,1.52e+00,4.88e+00,
204,1.44e+00,5.04e+00,
205,1.60e+00,4.88e+00,
206,1.52e+00,5.04e+00,
207,1.68e+00,4.88e+00,
208,1.60e+00,5.04e+00,
209,1.76e+00,4.96e+00,
210,1.68e+00,4.96e+00,
211,1.84e+00,5.12e+00,
212,1.76e+00,4.88e+00,
213,1.92e+00,5.12e+00,
214,1.84e+00,4.96e+00,
215,2.00e+00,5.12e+00,
216,1.92e+00,5.04e+00,
217,2.16e+00,4.88e+00,
218,2.00e+00,5.12e+00,
219,2.24e+00,4.88e+00,
220,2.08e+00,4.88e+00,
221,2.32e+00,5.12e+00,
222,2.16e+00,4.88e+00,
223,2.48e+00,5.20e+00,
224,2.32e+00,5.12e+00,
225,2.56e+00,4.88e+00,
226,2.40e+00,4.88e+00,
227,2.64e+00,5.12e+00,
228,2.56e+00,5.12e+00,
229,2.72e+00,4.88e+00,
230,2.64e+00,5.20e+00,
231,2.80e+00,4.88e+00,
232,2.72e+00,5.20e+00,
233,2.88e+00,4.88e+00,
234,2.80e+00,5.12e+00,
235,2.96e+00,4.88e+00,
236,2.88e+00,5.20e+00,
237,3.04e+00,4.88e+00,
238,2.96e+00,4.88e+00,
239,3.12e+00,5.20e+00,
240,3.20e+00,5.12e+00,
241,3.04e+00,4.88e+00,
242,3.28e+00,4.88e+00,
243,3.12e+00,5.20e+00,
244,3.28e+00,4.88e+00,
245,3.44e+00,5.20e+00,
246,3.36e+00,5.20e+00,
247,3.52e+00,4.88e+00,
248,3.44e+00,4.88e+00,
249,3.60e+00,5.20e+00,
250,3.52e+00,5.12e+00,
251,3.68e+00,4.88e+00,
252,3.60e+00,5.12e+00,
253,3.76e+00,4.88e+00,
254,3.68e+00,4.88e+00,
255,3.84e+00,5.20e+00,
256,3.76e+00,4.88e+00,
257,3.92e+00,5.20e+00,
258,3.76e+00,5.12e+00,
259,4.00e+00,4.88e+00,
260,3.84e+00,4.88e+00,
261,4.08e+00,5.20e+00,
262,3.92e+00,5.12e+00,
263,4.16e+00,4.88e+00,
264,4.16e+00,5.12e+00,
265,4.00e+00,4.88e+00,
266,4.24e+00,5.20e+00,
267,4.08e+00,4.88e+00,
268,4.08e+00,5.12e+00,
269,4.40e+00,4.88e+00,
270,4.24e+00,4.88e+00,
271,4.48e+00,5.20e+00,
272,4.32e+00,4.88e+00,
273,4.48e+00,5.20e+00,
274,4.32e+00,5.20e+00,
275,4.56e+00,4.88e+00,
276,4.40e+00,4.88e+00,
277,4.64e+00,5.20e+00,
278,4.64e+00,4.88e+00,
279,4.48e+00,5.12e+00,
280,4.48e+00,5.12e+00,
281,4.72e+00,4.88e+00,
282,4.56e+00,4.88e+00,
283,4.72e+00,5.20e+00,
284,4.56e+00,4.88e+00,
285,4.80e+00,5.20e+00,
286,4.64e+00,4.88e+00,
287,4.80e+00,5.20e+00,
288,4.80e+00,4.88e+00,
289,4.64e+00,5.20e+00,
290,4.64e+00,4.88e+00,
291,4.88e+00,5.12e+00,
292,4.88e+00,4.88e+00,
293,4.72e+00,5.12e+00,
294,4.72e+00,4.88e+00,
295,4.88e+00,5.20e+00,
296,4.72e+00,5.12e+00,
297,4.96e+00,4.88e+00,
298,4.96e+00,5.12e+00,
299,4.80e+00,4.88e+00,
300,4.96e+00,5.12e+00,
301,4.80e+00,4.88e+00,
302,4.96e+00,5.20e+00,
303,4.80e+00,4.88e+00,
304,4.80e+00,5.12e+00,
305,4.96e+00,4.88e+00,
306,4.96e+00,4.88e+00,
307,4.80e+00,5.20e+00,
308,4.96e+00,4.88e+00,
309,4.80e+00,5.12e+00,
310,4.96e+00,4.88e+00,
311,4.80e+00,5.12e+00,
312,4.96e+00,4.88e+00,
313,4.80e+00,5.20e+00,
314,4.96e+00,5.12e+00,
315,4.88e+00,4.88e+00,
316,4.96e+00,4.88e+00,
317,4.80e+00,5.20e+00,
318,4.96e+00,5.12e+00,
319,4.72e+00,4.88e+00,
320,4.72e+00,5.12e+00,
321,4.96e+00,4.88e+00,
322,4.88e+00,5.12e+00,
323,4.72e+00,4.88e+00,
324,4.88e+00,5.20e+00,
325,4.72e+00,4.88e+00,
326,4.88e+00,5.12e+00,
327,4.64e+00,4.88e+00,
328,4.64e+00,4.88e+00,
329,4.80e+00,5.12e+00,
330,4.80e+00,5.12e+00,
331,4.56e+00,4.88e+00,
332,4.56e+00,5.20e+00,
333,4.72e+00,4.88e+00,
334,4.72e+00,5.12e+00,
335,4.48e+00,4.88e+00,
336,4.64e+00,4.88e+00,
337,4.48e+00,5.20e+00,
338,4.64e+00,5.12e+00,
339,4.40e+00,4.88e+00,
340,4.56e+00,5.12e+00,
341,4.40e+00,4.88e+00,
342,4.48e+00,4.88e+00,
343,4.32e+00,5.20e+00,
344,4.48e+00,4.88e+00,
345,4.16e+00,5.20e+00,
346,4.40e+00,4.88e+00,
347,4.16e+00,5.20e+00,
348,4.40e+00,4.88e+00,
349,4.08e+00,5.12e+00,
350,4.24e+00,4.88e+00,
351,4.00e+00,5.20e+00,
352,4.16e+00,5.12e+00,
353,3.92e+00,4.88e+00,
354,3.92e+00,5.20e+00,
355,4.08e+00,4.88e+00,
356,3.84e+00,5.12e+00,
357,4.00e+00,4.88e+00,
358,3.92e+00,4.88e+00,
359,3.76e+00,5.20e+00,
360,3.84e+00,4.88e+00,
361,3.68e+00,5.12e+00,
362,3.84e+00,5.12e+00,
363,3.60e+00,4.88e+00,
364,3.76e+00,5.20e+00,
365,3.52e+00,4.88e+00,
366,3.68e+00,4.88e+00,
367,3.44e+00,5.20e+00,
368,3.60e+00,4.88e+00,
369,3.36e+00,5.12e+00,
370,3.52e+00,5.12e+00,
371,3.28e+00,4.88e+00,
372,3.44e+00,4.88e+00,
373,3.12e+00,5.12e+00,
374,3.28e+00,5.12e+00,
375,3.04e+00,4.88e+00,
376,3.20e+00,4.88e+00,
377,2.96e+00,5.20e+00,
378,3.12e+00,4.88e+00,
379,2.88e+00,5.12e+00,
380,3.04e+00,4.88e+00,
381,2.80e+00,5.20e+00,
382,2.96e+00,4.88e+00,
383,2.72e+00,5.20e+00,
384,2.88e+00,5.12e+00,
385,2.64e+00,4.88e+00,
386,2.80e+00,4.88e+00,
387,2.56e+00,5.20e+00,
388,2.64e+00,5.12e+00,
389,2.48e+00,4.88e+00,
390,2.56e+00,4.88e+00,
391,2.40e+00,5.12e+00,
392,2.48e+00,5.20e+00,
393,2.24e+00,4.88e+00,
394,2.32e+00,5.12e+00,
395,2.16e+00,4.88e+00,
396,2.24e+00,5.20e+00,
397,2.08e+00,4.88e+00,
398,2.16e+00,5.12e+00,
399,2.00e+00,4.88e+00,
400,2.08e+00,4.88e+00,
401,1.92e+00,5.20e+00,
402,2.00e+00,4.88e+00,
403,1.84e+00,5.20e+00,
404,1.92e+00,4.88e+00,
405,1.68e+00,5.20e+00,
406,1.68e+00,4.88e+00,
407,1.84e+00,5.20e+00,
408,1.76e+00,5.20e+00,
409,1.52e+00,4.88e+00,
410,1.68e+00,5.12e+00,
411,1.44e+00,4.88e+00,
412,1.60e+00,4.88e+00,
413,1.44e+00,5.20e+00,
414,1.52e+00,4.88e+00,
415,1.28e+00,5.12e+00,
416,1.36e+00,4.88e+00,
417,1.20e+00,5.20e+00,
418,1.28e+00,5.20e+00,
419,1.12e+00,4.88e+00,
420,1.20e+00,5.12e+00,
421,1.04e+00,4.88e+00,
422,1.12e+00,4.88e+00,
423,9.60e-01,5.20e+00,
424,1.04e+00,5.12e+00,
425,8.80e-01,4.88e+00,
426,9.60e-01,5.12e+00,
427,8.00e-01,4.88e+00,
428,8.80e-01,4.88e+00,
429,7.20e-01,5.20e+00,
430,8.00e-01,4.88e+00,
431,7.20e-01,5.20e+00,
432,6.40e-01,5.12e+00,
433,8.00e-01,4.88e+00,
434,7.20e-01,4.96e+00,
435,5.60e-01,5.20e+00,
436,6.40e-01,4.88e+00,
437,4.80e-01,5.12e+00,
438,6.40e-01,4.96e+00,
439,4.80e-01,5.20e+00,
440,5.60e-01,4.88e+00,
441,3.20e-01,5.20e+00,
442,4.00e-01,5.12e+00,
443,2.40e-01,4.88e+00,
444,4.00e-01,5.20e+00,
445,2.40e-01,4.48e+00,
446,3.20e-01,4.32e+00,
447,1.60e-01,8.00e-02,
448,2.40e-01,2.40e-01,
449,1.60e-01,8.00e-02,
450,2.40e-01,2.40e-01,
451,8.00e-02,8.00e-02,
452,1.60e-01,2.40e-01,
453,8.00e-02,8.00e-02,
454,1.60e-01,2.40e-01,
455,0.00e+00,8.00e-02,
456,1.60e-01,2.40e-01,
457,0.00e+00,8.00e-02,
458,8.00e-02,2.40e-01,
459,0.00e+00,8.00e-02,
460,8.00e-02,2.40e-01,
461,-8.00e-02,8.00e-02,
462,8.00e-02,2.40e-01,
463,-8.00e-02,8.00e-02,
464,0.00e+00,2.40e-01,
465,-8.00e-02,8.00e-02,
466,-8.00e-02,2.40e-01,
467,0.00e+00,8.00e-02,
468,0.00e+00,2.40e-01,
469,-8.00e-02,8.00e-02,
470,0.00e+00,2.40e-01,
471,-1.60e-01,8.00e-02,
472,-1.60e-01,8.00e-02,
473,0.00e+00,2.40e-01,
474,-1.60e-01,8.00e-02,
475,0.00e+00,2.40e-01,
476,-1.60e-01,8.00e-02,
477,0.00e+00,2.40e-01,
478,0.00e+00,8.00e-02,
479,-1.60e-01,2.40e-01,
480,-8.00e-02,8.00e-02,
481,0.00e+00,2.40e-01,
482,0.00e+00,8.00e-02,
483,-8.00e-02,2.40e-01,
484,0.00e+00,8.00e-02,
485,-8.00e-02,2.40e-01,
486,-8.00e-02,8.00e-02,
487,8.00e-02,2.40e-01,
488,8.00e-02,1.60e-01,
489,-8.00e-02,8.00e-02,
490,8.00e-02,8.00e-02,
491,0.00e+00,2.40e-01,
492,0.00e+00,1.60e-01,
493,1.60e-01,8.00e-02,
494,1.60e-01,1.60e-01,
495,0.00e+00,8.00e-02,
496,8.00e-02,1.60e-01,
497,1.60e-01,8.00e-02,
498,8.00e-02,8.00e-02,
499,2.40e-01,2.40e-01,
500,2.40e-01,1.60e-01,
501,1.60e-01,8.00e-02,
502,1.60e-01,1.60e-01,
503,3.20e-01,8.00e-02,
504,2.40e-01,1.60e-01,
505,4.00e-01,8.00e-02,
506,4.00e-01,8.00e-02,
507,2.40e-01,2.40e-01,
508,4.00e-01,1.60e-01,
509,5.60e-01,8.00e-02,
510,4.80e-01,1.60e-01,
511,5.60e-01,8.00e-02,
512,4.80e-01,1.60e-01,
513,6.40e-01,8.00e-02,
514,5.60e-01,8.00e-02,
515,7.20e-01,2.40e-01,
516,6.40e-01,8.00e-02,
517,8.00e-01,1.60e-01,
518,7.20e-01,8.00e-02,
519,8.00e-01,2.40e-01,
520,8.80e-01,1.60e-01,
521,7.20e-01,5.04e+00,
522,8.00e-01,5.04e+00,
523,9.60e-01,4.88e+00,
524,8.80e-01,5.04e+00,
525,1.04e+00,4.88e+00,
526,9.60e-01,5.04e+00,
527,1.12e+00,4.96e+00,
528,1.04e+00,5.04e+00,
529,1.20e+00,5.04e+00,
530,1.12e+00,5.04e+00,
531,1.28e+00,4.96e+00,
532,1.20e+00,5.04e+00,
533,1.36e+00,4.96e+00,
534,1.28e+00,5.04e+00,
535,1.52e+00,4.96e+00,
536,1.44e+00,5.04e+00,
537,1.60e+00,4.96e+00,
538,1.52e+00,5.04e+00,
539,1.68e+00,4.88e+00,
540,1.52e+00,5.04e+00,
541,1.76e+00,4.88e+00,
542,1.60e+00,5.04e+00,
543,1.84e+00,4.88e+00,
544,1.68e+00,5.04e+00,
545,1.92e+00,4.88e+00,
546,1.84e+00,5.12e+00,
547,2.00e+00,4.88e+00,
548,1.92e+00,4.88e+00,
549,2.08e+00,5.12e+00,
550,2.00e+00,4.88e+00,
551,2.16e+00,5.12e+00,
552,2.08e+00,4.88e+00,
553,2.24e+00,5.12e+00,
554,2.16e+00,5.20e+00,
555,2.32e+00,4.88e+00,
556,2.24e+00,5.12e+00,
557,2.48e+00,4.88e+00,
558,2.40e+00,4.88e+00,
559,2.56e+00,5.12e+00,
560,2.48e+00,4.88e+00,
561,2.64e+00,5.20e+00,
562,2.56e+00,4.88e+00,
563,2.72e+00,5.20e+00,
564,2.64e+00,4.88e+00,
565,2.80e+00,5.20e+00,
566,2.88e+00,5.04e+00,
567,2.72e+00,4.88e+00,
568,2.80e+00,4.88e+00,
569,3.04e+00,5.20e+00,
570,2.88e+00,5.20e+00,
571,3.12e+00,4.88e+00,
572,2.96e+00,5.12e+00,
573,3.20e+00,4.88e+00,
574,3.04e+00,4.88e+00,
575,3.28e+00,5.20e+00,
576,3.12e+00,4.88e+00,
577,3.44e+00,5.12e+00,
578,3.20e+00,4.88e+00,
579,3.52e+00,5.20e+00,
580,3.36e+00,4.88e+00,
581,3.60e+00,5.20e+00,
582,3.44e+00,5.20e+00,
583,3.68e+00,4.88e+00,
584,3.52e+00,4.88e+00,
585,3.76e+00,5.20e+00,
586,3.60e+00,5.12e+00,
587,3.84e+00,4.88e+00,
588,3.84e+00,5.12e+00,
589,3.68e+00,4.88e+00,
590,3.76e+00,5.12e+00,
591,3.92e+00,4.88e+00,
592,3.84e+00,4.88e+00,
593,4.00e+00,5.20e+00,
594,3.92e+00,5.12e+00,
595,4.08e+00,4.88e+00,
596,3.92e+00,4.88e+00,
597,4.16e+00,5.20e+00,
598,4.00e+00,5.12e+00,
599,4.24e+00,4.88e+00,
600,4.08e+00,5.12e+00,
601,4.32e+00,4.88e+00,
602,4.24e+00,4.88e+00,
603,4.40e+00,5.20e+00,
604,4.24e+00,5.12e+00,
605,4.48e+00,4.88e+00,
606,4.32e+00,4.88e+00,
607,4.56e+00,5.20e+00,
608,4.40e+00,5.12e+00,
609,4.56e+00,4.88e+00,
610,4.40e+00,4.88e+00,
611,4.64e+00,5.20e+00,
612,4.48e+00,4.88e+00,
613,4.64e+00,5.20e+00,
614,4.48e+00,4.88e+00,
615,4.72e+00,5.20e+00,
616,4.72e+00,4.88e+00,
617,4.56e+00,5.20e+00,
618,4.56e+00,5.12e+00,
619,4.80e+00,4.88e+00,
620,4.64e+00,5.12e+00,
621,4.80e+00,4.88e+00,
622,4.64e+00,5.12e+00,
623,4.88e+00,4.88e+00,
624,4.72e+00,4.88e+00,
625,4.88e+00,5.20e+00,
626,4.88e+00,4.88e+00,
627,4.72e+00,5.20e+00,
628,4.88e+00,5.12e+00,
629,4.72e+00,4.88e+00,
630,4.72e+00,4.88e+00,
631,4.96e+00,5.20e+00,
632,4.96e+00,5.12e+00,
633,4.80e+00,4.88e+00,
634,4.96e+00,5.12e+00,
635,4.88e+00,4.88e+00,
636,4.96e+00,4.88e+00,
637,4.88e+00,5.20e+00,
638,4.96e+00,4.88e+00,
639,4.80e+00,5.20e+00,
640,4.80e+00,4.88e+00,
641,4.96e+00,5.20e+00,
642,4.96e+00,5.12e+00,
643,4.80e+00,4.88e+00,
644,4.96e+00,5.12e+00,
645,4.80e+00,4.88e+00,
646,4.80e+00,4.88e+00,
647,4.96e+00,5.12e+00,
648,4.96e+00,4.88e+00,
649,4.80e+00,5.20e+00,
650,4.96e+00,4.88e+00,
651,4.80e+00,5.20e+00,
652,4.96e+00,5.12e+00,
653,4.72e+00,4.88e+00,
654,4.72e+00,4.88e+00,
655,4.88e+00,5.20e+00,
656,4.88e+00,5.12e+00,
657,4.72e+00,4.88e+00,
658,4.88e+00,4.88e+00,
659,4.64e+00,5.20e+00,
660,4.80e+00,4.88e+00,
661,4.64e+00,5.20e+00,
662,4.64e+00,5.12e+00,
663,4.80e+00,4.88e+00,
664,4.80e+00,4.88e+00,
665,4.56e+00,5.12e+00,
666,4.56e+00,4.88e+00,
667,4.72e+00,5.20e+00,
668,4.72e+00,4.88e+00,
669,4.48e+00,5.20e+00,
670,4.48e+00,4.88e+00,
671,4.64e+00,5.20e+00,
672,4.64e+00,4.96e+00,
673,4.40e+00,5.20e+00,
674,4.56e+00,5.20e+00,
675,4.32e+00,4.88e+00,
676,4.32e+00,4.96e+00,
677,4.48e+00,5.20e+00,
678,4.40e+00,4.96e+00,
679,4.24e+00,5.20e+00,
680,4.40e+00,4.88e+00,
681,4.08e+00,5.20e+00,
682,4.24e+00,4.88e+00,
683,4.08e+00,5.20e+00,
684,4.24e+00,4.96e+00,
685,4.00e+00,5.20e+00,
686,4.16e+00,5.20e+00,
687,3.92e+00,4.88e+00,
688,4.08e+00,4.88e+00,
689,3.84e+00,5.20e+00,
690,4.00e+00,5.20e+00,
691,3.76e+00,4.88e+00,
692,3.76e+00,4.88e+00,
693,3.92e+00,5.20e+00,
694,3.68e+00,4.88e+00,
695,3.84e+00,5.20e+00,
696,3.76e+00,5.20e+00,
697,3.60e+00,4.88e+00,
698,3.68e+00,5.20e+00,
699,3.52e+00,4.88e+00,
700,3.60e+00,4.96e+00,
701,3.44e+00,5.20e+00,
702,3.52e+00,5.20e+00,
703,3.36e+00,4.88e+00,
704,3.52e+00,4.88e+00,
705,3.28e+00,5.20e+00,
706,3.28e+00,5.20e+00,
707,3.12e+00,4.88e+00,
708,3.20e+00,4.88e+00,
709,3.04e+00,5.20e+00,
710,3.20e+00,4.96e+00,
711,2.96e+00,5.20e+00,
712,3.04e+00,4.88e+00,
713,2.88e+00,5.20e+00,
714,2.96e+00,4.88e+00,
715,2.80e+00,5.12e+00,
716,2.88e+00,4.88e+00,
717,2.72e+00,5.20e+00,
718,2.80e+00,5.20e+00,
719,2.64e+00,4.88e+00,
720,2.72e+00,4.88e+00,
721,2.56e+00,5.20e+00,
722,2.64e+00,5.12e+00,
723,2.48e+00,4.88e+00,
724,2.40e+00,4.88e+00,
725,2.56e+00,5.20e+00,
726,2.48e+00,5.12e+00,
727,2.24e+00,4.88e+00,
728,2.32e+00,5.12e+00,
729,2.08e+00,4.88e+00,
730,2.24e+00,5.20e+00,
731,2.00e+00,4.88e+00,
732,2.16e+00,4.88e+00,
733,1.92e+00,5.20e+00,
734,2.08e+00,4.88e+00,
735,1.84e+00,5.20e+00,
736,2.00e+00,5.12e+00,
737,1.76e+00,4.88e+00,
738,1.84e+00,5.12e+00,
739,1.68e+00,4.88e+00,
740,1.76e+00,5.12e+00,
741,1.60e+00,4.88e+00,
742,1.68e+00,5.20e+00,
743,1.52e+00,4.88e+00,
744,1.60e+00,5.20e+00,
745,1.44e+00,4.88e+00,
746,1.52e+00,4.88e+00,
747,1.36e+00,5.20e+00,
748,1.36e+00,5.12e+00,
749,1.20e+00,4.88e+00,
750,1.28e+00,5.12e+00,
751,1.12e+00,4.88e+00,
752,1.20e+00,4.88e+00,
753,1.04e+00,5.12e+00,
754,1.20e+00,5.20e+00,
755,9.60e-01,4.88e+00,
756,1.12e+00,4.88e+00,
757,9.60e-01,5.20e+00,
758,1.04e+00,5.12e+00,
759,8.80e-01,4.88e+00,
760,9.60e-01,5.12e+00,
761,8.00e-01,4.88e+00,
762,8.80e-01,5.12e+00,
763,7.20e-01,4.88e+00,
764,8.00e-01,4.88e+00,
765,6.40e-01,5.20e+00,
766,7.20e-01,5.12e+00,
767,6.40e-01,4.88e+00,
768,5.60e-01,4.88e+00,
769,7.20e-01,5.12e+00,
770,6.40e-01,4.88e+00,
771,4.80e-01,5.20e+00,
772,5.60e-01,5.12e+00,
773,4.00e-01,4.88e+00,
774,5.60e-01,5.12e+00,
775,3.20e-01,4.88e+00,
776,4.00e-01,4.88e+00,
777,2.40e-01,5.20e+00,
778,2.40e-01,5.12e+00,
779,3.20e-01,2.40e-01,
780,3.20e-01,2.40e-01,
781,1.60e-01,8.00e-02,
782,2.40e-01,2.40e-01,
783,8.00e-02,8.00e-02,
784,8.00e-02,2.40e-01,
785,2.40e-01,8.00e-02,
786,8.00e-02,2.40e-01,
787,1.60e-01,8.00e-02,
788,1.60e-01,2.40e-01,
789,0.00e+00,8.00e-02,
790,0.00e+00,2.40e-01,
791,8.00e-02,8.00e-02,
792,8.00e-02,2.40e-01,
793,-8.00e-02,8.00e-02,
794,8.00e-02,2.40e-01,
795,-8.00e-02,8.00e-02,
796,8.00e-02,2.40e-01,
797,-8.00e-02,8.00e-02,
798,0.00e+00,2.40e-01,
799,-8.00e-02,8.00e-02,
800,0.00e+00,2.40e-01,
801,-8.00e-02,8.00e-02,
802,-8.00e-02,2.40e-01,
803,0.00e+00,8.00e-02,
804,0.00e+00,2.40e-01,
805,-1.60e-01,8.00e-02,
806,-1.60e-01,8.00e-02,
807,0.00e+00,2.40e-01,
808,0.00e+00,2.40e-01,
809,-1.60e-01,8.00e-02,
810,0.00e+00,8.00e-02,
811,-1.60e-01,2.40e-01,
812,-8.00e-02,8.00e-02,
813,0.00e+00,2.40e-01,
814,-8.00e-02,8.00e-02,
815,0.00e+00,2.40e-01,
816,0.00e+00,8.00e-02,
817,-8.00e-02,2.40e-01,
818,0.00e+00,8.00e-02,
819,-8.00e-02,2.40e-01,
820,8.00e-02,2.40e-01,
821,-8.00e-02,8.00e-02,
822,-8.00e-02,1.60e-01,
823,8.00e-02,8.00e-02,
824,8.00e-02,1.60e-01,
825,0.00e+00,8.00e-02,
826,0.00e+00,8.00e-02,
827,1.60e-01,2.40e-01,
828,0.00e+00,1.60e-01,
829,1.60e-01,8.00e-02,
830,8.00e-02,8.00e-02,
831,2.40e-01,2.40e-01,
832,2.40e-01,8.00e-02,
833,8.00e-02,2.40e-01,
834,1.60e-01,2.40e-01,
835,3.20e-01,8.00e-02,
836,3.20e-01,1.60e-01,
837,1.60e-01,8.00e-02,
838,2.40e-01,1.60e-01,
839,4.00e-01,8.00e-02,
840,3.20e-01,8.00e-02,
841,4.00e-01,2.40e-01,
842,4.00e-01,1.60e-01,
843,5.60e-01,8.00e-02,
844,4.80e-01,8.00e-02,
845,6.40e-01,1.60e-01,
846,4.80e-01,8.00e-02,
847,6.40e-01,2.40e-01,
848,5.60e-01,8.00e-02,
849,7.20e-01,2.40e-01,
850,6.40e-01,8.00e-02,
851,8.00e-01,2.40e-01,
852,7.20e-01,8.00e-02,
853,8.80e-01,5.60e-01,
854,8.00e-01,6.40e-01,
855,9.60e-01,5.04e+00,
856,8.00e-01,5.04e+00,
857,9.60e-01,4.96e+00,
858,8.80e-01,5.04e+00,
859,1.04e+00,4.88e+00,
860,9.60e-01,5.04e+00,
861,1.12e+00,4.88e+00,
862,1.04e+00,5.04e+00,
863,1.20e+00,4.88e+00,
864,1.12e+00,5.04e+00,
865,1.28e+00,4.88e+00,
866,1.20e+00,5.04e+00,
867,1.36e+00,4.88e+00,
868,1.36e+00,5.04e+00,
