project/matlab/project_exp3/950 Hz/NewFile1.csv

X,CH1,CH2,Start,Increment,
Sequence,Volt,Volt,-2.280000e-03,5.000000e-06
0,7.20e-01,8.00e-02,
1,8.80e-01,5.04e+00,
2,8.00e-01,4.96e+00,
3,1.04e+00,4.88e+00,
4,8.80e-01,4.96e+00,
5,1.12e+00,4.88e+00,
6,1.04e+00,4.96e+00,
7,1.20e+00,4.88e+00,
8,1.12e+00,4.96e+00,
9,1.36e+00,4.88e+00,
10,1.28e+00,4.88e+00,
11,1.52e+00,5.12e+00,
12,1.44e+00,4.88e+00,
13,1.68e+00,5.20e+00,
14,1.60e+00,4.88e+00,
15,1.76e+00,5.20e+00,
16,1.68e+00,5.12e+00,
17,1.92e+00,4.88e+00,
18,1.84e+00,4.88e+00,
19,2.08e+00,5.20e+00,
20,2.00e+00,4.88e+00,
21,2.24e+00,5.20e+00,
22,2.08e+00,4.88e+00,
23,2.32e+00,5.20e+00,
24,2.24e+00,5.12e+00,
25,2.56e+00,4.88e+00,
26,2.48e+00,4.88e+00,
27,2.72e+00,5.20e+00,
28,2.56e+00,4.88e+00,
29,2.80e+00,5.20e+00,
30,2.72e+00,5.20e+00,
31,2.96e+00,4.88e+00,
32,2.88e+00,5.12e+00,
33,3.12e+00,4.88e+00,
34,2.96e+00,5.20e+00,
35,3.20e+00,4.88e+00,
36,3.12e+00,5.20e+00,
37,3.36e+00,4.88e+00,
38,3.28e+00,4.88e+00,
39,3.60e+00,5.20e+00,
40,3.44e+00,4.88e+00,
41,3.68e+00,5.20e+00,
42,3.52e+00,5.12e+00,
43,3.76e+00,4.88e+00,
44,3.68e+00,4.88e+00,
45,3.92e+00,5.20e+00,
46,3.76e+00,4.88e+00,
47,4.00e+00,5.20e+00,
48,3.92e+00,4.88e+00,
49,4.16e+00,5.20e+00,
50,4.00e+00,4.88e+00,
51,4.24e+00,5.20e+00,
52,4.08e+00,4.88e+00,
53,4.40e+00,5.20e+00,
54,4.16e+00,4.88e+00,
55,4.48e+00,5.20e+00,
56,4.32e+00,4.88e+00,
57,4.56e+00,5.20e+00,
58,4.40e+00,5.20e+00,
59,4.64e+00,4.88e+00,
60,4.48e+00,4.88e+00,
61,4.72e+00,5.20e+00,
62,4.56e+00,5.20e+00,
63,4.80e+00,4.88e+00,
64,4.80e+00,4.88e+00,
65,4.64e+00,5.20e+00,
66,4.64e+00,5.20e+00,
67,4.88e+00,4.88e+00,
68,4.88e+00,4.88e+00,
69,4.72e+00,5.20e+00,
70,4.72e+00,4.88e+00,
71,4.96e+00,5.20e+00,
72,4.96e+00,4.88e+00,
73,4.80e+00,5.20e+00,
74,4.96e+00,4.88e+00,
75,4.80e+00,5.20e+00,
76,4.96e+00,5.12e+00,
77,4.80e+00,4.88e+00,
78,4.96e+00,4.88e+00,
79,4.80e+00,5.20e+00,
80,4.96e+00,4.88e+00,
81,4.80e+00,5.20e+00,
82,4.96e+00,4.88e+00,
83,4.80e+00,5.20e+00,
84,4.96e+00,4.88e+00,
85,4.72e+00,5.20e+00,
86,4.88e+00,4.88e+00,
87,4.72e+00,5.20e+00,
88,4.88e+00,4.88e+00,
89,4.64e+00,5.20e+00,
90,4.80e+00,4.88e+00,
91,4.64e+00,5.20e+00,
92,4.80e+00,5.20e+00,
93,4.56e+00,4.88e+00,
94,4.72e+00,4.88e+00,
95,4.48e+00,5.20e+00,
96,4.64e+00,4.88e+00,
97,4.40e+00,5.20e+00,
98,4.56e+00,4.88e+00,
99,4.32e+00,5.20e+00,
100,4.48e+00,4.88e+00,
101,4.24e+00,5.20e+00,
102,4.40e+00,4.88e+00,
103,4.08e+00,5.20e+00,
104,4.24e+00,4.88e+00,
105,4.00e+00,5.20e+00,
106,4.16e+00,4.88e+00,
107,3.92e+00,5.20e+00,
108,4.00e+00,4.88e+00,
109,3.76e+00,5.20e+00,
110,3.92e+00,5.20e+00,
111,3.68e+00,4.88e+00,
112,3.76e+00,4.88e+00,
113,3.52e+00,5.20e+00,
114,3.68e+00,5.20e+00,
115,3.44e+00,4.88e+00,
116,3.60e+00,4.88e+00,
117,3.28e+00,5.20e+00,
118,3.44e+00,4.88e+00,
119,3.12e+00,5.20e+00,
120,3.20e+00,5.20e+00,
121,2.96e+00,4.88e+00,
122,3.12e+00,4.88e+00,
123,2.80e+00,5.20e+00,
124,2.96e+00,5.20e+00,
125,2.72e+00,4.88e+00,
126,2.80e+00,4.88e+00,
127,2.56e+00,5.20e+00,
128,2.72e+00,5.20e+00,
129,2.48e+00,4.88e+00,
130,2.56e+00,5.20e+00,
131,2.32e+00,4.88e+00,
132,2.32e+00,4.88e+00,
133,2.08e+00,5.20e+00,
134,2.24e+00,4.88e+00,
135,1.92e+00,5.20e+00,
136,2.08e+00,4.88e+00,
137,1.84e+00,5.20e+00,
138,1.92e+00,4.88e+00,
139,1.68e+00,5.20e+00,
140,1.76e+00,4.88e+00,
141,1.60e+00,5.20e+00,
142,1.68e+00,4.88e+00,
143,1.44e+00,5.20e+00,
144,1.52e+00,5.20e+00,
145,1.20e+00,4.88e+00,
146,1.36e+00,5.20e+00,
147,1.12e+00,4.88e+00,
148,1.20e+00,4.88e+00,
149,9.60e-01,5.20e+00,
150,1.12e+00,4.88e+00,
151,8.80e-01,5.20e+00,
152,9.60e-01,5.20e+00,
153,8.00e-01,4.88e+00,
154,8.80e-01,4.88e+00,
155,6.40e-01,5.20e+00,
156,8.00e-01,4.88e+00,
157,5.60e-01,5.20e+00,
158,7.20e-01,4.88e+00,
159,4.80e-01,5.20e+00,
160,5.60e-01,4.88e+00,
161,4.00e-01,5.20e+00,
162,4.00e-01,4.88e+00,
163,2.40e-01,5.20e+00,
164,3.20e-01,5.20e+00,
165,1.60e-01,8.00e-02,
166,3.20e-01,2.40e-01,
167,8.00e-02,8.00e-02,
168,2.40e-01,2.40e-01,
169,8.00e-02,8.00e-02,
170,1.60e-01,2.40e-01,
171,0.00e+00,1.60e-01,
172,8.00e-02,2.40e-01,
173,0.00e+00,8.00e-02,
174,8.00e-02,2.40e-01,
175,-8.00e-02,8.00e-02,
176,8.00e-02,2.40e-01,
177,-8.00e-02,8.00e-02,
178,-8.00e-02,8.00e-02,
179,0.00e+00,2.40e-01,
180,0.00e+00,8.00e-02,
181,-1.60e-01,2.40e-01,
182,-1.60e-01,8.00e-02,
183,0.00e+00,2.40e-01,
184,-1.60e-01,8.00e-02,
185,0.00e+00,2.40e-01,
186,0.00e+00,8.00e-02,
187,-1.60e-01,2.40e-01,
188,0.00e+00,2.40e-01,
189,-8.00e-02,0.00e+00,
190,-8.00e-02,2.40e-01,
191,8.00e-02,8.00e-02,
192,-8.00e-02,8.00e-02,
193,8.00e-02,2.40e-01,
194,0.00e+00,8.00e-02,
195,1.60e-01,2.40e-01,
196,8.00e-02,2.40e-01,
197,2.40e-01,8.00e-02,
198,2.40e-01,8.00e-02,
199,8.00e-02,2.40e-01,
200,1.60e-01,8.00e-02,
201,3.20e-01,2.40e-01,
202,2.40e-01,0.00e+00,
203,4.00e-01,2.40e-01,
204,4.00e-01,8.00e-02,
205,5.60e-01,2.40e-01,
206,4.80e-01,8.00e-02,
207,6.40e-01,2.40e-01,
208,5.60e-01,0.00e+00,
209,7.20e-01,2.40e-01,
210,6.40e-01,8.00e-02,
211,8.80e-01,3.76e+00,
212,8.00e-01,4.08e+00,
213,9.60e-01,5.04e+00,
214,8.80e-01,4.96e+00,
215,1.04e+00,4.88e+00,
216,9.60e-01,4.96e+00,
217,1.20e+00,4.88e+00,
218,1.12e+00,4.88e+00,
219,1.28e+00,5.04e+00,
220,1.20e+00,5.04e+00,
221,1.52e+00,4.88e+00,
222,1.44e+00,4.88e+00,
223,1.68e+00,5.12e+00,
224,1.52e+00,4.88e+00,
225,1.76e+00,5.20e+00,
226,1.68e+00,4.88e+00,
227,1.92e+00,5.20e+00,
228,1.76e+00,4.88e+00,
229,2.00e+00,5.20e+00,
230,1.92e+00,5.20e+00,
231,2.16e+00,4.88e+00,
232,2.08e+00,4.88e+00,
233,2.32e+00,5.12e+00,
234,2.32e+00,4.88e+00,
235,2.56e+00,5.20e+00,
236,2.40e+00,4.88e+00,
237,2.64e+00,5.12e+00,
238,2.56e+00,4.88e+00,
239,2.80e+00,5.20e+00,
240,2.72e+00,4.88e+00,
241,2.96e+00,5.20e+00,
242,2.80e+00,4.88e+00,
243,3.04e+00,5.20e+00,
244,2.96e+00,4.88e+00,
245,3.20e+00,5.20e+00,
246,3.12e+00,4.88e+00,
247,3.36e+00,5.20e+00,
248,3.28e+00,4.88e+00,
249,3.52e+00,5.20e+00,
250,3.44e+00,4.88e+00,
251,3.60e+00,5.20e+00,
252,3.52e+00,4.88e+00,
253,3.76e+00,5.20e+00,
254,3.60e+00,4.88e+00,
255,3.92e+00,5.20e+00,
256,3.76e+00,4.88e+00,
257,4.00e+00,5.20e+00,
258,3.84e+00,4.88e+00,
259,4.08e+00,5.20e+00,
260,4.00e+00,5.20e+00,
261,4.24e+00,4.88e+00,
262,4.08e+00,5.20e+00,
263,4.40e+00,4.88e+00,
264,4.16e+00,4.88e+00,
265,4.48e+00,5.20e+00,
266,4.32e+00,5.20e+00,
267,4.56e+00,4.88e+00,
268,4.40e+00,5.20e+00,
269,4.64e+00,4.88e+00,
270,4.48e+00,4.88e+00,
271,4.72e+00,5.20e+00,
272,4.72e+00,4.88e+00,
273,4.56e+00,5.20e+00,
274,4.56e+00,5.20e+00,
275,4.80e+00,4.88e+00,
276,4.64e+00,5.20e+00,
277,4.88e+00,4.88e+00,
278,4.88e+00,5.20e+00,
279,4.72e+00,4.88e+00,
280,4.72e+00,4.88e+00,
281,4.96e+00,5.20e+00,
282,4.80e+00,5.20e+00,
283,4.96e+00,4.88e+00,
284,4.96e+00,4.88e+00,
285,4.80e+00,5.20e+00,
286,4.96e+00,4.88e+00,
287,4.80e+00,5.20e+00,
288,4.96e+00,5.12e+00,
289,4.80e+00,4.88e+00,
290,4.96e+00,5.20e+00,
291,4.80e+00,4.88e+00,
292,4.96e+00,5.20e+00,
293,4.80e+00,4.88e+00,
294,4.96e+00,4.88e+00,
295,4.72e+00,5.20e+00,
296,4.88e+00,4.88e+00,
297,4.72e+00,5.20e+00,
298,4.88e+00,5.20e+00,
299,4.64e+00,4.88e+00,
300,4.64e+00,4.88e+00,
301,4.80e+00,5.20e+00,
302,4.80e+00,5.20e+00,
303,4.56e+00,4.88e+00,
304,4.72e+00,5.12e+00,
305,4.48e+00,4.88e+00,
306,4.64e+00,4.88e+00,
307,4.40e+00,5.20e+00,
308,4.56e+00,4.88e+00,
309,4.32e+00,5.20e+00,
310,4.48e+00,4.88e+00,
311,4.24e+00,5.20e+00,
312,4.40e+00,5.20e+00,
313,4.16e+00,4.88e+00,
314,4.24e+00,5.20e+00,
315,4.00e+00,4.88e+00,
316,4.16e+00,4.88e+00,
317,3.92e+00,5.20e+00,
318,4.08e+00,4.88e+00,
319,3.84e+00,5.20e+00,
320,3.92e+00,4.88e+00,
321,3.68e+00,5.20e+00,
322,3.84e+00,4.88e+00,
323,3.60e+00,5.20e+00,
324,3.68e+00,5.20e+00,
325,3.44e+00,4.88e+00,
326,3.60e+00,5.20e+00,
327,3.36e+00,4.88e+00,
328,3.44e+00,4.88e+00,
329,3.12e+00,5.20e+00,
330,3.28e+00,4.88e+00,
331,3.04e+00,5.20e+00,
332,3.12e+00,5.20e+00,
333,2.88e+00,4.88e+00,
334,2.96e+00,4.88e+00,
335,2.72e+00,5.20e+00,
336,2.88e+00,4.88e+00,
337,2.64e+00,5.20e+00,
338,2.72e+00,4.88e+00,
339,2.48e+00,5.20e+00,
340,2.56e+00,5.20e+00,
341,2.32e+00,4.88e+00,
342,2.40e+00,5.12e+00,
343,2.16e+00,4.88e+00,
344,2.24e+00,5.20e+00,
345,2.00e+00,4.88e+00,
346,2.08e+00,5.12e+00,
347,1.84e+00,4.88e+00,
348,1.92e+00,5.12e+00,
349,1.76e+00,4.88e+00,
350,1.84e+00,4.88e+00,
351,1.60e+00,5.20e+00,
352,1.68e+00,5.20e+00,
353,1.44e+00,4.88e+00,
354,1.60e+00,5.20e+00,
355,1.28e+00,4.88e+00,
356,1.36e+00,5.20e+00,
357,1.12e+00,4.88e+00,
358,1.28e+00,4.88e+00,
359,1.04e+00,5.20e+00,
360,1.12e+00,5.20e+00,
361,8.80e-01,4.88e+00,
362,1.04e+00,4.88e+00,
363,8.00e-01,5.20e+00,
364,8.80e-01,4.88e+00,
365,7.20e-01,5.20e+00,
366,8.00e-01,4.88e+00,
367,6.40e-01,5.20e+00,
368,7.20e-01,4.88e+00,
369,5.60e-01,5.20e+00,
370,6.40e-01,5.20e+00,
371,4.00e-01,4.88e+00,
372,5.60e-01,4.88e+00,
373,2.40e-01,5.20e+00,
374,4.00e-01,5.20e+00,
375,1.60e-01,8.00e-02,
376,1.60e-01,8.00e-02,
377,3.20e-01,2.40e-01,
378,2.40e-01,8.00e-02,
379,8.00e-02,2.40e-01,
380,1.60e-01,2.40e-01,
381,0.00e+00,8.00e-02,
382,0.00e+00,2.40e-01,
383,1.60e-01,8.00e-02,
384,8.00e-02,8.00e-02,
385,-8.00e-02,2.40e-01,
386,8.00e-02,8.00e-02,
387,-8.00e-02,2.40e-01,
388,-8.00e-02,2.40e-01,
389,0.00e+00,8.00e-02,
390,0.00e+00,8.00e-02,
391,-1.60e-01,2.40e-01,
392,-1.60e-01,8.00e-02,
393,0.00e+00,2.40e-01,
394,0.00e+00,1.60e-01,
395,-1.60e-01,8.00e-02,
396,-1.60e-01,8.00e-02,
397,0.00e+00,2.40e-01,
398,0.00e+00,8.00e-02,
399,-8.00e-02,2.40e-01,
400,-8.00e-02,1.60e-01,
401,8.00e-02,8.00e-02,
402,-8.00e-02,8.00e-02,
403,8.00e-02,2.40e-01,
404,0.00e+00,8.00e-02,
405,1.60e-01,2.40e-01,
406,1.60e-01,8.00e-02,
407,0.00e+00,2.40e-01,
408,8.00e-02,8.00e-02,
409,2.40e-01,2.40e-01,
410,1.60e-01,1.60e-01,
411,3.20e-01,8.00e-02,
412,2.40e-01,8.00e-02,
413,4.00e-01,2.40e-01,
414,3.20e-01,1.60e-01,
415,5.60e-01,8.00e-02,
416,4.80e-01,8.00e-02,
417,6.40e-01,2.40e-01,
418,5.60e-01,0.00e+00,
419,7.20e-01,2.40e-01,
420,6.40e-01,8.00e-02,
421,8.00e-01,2.40e-01,
422,7.20e-01,8.00e-02,
423,9.60e-01,5.04e+00,
424,8.80e-01,5.04e+00,
425,1.04e+00,4.88e+00,
426,9.60e-01,5.04e+00,
427,1.20e+00,4.88e+00,
428,1.04e+00,5.04e+00,
429,1.28e+00,4.88e+00,
430,1.20e+00,4.88e+00,
431,1.52e+00,5.12e+00,
432,1.36e+00,4.88e+00,
433,1.60e+00,5.12e+00,
434,1.52e+00,5.12e+00,
435,1.76e+00,4.88e+00,
436,1.60e+00,4.88e+00,
437,1.84e+00,5.12e+00,
438,1.76e+00,4.88e+00,
439,2.00e+00,5.20e+00,
440,1.92e+00,4.88e+00,
441,2.16e+00,5.20e+00,
442,2.00e+00,4.88e+00,
443,2.24e+00,5.20e+00,
444,2.16e+00,4.88e+00,
445,2.48e+00,5.20e+00,
446,2.40e+00,4.88e+00,
447,2.64e+00,5.12e+00,
448,2.48e+00,5.20e+00,
449,2.80e+00,4.88e+00,
450,2.64e+00,5.12e+00,
451,2.88e+00,4.88e+00,
452,2.80e+00,4.88e+00,
453,3.04e+00,5.20e+00,
454,2.88e+00,5.20e+00,
455,3.12e+00,4.88e+00,
456,3.04e+00,4.96e+00,
457,3.28e+00,4.88e+00,
458,3.28e+00,4.88e+00,
459,3.52e+00,5.04e+00,
460,3.36e+00,4.88e+00,
461,3.60e+00,5.12e+00,
462,3.52e+00,5.12e+00,
463,3.76e+00,4.88e+00,
464,3.60e+00,5.20e+00,
465,3.84e+00,4.88e+00,
466,3.68e+00,5.20e+00,
467,4.00e+00,4.88e+00,
468,3.84e+00,5.12e+00,
469,4.08e+00,4.88e+00,
470,3.92e+00,4.88e+00,
471,4.16e+00,5.20e+00,
472,4.08e+00,4.88e+00,
473,4.40e+00,5.20e+00,
474,4.24e+00,5.20e+00,
475,4.40e+00,4.88e+00,
476,4.32e+00,4.96e+00,
477,4.56e+00,5.20e+00,
478,4.40e+00,5.20e+00,
479,4.64e+00,4.88e+00,
480,4.48e+00,5.20e+00,
481,4.64e+00,4.88e+00,
482,4.56e+00,4.88e+00,
483,4.72e+00,5.20e+00,
484,4.56e+00,4.88e+00,
485,4.80e+00,5.20e+00,
486,4.64e+00,4.88e+00,
487,4.88e+00,5.20e+00,
488,4.88e+00,5.20e+00,
489,4.72e+00,4.88e+00,
490,4.72e+00,5.20e+00,
491,4.96e+00,4.88e+00,
492,4.96e+00,4.88e+00,
493,4.72e+00,5.20e+00,
494,4.96e+00,4.88e+00,
495,4.80e+00,5.20e+00,
496,4.80e+00,4.88e+00,
497,4.96e+00,5.20e+00,
498,4.96e+00,5.20e+00,
499,4.80e+00,4.88e+00,
500,4.96e+00,4.88e+00,
501,4.80e+00,5.20e+00,
502,4.96e+00,4.88e+00,
503,4.80e+00,5.20e+00,
504,4.96e+00,4.88e+00,
505,4.72e+00,5.20e+00,
506,4.72e+00,4.88e+00,
507,4.88e+00,5.20e+00,
508,4.88e+00,4.88e+00,
509,4.64e+00,5.20e+00,
510,4.64e+00,4.88e+00,
511,4.80e+00,5.20e+00,
512,4.80e+00,4.88e+00,
513,4.56e+00,5.20e+00,
514,4.56e+00,5.12e+00,
515,4.72e+00,4.88e+00,
516,4.48e+00,4.88e+00,
517,4.64e+00,5.20e+00,
518,4.64e+00,4.88e+00,
519,4.40e+00,5.20e+00,
520,4.56e+00,4.88e+00,
521,4.32e+00,5.20e+00,
522,4.48e+00,4.88e+00,
523,4.24e+00,5.20e+00,
524,4.32e+00,4.88e+00,
525,4.00e+00,5.20e+00,
526,4.16e+00,4.88e+00,
527,3.92e+00,5.20e+00,
528,4.08e+00,4.88e+00,
529,3.84e+00,5.20e+00,
530,4.00e+00,4.88e+00,
531,3.76e+00,5.20e+00,
532,3.84e+00,4.88e+00,
533,3.60e+00,5.20e+00,
534,3.76e+00,5.12e+00,
535,3.52e+00,4.88e+00,
536,3.60e+00,5.20e+00,
537,3.36e+00,4.88e+00,
538,3.52e+00,4.88e+00,
539,3.28e+00,5.20e+00,
540,3.28e+00,5.12e+00,
541,3.04e+00,4.88e+00,
542,3.20e+00,4.88e+00,
543,2.88e+00,5.20e+00,
544,3.04e+00,4.88e+00,
545,2.80e+00,5.20e+00,
546,2.88e+00,4.88e+00,
547,2.64e+00,5.20e+00,
548,2.72e+00,5.20e+00,
549,2.48e+00,4.88e+00,
550,2.64e+00,5.12e+00,
551,2.40e+00,4.88e+00,
552,2.48e+00,4.88e+00,
553,2.16e+00,5.20e+00,
554,2.24e+00,5.20e+00,
555,2.00e+00,4.88e+00,
556,2.16e+00,5.20e+00,
557,1.92e+00,4.88e+00,
558,2.00e+00,5.20e+00,
559,1.76e+00,4.88e+00,
560,1.84e+00,4.88e+00,
561,1.60e+00,5.20e+00,
562,1.76e+00,4.88e+00,
563,1.52e+00,5.20e+00,
564,1.60e+00,4.88e+00,
565,1.36e+00,5.20e+00,
566,1.44e+00,4.88e+00,
567,1.20e+00,5.20e+00,
568,1.28e+00,4.88e+00,
569,1.04e+00,5.20e+00,
570,1.12e+00,4.88e+00,
571,9.60e-01,5.20e+00,
572,1.04e+00,4.88e+00,
573,8.00e-01,5.20e+00,
574,9.60e-01,4.88e+00,
575,7.20e-01,5.20e+00,
576,8.00e-01,4.88e+00,
577,6.40e-01,5.20e+00,
578,7.20e-01,4.88e+00,
579,5.60e-01,5.20e+00,
580,6.40e-01,5.12e+00,
581,4.80e-01,4.88e+00,
582,5.60e-01,5.20e+00,
583,4.00e-01,4.88e+00,
584,4.00e-01,5.20e+00,
585,2.40e-01,1.60e-01,
586,3.20e-01,2.40e-01,
587,1.60e-01,8.00e-02,
588,2.40e-01,8.00e-02,
589,8.00e-02,2.40e-01,
590,1.60e-01,2.40e-01,
591,0.00e+00,8.00e-02,
592,0.00e+00,8.00e-02,
593,1.60e-01,2.40e-01,
594,8.00e-02,2.40e-01,
595,-8.00e-02,8.00e-02,
596,-8.00e-02,2.40e-01,
597,8.00e-02,8.00e-02,
598,-8.00e-02,8.00e-02,
599,0.00e+00,2.40e-01,
600,-8.00e-02,8.00e-02,
601,0.00e+00,2.40e-01,
602,0.00e+00,8.00e-02,
603,-1.60e-01,2.40e-01,
604,-1.60e-01,8.00e-02,
605,0.00e+00,2.40e-01,
606,0.00e+00,8.00e-02,
607,-1.60e-01,2.40e-01,
608,0.00e+00,0.00e+00,
609,-8.00e-02,2.40e-01,
610,-8.00e-02,8.00e-02,
611,8.00e-02,2.40e-01,
612,-8.00e-02,1.60e-01,
613,8.00e-02,8.00e-02,
614,0.00e+00,2.40e-01,
615,1.60e-01,8.00e-02,
616,1.60e-01,8.00e-02,
617,0.00e+00,2.40e-01,
618,8.00e-02,8.00e-02,
619,2.40e-01,1.60e-01,
620,1.60e-01,1.60e-01,
621,3.20e-01,8.00e-02,
622,1.60e-01,8.00e-02,
623,4.00e-01,2.40e-01,
624,2.40e-01,8.00e-02,
625,5.60e-01,1.60e-01,
626,4.00e-01,2.40e-01,
627,6.40e-01,8.00e-02,
628,4.80e-01,2.40e-01,
629,7.20e-01,0.00e+00,
630,6.40e-01,1.60e-01,
631,8.00e-01,8.00e-02,
632,7.20e-01,8.00e-02,
633,8.80e-01,5.04e+00,
634,8.00e-01,4.88e+00,
635,1.04e+00,5.04e+00,
636,9.60e-01,5.04e+00,
637,1.12e+00,4.88e+00,
638,1.04e+00,4.88e+00,
639,1.28e+00,5.12e+00,
640,1.12e+00,5.04e+00,
641,1.36e+00,4.88e+00,
642,1.36e+00,4.96e+00,
643,1.60e+00,4.88e+00,
644,1.44e+00,4.96e+00,
645,1.68e+00,4.88e+00,
646,1.60e+00,4.96e+00,
647,1.84e+00,4.88e+00,
648,1.76e+00,4.96e+00,
649,2.00e+00,4.88e+00,
650,1.84e+00,4.88e+00,
651,2.08e+00,5.12e+00,
652,2.00e+00,4.88e+00,
653,2.24e+00,5.12e+00,
654,2.16e+00,4.88e+00,
655,2.40e+00,5.20e+00,
656,2.24e+00,4.88e+00,
657,2.56e+00,5.20e+00,
658,2.48e+00,4.88e+00,
659,2.72e+00,5.20e+00,
660,2.64e+00,5.20e+00,
661,2.88e+00,4.88e+00,
662,2.72e+00,5.20e+00,
663,2.96e+00,4.88e+00,
664,2.88e+00,4.88e+00,
665,3.12e+00,5.20e+00,
666,3.04e+00,4.88e+00,
667,3.28e+00,5.20e+00,
668,3.20e+00,4.88e+00,
669,3.44e+00,5.20e+00,
670,3.36e+00,5.20e+00,
671,3.60e+00,4.88e+00,
672,3.44e+00,4.88e+00,
673,3.68e+00,5.20e+00,
674,3.60e+00,4.88e+00,
675,3.84e+00,5.20e+00,
676,3.68e+00,4.88e+00,
677,3.92e+00,5.20e+00,
678,3.84e+00,4.88e+00,
679,4.08e+00,5.20e+00,
680,3.92e+00,4.88e+00,
681,4.16e+00,5.20e+00,
682,4.00e+00,4.88e+00,
683,4.24e+00,5.20e+00,
684,4.08e+00,4.88e+00,
685,4.40e+00,5.20e+00,
686,4.24e+00,4.88e+00,
687,4.48e+00,5.20e+00,
688,4.32e+00,5.20e+00,
689,4.56e+00,4.88e+00,
690,4.40e+00,5.20e+00,
691,4.64e+00,4.88e+00,
692,4.48e+00,4.88e+00,
693,4.72e+00,5.20e+00,
694,4.56e+00,4.88e+00,
695,4.80e+00,5.20e+00,
696,4.80e+00,5.20e+00,
697,4.64e+00,4.88e+00,
698,4.64e+00,4.88e+00,
699,4.88e+00,5.20e+00,
700,4.88e+00,5.20e+00,
701,4.72e+00,4.88e+00,
702,4.72e+00,4.88e+00,
703,4.96e+00,5.20e+00,
704,4.96e+00,4.88e+00,
705,4.80e+00,5.20e+00,
706,4.96e+00,4.88e+00,
707,4.80e+00,5.20e+00,
708,4.96e+00,5.12e+00,
709,4.80e+00,4.88e+00,
710,4.96e+00,5.20e+00,
711,4.80e+00,4.88e+00,
712,4.96e+00,5.12e+00,
713,4.80e+00,4.88e+00,
714,4.96e+00,4.88e+00,
715,4.80e+00,5.20e+00,
716,4.88e+00,4.88e+00,
717,4.72e+00,5.20e+00,
718,4.72e+00,5.12e+00,
719,4.88e+00,4.88e+00,
720,4.88e+00,4.88e+00,
721,4.64e+00,5.20e+00,
722,4.80e+00,5.20e+00,
723,4.56e+00,4.88e+00,
724,4.72e+00,4.88e+00,
725,4.56e+00,5.20e+00,
726,4.72e+00,5.20e+00,
727,4.48e+00,4.88e+00,
728,4.64e+00,5.20e+00,
729,4.40e+00,4.88e+00,
730,4.56e+00,5.20e+00,
731,4.32e+00,4.88e+00,
732,4.48e+00,4.88e+00,
733,4.16e+00,5.20e+00,
734,4.32e+00,4.88e+00,
735,4.08e+00,5.20e+00,
736,4.24e+00,5.20e+00,
737,4.00e+00,4.88e+00,
738,4.08e+00,4.88e+00,
739,3.84e+00,5.20e+00,
740,4.00e+00,4.88e+00,
741,3.76e+00,5.20e+00,
742,3.92e+00,4.88e+00,
743,3.60e+00,5.20e+00,
744,3.76e+00,5.20e+00,
745,3.52e+00,4.88e+00,
746,3.68e+00,4.88e+00,
747,3.44e+00,5.20e+00,
748,3.52e+00,4.88e+00,
749,3.28e+00,5.20e+00,
750,3.44e+00,5.12e+00,
751,3.04e+00,4.88e+00,
752,3.20e+00,4.88e+00,
753,2.96e+00,5.20e+00,
754,3.04e+00,5.20e+00,
755,2.80e+00,4.88e+00,
756,2.96e+00,4.88e+00,
757,2.64e+00,5.20e+00,
758,2.80e+00,4.88e+00,
759,2.56e+00,5.20e+00,
760,2.64e+00,5.20e+00,
761,2.40e+00,4.88e+00,
762,2.48e+00,4.88e+00,
763,2.32e+00,5.20e+00,
764,2.32e+00,5.20e+00,
765,2.08e+00,4.88e+00,
766,2.16e+00,4.88e+00,
767,1.92e+00,5.20e+00,
768,2.00e+00,4.88e+00,
769,1.84e+00,5.20e+00,
770,1.92e+00,4.88e+00,
771,1.68e+00,5.20e+00,
772,1.76e+00,4.88e+00,
773,1.52e+00,5.20e+00,
774,1.60e+00,4.88e+00,
775,1.44e+00,5.20e+00,
776,1.44e+00,4.88e+00,
777,1.20e+00,5.20e+00,
778,1.28e+00,4.88e+00,
779,1.12e+00,5.20e+00,
780,1.20e+00,4.88e+00,
781,9.60e-01,5.20e+00,
782,1.04e+00,4.88e+00,
783,8.80e-01,5.20e+00,
784,9.60e-01,5.20e+00,
785,7.20e-01,4.88e+00,
786,8.80e-01,4.88e+00,
787,6.40e-01,5.20e+00,
788,7.20e-01,5.20e+00,
789,5.60e-01,4.88e+00,
790,6.40e-01,5.20e+00,
791,4.80e-01,4.88e+00,
792,4.00e-01,5.20e+00,
793,5.60e-01,4.88e+00,
794,4.00e-01,5.20e+00,
795,2.40e-01,4.88e+00,
796,3.20e-01,5.12e+00,
797,1.60e-01,8.00e-02,
798,2.40e-01,2.40e-01,
799,8.00e-02,8.00e-02,
800,2.40e-01,2.40e-01,
801,8.00e-02,8.00e-02,
802,0.00e+00,2.40e-01,
803,1.60e-01,1.60e-01,
804,8.00e-02,2.40e-01,
805,-8.00e-02,8.00e-02,
806,-8.00e-02,2.40e-01,
807,8.00e-02,8.00e-02,
808,0.00e+00,2.40e-01,
809,-8.00e-02,8.00e-02,
810,0.00e+00,2.40e-01,
811,-8.00e-02,8.00e-02,
812,0.00e+00,2.40e-01,
813,-1.60e-01,8.00e-02,
814,-1.60e-01,8.00e-02,
815,0.00e+00,2.40e-01,
816,0.00e+00,8.00e-02,
817,-1.60e-01,2.40e-01,
818,0.00e+00,8.00e-02,
819,-8.00e-02,2.40e-01,
820,-8.00e-02,1.60e-01,
821,8.00e-02,8.00e-02,
822,8.00e-02,8.00e-02,
823,-8.00e-02,2.40e-01,
824,8.00e-02,8.00e-02,
825,0.00e+00,2.40e-01,
826,1.60e-01,1.60e-01,
827,0.00e+00,8.00e-02,
828,8.00e-02,8.00e-02,
829,2.40e-01,2.40e-01,
830,8.00e-02,8.00e-02,
831,3.20e-01,2.40e-01,
832,3.20e-01,1.60e-01,
833,1.60e-01,8.00e-02,
834,4.00e-01,1.60e-01,
835,2.40e-01,8.00e-02,
836,4.00e-01,8.00e-02,
837,5.60e-01,2.40e-01,
838,4.80e-01,8.00e-02,
839,7.20e-01,2.40e-01,
840,5.60e-01,8.00e-02,
841,8.00e-01,2.40e-01,
842,6.40e-01,8.00e-02,
843,8.80e-01,5.04e+00,
844,8.00e-01,4.88e+00,
845,9.60e-01,4.96e+00,
846,8.80e-01,4.96e+00,
847,1.12e+00,4.88e+00,
848,1.04e+00,4.96e+00,
849,1.20e+00,4.88e+00,
850,1.12e+00,4.96e+00,
851,1.36e+00,4.88e+00,
852,1.28e+00,4.88e+00,
853,1.52e+00,5.12e+00,
854,1.44e+00,4.88e+00,
855,1.68e+00,5.12e+00,
856,1.60e+00,5.12e+00,
857,1.76e+00,4.88e+00,
858,1.68e+00,4.88e+00,
859,1.92e+00,5.20e+00,
860,1.84e+00,5.04e+00,
861,2.08e+00,4.88e+00,
862,1.92e+00,5.04e+00,
863,2.24e+00,4.88e+00,
864,2.08e+00,4.88e+00,
865,2.32e+00,5.12e+00,
866,2.32e+00,4.88e+00,
867,2.56e+00,5.12e+00,
868,2.48e+00,4.88e+00,
