project/matlab/project_exp3/9.5 kHz/NewFile1.csv

X,CH1,CH2,Start,Increment,
Sequence,Volt,Volt,4.200000e-04,5.000000e-07
0,2.88e+00,4.96e+00,
1,3.12e+00,4.88e+00,
2,3.04e+00,4.96e+00,
3,3.28e+00,4.88e+00,
4,3.28e+00,4.96e+00,
5,3.52e+00,4.88e+00,
6,3.36e+00,4.96e+00,
7,3.60e+00,4.88e+00,
8,3.52e+00,5.20e+00,
9,3.76e+00,4.88e+00,
10,3.60e+00,4.96e+00,
11,3.84e+00,4.88e+00,
12,3.76e+00,4.96e+00,
13,3.92e+00,4.88e+00,
14,3.84e+00,4.88e+00,
15,4.08e+00,5.04e+00,
16,3.92e+00,4.88e+00,
17,4.16e+00,5.04e+00,
18,4.08e+00,5.04e+00,
19,4.24e+00,4.88e+00,
20,4.24e+00,5.04e+00,
21,4.40e+00,4.88e+00,
22,4.32e+00,5.04e+00,
23,4.56e+00,4.88e+00,
24,4.40e+00,4.88e+00,
25,4.64e+00,5.04e+00,
26,4.64e+00,5.04e+00,
27,4.48e+00,4.88e+00,
28,4.56e+00,4.88e+00,
29,4.72e+00,5.12e+00,
30,4.64e+00,5.04e+00,
31,4.80e+00,4.88e+00,
32,4.80e+00,4.96e+00,
33,4.64e+00,4.88e+00,
34,4.72e+00,4.96e+00,
35,4.88e+00,4.88e+00,
36,4.72e+00,4.96e+00,
37,4.96e+00,4.88e+00,
38,4.80e+00,4.96e+00,
39,4.96e+00,4.88e+00,
40,4.96e+00,5.12e+00,
41,4.80e+00,4.88e+00,
42,4.80e+00,5.12e+00,
43,4.96e+00,4.88e+00,
44,4.96e+00,4.88e+00,
45,4.80e+00,5.12e+00,
46,4.96e+00,4.88e+00,
47,4.80e+00,5.20e+00,
48,4.96e+00,4.88e+00,
49,4.80e+00,5.12e+00,
50,4.96e+00,4.88e+00,
51,4.80e+00,5.12e+00,
52,4.80e+00,5.20e+00,
53,4.96e+00,4.88e+00,
54,4.88e+00,4.88e+00,
55,4.72e+00,5.12e+00,
56,4.88e+00,4.88e+00,
57,4.64e+00,5.12e+00,
58,4.80e+00,4.88e+00,
59,4.64e+00,5.12e+00,
60,4.72e+00,5.12e+00,
61,4.56e+00,4.88e+00,
62,4.64e+00,5.12e+00,
63,4.48e+00,4.88e+00,
64,4.64e+00,4.88e+00,
65,4.40e+00,5.12e+00,
66,4.56e+00,4.88e+00,
67,4.32e+00,5.12e+00,
68,4.48e+00,5.12e+00,
69,4.24e+00,4.88e+00,
70,4.32e+00,4.88e+00,
71,4.08e+00,5.20e+00,
72,4.16e+00,5.12e+00,
73,4.00e+00,4.88e+00,
74,4.08e+00,4.88e+00,
75,3.84e+00,5.12e+00,
76,4.00e+00,4.88e+00,
77,3.76e+00,5.12e+00,
78,3.84e+00,4.88e+00,
79,3.60e+00,5.20e+00,
80,3.76e+00,5.12e+00,
81,3.52e+00,4.88e+00,
82,3.60e+00,4.88e+00,
83,3.36e+00,5.12e+00,
84,3.52e+00,4.88e+00,
85,3.28e+00,5.12e+00,
86,3.28e+00,5.12e+00,
87,3.04e+00,4.88e+00,
88,3.20e+00,4.88e+00,
89,2.96e+00,5.12e+00,
90,3.04e+00,4.88e+00,
91,2.80e+00,5.12e+00,
92,2.88e+00,5.12e+00,
93,2.64e+00,4.88e+00,
94,2.72e+00,4.88e+00,
95,2.56e+00,5.12e+00,
96,2.64e+00,5.12e+00,
97,2.40e+00,4.88e+00,
98,2.48e+00,5.12e+00,
99,2.16e+00,4.88e+00,
100,2.24e+00,5.12e+00,
101,2.08e+00,4.88e+00,
102,2.16e+00,4.88e+00,
103,1.92e+00,5.20e+00,
104,2.00e+00,4.88e+00,
105,1.76e+00,5.12e+00,
106,1.84e+00,4.88e+00,
107,1.68e+00,5.12e+00,
108,1.68e+00,4.88e+00,
109,1.52e+00,5.20e+00,
110,1.60e+00,4.88e+00,
111,1.36e+00,5.12e+00,
112,1.36e+00,4.88e+00,
113,1.20e+00,5.12e+00,
114,1.28e+00,4.88e+00,
115,1.04e+00,5.12e+00,
116,1.12e+00,5.12e+00,
117,9.60e-01,4.88e+00,
118,1.04e+00,5.12e+00,
119,8.80e-01,4.88e+00,
120,9.60e-01,5.12e+00,
121,7.20e-01,4.88e+00,
122,8.00e-01,4.88e+00,
123,6.40e-01,5.12e+00,
124,7.20e-01,5.12e+00,
125,5.60e-01,4.88e+00,
126,4.80e-01,4.88e+00,
127,6.40e-01,5.12e+00,
128,5.60e-01,4.88e+00,
129,4.00e-01,5.12e+00,
130,4.00e-01,4.88e+00,
131,2.40e-01,5.12e+00,
132,3.20e-01,5.12e+00,
133,1.60e-01,4.80e+00,
134,2.40e-01,4.72e+00,
135,8.00e-02,1.60e-01,
136,1.60e-01,2.40e-01,
137,0.00e+00,8.00e-02,
138,0.00e+00,2.40e-01,
139,1.60e-01,8.00e-02,
140,8.00e-02,2.40e-01,
141,-8.00e-02,8.00e-02,
142,0.00e+00,2.40e-01,
143,-8.00e-02,8.00e-02,
144,0.00e+00,2.40e-01,
145,-1.60e-01,8.00e-02,
146,-1.60e-01,2.40e-01,
147,0.00e+00,8.00e-02,
148,-1.60e-01,2.40e-01,
149,0.00e+00,8.00e-02,
150,-1.60e-01,8.00e-02,
151,0.00e+00,2.40e-01,
152,-1.60e-01,2.40e-01,
153,0.00e+00,8.00e-02,
154,-1.60e-01,2.40e-01,
155,0.00e+00,8.00e-02,
156,-8.00e-02,2.40e-01,
157,0.00e+00,8.00e-02,
158,-8.00e-02,2.40e-01,
159,8.00e-02,8.00e-02,
160,-8.00e-02,2.40e-01,
161,8.00e-02,8.00e-02,
162,0.00e+00,2.40e-01,
163,1.60e-01,8.00e-02,
164,8.00e-02,2.40e-01,
165,2.40e-01,8.00e-02,
166,1.60e-01,2.40e-01,
167,2.40e-01,8.00e-02,
168,1.60e-01,8.00e-02,
169,3.20e-01,2.40e-01,
170,2.40e-01,2.40e-01,
171,4.00e-01,8.00e-02,
172,4.00e-01,2.40e-01,
173,5.60e-01,8.00e-02,
174,4.80e-01,8.00e-02,
175,7.20e-01,2.40e-01,
176,5.60e-01,2.40e-01,
177,8.00e-01,8.00e-02,
178,7.20e-01,2.40e-01,
179,8.80e-01,8.00e-02,
180,8.00e-01,1.60e-01,
181,1.04e+00,3.12e+00,
182,8.80e-01,3.12e+00,
183,1.12e+00,5.04e+00,
184,1.04e+00,5.04e+00,
185,1.20e+00,4.88e+00,
186,1.12e+00,5.04e+00,
187,1.36e+00,4.88e+00,
188,1.28e+00,4.88e+00,
189,1.52e+00,5.12e+00,
190,1.44e+00,5.12e+00,
191,1.68e+00,4.88e+00,
192,1.60e+00,5.12e+00,
193,1.84e+00,4.88e+00,
194,1.76e+00,4.88e+00,
195,1.92e+00,5.12e+00,
196,1.84e+00,5.12e+00,
197,2.08e+00,4.88e+00,
198,2.00e+00,4.88e+00,
199,2.24e+00,5.20e+00,
200,2.16e+00,5.12e+00,
201,2.32e+00,4.88e+00,
202,2.32e+00,4.88e+00,
203,2.56e+00,5.12e+00,
204,2.48e+00,5.12e+00,
205,2.72e+00,4.88e+00,
206,2.64e+00,5.12e+00,
207,2.88e+00,4.88e+00,
208,2.72e+00,4.88e+00,
209,2.96e+00,5.20e+00,
210,2.88e+00,4.88e+00,
211,3.12e+00,5.12e+00,
212,3.04e+00,4.88e+00,
213,3.28e+00,5.12e+00,
214,3.12e+00,4.88e+00,
215,3.36e+00,5.12e+00,
216,3.36e+00,4.88e+00,
217,3.60e+00,5.12e+00,
218,3.44e+00,4.88e+00,
219,3.68e+00,5.12e+00,
220,3.60e+00,5.12e+00,
221,3.84e+00,4.88e+00,
222,3.68e+00,4.88e+00,
223,3.92e+00,5.12e+00,
224,3.84e+00,5.12e+00,
225,4.00e+00,4.88e+00,
226,3.92e+00,5.12e+00,
227,4.16e+00,4.88e+00,
228,4.00e+00,4.88e+00,
229,4.24e+00,5.20e+00,
230,4.32e+00,4.88e+00,
231,4.16e+00,5.12e+00,
232,4.32e+00,4.88e+00,
233,4.48e+00,5.12e+00,
234,4.40e+00,4.88e+00,
235,4.56e+00,5.12e+00,
236,4.48e+00,4.88e+00,
237,4.64e+00,5.12e+00,
238,4.56e+00,4.88e+00,
239,4.72e+00,5.12e+00,
240,4.56e+00,4.88e+00,
241,4.80e+00,5.12e+00,
242,4.64e+00,4.88e+00,
243,4.80e+00,5.12e+00,
244,4.72e+00,4.88e+00,
245,4.88e+00,5.12e+00,
246,4.88e+00,5.12e+00,
247,4.72e+00,4.88e+00,
248,4.80e+00,5.12e+00,
249,4.96e+00,4.88e+00,
250,4.96e+00,4.88e+00,
251,4.80e+00,5.12e+00,
252,4.80e+00,5.12e+00,
253,4.96e+00,4.88e+00,
254,4.96e+00,4.88e+00,
255,4.80e+00,5.12e+00,
256,4.96e+00,5.12e+00,
257,4.80e+00,4.88e+00,
258,4.80e+00,5.12e+00,
259,4.96e+00,4.88e+00,
260,4.96e+00,4.88e+00,
261,4.80e+00,5.20e+00,
262,4.80e+00,4.88e+00,
263,4.96e+00,5.12e+00,
264,4.88e+00,5.12e+00,
265,4.72e+00,4.88e+00,
266,4.88e+00,5.20e+00,
267,4.72e+00,4.88e+00,
268,4.80e+00,4.88e+00,
269,4.64e+00,5.20e+00,
270,4.80e+00,4.88e+00,
271,4.56e+00,5.12e+00,
272,4.72e+00,4.88e+00,
273,4.48e+00,5.12e+00,
274,4.64e+00,4.88e+00,
275,4.40e+00,5.12e+00,
276,4.56e+00,4.88e+00,
277,4.32e+00,5.12e+00,
278,4.48e+00,4.88e+00,
279,4.24e+00,5.20e+00,
280,4.32e+00,5.12e+00,
281,4.08e+00,4.88e+00,
282,4.24e+00,4.88e+00,
283,4.00e+00,5.12e+00,
284,4.08e+00,5.12e+00,
285,3.92e+00,4.88e+00,
286,4.00e+00,4.88e+00,
287,3.76e+00,5.12e+00,
288,3.92e+00,5.12e+00,
289,3.68e+00,4.88e+00,
290,3.76e+00,4.88e+00,
291,3.52e+00,5.12e+00,
292,3.68e+00,5.20e+00,
293,3.44e+00,4.88e+00,
294,3.52e+00,4.88e+00,
295,3.20e+00,5.12e+00,
296,3.36e+00,4.88e+00,
297,3.12e+00,5.20e+00,
298,3.20e+00,4.88e+00,
299,2.96e+00,5.12e+00,
300,3.04e+00,4.88e+00,
301,2.80e+00,5.12e+00,
302,2.96e+00,5.12e+00,
303,2.72e+00,4.88e+00,
304,2.80e+00,5.12e+00,
305,2.56e+00,4.88e+00,
306,2.64e+00,4.88e+00,
307,2.40e+00,5.12e+00,
308,2.48e+00,5.12e+00,
309,2.32e+00,4.88e+00,
310,2.32e+00,5.12e+00,
311,2.08e+00,4.88e+00,
312,2.16e+00,5.12e+00,
313,1.92e+00,4.88e+00,
314,2.00e+00,4.88e+00,
315,1.84e+00,5.12e+00,
316,1.92e+00,4.88e+00,
317,1.68e+00,5.20e+00,
318,1.76e+00,4.88e+00,
319,1.52e+00,5.12e+00,
320,1.60e+00,5.12e+00,
321,1.44e+00,4.88e+00,
322,1.52e+00,4.88e+00,
323,1.20e+00,5.12e+00,
324,1.28e+00,4.88e+00,
325,1.12e+00,5.20e+00,
326,1.20e+00,4.88e+00,
327,9.60e-01,5.12e+00,
328,1.04e+00,4.88e+00,
329,8.80e-01,5.12e+00,
330,9.60e-01,4.88e+00,
331,8.00e-01,5.12e+00,
332,8.80e-01,5.12e+00,
333,6.40e-01,4.88e+00,
334,7.20e-01,5.12e+00,
335,5.60e-01,4.88e+00,
336,6.40e-01,4.88e+00,
337,4.80e-01,5.12e+00,
338,5.60e-01,5.12e+00,
339,4.00e-01,4.88e+00,
340,4.00e-01,4.88e+00,
341,2.40e-01,5.20e+00,
342,3.20e-01,5.12e+00,
343,1.60e-01,4.88e+00,
344,2.40e-01,5.04e+00,
345,8.00e-02,1.60e-01,
346,1.60e-01,2.40e-01,
347,0.00e+00,1.60e-01,
348,0.00e+00,2.40e-01,
349,1.60e-01,8.00e-02,
350,8.00e-02,2.40e-01,
351,-8.00e-02,8.00e-02,
352,-8.00e-02,2.40e-01,
353,8.00e-02,8.00e-02,
354,-8.00e-02,2.40e-01,
355,0.00e+00,8.00e-02,
356,0.00e+00,2.40e-01,
357,-1.60e-01,8.00e-02,
358,-1.60e-01,2.40e-01,
359,0.00e+00,8.00e-02,
360,-1.60e-01,8.00e-02,
361,0.00e+00,2.40e-01,
362,-1.60e-01,2.40e-01,
363,0.00e+00,8.00e-02,
364,-1.60e-01,2.40e-01,
365,0.00e+00,8.00e-02,
366,0.00e+00,2.40e-01,
367,-8.00e-02,8.00e-02,
368,-8.00e-02,2.40e-01,
369,8.00e-02,8.00e-02,
370,8.00e-02,2.40e-01,
371,-8.00e-02,8.00e-02,
372,0.00e+00,2.40e-01,
373,1.60e-01,8.00e-02,
374,1.60e-01,2.40e-01,
375,8.00e-02,8.00e-02,
376,8.00e-02,8.00e-02,
377,2.40e-01,2.40e-01,
378,1.60e-01,8.00e-02,
379,3.20e-01,2.40e-01,
380,2.40e-01,8.00e-02,
381,4.00e-01,2.40e-01,
382,4.00e-01,8.00e-02,
383,5.60e-01,2.40e-01,
384,4.80e-01,8.00e-02,
385,6.40e-01,2.40e-01,
386,5.60e-01,2.40e-01,
387,7.20e-01,8.00e-02,
388,6.40e-01,2.40e-01,
389,8.80e-01,8.00e-02,
390,8.00e-01,1.60e-01,
391,9.60e-01,1.76e+00,
392,8.80e-01,1.92e+00,
393,1.12e+00,5.04e+00,
394,9.60e-01,5.04e+00,
395,1.20e+00,4.88e+00,
396,1.12e+00,4.88e+00,
397,1.28e+00,5.12e+00,
398,1.28e+00,4.88e+00,
399,1.52e+00,5.12e+00,
400,1.44e+00,4.88e+00,
401,1.60e+00,5.12e+00,
402,1.52e+00,4.88e+00,
403,1.76e+00,5.12e+00,
404,1.68e+00,4.88e+00,
405,1.92e+00,5.12e+00,
406,1.84e+00,4.88e+00,
407,2.08e+00,5.12e+00,
408,1.92e+00,4.88e+00,
409,2.16e+00,5.20e+00,
410,2.08e+00,4.88e+00,
411,2.32e+00,5.12e+00,
412,2.32e+00,5.12e+00,
413,2.48e+00,4.88e+00,
414,2.40e+00,4.88e+00,
415,2.64e+00,5.12e+00,
416,2.56e+00,4.88e+00,
417,2.80e+00,5.20e+00,
418,2.72e+00,4.88e+00,
419,2.96e+00,5.12e+00,
420,2.80e+00,4.88e+00,
421,3.04e+00,5.12e+00,
422,2.96e+00,4.88e+00,
423,3.20e+00,5.12e+00,
424,3.12e+00,5.12e+00,
425,3.36e+00,4.88e+00,
426,3.28e+00,4.88e+00,
427,3.52e+00,5.12e+00,
428,3.44e+00,4.88e+00,
429,3.68e+00,5.12e+00,
430,3.60e+00,4.88e+00,
431,3.76e+00,5.12e+00,
432,3.68e+00,5.12e+00,
433,3.92e+00,4.88e+00,
434,3.84e+00,5.12e+00,
435,4.00e+00,4.88e+00,
436,3.92e+00,4.88e+00,
437,4.16e+00,5.12e+00,
438,4.00e+00,5.12e+00,
439,4.24e+00,4.88e+00,
440,4.08e+00,5.12e+00,
441,4.32e+00,4.88e+00,
442,4.24e+00,4.88e+00,
443,4.48e+00,5.12e+00,
444,4.32e+00,4.88e+00,
445,4.56e+00,5.12e+00,
446,4.48e+00,4.88e+00,
447,4.64e+00,5.12e+00,
448,4.48e+00,5.12e+00,
449,4.72e+00,4.88e+00,
450,4.56e+00,4.88e+00,
451,4.72e+00,5.20e+00,
452,4.64e+00,4.88e+00,
453,4.80e+00,5.12e+00,
454,4.72e+00,4.88e+00,
455,4.88e+00,5.12e+00,
456,4.88e+00,4.88e+00,
457,4.72e+00,5.12e+00,
458,4.80e+00,4.88e+00,
459,4.96e+00,5.12e+00,
460,4.80e+00,4.88e+00,
461,4.96e+00,5.12e+00,
462,4.96e+00,4.88e+00,
463,4.80e+00,5.12e+00,
464,4.96e+00,4.88e+00,
465,4.80e+00,5.20e+00,
466,4.96e+00,4.88e+00,
467,4.80e+00,5.12e+00,
468,4.96e+00,5.12e+00,
469,4.80e+00,4.88e+00,
470,4.96e+00,5.12e+00,
471,4.80e+00,4.88e+00,
472,4.96e+00,4.88e+00,
473,4.80e+00,5.12e+00,
474,4.88e+00,4.88e+00,
475,4.72e+00,5.12e+00,
476,4.88e+00,4.88e+00,
477,4.72e+00,5.12e+00,
478,4.80e+00,4.88e+00,
479,4.64e+00,5.12e+00,
480,4.80e+00,4.88e+00,
481,4.56e+00,5.12e+00,
482,4.72e+00,4.88e+00,
483,4.56e+00,5.12e+00,
484,4.48e+00,4.88e+00,
485,4.64e+00,5.12e+00,
486,4.56e+00,4.88e+00,
487,4.40e+00,5.12e+00,
488,4.48e+00,4.88e+00,
489,4.32e+00,5.20e+00,
490,4.32e+00,4.88e+00,
491,4.16e+00,5.12e+00,
492,4.24e+00,5.12e+00,
493,4.00e+00,4.88e+00,
494,4.16e+00,4.88e+00,
495,3.92e+00,5.12e+00,
496,4.00e+00,4.88e+00,
497,3.84e+00,5.20e+00,
498,3.92e+00,5.12e+00,
499,3.68e+00,4.88e+00,
500,3.84e+00,5.12e+00,
501,3.60e+00,4.88e+00,
502,3.68e+00,4.88e+00,
503,3.44e+00,5.12e+00,
504,3.60e+00,5.12e+00,
505,3.36e+00,4.88e+00,
506,3.44e+00,4.88e+00,
507,3.12e+00,5.12e+00,
508,3.20e+00,4.88e+00,
509,2.96e+00,5.12e+00,
510,3.12e+00,4.88e+00,
511,2.88e+00,5.12e+00,
512,2.96e+00,5.12e+00,
513,2.72e+00,4.88e+00,
514,2.80e+00,4.88e+00,
515,2.56e+00,5.12e+00,
516,2.72e+00,5.12e+00,
517,2.48e+00,4.88e+00,
518,2.56e+00,5.12e+00,
519,2.32e+00,4.88e+00,
520,2.32e+00,5.12e+00,
521,2.08e+00,4.88e+00,
522,2.16e+00,4.88e+00,
523,2.00e+00,5.12e+00,
524,2.08e+00,5.12e+00,
525,1.84e+00,4.88e+00,
526,1.92e+00,4.88e+00,
527,1.68e+00,5.12e+00,
528,1.76e+00,5.12e+00,
529,1.60e+00,4.88e+00,
530,1.68e+00,4.88e+00,
531,1.44e+00,5.12e+00,
532,1.52e+00,5.12e+00,
533,1.36e+00,4.88e+00,
534,1.36e+00,4.88e+00,
535,1.12e+00,5.12e+00,
536,1.20e+00,5.12e+00,
537,1.04e+00,4.88e+00,
538,1.12e+00,4.88e+00,
539,8.80e-01,5.12e+00,
540,9.60e-01,5.12e+00,
541,8.00e-01,4.88e+00,
542,8.80e-01,4.88e+00,
543,7.20e-01,5.12e+00,
544,7.20e-01,5.12e+00,
545,5.60e-01,4.88e+00,
546,7.20e-01,4.88e+00,
547,4.80e-01,5.12e+00,
548,5.60e-01,4.88e+00,
549,4.00e-01,5.12e+00,
550,4.00e-01,5.12e+00,
551,2.40e-01,4.88e+00,
552,3.20e-01,4.88e+00,
553,1.60e-01,5.20e+00,
554,2.40e-01,5.12e+00,
555,1.60e-01,4.80e-01,
556,8.00e-02,4.80e-01,
557,2.40e-01,8.00e-02,
558,1.60e-01,2.40e-01,
559,0.00e+00,8.00e-02,
560,8.00e-02,2.40e-01,
561,-8.00e-02,8.00e-02,
562,8.00e-02,2.40e-01,
563,-8.00e-02,8.00e-02,
564,0.00e+00,2.40e-01,
565,-8.00e-02,8.00e-02,
566,0.00e+00,2.40e-01,
567,-1.60e-01,8.00e-02,
568,-1.60e-01,2.40e-01,
569,0.00e+00,8.00e-02,
570,-1.60e-01,2.40e-01,
571,0.00e+00,8.00e-02,
572,-1.60e-01,2.40e-01,
573,0.00e+00,8.00e-02,
574,-1.60e-01,2.40e-01,
575,0.00e+00,8.00e-02,
576,0.00e+00,2.40e-01,
577,-8.00e-02,8.00e-02,
578,-8.00e-02,2.40e-01,
579,8.00e-02,8.00e-02,
580,-8.00e-02,2.40e-01,
581,8.00e-02,8.00e-02,
582,0.00e+00,2.40e-01,
583,1.60e-01,8.00e-02,
584,0.00e+00,8.00e-02,
585,1.60e-01,2.40e-01,
586,8.00e-02,8.00e-02,
587,2.40e-01,2.40e-01,
588,1.60e-01,2.40e-01,
589,3.20e-01,8.00e-02,
590,2.40e-01,8.00e-02,
591,4.00e-01,2.40e-01,
592,4.00e-01,2.40e-01,
593,5.60e-01,8.00e-02,
594,4.80e-01,8.00e-02,
595,6.40e-01,2.40e-01,
596,5.60e-01,8.00e-02,
597,7.20e-01,2.40e-01,
598,6.40e-01,8.00e-02,
599,8.00e-01,2.40e-01,
600,7.20e-01,8.00e-02,
601,9.60e-01,4.80e-01,
602,8.80e-01,4.80e-01,
603,1.04e+00,4.72e+00,
604,9.60e-01,4.56e+00,
605,1.20e+00,5.04e+00,
606,1.04e+00,4.88e+00,
607,1.28e+00,5.12e+00,
608,1.20e+00,4.88e+00,
609,1.52e+00,5.12e+00,
610,1.44e+00,5.12e+00,
611,1.60e+00,4.88e+00,
612,1.52e+00,4.88e+00,
613,1.76e+00,5.20e+00,
614,1.68e+00,4.88e+00,
615,1.92e+00,5.12e+00,
616,1.76e+00,4.88e+00,
617,2.00e+00,5.12e+00,
618,1.92e+00,4.88e+00,
619,2.16e+00,5.12e+00,
620,2.08e+00,5.12e+00,
621,2.32e+00,4.88e+00,
622,2.16e+00,5.12e+00,
623,2.48e+00,4.88e+00,
624,2.40e+00,5.20e+00,
625,2.64e+00,4.88e+00,
626,2.56e+00,4.88e+00,
627,2.72e+00,5.20e+00,
628,2.64e+00,5.12e+00,
629,2.88e+00,4.88e+00,
630,2.80e+00,4.88e+00,
631,3.04e+00,5.12e+00,
632,2.96e+00,5.12e+00,
633,3.20e+00,4.88e+00,
634,3.04e+00,4.88e+00,
635,3.28e+00,5.12e+00,
636,3.28e+00,4.88e+00,
637,3.52e+00,5.12e+00,
638,3.44e+00,4.88e+00,
639,3.60e+00,5.12e+00,
640,3.52e+00,5.12e+00,
641,3.76e+00,4.88e+00,
642,3.68e+00,4.88e+00,
643,3.84e+00,5.12e+00,
644,3.76e+00,5.12e+00,
645,4.00e+00,4.88e+00,
646,3.84e+00,4.88e+00,
647,4.08e+00,5.20e+00,
648,4.00e+00,5.12e+00,
649,4.24e+00,4.88e+00,
650,4.08e+00,4.88e+00,
651,4.32e+00,5.12e+00,
652,4.24e+00,4.88e+00,
653,4.40e+00,5.12e+00,
654,4.32e+00,4.88e+00,
655,4.56e+00,5.12e+00,
656,4.40e+00,5.12e+00,
657,4.64e+00,4.88e+00,
658,4.64e+00,4.88e+00,
659,4.48e+00,5.12e+00,
660,4.56e+00,5.12e+00,
661,4.72e+00,4.88e+00,
662,4.64e+00,4.88e+00,
663,4.80e+00,5.12e+00,
664,4.64e+00,5.12e+00,
665,4.88e+00,4.88e+00,
666,4.88e+00,4.88e+00,
667,4.72e+00,5.12e+00,
668,4.72e+00,4.88e+00,
669,4.96e+00,5.12e+00,
670,4.96e+00,4.88e+00,
671,4.80e+00,5.12e+00,
672,4.96e+00,5.12e+00,
673,4.80e+00,4.88e+00,
674,4.96e+00,4.88e+00,
675,4.80e+00,5.12e+00,
676,4.96e+00,4.88e+00,
677,4.80e+00,5.12e+00,
678,4.96e+00,4.88e+00,
679,4.80e+00,5.12e+00,
680,4.96e+00,5.12e+00,
681,4.80e+00,4.88e+00,
682,4.96e+00,5.12e+00,
683,4.80e+00,4.88e+00,
684,4.96e+00,4.88e+00,
685,4.72e+00,5.20e+00,
686,4.88e+00,5.12e+00,
687,4.72e+00,4.88e+00,
688,4.80e+00,4.88e+00,
689,4.64e+00,5.12e+00,
690,4.80e+00,4.88e+00,
691,4.64e+00,5.20e+00,
692,4.72e+00,4.88e+00,
693,4.56e+00,5.12e+00,
694,4.64e+00,5.12e+00,
695,4.48e+00,4.88e+00,
696,4.56e+00,5.12e+00,
697,4.40e+00,4.88e+00,
698,4.56e+00,4.88e+00,
699,4.32e+00,5.12e+00,
700,4.48e+00,5.12e+00,
701,4.24e+00,4.88e+00,
702,4.24e+00,5.12e+00,
703,4.08e+00,4.88e+00,
704,4.16e+00,4.88e+00,
705,3.92e+00,5.12e+00,
706,4.08e+00,5.12e+00,
707,3.84e+00,4.88e+00,
708,3.92e+00,4.88e+00,
709,3.76e+00,5.12e+00,
710,3.84e+00,5.20e+00,
711,3.60e+00,4.88e+00,
712,3.76e+00,4.88e+00,
713,3.52e+00,5.12e+00,
714,3.60e+00,4.88e+00,
715,3.36e+00,5.20e+00,
716,3.44e+00,4.88e+00,
717,3.20e+00,5.12e+00,
718,3.28e+00,5.12e+00,
719,3.04e+00,4.88e+00,
720,3.12e+00,4.88e+00,
721,2.88e+00,5.12e+00,
722,3.04e+00,4.88e+00,
723,2.80e+00,5.12e+00,
724,2.88e+00,5.12e+00,
725,2.64e+00,4.88e+00,
726,2.72e+00,4.88e+00,
727,2.48e+00,5.12e+00,
728,2.56e+00,5.12e+00,
729,2.40e+00,4.88e+00,
730,2.40e+00,5.12e+00,
731,2.16e+00,4.88e+00,
732,2.24e+00,5.12e+00,
733,2.00e+00,4.88e+00,
734,2.08e+00,4.88e+00,
735,1.92e+00,5.20e+00,
736,2.00e+00,4.88e+00,
737,1.76e+00,5.20e+00,
738,1.84e+00,4.88e+00,
739,1.60e+00,5.12e+00,
740,1.68e+00,5.12e+00,
741,1.52e+00,4.88e+00,
742,1.60e+00,4.88e+00,
743,1.36e+00,5.20e+00,
744,1.36e+00,4.88e+00,
745,1.20e+00,5.12e+00,
746,1.28e+00,5.12e+00,
747,1.04e+00,4.88e+00,
748,1.12e+00,5.12e+00,
749,9.60e-01,4.88e+00,
750,1.04e+00,5.12e+00,
751,8.00e-01,4.88e+00,
752,8.80e-01,4.88e+00,
753,7.20e-01,5.12e+00,
754,8.00e-01,4.88e+00,
755,6.40e-01,5.12e+00,
756,7.20e-01,4.88e+00,
757,5.60e-01,5.20e+00,
758,6.40e-01,5.12e+00,
759,4.00e-01,4.88e+00,
760,4.80e-01,5.12e+00,
761,2.40e-01,4.88e+00,
762,4.00e-01,4.88e+00,
763,2.40e-01,5.12e+00,
764,3.20e-01,5.12e+00,
765,1.60e-01,3.68e+00,
766,2.40e-01,3.52e+00,
767,8.00e-02,8.00e-02,
768,1.60e-01,2.40e-01,
769,0.00e+00,8.00e-02,
770,8.00e-02,2.40e-01,
771,0.00e+00,8.00e-02,
772,8.00e-02,2.40e-01,
773,-8.00e-02,8.00e-02,
774,0.00e+00,8.00e-02,
775,-8.00e-02,2.40e-01,
776,0.00e+00,2.40e-01,
777,-1.60e-01,8.00e-02,
778,0.00e+00,2.40e-01,
779,-1.60e-01,8.00e-02,
780,-1.60e-01,2.40e-01,
781,0.00e+00,8.00e-02,
782,0.00e+00,2.40e-01,
783,-1.60e-01,8.00e-02,
784,-1.60e-01,8.00e-02,
785,0.00e+00,2.40e-01,
786,0.00e+00,2.40e-01,
787,-8.00e-02,8.00e-02,
788,0.00e+00,2.40e-01,
789,-8.00e-02,8.00e-02,
790,-8.00e-02,2.40e-01,
791,8.00e-02,8.00e-02,
792,8.00e-02,2.40e-01,
793,0.00e+00,8.00e-02,
794,0.00e+00,2.40e-01,
795,1.60e-01,8.00e-02,
796,8.00e-02,8.00e-02,
797,2.40e-01,2.40e-01,
798,1.60e-01,2.40e-01,
799,3.20e-01,8.00e-02,
800,1.60e-01,8.00e-02,
801,4.00e-01,2.40e-01,
802,2.40e-01,8.00e-02,
803,4.80e-01,2.40e-01,
804,4.00e-01,2.40e-01,
805,6.40e-01,8.00e-02,
806,4.80e-01,8.00e-02,
807,7.20e-01,2.40e-01,
808,6.40e-01,2.40e-01,
809,8.00e-01,8.00e-02,
810,7.20e-01,2.40e-01,
811,8.80e-01,1.60e-01,
812,8.00e-01,2.40e-01,
813,1.04e+00,3.92e+00,
814,9.60e-01,4.00e+00,
815,1.12e+00,5.04e+00,
816,1.04e+00,5.04e+00,
817,1.28e+00,4.88e+00,
818,1.20e+00,4.88e+00,
819,1.36e+00,5.12e+00,
820,1.28e+00,5.12e+00,
821,1.60e+00,4.88e+00,
822,1.52e+00,4.88e+00,
823,1.68e+00,5.12e+00,
824,1.60e+00,5.12e+00,
825,1.84e+00,4.88e+00,
826,1.76e+00,4.88e+00,
827,2.00e+00,5.12e+00,
828,1.92e+00,4.88e+00,
829,2.08e+00,5.12e+00,
830,2.00e+00,4.88e+00,
831,2.24e+00,5.12e+00,
832,2.16e+00,5.12e+00,
833,2.40e+00,4.88e+00,
834,2.40e+00,4.88e+00,
835,2.64e+00,5.12e+00,
836,2.48e+00,5.20e+00,
837,2.72e+00,4.88e+00,
838,2.64e+00,4.88e+00,
839,2.88e+00,5.12e+00,
840,2.80e+00,4.88e+00,
841,3.04e+00,5.20e+00,
842,2.88e+00,4.88e+00,
843,3.12e+00,5.12e+00,
844,3.04e+00,4.88e+00,
845,3.28e+00,5.12e+00,
846,3.28e+00,4.88e+00,
847,3.44e+00,5.12e+00,
848,3.36e+00,5.12e+00,
849,3.60e+00,4.88e+00,
850,3.52e+00,4.88e+00,
851,3.76e+00,5.20e+00,
852,3.60e+00,4.88e+00,
853,3.84e+00,5.12e+00,
854,3.76e+00,5.12e+00,
855,3.92e+00,4.88e+00,
856,3.84e+00,5.20e+00,
857,4.08e+00,4.88e+00,
858,3.92e+00,5.12e+00,
859,4.16e+00,4.88e+00,
860,4.08e+00,4.88e+00,
861,4.24e+00,5.12e+00,
862,4.24e+00,4.88e+00,
863,4.40e+00,5.12e+00,
864,4.32e+00,4.88e+00,
865,4.48e+00,5.12e+00,
866,4.40e+00,4.88e+00,
867,4.64e+00,5.12e+00,
868,4.48e+00,4.88e+00,
