project/matlab/project_exp2/sine250kHz/NewFile1.csv

X,CH1,CH2,Start,Increment,
Sequence,Volt,Volt,-6.000000e-06,1.000000e-08
0,3.12e+00,4.96e+00,
1,3.12e+00,5.04e+00,
2,3.04e+00,4.88e+00,
3,2.96e+00,5.04e+00,
4,3.04e+00,4.88e+00,
5,2.88e+00,5.04e+00,
6,2.96e+00,5.04e+00,
7,2.80e+00,4.88e+00,
8,2.88e+00,4.96e+00,
9,2.72e+00,5.04e+00,
10,2.72e+00,4.88e+00,
11,2.64e+00,5.04e+00,
12,2.72e+00,5.04e+00,
13,2.56e+00,4.88e+00,
14,2.64e+00,4.96e+00,
15,2.48e+00,5.04e+00,
16,2.48e+00,5.04e+00,
17,2.56e+00,4.88e+00,
18,2.40e+00,4.88e+00,
19,2.40e+00,5.04e+00,
20,2.40e+00,4.96e+00,
21,2.32e+00,5.04e+00,
22,2.32e+00,4.96e+00,
23,2.16e+00,5.04e+00,
24,2.24e+00,4.96e+00,
25,2.08e+00,5.04e+00,
26,2.16e+00,5.04e+00,
27,2.00e+00,4.88e+00,
28,2.08e+00,5.04e+00,
29,1.92e+00,4.88e+00,
30,2.00e+00,5.04e+00,
31,1.84e+00,4.88e+00,
32,1.92e+00,5.04e+00,
33,1.84e+00,4.88e+00,
34,1.76e+00,5.04e+00,
35,1.84e+00,4.88e+00,
36,1.84e+00,4.96e+00,
37,1.68e+00,5.04e+00,
38,1.76e+00,5.04e+00,
39,1.60e+00,4.88e+00,
40,1.60e+00,4.96e+00,
41,1.52e+00,5.04e+00,
42,1.52e+00,4.88e+00,
43,1.44e+00,5.04e+00,
44,1.44e+00,4.96e+00,
45,1.44e+00,5.04e+00,
46,1.44e+00,4.96e+00,
47,1.36e+00,5.04e+00,
48,1.36e+00,5.04e+00,
49,1.28e+00,4.88e+00,
50,1.28e+00,5.04e+00,
51,1.20e+00,4.88e+00,
52,1.20e+00,4.88e+00,
53,1.12e+00,5.04e+00,
54,1.12e+00,4.96e+00,
55,1.04e+00,5.04e+00,
56,1.12e+00,4.96e+00,
57,9.60e-01,5.04e+00,
58,1.04e+00,4.96e+00,
59,8.80e-01,5.04e+00,
60,9.60e-01,5.04e+00,
61,8.80e-01,4.88e+00,
62,9.60e-01,5.04e+00,
63,8.00e-01,4.88e+00,
64,8.80e-01,4.96e+00,
65,7.20e-01,5.04e+00,
66,7.20e-01,5.04e+00,
67,8.00e-01,4.88e+00,
68,8.00e-01,4.96e+00,
69,6.40e-01,5.04e+00,
70,7.20e-01,4.96e+00,
71,6.40e-01,5.04e+00,
72,5.60e-01,4.96e+00,
73,6.40e-01,5.04e+00,
74,6.40e-01,4.88e+00,
75,4.80e-01,5.04e+00,
76,4.80e-01,4.96e+00,
77,4.80e-01,5.04e+00,
78,5.60e-01,4.96e+00,
79,4.00e-01,5.04e+00,
80,4.00e-01,4.96e+00,
81,4.00e-01,5.04e+00,
82,4.00e-01,4.96e+00,
83,3.20e-01,5.04e+00,
84,3.20e-01,5.04e+00,
85,3.20e-01,4.88e+00,
86,3.20e-01,4.96e+00,
87,3.20e-01,5.04e+00,
88,2.40e-01,5.04e+00,
89,1.60e-01,4.88e+00,
90,1.60e-01,5.04e+00,
91,2.40e-01,4.88e+00,
92,2.40e-01,5.04e+00,
93,1.60e-01,4.88e+00,
94,1.60e-01,4.96e+00,
95,8.00e-02,5.04e+00,
96,1.60e-01,5.04e+00,
97,8.00e-02,4.88e+00,
98,8.00e-02,4.96e+00,
99,1.60e-01,5.04e+00,
100,1.60e-01,4.96e+00,
101,0.00e+00,5.04e+00,
102,8.00e-02,4.88e+00,
103,0.00e+00,5.04e+00,
104,8.00e-02,5.04e+00,
105,0.00e+00,4.88e+00,
106,8.00e-02,4.96e+00,
107,0.00e+00,5.04e+00,
108,8.00e-02,4.96e+00,
109,0.00e+00,5.04e+00,
110,8.00e-02,5.04e+00,
111,0.00e+00,4.88e+00,
112,-8.00e-02,4.96e+00,
113,8.00e-02,5.04e+00,
114,8.00e-02,4.96e+00,
115,-8.00e-02,5.04e+00,
116,-8.00e-02,4.96e+00,
117,8.00e-02,5.04e+00,
118,-8.00e-02,4.96e+00,
119,0.00e+00,5.04e+00,
120,-8.00e-02,5.04e+00,
121,8.00e-02,4.88e+00,
122,8.00e-02,5.04e+00,
123,-8.00e-02,4.88e+00,
124,-8.00e-02,4.96e+00,
125,8.00e-02,5.04e+00,
126,8.00e-02,4.88e+00,
127,0.00e+00,5.04e+00,
128,8.00e-02,4.96e+00,
129,0.00e+00,5.04e+00,
130,0.00e+00,4.96e+00,
131,8.00e-02,5.04e+00,
132,8.00e-02,4.96e+00,
133,0.00e+00,5.04e+00,
134,0.00e+00,4.96e+00,
135,1.60e-01,5.04e+00,
136,8.00e-02,4.96e+00,
137,1.60e-01,5.04e+00,
138,1.60e-01,4.88e+00,
139,8.00e-02,5.04e+00,
140,1.60e-01,5.04e+00,
141,8.00e-02,4.88e+00,
142,8.00e-02,4.96e+00,
143,2.40e-01,5.04e+00,
144,2.40e-01,4.96e+00,
145,2.40e-01,5.04e+00,
146,2.40e-01,4.96e+00,
147,1.60e-01,5.04e+00,
148,2.40e-01,5.04e+00,
149,3.20e-01,4.96e+00,
150,3.20e-01,4.96e+00,
151,2.40e-01,5.04e+00,
152,3.20e-01,5.04e+00,
153,4.00e-01,4.96e+00,
154,4.00e-01,4.96e+00,
155,4.00e-01,5.04e+00,
156,4.00e-01,5.04e+00,
157,4.80e-01,4.88e+00,
158,4.80e-01,4.96e+00,
159,5.60e-01,4.88e+00,
160,4.80e-01,4.96e+00,
161,6.40e-01,4.88e+00,
162,6.40e-01,4.88e+00,
163,5.60e-01,4.96e+00,
164,5.60e-01,4.96e+00,
165,7.20e-01,4.80e+00,
166,6.40e-01,4.88e+00,
167,7.20e-01,4.96e+00,
168,7.20e-01,4.80e+00,
169,8.00e-01,4.96e+00,
170,7.20e-01,4.96e+00,
171,8.80e-01,4.80e+00,
172,8.00e-01,4.88e+00,
173,8.80e-01,4.96e+00,
174,8.80e-01,4.88e+00,
175,9.60e-01,4.96e+00,
176,9.60e-01,4.96e+00,
177,1.04e+00,4.96e+00,
178,9.60e-01,4.88e+00,
179,1.12e+00,5.04e+00,
180,1.12e+00,4.88e+00,
181,1.04e+00,5.04e+00,
182,1.04e+00,4.96e+00,
183,1.20e+00,5.04e+00,
184,1.12e+00,4.96e+00,
185,1.28e+00,5.04e+00,
186,1.20e+00,4.96e+00,
187,1.36e+00,5.04e+00,
188,1.36e+00,4.96e+00,
189,1.36e+00,5.04e+00,
190,1.36e+00,5.04e+00,
191,1.44e+00,4.88e+00,
192,1.44e+00,4.88e+00,
193,1.52e+00,5.04e+00,
194,1.52e+00,5.04e+00,
195,1.60e+00,4.88e+00,
196,1.60e+00,4.88e+00,
197,1.76e+00,5.04e+00,
198,1.68e+00,5.04e+00,
199,1.76e+00,4.88e+00,
200,1.68e+00,5.04e+00,
201,1.84e+00,4.88e+00,
202,1.76e+00,4.96e+00,
203,1.92e+00,5.04e+00,
204,1.84e+00,4.96e+00,
205,2.00e+00,5.04e+00,
206,1.92e+00,5.04e+00,
207,2.08e+00,4.88e+00,
208,2.00e+00,5.04e+00,
209,2.16e+00,4.88e+00,
210,2.08e+00,5.04e+00,
211,2.24e+00,4.88e+00,
212,2.24e+00,4.96e+00,
213,2.32e+00,5.04e+00,
214,2.32e+00,4.96e+00,
215,2.24e+00,5.04e+00,
216,2.32e+00,4.96e+00,
217,2.40e+00,5.04e+00,
218,2.40e+00,4.96e+00,
219,2.56e+00,5.04e+00,
220,2.48e+00,4.96e+00,
221,2.64e+00,5.04e+00,
222,2.56e+00,4.88e+00,
223,2.64e+00,5.04e+00,
224,2.64e+00,4.88e+00,
225,2.80e+00,5.04e+00,
226,2.72e+00,5.04e+00,
227,2.88e+00,4.88e+00,
228,2.80e+00,4.96e+00,
229,2.88e+00,5.04e+00,
230,2.80e+00,5.04e+00,
231,2.96e+00,4.88e+00,
232,2.96e+00,4.96e+00,
233,3.04e+00,5.04e+00,
234,2.96e+00,4.96e+00,
235,3.12e+00,5.04e+00,
236,3.04e+00,5.04e+00,
237,3.20e+00,4.88e+00,
238,3.12e+00,4.88e+00,
239,3.28e+00,5.04e+00,
240,3.28e+00,4.96e+00,
241,3.28e+00,5.04e+00,
242,3.28e+00,5.04e+00,
243,3.44e+00,4.88e+00,
244,3.36e+00,4.88e+00,
245,3.44e+00,5.04e+00,
246,3.44e+00,5.04e+00,
247,3.52e+00,4.88e+00,
248,3.60e+00,4.96e+00,
249,3.52e+00,5.04e+00,
250,3.68e+00,4.96e+00,
251,3.60e+00,5.04e+00,
252,3.76e+00,5.04e+00,
253,3.60e+00,4.88e+00,
254,3.68e+00,4.88e+00,
255,3.84e+00,5.04e+00,
256,3.76e+00,5.04e+00,
257,3.92e+00,4.88e+00,
258,3.84e+00,4.96e+00,
259,3.92e+00,5.04e+00,
260,3.84e+00,4.96e+00,
261,4.00e+00,5.04e+00,
262,4.00e+00,4.88e+00,
263,4.08e+00,5.04e+00,
264,4.00e+00,4.96e+00,
265,4.08e+00,5.04e+00,
266,4.08e+00,4.96e+00,
267,4.16e+00,5.04e+00,
268,4.16e+00,5.04e+00,
269,4.24e+00,4.88e+00,
270,4.24e+00,5.04e+00,
271,4.24e+00,4.88e+00,
272,4.24e+00,4.88e+00,
273,4.32e+00,5.04e+00,
274,4.24e+00,4.96e+00,
275,4.40e+00,5.04e+00,
276,4.32e+00,4.96e+00,
277,4.40e+00,5.04e+00,
278,4.40e+00,5.04e+00,
279,4.48e+00,4.88e+00,
280,4.40e+00,4.96e+00,
281,4.56e+00,5.04e+00,
282,4.48e+00,5.04e+00,
283,4.56e+00,4.88e+00,
284,4.64e+00,4.96e+00,
285,4.48e+00,5.04e+00,
286,4.56e+00,5.04e+00,
287,4.56e+00,4.88e+00,
288,4.56e+00,4.96e+00,
289,4.72e+00,5.04e+00,
290,4.56e+00,4.96e+00,
291,4.72e+00,5.04e+00,
292,4.72e+00,4.96e+00,
293,4.64e+00,5.04e+00,
294,4.64e+00,4.88e+00,
295,4.72e+00,5.04e+00,
296,4.80e+00,4.96e+00,
297,4.64e+00,5.04e+00,
298,4.80e+00,4.96e+00,
299,4.72e+00,5.04e+00,
300,4.80e+00,5.04e+00,
301,4.72e+00,4.88e+00,
302,4.72e+00,5.04e+00,
303,4.88e+00,4.88e+00,
304,4.88e+00,4.96e+00,
305,4.72e+00,5.04e+00,
306,4.72e+00,5.04e+00,
307,4.88e+00,4.88e+00,
308,4.88e+00,5.04e+00,
309,4.80e+00,4.88e+00,
310,4.80e+00,4.96e+00,
311,4.88e+00,5.04e+00,
312,4.80e+00,4.96e+00,
313,4.96e+00,5.04e+00,
314,4.80e+00,5.04e+00,
315,4.88e+00,4.88e+00,
316,4.88e+00,5.04e+00,
317,4.80e+00,4.88e+00,
318,4.88e+00,4.96e+00,
319,4.80e+00,5.04e+00,
320,4.88e+00,5.04e+00,
321,4.88e+00,4.88e+00,
322,4.88e+00,4.88e+00,
323,4.80e+00,5.04e+00,
324,4.88e+00,4.96e+00,
325,4.80e+00,5.04e+00,
326,4.88e+00,5.04e+00,
327,4.80e+00,4.88e+00,
328,4.88e+00,4.96e+00,
329,4.72e+00,5.04e+00,
330,4.88e+00,5.04e+00,
331,4.72e+00,4.88e+00,
332,4.88e+00,4.96e+00,
333,4.72e+00,5.04e+00,
334,4.80e+00,4.96e+00,
335,4.72e+00,5.04e+00,
336,4.80e+00,4.96e+00,
337,4.72e+00,5.04e+00,
338,4.72e+00,4.96e+00,
339,4.80e+00,5.04e+00,
340,4.80e+00,4.96e+00,
341,4.64e+00,5.04e+00,
342,4.64e+00,4.96e+00,
343,4.72e+00,5.04e+00,
344,4.64e+00,5.04e+00,
345,4.72e+00,4.88e+00,
346,4.72e+00,5.04e+00,
347,4.56e+00,4.96e+00,
348,4.56e+00,4.96e+00,
349,4.64e+00,5.04e+00,
350,4.64e+00,4.96e+00,
351,4.48e+00,5.04e+00,
352,4.48e+00,4.96e+00,
353,4.56e+00,5.04e+00,
354,4.56e+00,5.04e+00,
355,4.40e+00,4.88e+00,
356,4.48e+00,4.96e+00,
357,4.40e+00,5.04e+00,
358,4.40e+00,4.96e+00,
359,4.48e+00,5.04e+00,
360,4.48e+00,4.96e+00,
361,4.32e+00,5.04e+00,
362,4.32e+00,5.04e+00,
363,4.24e+00,4.88e+00,
364,4.24e+00,5.04e+00,
365,4.24e+00,4.96e+00,
366,4.24e+00,4.96e+00,
367,4.16e+00,5.04e+00,
368,4.16e+00,5.04e+00,
369,4.16e+00,4.88e+00,
370,4.08e+00,4.96e+00,
371,4.00e+00,5.04e+00,
372,4.08e+00,4.96e+00,
373,4.00e+00,5.04e+00,
374,4.00e+00,4.96e+00,
375,3.92e+00,5.04e+00,
376,4.00e+00,4.96e+00,
377,3.84e+00,5.04e+00,
378,3.92e+00,5.04e+00,
379,3.76e+00,4.88e+00,
380,3.84e+00,4.96e+00,
381,3.68e+00,5.04e+00,
382,3.76e+00,5.04e+00,
383,3.68e+00,4.88e+00,
384,3.76e+00,5.04e+00,
385,3.60e+00,4.88e+00,
386,3.60e+00,4.96e+00,
387,3.52e+00,5.04e+00,
388,3.52e+00,4.96e+00,
389,3.44e+00,5.04e+00,
390,3.44e+00,5.04e+00,
391,3.36e+00,4.96e+00,
392,3.44e+00,4.96e+00,
393,3.36e+00,5.04e+00,
394,3.28e+00,4.96e+00,
395,3.36e+00,5.04e+00,
396,3.28e+00,4.88e+00,
397,3.20e+00,5.04e+00,
398,3.20e+00,4.88e+00,
399,3.12e+00,5.04e+00,
400,3.12e+00,5.04e+00,
401,3.12e+00,4.88e+00,
402,2.96e+00,4.96e+00,
403,3.04e+00,5.04e+00,
404,2.96e+00,4.88e+00,
405,2.88e+00,5.04e+00,
406,2.96e+00,5.04e+00,
407,2.80e+00,4.88e+00,
408,2.88e+00,4.96e+00,
409,2.72e+00,5.04e+00,
410,2.80e+00,5.04e+00,
411,2.64e+00,4.88e+00,
412,2.64e+00,4.88e+00,
413,2.56e+00,5.04e+00,
414,2.64e+00,4.96e+00,
415,2.48e+00,5.04e+00,
416,2.64e+00,4.88e+00,
417,2.48e+00,5.04e+00,
418,2.40e+00,5.04e+00,
419,2.40e+00,4.88e+00,
420,2.40e+00,5.04e+00,
421,2.32e+00,4.96e+00,
422,2.32e+00,5.04e+00,
423,2.16e+00,4.88e+00,
424,2.24e+00,4.96e+00,
425,2.16e+00,5.04e+00,
426,2.16e+00,5.04e+00,
427,2.08e+00,4.88e+00,
428,2.08e+00,5.04e+00,
429,1.92e+00,4.88e+00,
430,1.92e+00,4.96e+00,
431,2.00e+00,5.04e+00,
432,1.92e+00,4.96e+00,
433,1.84e+00,5.04e+00,
434,1.76e+00,4.96e+00,
435,1.84e+00,5.04e+00,
436,1.76e+00,4.88e+00,
437,1.68e+00,5.04e+00,
438,1.76e+00,5.04e+00,
439,1.60e+00,4.88e+00,
440,1.68e+00,4.96e+00,
441,1.52e+00,5.04e+00,
442,1.52e+00,4.88e+00,
443,1.44e+00,5.04e+00,
444,1.44e+00,4.88e+00,
445,1.44e+00,5.04e+00,
446,1.44e+00,5.04e+00,
447,1.36e+00,4.88e+00,
448,1.36e+00,4.96e+00,
449,1.20e+00,5.04e+00,
450,1.28e+00,5.04e+00,
451,1.12e+00,4.88e+00,
452,1.20e+00,4.96e+00,
453,1.20e+00,5.04e+00,
454,1.12e+00,4.96e+00,
455,1.04e+00,5.04e+00,
456,1.04e+00,5.04e+00,
457,1.12e+00,4.88e+00,
458,1.04e+00,4.96e+00,
459,9.60e-01,5.04e+00,
460,8.80e-01,5.04e+00,
461,9.60e-01,4.88e+00,
462,9.60e-01,5.04e+00,
463,8.00e-01,4.88e+00,
464,8.80e-01,5.04e+00,
465,7.20e-01,4.96e+00,
466,7.20e-01,4.96e+00,
467,8.00e-01,5.04e+00,
468,7.20e-01,5.04e+00,
469,6.40e-01,4.88e+00,
470,6.40e-01,4.96e+00,
471,7.20e-01,5.04e+00,
472,6.40e-01,5.04e+00,
473,5.60e-01,4.88e+00,
474,4.80e-01,4.96e+00,
475,6.40e-01,5.04e+00,
476,4.80e-01,5.04e+00,
477,4.80e-01,4.88e+00,
478,4.80e-01,4.96e+00,
479,4.00e-01,5.04e+00,
480,4.00e-01,4.96e+00,
481,4.00e-01,5.04e+00,
482,4.00e-01,5.04e+00,
483,3.20e-01,4.88e+00,
484,2.40e-01,4.96e+00,
485,3.20e-01,5.04e+00,
486,3.20e-01,4.96e+00,
487,3.20e-01,5.04e+00,
488,2.40e-01,4.96e+00,
489,1.60e-01,5.04e+00,
490,2.40e-01,4.96e+00,
491,1.60e-01,5.04e+00,
492,2.40e-01,4.96e+00,
493,1.60e-01,5.04e+00,
494,2.40e-01,4.88e+00,
495,8.00e-02,5.04e+00,
496,1.60e-01,4.96e+00,
497,8.00e-02,5.04e+00,
498,1.60e-01,5.04e+00,
499,8.00e-02,4.88e+00,
500,1.60e-01,4.96e+00,
501,0.00e+00,5.04e+00,
502,8.00e-02,5.04e+00,
503,0.00e+00,4.88e+00,
504,8.00e-02,4.96e+00,
505,0.00e+00,5.04e+00,
506,0.00e+00,4.88e+00,
507,8.00e-02,5.04e+00,
508,0.00e+00,4.96e+00,
509,8.00e-02,5.04e+00,
510,0.00e+00,5.04e+00,
511,8.00e-02,4.88e+00,
512,8.00e-02,4.96e+00,
513,-8.00e-02,5.04e+00,
514,8.00e-02,5.04e+00,
515,-8.00e-02,4.88e+00,
516,0.00e+00,4.96e+00,
517,-8.00e-02,5.04e+00,
518,8.00e-02,5.04e+00,
519,-8.00e-02,4.88e+00,
520,-8.00e-02,4.88e+00,
521,8.00e-02,5.04e+00,
522,-8.00e-02,4.96e+00,
523,8.00e-02,5.04e+00,
524,8.00e-02,4.96e+00,
525,-8.00e-02,5.04e+00,
526,8.00e-02,4.96e+00,
527,0.00e+00,5.04e+00,
528,8.00e-02,4.96e+00,
529,0.00e+00,5.04e+00,
530,8.00e-02,5.04e+00,
531,0.00e+00,4.88e+00,
532,0.00e+00,4.88e+00,
533,8.00e-02,5.04e+00,
534,0.00e+00,5.04e+00,
535,1.60e-01,4.88e+00,
536,1.60e-01,4.96e+00,
537,8.00e-02,5.04e+00,
538,1.60e-01,5.04e+00,
539,8.00e-02,4.96e+00,
540,1.60e-01,4.96e+00,
541,1.60e-01,5.04e+00,
542,8.00e-02,5.04e+00,
543,2.40e-01,4.96e+00,
544,2.40e-01,4.96e+00,
545,2.40e-01,5.04e+00,
546,2.40e-01,4.96e+00,
547,2.40e-01,5.04e+00,
548,2.40e-01,5.04e+00,
549,3.20e-01,4.96e+00,
550,3.20e-01,5.04e+00,
551,3.20e-01,4.88e+00,
552,3.20e-01,4.96e+00,
553,4.00e-01,5.04e+00,
554,4.00e-01,4.96e+00,
555,4.00e-01,5.04e+00,
556,4.00e-01,4.96e+00,
557,4.80e-01,5.04e+00,
558,4.80e-01,4.96e+00,
559,4.80e-01,5.04e+00,
560,4.80e-01,4.96e+00,
561,5.60e-01,4.88e+00,
562,5.60e-01,4.96e+00,
563,5.60e-01,4.88e+00,
564,5.60e-01,4.96e+00,
565,7.20e-01,4.80e+00,
566,7.20e-01,4.88e+00,
567,6.40e-01,4.96e+00,
568,6.40e-01,4.80e+00,
569,8.00e-01,4.96e+00,
570,7.20e-01,4.88e+00,
571,8.80e-01,4.96e+00,
572,8.00e-01,4.88e+00,
573,8.80e-01,4.96e+00,
574,8.80e-01,4.88e+00,
575,9.60e-01,4.96e+00,
576,8.80e-01,4.96e+00,
577,1.04e+00,5.04e+00,
578,9.60e-01,4.96e+00,
579,1.12e+00,5.04e+00,
580,1.12e+00,4.96e+00,
581,1.04e+00,5.04e+00,
582,1.04e+00,4.96e+00,
583,1.20e+00,5.04e+00,
584,1.12e+00,5.04e+00,
585,1.28e+00,4.88e+00,
586,1.28e+00,5.04e+00,
587,1.36e+00,4.88e+00,
588,1.36e+00,5.04e+00,
589,1.36e+00,4.88e+00,
590,1.36e+00,4.96e+00,
591,1.44e+00,5.04e+00,
592,1.44e+00,4.96e+00,
593,1.60e+00,5.04e+00,
594,1.52e+00,4.96e+00,
595,1.68e+00,5.04e+00,
596,1.60e+00,4.96e+00,
597,1.76e+00,5.04e+00,
598,1.76e+00,4.96e+00,
599,1.68e+00,5.04e+00,
600,1.76e+00,5.04e+00,
601,1.84e+00,4.88e+00,
602,1.76e+00,5.04e+00,
603,1.92e+00,4.88e+00,
604,1.84e+00,5.04e+00,
605,2.00e+00,4.88e+00,
606,1.92e+00,4.96e+00,
607,2.08e+00,5.04e+00,
608,2.00e+00,5.04e+00,
609,2.16e+00,4.88e+00,
610,2.08e+00,5.04e+00,
611,2.24e+00,4.88e+00,
612,2.16e+00,4.96e+00,
613,2.24e+00,5.04e+00,
614,2.24e+00,4.96e+00,
615,2.32e+00,5.04e+00,
616,2.40e+00,4.88e+00,
617,2.40e+00,5.04e+00,
618,2.40e+00,4.88e+00,
619,2.56e+00,5.04e+00,
620,2.48e+00,5.04e+00,
621,2.64e+00,4.88e+00,
622,2.56e+00,4.96e+00,
623,2.64e+00,5.04e+00,
624,2.64e+00,5.04e+00,
625,2.72e+00,4.96e+00,
626,2.72e+00,4.96e+00,
627,2.80e+00,5.04e+00,
628,2.80e+00,4.96e+00,
629,2.88e+00,5.04e+00,
630,2.80e+00,5.04e+00,
631,2.96e+00,4.88e+00,
632,2.96e+00,4.96e+00,
633,3.04e+00,5.04e+00,
634,2.96e+00,4.96e+00,
635,3.12e+00,5.04e+00,
636,3.12e+00,4.88e+00,
637,3.20e+00,5.04e+00,
638,3.12e+00,4.96e+00,
639,3.28e+00,5.04e+00,
640,3.28e+00,5.04e+00,
641,3.28e+00,4.88e+00,
642,3.28e+00,4.96e+00,
643,3.36e+00,5.04e+00,
644,3.36e+00,4.96e+00,
645,3.52e+00,5.04e+00,
646,3.44e+00,5.04e+00,
647,3.60e+00,4.88e+00,
648,3.52e+00,5.04e+00,
649,3.60e+00,4.96e+00,
650,3.60e+00,4.96e+00,
651,3.60e+00,5.04e+00,
652,3.76e+00,4.88e+00,
653,3.60e+00,5.04e+00,
654,3.68e+00,4.96e+00,
655,3.84e+00,5.04e+00,
656,3.76e+00,4.88e+00,
657,3.92e+00,5.04e+00,
658,3.92e+00,4.96e+00,
659,3.84e+00,5.04e+00,
660,4.00e+00,4.96e+00,
661,3.84e+00,5.04e+00,
662,3.92e+00,4.88e+00,
663,4.08e+00,5.04e+00,
664,4.08e+00,5.04e+00,
665,4.08e+00,4.88e+00,
666,4.08e+00,4.88e+00,
667,4.16e+00,5.04e+00,
668,4.16e+00,4.96e+00,
669,4.24e+00,5.04e+00,
670,4.08e+00,5.04e+00,
671,4.24e+00,4.88e+00,
672,4.24e+00,5.04e+00,
673,4.32e+00,4.96e+00,
674,4.24e+00,4.96e+00,
675,4.32e+00,5.04e+00,
676,4.32e+00,5.04e+00,
677,4.40e+00,4.96e+00,
678,4.40e+00,4.96e+00,
679,4.48e+00,5.04e+00,
680,4.56e+00,5.04e+00,
681,4.40e+00,4.88e+00,
682,4.48e+00,4.96e+00,
683,4.56e+00,5.04e+00,
684,4.48e+00,4.96e+00,
685,4.64e+00,5.04e+00,
686,4.48e+00,5.04e+00,
687,4.64e+00,4.88e+00,
688,4.56e+00,5.04e+00,
689,4.72e+00,4.96e+00,
690,4.56e+00,4.96e+00,
691,4.72e+00,5.04e+00,
692,4.72e+00,5.04e+00,
693,4.64e+00,4.88e+00,
694,4.64e+00,4.96e+00,
695,4.80e+00,5.04e+00,
696,4.80e+00,5.04e+00,
697,4.72e+00,4.88e+00,
698,4.72e+00,4.96e+00,
699,4.80e+00,5.04e+00,
700,4.72e+00,4.96e+00,
701,4.80e+00,5.04e+00,
702,4.72e+00,5.04e+00,
703,4.88e+00,4.88e+00,
704,4.88e+00,4.88e+00,
705,4.72e+00,5.04e+00,
706,4.80e+00,4.96e+00,
707,4.88e+00,5.04e+00,
708,4.88e+00,4.96e+00,
709,4.80e+00,5.04e+00,
710,4.88e+00,5.04e+00,
711,4.80e+00,4.88e+00,
712,4.80e+00,4.96e+00,
713,4.96e+00,5.04e+00,
714,4.96e+00,4.96e+00,
715,4.80e+00,5.04e+00,
716,4.88e+00,4.88e+00,
717,4.88e+00,5.04e+00,
718,4.80e+00,5.04e+00,
719,4.88e+00,4.88e+00,
720,4.88e+00,5.04e+00,
721,4.80e+00,4.96e+00,
722,4.80e+00,4.96e+00,
723,4.88e+00,5.04e+00,
724,4.88e+00,5.04e+00,
725,4.80e+00,4.88e+00,
726,4.80e+00,4.88e+00,
727,4.88e+00,5.04e+00,
728,4.88e+00,5.04e+00,
729,4.80e+00,4.96e+00,
730,4.88e+00,5.04e+00,
731,4.72e+00,4.88e+00,
732,4.72e+00,5.04e+00,
733,4.88e+00,4.96e+00,
734,4.72e+00,5.04e+00,
735,4.88e+00,4.88e+00,
736,4.72e+00,5.04e+00,
737,4.80e+00,4.88e+00,
738,4.80e+00,4.96e+00,
739,4.64e+00,5.04e+00,
740,4.80e+00,4.96e+00,
741,4.64e+00,5.04e+00,
742,4.64e+00,4.96e+00,
743,4.72e+00,5.04e+00,
744,4.64e+00,4.96e+00,
745,4.72e+00,5.04e+00,
746,4.72e+00,4.96e+00,
747,4.56e+00,5.04e+00,
748,4.56e+00,4.96e+00,
749,4.64e+00,5.04e+00,
750,4.64e+00,4.96e+00,
751,4.48e+00,5.04e+00,
752,4.64e+00,4.96e+00,
753,4.48e+00,5.04e+00,
754,4.56e+00,5.04e+00,
755,4.40e+00,4.88e+00,
756,4.56e+00,5.04e+00,
757,4.40e+00,4.96e+00,
758,4.40e+00,5.04e+00,
759,4.32e+00,4.96e+00,
760,4.40e+00,5.04e+00,
761,4.32e+00,4.96e+00,
762,4.32e+00,4.96e+00,
763,4.24e+00,5.04e+00,
764,4.24e+00,5.04e+00,
765,4.24e+00,4.88e+00,
766,4.24e+00,4.96e+00,
767,4.16e+00,5.04e+00,
768,4.16e+00,5.04e+00,
769,4.16e+00,4.96e+00,
770,4.08e+00,4.96e+00,
771,4.08e+00,5.04e+00,
772,4.08e+00,5.04e+00,
773,4.00e+00,4.88e+00,
774,4.00e+00,4.96e+00,
775,3.92e+00,5.04e+00,
776,4.00e+00,4.96e+00,
777,3.84e+00,5.04e+00,
778,3.92e+00,5.04e+00,
779,3.76e+00,4.88e+00,
780,3.76e+00,4.96e+00,
781,3.84e+00,5.04e+00,
782,3.68e+00,4.96e+00,
783,3.76e+00,5.04e+00,
784,3.76e+00,4.96e+00,
785,3.60e+00,5.04e+00,
786,3.60e+00,5.04e+00,
787,3.52e+00,4.88e+00,
788,3.60e+00,4.96e+00,
789,3.44e+00,5.04e+00,
790,3.44e+00,4.96e+00,
791,3.52e+00,5.04e+00,
792,3.44e+00,4.88e+00,
793,3.36e+00,5.04e+00,
794,3.28e+00,4.96e+00,
795,3.44e+00,5.04e+00,
796,3.28e+00,5.04e+00,
797,3.20e+00,4.88e+00,
798,3.20e+00,4.96e+00,
799,3.04e+00,5.04e+00,
800,3.04e+00,5.04e+00,
801,3.12e+00,4.96e+00,
802,3.04e+00,4.96e+00,
803,2.96e+00,5.04e+00,
804,3.04e+00,4.96e+00,
805,2.88e+00,5.04e+00,
806,2.96e+00,5.04e+00,
807,2.80e+00,4.88e+00,
808,2.88e+00,5.04e+00,
809,2.72e+00,4.88e+00,
810,2.80e+00,4.96e+00,
811,2.64e+00,5.04e+00,
812,2.64e+00,4.96e+00,
813,2.56e+00,5.04e+00,
814,2.56e+00,4.96e+00,
815,2.48e+00,5.04e+00,
816,2.48e+00,4.96e+00,
817,2.48e+00,5.04e+00,
818,2.40e+00,5.04e+00,
819,2.40e+00,4.96e+00,
820,2.40e+00,5.04e+00,
821,2.32e+00,4.88e+00,
822,2.32e+00,5.04e+00,
823,2.16e+00,4.88e+00,
824,2.24e+00,5.04e+00,
825,2.16e+00,4.88e+00,
826,2.16e+00,4.96e+00,
827,2.00e+00,5.04e+00,
828,2.08e+00,5.04e+00,
829,1.92e+00,4.88e+00,
830,2.00e+00,5.04e+00,
831,1.84e+00,4.88e+00,
832,1.92e+00,4.96e+00,
833,1.84e+00,5.04e+00,
834,1.92e+00,5.04e+00,
835,1.76e+00,4.88e+00,
836,1.76e+00,4.88e+00,
837,1.68e+00,5.04e+00,
838,1.68e+00,4.88e+00,
839,1.60e+00,5.04e+00,
840,1.68e+00,5.04e+00,
841,1.52e+00,4.88e+00,
842,1.52e+00,5.04e+00,
843,1.60e+00,4.88e+00,
844,1.44e+00,4.96e+00,
845,1.44e+00,5.04e+00,
846,1.36e+00,5.04e+00,
847,1.36e+00,4.88e+00,
848,1.36e+00,5.04e+00,
849,1.28e+00,4.96e+00,
850,1.28e+00,5.04e+00,
851,1.20e+00,4.88e+00,
852,1.20e+00,5.04e+00,
853,1.12e+00,4.88e+00,
854,1.12e+00,4.96e+00,
855,1.04e+00,5.04e+00,
856,1.12e+00,5.04e+00,
857,1.04e+00,4.96e+00,
858,1.04e+00,4.96e+00,
859,9.60e-01,5.04e+00,
860,9.60e-01,5.04e+00,
861,8.80e-01,4.88e+00,
862,9.60e-01,5.04e+00,
863,8.00e-01,4.88e+00,
864,8.80e-01,4.88e+00,
865,7.20e-01,5.04e+00,
866,7.20e-01,5.04e+00,
867,8.00e-01,4.88e+00,
868,8.00e-01,5.04e+00,
869,6.40e-01,4.88e+00,
