project/matlab/project_exp3/1 kHz/NewFile1.csv

X,CH1,CH2,Start,Increment,
Sequence,Volt,Volt,-2.280000e-03,5.000000e-06
0,-8.00e-02,8.00e-02,
1,0.00e+00,2.40e-01,
2,-8.00e-02,1.60e-01,
3,8.00e-02,8.00e-02,
4,8.00e-02,8.00e-02,
5,-8.00e-02,2.40e-01,
6,0.00e+00,8.00e-02,
7,1.60e-01,2.40e-01,
8,0.00e+00,1.60e-01,
9,1.60e-01,8.00e-02,
10,8.00e-02,8.00e-02,
11,2.40e-01,2.40e-01,
12,1.60e-01,8.00e-02,
13,3.20e-01,2.40e-01,
14,2.40e-01,1.60e-01,
15,4.00e-01,8.00e-02,
16,3.20e-01,1.60e-01,
17,5.60e-01,8.00e-02,
18,4.80e-01,1.60e-01,
19,6.40e-01,8.00e-02,
20,5.60e-01,1.60e-01,
21,7.20e-01,8.00e-02,
22,6.40e-01,8.00e-02,
23,8.80e-01,2.40e-01,
24,7.20e-01,2.40e-01,
25,9.60e-01,5.04e+00,
26,8.80e-01,5.04e+00,
27,1.04e+00,4.88e+00,
28,9.60e-01,5.04e+00,
29,1.20e+00,4.88e+00,
30,1.12e+00,5.04e+00,
31,1.36e+00,4.88e+00,
32,1.20e+00,5.04e+00,
33,1.52e+00,4.88e+00,
34,1.44e+00,5.04e+00,
35,1.68e+00,4.88e+00,
36,1.60e+00,4.88e+00,
37,1.84e+00,5.12e+00,
38,1.68e+00,4.88e+00,
39,1.92e+00,5.20e+00,
40,1.84e+00,4.88e+00,
41,2.08e+00,5.20e+00,
42,2.00e+00,4.88e+00,
43,2.24e+00,5.20e+00,
44,2.16e+00,4.88e+00,
45,2.40e+00,5.12e+00,
46,2.32e+00,4.88e+00,
47,2.56e+00,5.20e+00,
48,2.48e+00,4.88e+00,
49,2.72e+00,5.12e+00,
50,2.64e+00,4.88e+00,
51,2.88e+00,5.20e+00,
52,2.80e+00,4.88e+00,
53,3.04e+00,5.20e+00,
54,2.88e+00,4.88e+00,
55,3.20e+00,5.20e+00,
56,3.04e+00,4.88e+00,
57,3.28e+00,5.20e+00,
58,3.28e+00,5.20e+00,
59,3.52e+00,4.88e+00,
60,3.36e+00,4.88e+00,
61,3.68e+00,5.20e+00,
62,3.52e+00,5.20e+00,
63,3.76e+00,4.88e+00,
64,3.60e+00,4.88e+00,
65,3.92e+00,5.20e+00,
66,3.76e+00,5.20e+00,
67,4.00e+00,4.88e+00,
68,3.84e+00,4.88e+00,
69,4.16e+00,5.20e+00,
70,4.00e+00,4.88e+00,
71,4.24e+00,5.20e+00,
72,4.08e+00,4.88e+00,
73,4.32e+00,5.20e+00,
74,4.16e+00,4.88e+00,
75,4.48e+00,5.20e+00,
76,4.32e+00,5.12e+00,
77,4.56e+00,4.88e+00,
78,4.40e+00,5.20e+00,
79,4.64e+00,4.88e+00,
80,4.48e+00,4.88e+00,
81,4.72e+00,5.20e+00,
82,4.56e+00,4.88e+00,
83,4.80e+00,5.20e+00,
84,4.64e+00,4.88e+00,
85,4.80e+00,5.20e+00,
86,4.88e+00,4.88e+00,
87,4.64e+00,5.20e+00,
88,4.88e+00,5.20e+00,
89,4.72e+00,4.88e+00,
90,4.80e+00,4.88e+00,
91,4.96e+00,5.20e+00,
92,4.96e+00,5.20e+00,
93,4.80e+00,4.88e+00,
94,4.96e+00,4.88e+00,
95,4.80e+00,5.20e+00,
96,4.96e+00,4.88e+00,
97,4.80e+00,5.20e+00,
98,4.96e+00,5.20e+00,
99,4.80e+00,4.88e+00,
100,4.96e+00,4.88e+00,
101,4.80e+00,5.20e+00,
102,4.96e+00,4.88e+00,
103,4.72e+00,5.20e+00,
104,4.72e+00,4.88e+00,
105,4.96e+00,5.20e+00,
106,4.88e+00,4.88e+00,
107,4.64e+00,5.20e+00,
108,4.64e+00,4.88e+00,
109,4.80e+00,5.20e+00,
110,4.80e+00,4.88e+00,
111,4.56e+00,5.20e+00,
112,4.72e+00,4.88e+00,
113,4.48e+00,5.20e+00,
114,4.64e+00,4.88e+00,
115,4.40e+00,5.20e+00,
116,4.56e+00,4.88e+00,
117,4.32e+00,5.20e+00,
118,4.48e+00,4.88e+00,
119,4.24e+00,5.20e+00,
120,4.40e+00,4.88e+00,
121,4.08e+00,5.20e+00,
122,4.24e+00,5.12e+00,
123,4.00e+00,4.88e+00,
124,4.08e+00,5.20e+00,
125,3.84e+00,4.88e+00,
126,4.00e+00,4.88e+00,
127,3.76e+00,5.20e+00,
128,3.92e+00,5.20e+00,
129,3.60e+00,4.88e+00,
130,3.76e+00,5.20e+00,
131,3.52e+00,4.88e+00,
132,3.60e+00,4.88e+00,
133,3.36e+00,5.20e+00,
134,3.44e+00,4.88e+00,
135,3.20e+00,5.20e+00,
136,3.28e+00,4.88e+00,
137,3.04e+00,5.20e+00,
138,3.12e+00,4.88e+00,
139,2.88e+00,5.20e+00,
140,3.04e+00,4.88e+00,
141,2.72e+00,5.20e+00,
142,2.88e+00,4.88e+00,
143,2.64e+00,5.20e+00,
144,2.72e+00,4.88e+00,
145,2.48e+00,5.20e+00,
146,2.56e+00,5.20e+00,
147,2.32e+00,4.88e+00,
148,2.32e+00,4.88e+00,
149,2.08e+00,5.20e+00,
150,2.24e+00,4.88e+00,
151,2.00e+00,5.20e+00,
152,2.08e+00,4.88e+00,
153,1.84e+00,5.20e+00,
154,1.92e+00,4.88e+00,
155,1.68e+00,5.20e+00,
156,1.76e+00,5.20e+00,
157,1.52e+00,4.88e+00,
158,1.68e+00,4.88e+00,
159,1.44e+00,5.20e+00,
160,1.52e+00,4.88e+00,
161,1.20e+00,5.20e+00,
162,1.28e+00,5.20e+00,
163,1.12e+00,4.88e+00,
164,1.20e+00,4.88e+00,
165,9.60e-01,5.20e+00,
166,1.04e+00,5.20e+00,
167,8.80e-01,4.88e+00,
168,9.60e-01,4.88e+00,
169,7.20e-01,5.20e+00,
170,8.00e-01,4.88e+00,
171,6.40e-01,5.20e+00,
172,7.20e-01,4.88e+00,
173,5.60e-01,5.20e+00,
174,6.40e-01,4.88e+00,
175,4.80e-01,5.20e+00,
176,5.60e-01,5.20e+00,
177,3.20e-01,4.88e+00,
178,4.00e-01,5.20e+00,
179,1.60e-01,8.00e-02,
180,3.20e-01,2.40e-01,
181,1.60e-01,8.00e-02,
182,2.40e-01,2.40e-01,
183,8.00e-02,8.00e-02,
184,1.60e-01,2.40e-01,
185,0.00e+00,8.00e-02,
186,0.00e+00,2.40e-01,
187,1.60e-01,8.00e-02,
188,8.00e-02,2.40e-01,
189,-8.00e-02,8.00e-02,
190,8.00e-02,2.40e-01,
191,-8.00e-02,8.00e-02,
192,0.00e+00,8.00e-02,
193,-8.00e-02,2.40e-01,
194,0.00e+00,8.00e-02,
195,-1.60e-01,2.40e-01,
196,0.00e+00,8.00e-02,
197,-1.60e-01,2.40e-01,
198,-1.60e-01,1.60e-01,
199,0.00e+00,8.00e-02,
200,0.00e+00,8.00e-02,
201,-8.00e-02,2.40e-01,
202,-8.00e-02,8.00e-02,
203,8.00e-02,2.40e-01,
204,8.00e-02,1.60e-01,
205,-8.00e-02,8.00e-02,
206,0.00e+00,1.60e-01,
207,1.60e-01,8.00e-02,
208,0.00e+00,8.00e-02,
209,1.60e-01,1.60e-01,
210,8.00e-02,1.60e-01,
211,2.40e-01,8.00e-02,
212,1.60e-01,1.60e-01,
213,3.20e-01,8.00e-02,
214,2.40e-01,8.00e-02,
215,4.00e-01,2.40e-01,
216,3.20e-01,1.60e-01,
217,5.60e-01,8.00e-02,
218,4.80e-01,1.60e-01,
219,6.40e-01,8.00e-02,
220,5.60e-01,1.60e-01,
221,7.20e-01,8.00e-02,
222,6.40e-01,8.00e-02,
223,8.80e-01,2.40e-01,
224,7.20e-01,2.40e-01,
225,9.60e-01,5.04e+00,
226,8.80e-01,5.04e+00,
227,1.04e+00,4.88e+00,
228,9.60e-01,5.04e+00,
229,1.20e+00,4.88e+00,
230,1.12e+00,5.04e+00,
231,1.28e+00,4.88e+00,
232,1.20e+00,5.04e+00,
233,1.52e+00,4.88e+00,
234,1.44e+00,4.88e+00,
235,1.68e+00,5.20e+00,
236,1.60e+00,4.88e+00,
237,1.76e+00,5.20e+00,
238,1.68e+00,4.88e+00,
239,1.92e+00,5.12e+00,
240,1.84e+00,4.88e+00,
241,2.08e+00,5.20e+00,
242,2.00e+00,4.88e+00,
243,2.24e+00,5.20e+00,
244,2.16e+00,4.88e+00,
245,2.40e+00,5.12e+00,
246,2.32e+00,5.20e+00,
247,2.56e+00,4.88e+00,
248,2.48e+00,4.88e+00,
249,2.72e+00,5.20e+00,
250,2.64e+00,4.88e+00,
251,2.88e+00,5.20e+00,
252,2.80e+00,4.88e+00,
253,3.04e+00,5.20e+00,
254,2.88e+00,4.88e+00,
255,3.12e+00,5.20e+00,
256,3.04e+00,4.88e+00,
257,3.28e+00,5.20e+00,
258,3.28e+00,4.88e+00,
259,3.52e+00,5.20e+00,
260,3.36e+00,5.20e+00,
261,3.60e+00,4.88e+00,
262,3.52e+00,5.20e+00,
263,3.76e+00,4.88e+00,
264,3.60e+00,5.12e+00,
265,3.92e+00,4.88e+00,
266,3.76e+00,5.20e+00,
267,4.00e+00,4.88e+00,
268,3.84e+00,5.12e+00,
269,4.16e+00,4.88e+00,
270,4.00e+00,4.88e+00,
271,4.24e+00,5.20e+00,
272,4.08e+00,4.88e+00,
273,4.40e+00,5.20e+00,
274,4.16e+00,5.20e+00,
275,4.48e+00,4.88e+00,
276,4.32e+00,5.20e+00,
277,4.56e+00,4.88e+00,
278,4.40e+00,5.20e+00,
279,4.64e+00,4.88e+00,
280,4.48e+00,4.88e+00,
281,4.72e+00,5.20e+00,
282,4.56e+00,4.88e+00,
283,4.80e+00,5.20e+00,
284,4.80e+00,4.88e+00,
285,4.64e+00,5.20e+00,
286,4.64e+00,4.88e+00,
287,4.88e+00,5.20e+00,
288,4.88e+00,5.12e+00,
289,4.72e+00,4.88e+00,
290,4.72e+00,5.20e+00,
291,4.96e+00,4.88e+00,
292,4.96e+00,5.20e+00,
293,4.80e+00,4.88e+00,
294,4.80e+00,4.88e+00,
295,4.96e+00,5.20e+00,
296,4.96e+00,4.88e+00,
297,4.80e+00,5.20e+00,
298,4.96e+00,4.88e+00,
299,4.80e+00,5.20e+00,
300,4.96e+00,4.88e+00,
301,4.80e+00,5.20e+00,
302,4.96e+00,5.20e+00,
303,4.72e+00,4.88e+00,
304,4.96e+00,5.20e+00,
305,4.72e+00,4.88e+00,
306,4.88e+00,5.20e+00,
307,4.64e+00,4.88e+00,
308,4.80e+00,4.88e+00,
309,4.64e+00,5.20e+00,
310,4.80e+00,4.88e+00,
311,4.56e+00,5.20e+00,
312,4.72e+00,4.88e+00,
313,4.48e+00,5.20e+00,
314,4.64e+00,5.20e+00,
315,4.40e+00,4.88e+00,
316,4.56e+00,4.88e+00,
317,4.32e+00,5.20e+00,
318,4.48e+00,4.88e+00,
319,4.24e+00,5.20e+00,
320,4.40e+00,5.20e+00,
321,4.08e+00,4.88e+00,
322,4.24e+00,4.88e+00,
323,4.00e+00,5.20e+00,
324,4.08e+00,5.20e+00,
325,3.84e+00,4.88e+00,
326,4.00e+00,5.20e+00,
327,3.76e+00,4.88e+00,
328,3.92e+00,4.88e+00,
329,3.60e+00,5.20e+00,
330,3.76e+00,5.20e+00,
331,3.52e+00,4.88e+00,
332,3.60e+00,4.88e+00,
333,3.36e+00,5.20e+00,
334,3.52e+00,4.88e+00,
335,3.20e+00,5.20e+00,
336,3.28e+00,4.88e+00,
337,3.04e+00,5.20e+00,
338,3.12e+00,4.88e+00,
339,2.88e+00,5.20e+00,
340,3.04e+00,5.20e+00,
341,2.72e+00,4.88e+00,
342,2.88e+00,4.88e+00,
343,2.64e+00,5.20e+00,
344,2.72e+00,5.20e+00,
345,2.48e+00,4.88e+00,
346,2.56e+00,4.88e+00,
347,2.32e+00,5.20e+00,
348,2.32e+00,4.88e+00,
349,2.08e+00,5.20e+00,
350,2.24e+00,4.88e+00,
351,2.00e+00,5.20e+00,
352,2.08e+00,5.20e+00,
353,1.84e+00,4.88e+00,
354,1.92e+00,5.20e+00,
355,1.68e+00,4.88e+00,
356,1.76e+00,5.20e+00,
357,1.52e+00,4.88e+00,
358,1.60e+00,4.88e+00,
359,1.44e+00,5.20e+00,
360,1.52e+00,4.88e+00,
361,1.20e+00,5.20e+00,
362,1.28e+00,4.88e+00,
363,1.12e+00,5.20e+00,
364,1.20e+00,5.20e+00,
365,9.60e-01,4.88e+00,
366,1.04e+00,4.88e+00,
367,8.80e-01,5.20e+00,
368,9.60e-01,5.20e+00,
369,7.20e-01,4.88e+00,
370,8.00e-01,4.88e+00,
371,6.40e-01,5.20e+00,
372,7.20e-01,5.12e+00,
373,5.60e-01,4.88e+00,
374,6.40e-01,5.20e+00,
375,4.80e-01,4.88e+00,
376,4.80e-01,5.20e+00,
377,3.20e-01,4.88e+00,
378,4.00e-01,5.20e+00,
379,1.60e-01,8.00e-02,
380,3.20e-01,8.00e-02,
381,1.60e-01,2.40e-01,
382,2.40e-01,2.40e-01,
383,8.00e-02,8.00e-02,
384,1.60e-01,8.00e-02,
385,0.00e+00,2.40e-01,
386,1.60e-01,2.40e-01,
387,0.00e+00,8.00e-02,
388,8.00e-02,2.40e-01,
389,-8.00e-02,8.00e-02,
390,-8.00e-02,2.40e-01,
391,8.00e-02,8.00e-02,
392,0.00e+00,8.00e-02,
393,-8.00e-02,2.40e-01,
394,0.00e+00,1.60e-01,
395,-1.60e-01,8.00e-02,
396,-1.60e-01,8.00e-02,
397,0.00e+00,2.40e-01,
398,-1.60e-01,8.00e-02,
399,0.00e+00,2.40e-01,
400,0.00e+00,1.60e-01,
401,-8.00e-02,8.00e-02,
402,-8.00e-02,8.00e-02,
403,0.00e+00,2.40e-01,
404,8.00e-02,8.00e-02,
405,-8.00e-02,2.40e-01,
406,0.00e+00,8.00e-02,
407,1.60e-01,1.60e-01,
408,0.00e+00,8.00e-02,
409,1.60e-01,2.40e-01,
410,8.00e-02,1.60e-01,
411,2.40e-01,8.00e-02,
412,1.60e-01,1.60e-01,
413,3.20e-01,8.00e-02,
414,2.40e-01,8.00e-02,
415,4.00e-01,2.40e-01,
416,4.00e-01,1.60e-01,
417,5.60e-01,8.00e-02,
418,4.80e-01,1.60e-01,
419,6.40e-01,8.00e-02,
420,5.60e-01,8.00e-02,
421,7.20e-01,2.40e-01,
422,6.40e-01,8.00e-02,
423,8.80e-01,2.40e-01,
424,7.20e-01,2.40e-01,
425,9.60e-01,5.04e+00,
426,8.80e-01,5.04e+00,
427,1.04e+00,4.88e+00,
428,9.60e-01,5.04e+00,
429,1.20e+00,4.88e+00,
430,1.12e+00,5.04e+00,
431,1.28e+00,4.88e+00,
432,1.20e+00,5.04e+00,
433,1.52e+00,4.88e+00,
434,1.44e+00,5.12e+00,
435,1.68e+00,4.88e+00,
436,1.60e+00,4.88e+00,
437,1.76e+00,5.12e+00,
438,1.68e+00,4.88e+00,
439,1.92e+00,5.20e+00,
440,1.84e+00,4.88e+00,
441,2.08e+00,5.20e+00,
442,2.00e+00,4.88e+00,
443,2.24e+00,5.20e+00,
444,2.16e+00,4.88e+00,
445,2.40e+00,5.20e+00,
446,2.32e+00,4.88e+00,
447,2.56e+00,5.20e+00,
448,2.48e+00,5.20e+00,
449,2.72e+00,4.88e+00,
450,2.64e+00,5.12e+00,
451,2.88e+00,4.88e+00,
452,2.80e+00,4.88e+00,
453,3.04e+00,5.20e+00,
454,2.88e+00,5.20e+00,
455,3.12e+00,4.88e+00,
456,3.04e+00,4.88e+00,
457,3.28e+00,5.20e+00,
458,3.28e+00,4.88e+00,
459,3.52e+00,5.20e+00,
460,3.36e+00,5.20e+00,
461,3.68e+00,4.88e+00,
462,3.52e+00,4.88e+00,
463,3.76e+00,5.20e+00,
464,3.60e+00,5.20e+00,
465,3.92e+00,4.88e+00,
466,3.76e+00,5.20e+00,
467,4.00e+00,4.88e+00,
468,3.84e+00,5.12e+00,
469,4.08e+00,4.88e+00,
470,4.00e+00,4.88e+00,
471,4.24e+00,5.20e+00,
472,4.08e+00,4.88e+00,
473,4.40e+00,5.20e+00,
474,4.24e+00,4.88e+00,
475,4.48e+00,5.20e+00,
476,4.32e+00,4.88e+00,
477,4.56e+00,5.20e+00,
478,4.40e+00,4.88e+00,
479,4.64e+00,5.20e+00,
480,4.48e+00,4.88e+00,
481,4.72e+00,5.20e+00,
482,4.56e+00,4.88e+00,
483,4.80e+00,5.20e+00,
484,4.80e+00,4.88e+00,
485,4.64e+00,5.20e+00,
486,4.88e+00,4.88e+00,
487,4.64e+00,5.20e+00,
488,4.88e+00,5.20e+00,
489,4.72e+00,4.88e+00,
490,4.72e+00,5.20e+00,
491,4.96e+00,4.88e+00,
492,4.96e+00,4.88e+00,
493,4.80e+00,5.20e+00,
494,4.96e+00,5.20e+00,
495,4.80e+00,4.88e+00,
496,4.80e+00,4.88e+00,
497,4.96e+00,5.20e+00,
498,4.96e+00,5.20e+00,
499,4.80e+00,4.88e+00,
500,4.96e+00,4.88e+00,
501,4.80e+00,5.20e+00,
502,4.96e+00,5.20e+00,
503,4.72e+00,4.88e+00,
504,4.72e+00,5.20e+00,
505,4.88e+00,4.88e+00,
506,4.88e+00,4.88e+00,
507,4.64e+00,5.20e+00,
508,4.64e+00,5.20e+00,
509,4.80e+00,4.88e+00,
510,4.80e+00,4.88e+00,
511,4.56e+00,5.20e+00,
512,4.72e+00,4.88e+00,
513,4.48e+00,5.20e+00,
514,4.64e+00,4.88e+00,
515,4.40e+00,5.20e+00,
516,4.56e+00,5.20e+00,
517,4.32e+00,4.88e+00,
518,4.48e+00,5.20e+00,
519,4.24e+00,4.88e+00,
520,4.40e+00,4.88e+00,
521,4.08e+00,5.20e+00,
522,4.24e+00,5.20e+00,
523,4.00e+00,4.88e+00,
524,4.08e+00,4.88e+00,
525,3.84e+00,5.20e+00,
526,4.00e+00,4.88e+00,
527,3.76e+00,5.20e+00,
528,3.84e+00,5.20e+00,
529,3.60e+00,4.88e+00,
530,3.76e+00,4.88e+00,
531,3.52e+00,5.20e+00,
532,3.60e+00,5.20e+00,
533,3.36e+00,4.88e+00,
534,3.52e+00,4.88e+00,
535,3.20e+00,5.20e+00,
536,3.28e+00,4.88e+00,
537,3.04e+00,5.20e+00,
538,3.12e+00,4.88e+00,
539,2.88e+00,5.20e+00,
540,3.04e+00,4.88e+00,
541,2.72e+00,5.20e+00,
542,2.88e+00,5.20e+00,
543,2.64e+00,4.88e+00,
544,2.72e+00,4.88e+00,
545,2.48e+00,5.20e+00,
546,2.56e+00,4.88e+00,
547,2.32e+00,5.20e+00,
548,2.32e+00,4.88e+00,
549,2.08e+00,5.20e+00,
550,2.24e+00,5.20e+00,
551,2.00e+00,4.88e+00,
552,2.08e+00,4.88e+00,
553,1.84e+00,5.20e+00,
554,1.92e+00,5.20e+00,
555,1.68e+00,4.88e+00,
556,1.76e+00,4.88e+00,
557,1.52e+00,5.20e+00,
558,1.68e+00,5.20e+00,
559,1.44e+00,4.88e+00,
560,1.52e+00,5.20e+00,
561,1.20e+00,4.88e+00,
562,1.28e+00,4.88e+00,
563,1.12e+00,5.20e+00,
564,1.20e+00,4.88e+00,
565,9.60e-01,5.20e+00,
566,1.04e+00,4.88e+00,
567,8.80e-01,5.20e+00,
568,9.60e-01,4.88e+00,
569,7.20e-01,5.20e+00,
570,8.00e-01,4.88e+00,
571,6.40e-01,5.20e+00,
572,7.20e-01,4.88e+00,
573,5.60e-01,5.20e+00,
574,6.40e-01,4.88e+00,
575,4.80e-01,5.20e+00,
576,5.60e-01,4.88e+00,
577,3.20e-01,5.20e+00,
578,4.00e-01,5.20e+00,
579,2.40e-01,1.60e-01,
580,3.20e-01,2.40e-01,
581,1.60e-01,8.00e-02,
582,2.40e-01,2.40e-01,
583,8.00e-02,8.00e-02,
584,1.60e-01,2.40e-01,
585,0.00e+00,8.00e-02,
586,1.60e-01,2.40e-01,
587,0.00e+00,8.00e-02,
588,8.00e-02,8.00e-02,
589,-8.00e-02,2.40e-01,
590,-8.00e-02,2.40e-01,
591,0.00e+00,8.00e-02,
592,0.00e+00,8.00e-02,
593,-8.00e-02,2.40e-01,
594,0.00e+00,8.00e-02,
595,-1.60e-01,2.40e-01,
596,-1.60e-01,1.60e-01,
597,0.00e+00,8.00e-02,
598,-1.60e-01,8.00e-02,
599,0.00e+00,2.40e-01,
600,-8.00e-02,8.00e-02,
601,0.00e+00,2.40e-01,
602,-8.00e-02,1.60e-01,
603,8.00e-02,8.00e-02,
604,-8.00e-02,8.00e-02,
605,8.00e-02,2.40e-01,
606,0.00e+00,1.60e-01,
607,1.60e-01,8.00e-02,
608,1.60e-01,8.00e-02,
609,0.00e+00,1.60e-01,
610,8.00e-02,8.00e-02,
611,2.40e-01,2.40e-01,
612,1.60e-01,1.60e-01,
613,3.20e-01,8.00e-02,
614,2.40e-01,1.60e-01,
615,4.00e-01,8.00e-02,
616,4.00e-01,8.00e-02,
617,5.60e-01,2.40e-01,
618,4.80e-01,8.00e-02,
619,6.40e-01,1.60e-01,
620,5.60e-01,8.00e-02,
621,7.20e-01,2.40e-01,
622,6.40e-01,8.00e-02,
623,8.80e-01,2.40e-01,
624,7.20e-01,1.60e-01,
625,9.60e-01,5.04e+00,
626,8.80e-01,5.04e+00,
627,1.04e+00,4.88e+00,
628,9.60e-01,5.04e+00,
629,1.20e+00,4.88e+00,
630,1.12e+00,5.04e+00,
631,1.28e+00,4.88e+00,
632,1.28e+00,4.88e+00,
633,1.52e+00,5.20e+00,
634,1.44e+00,5.12e+00,
635,1.68e+00,4.88e+00,
636,1.60e+00,4.88e+00,
637,1.76e+00,5.12e+00,
638,1.68e+00,4.88e+00,
639,1.92e+00,5.12e+00,
640,1.84e+00,4.88e+00,
641,2.08e+00,5.20e+00,
642,2.00e+00,5.12e+00,
643,2.24e+00,4.88e+00,
644,2.16e+00,5.20e+00,
645,2.48e+00,4.88e+00,
646,2.32e+00,4.88e+00,
647,2.56e+00,5.20e+00,
648,2.48e+00,5.20e+00,
649,2.72e+00,4.88e+00,
650,2.64e+00,4.88e+00,
651,2.88e+00,5.20e+00,
652,2.80e+00,4.88e+00,
653,3.04e+00,5.20e+00,
654,2.88e+00,4.88e+00,
655,3.20e+00,5.20e+00,
656,3.04e+00,4.88e+00,
657,3.28e+00,5.20e+00,
658,3.28e+00,4.88e+00,
659,3.52e+00,5.20e+00,
660,3.36e+00,5.20e+00,
661,3.60e+00,4.88e+00,
662,3.52e+00,5.20e+00,
663,3.76e+00,4.88e+00,
664,3.60e+00,4.88e+00,
665,3.92e+00,5.20e+00,
666,3.76e+00,4.88e+00,
667,4.00e+00,5.20e+00,
668,3.84e+00,4.88e+00,
669,4.16e+00,5.20e+00,
670,4.00e+00,5.20e+00,
671,4.24e+00,4.88e+00,
672,4.08e+00,4.88e+00,
673,4.40e+00,5.20e+00,
674,4.24e+00,5.12e+00,
675,4.48e+00,4.88e+00,
676,4.32e+00,4.88e+00,
677,4.56e+00,5.20e+00,
678,4.40e+00,4.88e+00,
679,4.64e+00,5.20e+00,
680,4.48e+00,5.20e+00,
681,4.72e+00,4.88e+00,
682,4.56e+00,4.88e+00,
683,4.80e+00,5.20e+00,
684,4.64e+00,4.88e+00,
685,4.88e+00,5.20e+00,
686,4.72e+00,5.12e+00,
687,4.88e+00,4.88e+00,
688,4.72e+00,4.88e+00,
689,4.96e+00,5.20e+00,
690,4.96e+00,5.20e+00,
691,4.72e+00,4.88e+00,
692,4.80e+00,5.20e+00,
693,4.96e+00,4.88e+00,
694,4.96e+00,5.20e+00,
695,4.80e+00,4.88e+00,
696,4.96e+00,5.20e+00,
697,4.80e+00,4.88e+00,
698,4.96e+00,4.88e+00,
699,4.80e+00,5.20e+00,
700,4.96e+00,4.88e+00,
701,4.80e+00,5.20e+00,
702,4.96e+00,5.20e+00,
703,4.72e+00,4.88e+00,
704,4.88e+00,5.20e+00,
705,4.72e+00,4.88e+00,
706,4.88e+00,5.20e+00,
707,4.64e+00,4.88e+00,
708,4.80e+00,5.20e+00,
709,4.64e+00,4.88e+00,
710,4.80e+00,5.20e+00,
711,4.56e+00,4.88e+00,
712,4.72e+00,5.20e+00,
713,4.48e+00,4.88e+00,
714,4.64e+00,5.20e+00,
715,4.40e+00,4.88e+00,
716,4.56e+00,4.88e+00,
717,4.32e+00,5.20e+00,
718,4.48e+00,5.12e+00,
719,4.16e+00,4.88e+00,
720,4.40e+00,5.20e+00,
721,4.08e+00,4.88e+00,
722,4.24e+00,5.20e+00,
723,4.00e+00,4.88e+00,
724,4.08e+00,5.20e+00,
725,3.84e+00,4.88e+00,
726,4.00e+00,5.20e+00,
727,3.76e+00,4.88e+00,
728,3.84e+00,5.20e+00,
729,3.60e+00,4.88e+00,
730,3.76e+00,5.20e+00,
731,3.52e+00,4.88e+00,
732,3.60e+00,5.20e+00,
733,3.36e+00,4.88e+00,
734,3.44e+00,4.88e+00,
735,3.12e+00,5.20e+00,
736,3.28e+00,4.88e+00,
737,3.04e+00,5.20e+00,
738,3.12e+00,5.20e+00,
739,2.88e+00,4.88e+00,
740,3.04e+00,5.20e+00,
741,2.72e+00,4.88e+00,
742,2.88e+00,5.20e+00,
743,2.64e+00,4.88e+00,
744,2.72e+00,5.20e+00,
745,2.48e+00,4.88e+00,
746,2.56e+00,4.88e+00,
747,2.32e+00,5.20e+00,
748,2.32e+00,5.20e+00,
749,2.08e+00,4.88e+00,
750,2.24e+00,4.88e+00,
751,2.00e+00,5.20e+00,
752,2.08e+00,4.88e+00,
753,1.84e+00,5.20e+00,
754,1.92e+00,4.88e+00,
755,1.68e+00,5.20e+00,
756,1.76e+00,4.88e+00,
757,1.52e+00,5.20e+00,
758,1.68e+00,4.88e+00,
759,1.44e+00,5.20e+00,
760,1.52e+00,4.88e+00,
761,1.20e+00,5.20e+00,
762,1.28e+00,4.96e+00,
763,1.12e+00,5.20e+00,
764,1.20e+00,4.88e+00,
765,9.60e-01,5.20e+00,
766,1.04e+00,5.20e+00,
767,8.80e-01,4.88e+00,
768,9.60e-01,4.88e+00,
769,7.20e-01,5.20e+00,
770,8.00e-01,4.88e+00,
771,6.40e-01,5.20e+00,
772,7.20e-01,4.88e+00,
773,5.60e-01,5.20e+00,
774,6.40e-01,5.20e+00,
775,4.80e-01,4.88e+00,
776,5.60e-01,4.88e+00,
777,3.20e-01,5.20e+00,
778,4.00e-01,5.20e+00,
779,2.40e-01,8.00e-02,
780,3.20e-01,8.00e-02,
781,1.60e-01,2.40e-01,
782,2.40e-01,2.40e-01,
783,8.00e-02,8.00e-02,
784,1.60e-01,2.40e-01,
785,0.00e+00,8.00e-02,
786,0.00e+00,2.40e-01,
787,1.60e-01,8.00e-02,
788,8.00e-02,2.40e-01,
789,-8.00e-02,8.00e-02,
790,8.00e-02,2.40e-01,
791,-8.00e-02,8.00e-02,
792,0.00e+00,8.00e-02,
793,-8.00e-02,2.40e-01,
794,0.00e+00,8.00e-02,
795,-1.60e-01,2.40e-01,
796,0.00e+00,8.00e-02,
797,-1.60e-01,2.40e-01,
798,0.00e+00,1.60e-01,
799,-8.00e-02,8.00e-02,
800,0.00e+00,8.00e-02,
801,-8.00e-02,2.40e-01,
802,-8.00e-02,8.00e-02,
803,8.00e-02,2.40e-01,
804,8.00e-02,1.60e-01,
805,-8.00e-02,8.00e-02,
806,0.00e+00,1.60e-01,
807,1.60e-01,8.00e-02,
808,1.60e-01,8.00e-02,
809,0.00e+00,2.40e-01,
810,8.00e-02,1.60e-01,
811,2.40e-01,8.00e-02,
812,1.60e-01,8.00e-02,
813,3.20e-01,2.40e-01,
814,2.40e-01,1.60e-01,
815,4.00e-01,8.00e-02,
816,3.20e-01,2.40e-01,
817,5.60e-01,8.00e-02,
818,4.80e-01,8.00e-02,
819,6.40e-01,2.40e-01,
820,5.60e-01,1.60e-01,
821,7.20e-01,8.00e-02,
822,6.40e-01,8.00e-02,
823,8.80e-01,2.40e-01,
824,7.20e-01,2.40e-01,
825,9.60e-01,5.04e+00,
826,8.80e-01,5.04e+00,
827,1.04e+00,4.88e+00,
828,9.60e-01,5.04e+00,
829,1.20e+00,4.88e+00,
830,1.12e+00,5.04e+00,
831,1.28e+00,4.88e+00,
832,1.20e+00,5.04e+00,
833,1.52e+00,4.88e+00,
834,1.44e+00,4.88e+00,
835,1.68e+00,5.12e+00,
836,1.60e+00,4.88e+00,
837,1.84e+00,5.12e+00,
838,1.68e+00,5.12e+00,
839,1.92e+00,4.88e+00,
840,1.84e+00,4.88e+00,
841,2.08e+00,5.12e+00,
842,2.00e+00,4.88e+00,
843,2.24e+00,5.12e+00,
844,2.08e+00,4.88e+00,
845,2.40e+00,5.20e+00,
846,2.32e+00,4.88e+00,
847,2.56e+00,5.20e+00,
848,2.48e+00,5.20e+00,
849,2.72e+00,4.88e+00,
850,2.64e+00,4.88e+00,
851,2.88e+00,5.20e+00,
852,2.80e+00,4.88e+00,
853,3.04e+00,5.20e+00,
854,2.88e+00,4.88e+00,
855,3.12e+00,5.20e+00,
856,3.04e+00,4.88e+00,
857,3.28e+00,5.20e+00,
858,3.28e+00,4.88e+00,
859,3.44e+00,5.20e+00,
860,3.36e+00,4.88e+00,
861,3.60e+00,5.20e+00,
862,3.52e+00,4.88e+00,
863,3.76e+00,5.20e+00,
864,3.60e+00,4.88e+00,
865,3.84e+00,5.20e+00,
866,3.76e+00,4.88e+00,
867,4.00e+00,5.20e+00,
868,3.84e+00,4.88e+00,
