project/matlab/project_exp3/80 kHz/NewFile1.csv

X,CH1,CH2,Start,Increment,
Sequence,Volt,Volt,6.900000e-04,5.000000e-08
0,5.04e+00,5.04e+00,
1,4.88e+00,4.88e+00,
2,4.88e+00,5.04e+00,
3,5.04e+00,4.88e+00,
4,4.88e+00,5.04e+00,
5,5.04e+00,4.88e+00,
6,4.88e+00,5.12e+00,
7,5.04e+00,4.88e+00,
8,4.96e+00,5.04e+00,
9,4.80e+00,4.88e+00,
10,4.80e+00,5.04e+00,
11,4.96e+00,4.88e+00,
12,4.80e+00,5.04e+00,
13,4.96e+00,4.88e+00,
14,4.88e+00,4.88e+00,
15,4.72e+00,5.12e+00,
16,4.72e+00,5.04e+00,
17,4.88e+00,4.88e+00,
18,4.80e+00,5.04e+00,
19,4.64e+00,4.88e+00,
20,4.72e+00,5.04e+00,
21,4.56e+00,4.88e+00,
22,4.64e+00,4.88e+00,
23,4.48e+00,5.20e+00,
24,4.48e+00,5.04e+00,
25,4.64e+00,4.88e+00,
26,4.40e+00,5.04e+00,
27,4.56e+00,4.88e+00,
28,4.40e+00,5.04e+00,
29,4.32e+00,4.96e+00,
30,4.32e+00,4.96e+00,
31,4.16e+00,5.12e+00,
32,4.24e+00,5.04e+00,
33,4.08e+00,4.96e+00,
34,4.16e+00,5.04e+00,
35,4.00e+00,4.88e+00,
36,4.08e+00,5.04e+00,
37,3.92e+00,4.96e+00,
38,4.00e+00,5.12e+00,
39,3.76e+00,4.88e+00,
40,3.92e+00,5.04e+00,
41,3.68e+00,4.88e+00,
42,3.76e+00,4.96e+00,
43,3.60e+00,5.04e+00,
44,3.60e+00,5.04e+00,
45,3.52e+00,4.88e+00,
46,3.60e+00,5.12e+00,
47,3.36e+00,4.88e+00,
48,3.36e+00,5.04e+00,
49,3.20e+00,4.96e+00,
50,3.28e+00,5.04e+00,
51,3.12e+00,4.88e+00,
52,3.20e+00,5.04e+00,
53,2.96e+00,4.96e+00,
54,3.04e+00,4.96e+00,
55,2.88e+00,5.12e+00,
56,2.96e+00,5.04e+00,
57,2.72e+00,4.96e+00,
58,2.80e+00,4.96e+00,
59,2.64e+00,5.04e+00,
60,2.72e+00,5.04e+00,
61,2.48e+00,4.96e+00,
62,2.56e+00,4.88e+00,
63,2.40e+00,5.12e+00,
64,2.40e+00,5.04e+00,
65,2.24e+00,4.96e+00,
66,2.32e+00,5.04e+00,
67,2.08e+00,4.96e+00,
68,2.16e+00,5.04e+00,
69,2.00e+00,4.96e+00,
70,2.08e+00,4.96e+00,
71,1.84e+00,5.12e+00,
72,1.92e+00,5.04e+00,
73,1.76e+00,4.96e+00,
74,1.84e+00,5.04e+00,
75,1.60e+00,4.96e+00,
76,1.68e+00,5.04e+00,
77,1.52e+00,4.96e+00,
78,1.60e+00,5.04e+00,
79,1.44e+00,4.96e+00,
80,1.44e+00,5.04e+00,
81,1.28e+00,4.88e+00,
82,1.36e+00,5.04e+00,
83,1.12e+00,4.88e+00,
84,1.20e+00,5.04e+00,
85,1.04e+00,4.96e+00,
86,1.12e+00,4.88e+00,
87,9.60e-01,5.12e+00,
88,1.04e+00,5.04e+00,
89,8.80e-01,4.88e+00,
90,9.60e-01,5.04e+00,
91,7.20e-01,4.96e+00,
92,8.00e-01,5.04e+00,
93,6.40e-01,4.88e+00,
94,8.00e-01,4.88e+00,
95,6.40e-01,5.12e+00,
96,6.40e-01,5.04e+00,
97,4.80e-01,4.88e+00,
98,4.80e-01,5.04e+00,
99,4.80e-01,4.88e+00,
100,4.80e-01,5.04e+00,
101,3.20e-01,4.88e+00,
102,4.00e-01,4.88e+00,
103,2.40e-01,5.12e+00,
104,3.20e-01,5.04e+00,
105,1.60e-01,4.96e+00,
106,2.40e-01,4.96e+00,
107,1.60e-01,5.04e+00,
108,2.40e-01,5.04e+00,
109,8.00e-02,4.88e+00,
110,1.60e-01,4.88e+00,
111,0.00e+00,5.12e+00,
112,1.60e-01,5.04e+00,
113,0.00e+00,4.96e+00,
114,0.00e+00,5.04e+00,
115,8.00e-02,4.96e+00,
116,8.00e-02,5.04e+00,
117,-8.00e-02,5.04e+00,
118,8.00e-02,5.04e+00,
119,-8.00e-02,4.24e+00,
120,-8.00e-02,4.24e+00,
121,0.00e+00,2.72e+00,
122,0.00e+00,2.64e+00,
123,-8.00e-02,1.20e+00,
124,0.00e+00,1.20e+00,
125,-8.00e-02,2.40e-01,
126,-8.00e-02,3.20e-01,
127,0.00e+00,1.60e-01,
128,-8.00e-02,2.40e-01,
129,0.00e+00,1.60e-01,
130,-8.00e-02,2.40e-01,
131,0.00e+00,1.60e-01,
132,-8.00e-02,2.40e-01,
133,8.00e-02,8.00e-02,
134,-8.00e-02,2.40e-01,
135,8.00e-02,8.00e-02,
136,8.00e-02,2.40e-01,
137,0.00e+00,8.00e-02,
138,0.00e+00,2.40e-01,
139,1.60e-01,1.60e-01,
140,8.00e-02,2.40e-01,
141,1.60e-01,1.60e-01,
142,8.00e-02,2.40e-01,
143,2.40e-01,1.60e-01,
144,1.60e-01,2.40e-01,
145,3.20e-01,8.00e-02,
146,3.20e-01,2.40e-01,
147,2.40e-01,1.60e-01,
148,2.40e-01,2.40e-01,
149,4.00e-01,8.00e-02,
150,4.80e-01,2.40e-01,
151,3.20e-01,8.00e-02,
152,4.80e-01,2.40e-01,
153,6.40e-01,1.60e-01,
154,5.60e-01,2.40e-01,
155,7.20e-01,8.00e-02,
156,6.40e-01,2.40e-01,
157,8.00e-01,1.60e-01,
158,7.20e-01,2.40e-01,
159,8.80e-01,8.00e-02,
160,8.00e-01,2.40e-01,
161,9.60e-01,1.60e-01,
162,8.80e-01,2.40e-01,
163,1.04e+00,1.60e-01,
164,1.04e+00,2.40e-01,
165,1.20e+00,1.60e-01,
166,1.12e+00,2.40e-01,
167,1.28e+00,1.60e-01,
168,1.20e+00,2.40e-01,
169,1.36e+00,1.60e-01,
170,1.28e+00,3.20e-01,
171,1.52e+00,1.60e-01,
172,1.52e+00,3.20e-01,
173,1.68e+00,6.40e-01,
174,1.60e+00,5.60e-01,
175,1.76e+00,1.12e+00,
176,1.68e+00,1.04e+00,
177,1.84e+00,1.60e+00,
178,1.84e+00,1.60e+00,
179,2.00e+00,2.16e+00,
180,1.92e+00,2.16e+00,
181,2.16e+00,2.72e+00,
182,2.00e+00,2.64e+00,
183,2.24e+00,3.20e+00,
184,2.16e+00,3.12e+00,
185,2.32e+00,3.60e+00,
186,2.24e+00,3.52e+00,
187,2.56e+00,4.00e+00,
188,2.48e+00,3.92e+00,
189,2.64e+00,4.32e+00,
190,2.56e+00,4.24e+00,
191,2.80e+00,4.64e+00,
192,2.72e+00,4.48e+00,
193,2.88e+00,4.80e+00,
194,2.80e+00,4.72e+00,
195,3.04e+00,4.96e+00,
196,2.96e+00,4.88e+00,
197,3.12e+00,5.04e+00,
198,3.04e+00,5.04e+00,
199,3.20e+00,4.88e+00,
200,3.12e+00,5.04e+00,
201,3.36e+00,4.88e+00,
202,3.36e+00,5.04e+00,
203,3.52e+00,4.88e+00,
204,3.44e+00,4.96e+00,
205,3.60e+00,5.04e+00,
206,3.52e+00,5.04e+00,
207,3.76e+00,4.88e+00,
208,3.68e+00,5.04e+00,
209,3.84e+00,4.88e+00,
210,3.76e+00,5.04e+00,
211,3.92e+00,4.88e+00,
212,3.84e+00,5.04e+00,
213,4.00e+00,4.88e+00,
214,3.92e+00,5.04e+00,
215,4.16e+00,4.88e+00,
216,4.00e+00,5.04e+00,
217,4.24e+00,4.88e+00,
218,4.16e+00,4.88e+00,
219,4.32e+00,5.04e+00,
220,4.16e+00,5.04e+00,
221,4.40e+00,4.88e+00,
222,4.32e+00,4.88e+00,
223,4.48e+00,5.12e+00,
224,4.40e+00,4.88e+00,
225,4.56e+00,5.04e+00,
226,4.48e+00,5.04e+00,
227,4.64e+00,4.88e+00,
228,4.56e+00,4.96e+00,
229,4.72e+00,5.04e+00,
230,4.64e+00,4.88e+00,
231,4.80e+00,5.04e+00,
232,4.64e+00,5.04e+00,
233,4.80e+00,4.88e+00,
234,4.72e+00,4.88e+00,
235,4.88e+00,5.04e+00,
236,4.72e+00,5.04e+00,
237,4.88e+00,4.88e+00,
238,4.80e+00,4.96e+00,
239,4.96e+00,5.12e+00,
240,4.96e+00,5.04e+00,
241,4.80e+00,4.88e+00,
242,4.96e+00,4.96e+00,
243,4.88e+00,5.04e+00,
244,4.88e+00,5.04e+00,
245,5.04e+00,4.96e+00,
246,4.88e+00,4.88e+00,
247,5.04e+00,5.12e+00,
248,5.04e+00,4.96e+00,
249,4.88e+00,5.04e+00,
250,4.88e+00,4.88e+00,
251,5.04e+00,5.04e+00,
252,4.88e+00,5.04e+00,
253,5.04e+00,4.88e+00,
254,5.04e+00,4.88e+00,
255,4.88e+00,5.12e+00,
256,4.96e+00,5.04e+00,
257,4.88e+00,4.88e+00,
258,4.88e+00,5.04e+00,
259,4.96e+00,4.88e+00,
260,4.96e+00,5.04e+00,
261,4.80e+00,4.88e+00,
262,4.96e+00,4.88e+00,
263,4.72e+00,5.12e+00,
264,4.88e+00,5.04e+00,
265,4.72e+00,4.88e+00,
266,4.88e+00,4.96e+00,
267,4.72e+00,5.04e+00,
268,4.80e+00,5.04e+00,
269,4.64e+00,4.96e+00,
270,4.72e+00,4.88e+00,
271,4.56e+00,5.12e+00,
272,4.56e+00,5.04e+00,
273,4.64e+00,4.96e+00,
274,4.64e+00,5.04e+00,
275,4.48e+00,4.88e+00,
276,4.48e+00,5.04e+00,
277,4.40e+00,4.88e+00,
278,4.40e+00,4.88e+00,
279,4.32e+00,5.12e+00,
280,4.32e+00,5.04e+00,
281,4.16e+00,4.88e+00,
282,4.24e+00,5.04e+00,
283,4.08e+00,4.96e+00,
284,4.16e+00,5.04e+00,
285,4.00e+00,4.88e+00,
286,4.08e+00,4.96e+00,
287,3.92e+00,5.12e+00,
288,4.00e+00,5.04e+00,
289,3.76e+00,4.96e+00,
290,3.84e+00,4.96e+00,
291,3.68e+00,5.04e+00,
292,3.76e+00,5.04e+00,
293,3.60e+00,4.88e+00,
294,3.68e+00,4.88e+00,
295,3.52e+00,5.12e+00,
296,3.52e+00,5.04e+00,
297,3.36e+00,4.88e+00,
298,3.36e+00,5.04e+00,
299,3.20e+00,4.88e+00,
300,3.28e+00,5.04e+00,
301,3.12e+00,4.88e+00,
302,3.20e+00,4.88e+00,
303,2.96e+00,5.12e+00,
304,3.04e+00,5.04e+00,
305,2.88e+00,4.88e+00,
306,2.96e+00,5.04e+00,
307,2.72e+00,4.88e+00,
308,2.80e+00,5.04e+00,
309,2.64e+00,4.88e+00,
310,2.72e+00,4.96e+00,
311,2.48e+00,5.12e+00,
312,2.56e+00,5.04e+00,
313,2.40e+00,4.96e+00,
314,2.40e+00,5.04e+00,
315,2.24e+00,4.88e+00,
316,2.32e+00,5.04e+00,
317,2.08e+00,4.96e+00,
318,2.16e+00,4.96e+00,
319,2.00e+00,5.12e+00,
320,2.08e+00,5.04e+00,
321,1.84e+00,4.96e+00,
322,1.92e+00,5.04e+00,
323,1.76e+00,4.96e+00,
324,1.84e+00,5.04e+00,
325,1.60e+00,4.88e+00,
326,1.68e+00,4.96e+00,
327,1.52e+00,5.12e+00,
328,1.60e+00,5.04e+00,
329,1.44e+00,4.96e+00,
330,1.44e+00,5.04e+00,
331,1.28e+00,4.96e+00,
332,1.36e+00,5.04e+00,
333,1.12e+00,4.88e+00,
334,1.20e+00,4.88e+00,
335,1.04e+00,5.12e+00,
336,1.12e+00,5.04e+00,
337,9.60e-01,4.96e+00,
338,1.04e+00,5.04e+00,
339,8.80e-01,4.88e+00,
340,9.60e-01,5.04e+00,
341,8.00e-01,4.96e+00,
342,8.80e-01,4.88e+00,
343,7.20e-01,5.12e+00,
344,7.20e-01,5.04e+00,
345,5.60e-01,4.96e+00,
346,7.20e-01,5.04e+00,
347,4.80e-01,4.88e+00,
348,4.80e-01,5.04e+00,
349,5.60e-01,4.88e+00,
350,4.80e-01,4.88e+00,
351,3.20e-01,5.12e+00,
352,4.00e-01,5.04e+00,
353,2.40e-01,4.88e+00,
354,3.20e-01,5.04e+00,
355,1.60e-01,4.96e+00,
356,2.40e-01,5.04e+00,
357,1.60e-01,4.96e+00,
358,2.40e-01,4.88e+00,
359,8.00e-02,5.12e+00,
360,1.60e-01,5.04e+00,
361,0.00e+00,4.96e+00,
362,1.60e-01,5.04e+00,
363,0.00e+00,4.96e+00,
364,8.00e-02,5.04e+00,
365,0.00e+00,4.96e+00,
366,8.00e-02,4.96e+00,
367,-8.00e-02,5.12e+00,
368,-8.00e-02,5.04e+00,
369,0.00e+00,4.32e+00,
370,-8.00e-02,4.24e+00,
371,0.00e+00,2.72e+00,
372,0.00e+00,2.64e+00,
373,-8.00e-02,1.20e+00,
374,-8.00e-02,1.20e+00,
375,0.00e+00,3.20e-01,
376,0.00e+00,3.20e-01,
377,-8.00e-02,1.60e-01,
378,-8.00e-02,2.40e-01,
379,0.00e+00,1.60e-01,
380,0.00e+00,2.40e-01,
381,-8.00e-02,1.60e-01,
382,-8.00e-02,2.40e-01,
383,8.00e-02,8.00e-02,
384,-8.00e-02,1.60e-01,
385,8.00e-02,2.40e-01,
386,0.00e+00,2.40e-01,
387,8.00e-02,1.60e-01,
388,0.00e+00,2.40e-01,
389,1.60e-01,1.60e-01,
390,8.00e-02,2.40e-01,
391,1.60e-01,8.00e-02,
392,8.00e-02,2.40e-01,
393,2.40e-01,1.60e-01,
394,1.60e-01,2.40e-01,
395,3.20e-01,1.60e-01,
396,3.20e-01,2.40e-01,
397,2.40e-01,8.00e-02,
398,2.40e-01,2.40e-01,
399,4.00e-01,8.00e-02,
400,4.00e-01,2.40e-01,
401,4.80e-01,1.60e-01,
402,4.00e-01,2.40e-01,
403,5.60e-01,8.00e-02,
404,5.60e-01,2.40e-01,
405,7.20e-01,1.60e-01,
406,6.40e-01,1.60e-01,
407,8.00e-01,2.40e-01,
408,7.20e-01,2.40e-01,
409,8.80e-01,1.60e-01,
410,8.00e-01,2.40e-01,
411,9.60e-01,1.60e-01,
412,8.80e-01,2.40e-01,
413,1.04e+00,1.60e-01,
414,1.04e+00,2.40e-01,
415,1.20e+00,1.60e-01,
416,1.12e+00,2.40e-01,
417,1.28e+00,1.60e-01,
418,1.20e+00,2.40e-01,
419,1.36e+00,1.60e-01,
420,1.28e+00,1.60e-01,
421,1.52e+00,3.20e-01,
422,1.52e+00,3.20e-01,
423,1.68e+00,5.60e-01,
424,1.60e+00,5.60e-01,
425,1.76e+00,1.04e+00,
426,1.68e+00,1.04e+00,
427,1.92e+00,1.68e+00,
428,1.84e+00,1.60e+00,
429,2.00e+00,2.16e+00,
430,1.92e+00,2.16e+00,
431,2.08e+00,2.72e+00,
432,2.08e+00,2.64e+00,
433,2.24e+00,3.20e+00,
434,2.16e+00,3.12e+00,
435,2.32e+00,3.60e+00,
436,2.32e+00,3.52e+00,
437,2.48e+00,4.00e+00,
438,2.48e+00,3.92e+00,
439,2.64e+00,4.32e+00,
440,2.56e+00,4.24e+00,
441,2.80e+00,4.56e+00,
442,2.72e+00,4.48e+00,
443,2.88e+00,4.80e+00,
444,2.80e+00,4.72e+00,
445,3.04e+00,4.96e+00,
446,2.96e+00,4.88e+00,
447,3.12e+00,5.04e+00,
448,3.04e+00,4.96e+00,
449,3.20e+00,5.04e+00,
450,3.12e+00,5.04e+00,
451,3.36e+00,4.88e+00,
452,3.36e+00,5.04e+00,
453,3.52e+00,4.88e+00,
454,3.44e+00,4.88e+00,
455,3.60e+00,5.12e+00,
456,3.52e+00,4.96e+00,
457,3.76e+00,5.04e+00,
458,3.68e+00,5.04e+00,
459,3.76e+00,4.88e+00,
460,3.76e+00,5.04e+00,
461,3.92e+00,4.88e+00,
462,3.84e+00,5.04e+00,
463,4.00e+00,4.88e+00,
464,3.92e+00,4.88e+00,
465,4.16e+00,5.04e+00,
466,4.00e+00,5.04e+00,
467,4.24e+00,4.88e+00,
468,4.08e+00,5.04e+00,
469,4.32e+00,4.88e+00,
470,4.24e+00,4.88e+00,
471,4.40e+00,5.12e+00,
472,4.32e+00,5.04e+00,
473,4.56e+00,4.88e+00,
474,4.40e+00,5.04e+00,
475,4.56e+00,4.88e+00,
476,4.48e+00,5.04e+00,
477,4.64e+00,4.88e+00,
478,4.56e+00,4.96e+00,
479,4.72e+00,5.12e+00,
480,4.64e+00,5.04e+00,
481,4.80e+00,4.88e+00,
482,4.64e+00,5.04e+00,
483,4.80e+00,4.88e+00,
484,4.72e+00,5.04e+00,
485,4.88e+00,4.88e+00,
486,4.72e+00,4.96e+00,
487,4.88e+00,5.12e+00,
488,4.80e+00,5.04e+00,
489,4.96e+00,4.88e+00,
490,4.96e+00,5.04e+00,
491,4.80e+00,4.88e+00,
492,4.96e+00,5.04e+00,
493,4.88e+00,4.96e+00,
494,4.88e+00,4.88e+00,
495,5.04e+00,5.12e+00,
496,5.04e+00,5.04e+00,
497,4.88e+00,4.88e+00,
498,4.88e+00,5.04e+00,
499,5.04e+00,4.88e+00,
500,5.04e+00,4.88e+00,
501,4.88e+00,5.04e+00,
502,4.88e+00,4.88e+00,
503,5.04e+00,5.12e+00,
504,4.88e+00,5.04e+00,
505,5.04e+00,4.88e+00,
506,4.96e+00,5.04e+00,
507,4.88e+00,4.88e+00,
508,4.96e+00,4.88e+00,
509,4.80e+00,5.04e+00,
510,4.96e+00,4.88e+00,
511,4.80e+00,5.12e+00,
512,4.80e+00,5.04e+00,
513,4.88e+00,4.88e+00,
514,4.88e+00,5.04e+00,
515,4.72e+00,4.88e+00,
516,4.72e+00,5.04e+00,
517,4.88e+00,4.88e+00,
518,4.64e+00,4.96e+00,
519,4.80e+00,5.12e+00,
520,4.72e+00,5.04e+00,
521,4.56e+00,4.88e+00,
522,4.72e+00,5.04e+00,
523,4.48e+00,4.88e+00,
524,4.48e+00,5.04e+00,
525,4.64e+00,4.96e+00,
526,4.40e+00,5.12e+00,
527,4.56e+00,4.88e+00,
528,4.40e+00,5.04e+00,
529,4.32e+00,4.96e+00,
530,4.32e+00,5.04e+00,
531,4.16e+00,4.96e+00,
532,4.24e+00,5.04e+00,
533,4.08e+00,4.96e+00,
534,4.16e+00,4.88e+00,
535,4.00e+00,5.12e+00,
536,4.08e+00,5.04e+00,
537,3.92e+00,4.96e+00,
538,4.00e+00,5.04e+00,
539,3.76e+00,4.96e+00,
540,3.92e+00,5.04e+00,
541,3.68e+00,4.88e+00,
542,3.76e+00,4.88e+00,
543,3.60e+00,5.12e+00,
544,3.60e+00,5.04e+00,
545,3.52e+00,4.88e+00,
546,3.60e+00,5.04e+00,
547,3.36e+00,4.88e+00,
548,3.36e+00,5.04e+00,
549,3.20e+00,4.88e+00,
550,3.28e+00,5.12e+00,
551,3.04e+00,4.88e+00,
552,3.20e+00,5.04e+00,
553,2.96e+00,4.88e+00,
554,3.04e+00,5.04e+00,
555,2.88e+00,4.96e+00,
556,2.96e+00,5.04e+00,
557,2.72e+00,4.96e+00,
558,2.80e+00,4.88e+00,
559,2.64e+00,5.12e+00,
560,2.72e+00,5.04e+00,
561,2.48e+00,4.96e+00,
562,2.56e+00,5.04e+00,
563,2.40e+00,4.96e+00,
564,2.40e+00,5.04e+00,
565,2.24e+00,4.96e+00,
566,2.32e+00,4.88e+00,
567,2.08e+00,5.20e+00,
568,2.16e+00,5.04e+00,
569,2.00e+00,4.88e+00,
570,2.08e+00,5.04e+00,
571,1.84e+00,4.88e+00,
572,1.92e+00,5.04e+00,
573,1.76e+00,4.88e+00,
574,1.84e+00,4.96e+00,
575,1.60e+00,5.12e+00,
576,1.68e+00,5.04e+00,
577,1.52e+00,4.96e+00,
578,1.52e+00,5.04e+00,
579,1.44e+00,4.96e+00,
580,1.44e+00,5.04e+00,
581,1.28e+00,4.88e+00,
582,1.28e+00,5.12e+00,
583,1.12e+00,4.88e+00,
584,1.20e+00,5.04e+00,
585,1.04e+00,4.96e+00,
586,1.12e+00,5.04e+00,
587,9.60e-01,4.88e+00,
588,1.04e+00,5.04e+00,
589,8.80e-01,4.88e+00,
590,9.60e-01,4.88e+00,
591,7.20e-01,5.12e+00,
592,8.00e-01,5.04e+00,
593,6.40e-01,4.88e+00,
594,6.40e-01,5.04e+00,
595,7.20e-01,4.88e+00,
596,6.40e-01,4.96e+00,
597,4.80e-01,5.04e+00,
598,5.60e-01,4.88e+00,
599,4.80e-01,5.12e+00,
600,4.80e-01,5.04e+00,
601,3.20e-01,4.96e+00,
602,4.00e-01,5.04e+00,
603,2.40e-01,4.88e+00,
604,3.20e-01,5.04e+00,
605,1.60e-01,4.96e+00,
606,2.40e-01,4.88e+00,
607,1.60e-01,5.12e+00,
608,2.40e-01,5.04e+00,
609,8.00e-02,4.88e+00,
610,1.60e-01,5.04e+00,
611,0.00e+00,4.88e+00,
612,0.00e+00,5.04e+00,
613,1.60e-01,4.88e+00,
614,8.00e-02,4.96e+00,
615,0.00e+00,5.12e+00,
616,8.00e-02,5.04e+00,
617,-8.00e-02,4.88e+00,
618,-8.00e-02,5.04e+00,
619,8.00e-02,4.32e+00,
620,-8.00e-02,4.24e+00,
621,0.00e+00,2.80e+00,
622,-8.00e-02,2.72e+00,
623,0.00e+00,1.20e+00,
624,0.00e+00,1.20e+00,
625,-8.00e-02,3.20e-01,
626,-8.00e-02,3.20e-01,
627,0.00e+00,1.60e-01,
628,0.00e+00,1.60e-01,
629,-8.00e-02,2.40e-01,
630,-8.00e-02,2.40e-01,
631,0.00e+00,8.00e-02,
632,-8.00e-02,2.40e-01,
633,8.00e-02,8.00e-02,
634,-8.00e-02,2.40e-01,
635,8.00e-02,8.00e-02,
636,8.00e-02,2.40e-01,
637,0.00e+00,1.60e-01,
638,0.00e+00,2.40e-01,
639,1.60e-01,1.60e-01,
640,1.60e-01,2.40e-01,
641,8.00e-02,8.00e-02,
642,8.00e-02,2.40e-01,
643,2.40e-01,1.60e-01,
644,1.60e-01,2.40e-01,
645,3.20e-01,1.60e-01,
646,3.20e-01,2.40e-01,
647,2.40e-01,8.00e-02,
648,4.00e-01,2.40e-01,
649,2.40e-01,8.00e-02,
650,4.00e-01,2.40e-01,
651,4.80e-01,8.00e-02,
652,4.80e-01,2.40e-01,
653,6.40e-01,8.00e-02,
654,5.60e-01,2.40e-01,
655,6.40e-01,8.00e-02,
656,6.40e-01,2.40e-01,
657,8.00e-01,1.60e-01,
658,7.20e-01,2.40e-01,
659,8.80e-01,8.00e-02,
660,8.00e-01,2.40e-01,
661,9.60e-01,8.00e-02,
662,8.80e-01,1.60e-01,
663,1.04e+00,2.40e-01,
664,1.04e+00,2.40e-01,
665,1.20e+00,1.60e-01,
666,1.12e+00,2.40e-01,
667,1.28e+00,1.60e-01,
668,1.20e+00,2.40e-01,
669,1.36e+00,1.60e-01,
670,1.28e+00,1.60e-01,
671,1.52e+00,3.20e-01,
672,1.52e+00,3.20e-01,
673,1.68e+00,6.40e-01,
674,1.60e+00,5.60e-01,
675,1.76e+00,1.12e+00,
676,1.68e+00,1.04e+00,
677,1.92e+00,1.68e+00,
678,1.84e+00,1.60e+00,
679,2.00e+00,2.16e+00,
680,1.92e+00,2.16e+00,
681,2.16e+00,2.72e+00,
682,2.08e+00,2.64e+00,
683,2.24e+00,3.20e+00,
684,2.16e+00,3.12e+00,
685,2.32e+00,3.60e+00,
686,2.24e+00,3.52e+00,
687,2.56e+00,4.00e+00,
688,2.48e+00,3.84e+00,
689,2.64e+00,4.32e+00,
690,2.56e+00,4.24e+00,
691,2.80e+00,4.64e+00,
692,2.72e+00,4.48e+00,
693,2.88e+00,4.80e+00,
694,2.80e+00,4.72e+00,
695,3.04e+00,4.96e+00,
696,2.88e+00,4.88e+00,
697,3.12e+00,5.04e+00,
698,3.04e+00,5.04e+00,
699,3.20e+00,4.88e+00,
700,3.12e+00,5.04e+00,
701,3.36e+00,4.88e+00,
702,3.36e+00,4.96e+00,
703,3.52e+00,5.12e+00,
704,3.44e+00,5.04e+00,
705,3.60e+00,4.88e+00,
706,3.52e+00,5.04e+00,
707,3.76e+00,4.88e+00,
708,3.68e+00,5.04e+00,
709,3.84e+00,4.88e+00,
710,3.76e+00,4.88e+00,
711,3.92e+00,5.12e+00,
712,3.84e+00,5.04e+00,
713,4.00e+00,4.88e+00,
714,3.92e+00,5.04e+00,
715,4.16e+00,4.88e+00,
716,4.00e+00,4.88e+00,
717,4.24e+00,5.04e+00,
718,4.08e+00,4.88e+00,
719,4.32e+00,5.20e+00,
720,4.16e+00,5.04e+00,
721,4.40e+00,4.88e+00,
722,4.32e+00,5.04e+00,
723,4.48e+00,4.88e+00,
724,4.40e+00,5.04e+00,
725,4.56e+00,4.88e+00,
726,4.48e+00,4.96e+00,
727,4.64e+00,5.12e+00,
728,4.56e+00,5.04e+00,
729,4.72e+00,4.96e+00,
730,4.64e+00,4.96e+00,
731,4.72e+00,5.04e+00,
732,4.80e+00,5.04e+00,
733,4.64e+00,4.88e+00,
734,4.72e+00,4.88e+00,
735,4.88e+00,5.20e+00,
736,4.72e+00,5.04e+00,
737,4.88e+00,4.88e+00,
738,4.80e+00,5.04e+00,
739,4.96e+00,4.88e+00,
740,4.96e+00,5.04e+00,
741,4.80e+00,4.96e+00,
742,4.96e+00,4.88e+00,
743,4.88e+00,5.12e+00,
744,4.88e+00,5.04e+00,
745,5.04e+00,4.96e+00,
746,5.04e+00,4.96e+00,
747,4.88e+00,5.04e+00,
748,5.04e+00,5.04e+00,
749,4.88e+00,4.96e+00,
750,4.88e+00,4.88e+00,
751,5.04e+00,5.12e+00,
752,4.88e+00,5.04e+00,
753,5.04e+00,4.88e+00,
754,5.04e+00,5.04e+00,
755,4.88e+00,4.88e+00,
756,4.88e+00,5.04e+00,
757,4.96e+00,4.88e+00,
758,4.96e+00,5.12e+00,
759,4.80e+00,4.88e+00,
760,4.96e+00,5.04e+00,
761,4.80e+00,4.96e+00,
762,4.80e+00,5.04e+00,
763,4.88e+00,4.96e+00,
764,4.88e+00,5.04e+00,
765,4.72e+00,4.96e+00,
766,4.88e+00,4.96e+00,
767,4.64e+00,5.12e+00,
768,4.80e+00,5.04e+00,
769,4.64e+00,4.88e+00,
770,4.72e+00,5.04e+00,
771,4.56e+00,4.88e+00,
772,4.72e+00,5.04e+00,
773,4.56e+00,4.88e+00,
774,4.48e+00,5.12e+00,
775,4.64e+00,4.88e+00,
776,4.56e+00,5.04e+00,
777,4.40e+00,4.96e+00,
778,4.40e+00,5.04e+00,
779,4.32e+00,4.88e+00,
780,4.32e+00,4.96e+00,
781,4.24e+00,5.04e+00,
782,4.24e+00,4.96e+00,
783,4.08e+00,5.12e+00,
784,4.16e+00,5.04e+00,
785,4.00e+00,4.88e+00,
786,4.08e+00,4.96e+00,
787,3.92e+00,5.04e+00,
788,4.00e+00,4.96e+00,
789,3.76e+00,5.04e+00,
790,3.84e+00,5.20e+00,
791,3.68e+00,4.88e+00,
792,3.76e+00,5.04e+00,
793,3.60e+00,4.96e+00,
794,3.68e+00,5.04e+00,
795,3.52e+00,4.88e+00,
796,3.52e+00,5.04e+00,
797,3.36e+00,4.88e+00,
798,3.36e+00,4.88e+00,
799,3.20e+00,5.12e+00,
800,3.28e+00,5.04e+00,
801,3.12e+00,4.96e+00,
802,3.20e+00,5.04e+00,
803,2.96e+00,4.88e+00,
804,3.04e+00,4.96e+00,
805,2.88e+00,5.04e+00,
806,2.96e+00,4.88e+00,
807,2.72e+00,5.12e+00,
808,2.80e+00,5.04e+00,
809,2.64e+00,4.96e+00,
810,2.72e+00,5.04e+00,
811,2.48e+00,4.88e+00,
812,2.56e+00,5.04e+00,
813,2.40e+00,4.96e+00,
814,2.40e+00,4.96e+00,
815,2.24e+00,5.12e+00,
816,2.32e+00,5.04e+00,
817,2.08e+00,4.96e+00,
818,2.16e+00,5.04e+00,
819,2.00e+00,4.88e+00,
820,2.08e+00,5.04e+00,
821,1.84e+00,4.88e+00,
822,1.92e+00,4.96e+00,
823,1.76e+00,5.12e+00,
824,1.84e+00,5.04e+00,
825,1.60e+00,4.88e+00,
826,1.68e+00,5.04e+00,
827,1.52e+00,4.96e+00,
828,1.60e+00,5.04e+00,
829,1.44e+00,4.96e+00,
830,1.44e+00,4.96e+00,
831,1.28e+00,5.12e+00,
832,1.36e+00,5.04e+00,
833,1.12e+00,4.96e+00,
834,1.20e+00,5.04e+00,
835,1.04e+00,4.88e+00,
836,1.12e+00,5.04e+00,
837,9.60e-01,4.96e+00,
838,1.04e+00,4.88e+00,
839,8.80e-01,5.12e+00,
840,9.60e-01,5.04e+00,
841,8.00e-01,4.88e+00,
842,8.00e-01,5.04e+00,
843,6.40e-01,4.96e+00,
844,7.20e-01,5.04e+00,
845,5.60e-01,4.88e+00,
846,6.40e-01,4.88e+00,
847,4.80e-01,5.12e+00,
848,5.60e-01,5.04e+00,
849,4.80e-01,4.96e+00,
850,4.80e-01,5.04e+00,
851,3.20e-01,4.96e+00,
852,4.00e-01,5.04e+00,
853,2.40e-01,4.88e+00,
854,3.20e-01,4.96e+00,
855,1.60e-01,5.12e+00,
856,1.60e-01,5.04e+00,
857,2.40e-01,4.96e+00,
858,2.40e-01,5.04e+00,
859,8.00e-02,4.88e+00,
860,1.60e-01,4.96e+00,
861,0.00e+00,5.04e+00,
862,1.60e-01,4.88e+00,
863,0.00e+00,5.12e+00,
864,8.00e-02,5.04e+00,
865,0.00e+00,4.96e+00,
866,8.00e-02,5.04e+00,
867,-8.00e-02,5.04e+00,
868,0.00e+00,5.04e+00,
