project/matlab/project_exp3/95 kHz/NewFile1.csv

X,CH1,CH2,Start,Increment,
Sequence,Volt,Volt,6.900000e-04,5.000000e-08
0,1.04e+00,5.04e+00,
1,8.80e-01,4.88e+00,
2,8.80e-01,5.04e+00,
3,7.20e-01,4.88e+00,
4,8.00e-01,5.04e+00,
5,6.40e-01,4.88e+00,
6,7.20e-01,4.88e+00,
7,5.60e-01,5.12e+00,
8,6.40e-01,5.04e+00,
9,4.80e-01,4.88e+00,
10,4.80e-01,5.04e+00,
11,3.20e-01,4.88e+00,
12,4.00e-01,5.04e+00,
13,2.40e-01,4.88e+00,
14,3.20e-01,4.88e+00,
15,1.60e-01,5.12e+00,
16,2.40e-01,5.04e+00,
17,8.00e-02,4.88e+00,
18,8.00e-02,5.04e+00,
19,1.60e-01,4.96e+00,
20,1.60e-01,5.04e+00,
21,0.00e+00,4.88e+00,
22,0.00e+00,5.12e+00,
23,8.00e-02,4.88e+00,
24,8.00e-02,5.04e+00,
25,-8.00e-02,4.88e+00,
26,-8.00e-02,5.04e+00,
27,0.00e+00,4.96e+00,
28,0.00e+00,5.04e+00,
29,-8.00e-02,3.84e+00,
30,0.00e+00,3.92e+00,
31,-8.00e-02,2.24e+00,
32,-8.00e-02,2.24e+00,
33,0.00e+00,8.00e-01,
34,0.00e+00,8.00e-01,
35,-8.00e-02,2.40e-01,
36,0.00e+00,2.40e-01,
37,-8.00e-02,2.40e-01,
38,-8.00e-02,1.60e-01,
39,8.00e-02,2.40e-01,
40,8.00e-02,2.40e-01,
41,0.00e+00,1.60e-01,
42,0.00e+00,2.40e-01,
43,1.60e-01,8.00e-02,
44,8.00e-02,2.40e-01,
45,1.60e-01,8.00e-02,
46,2.40e-01,2.40e-01,
47,8.00e-02,1.60e-01,
48,1.60e-01,2.40e-01,
49,3.20e-01,1.60e-01,
50,2.40e-01,2.40e-01,
51,4.00e-01,8.00e-02,
52,3.20e-01,2.40e-01,
53,4.80e-01,8.00e-02,
54,4.80e-01,2.40e-01,
55,5.60e-01,8.00e-02,
56,5.60e-01,2.40e-01,
57,7.20e-01,1.60e-01,
58,6.40e-01,2.40e-01,
59,8.00e-01,8.00e-02,
60,7.20e-01,2.40e-01,
61,9.60e-01,1.60e-01,
62,8.80e-01,2.40e-01,
63,1.04e+00,1.60e-01,
64,9.60e-01,2.40e-01,
65,1.20e+00,1.60e-01,
66,1.12e+00,2.40e-01,
67,1.28e+00,1.60e-01,
68,1.20e+00,2.40e-01,
69,1.44e+00,1.60e-01,
70,1.44e+00,2.40e-01,
71,1.60e+00,3.20e-01,
72,1.52e+00,3.20e-01,
73,1.76e+00,4.80e-01,
74,1.68e+00,4.80e-01,
75,1.92e+00,9.60e-01,
76,1.84e+00,9.60e-01,
77,2.00e+00,1.52e+00,
78,1.92e+00,1.44e+00,
79,2.16e+00,2.08e+00,
80,2.08e+00,2.08e+00,
81,2.32e+00,2.64e+00,
82,2.32e+00,2.56e+00,
83,2.40e+00,3.12e+00,
84,2.40e+00,3.04e+00,
85,2.64e+00,3.52e+00,
86,2.56e+00,3.52e+00,
87,2.80e+00,3.92e+00,
88,2.72e+00,3.84e+00,
89,2.88e+00,4.32e+00,
90,2.88e+00,4.16e+00,
91,3.04e+00,4.56e+00,
92,2.96e+00,4.48e+00,
93,3.20e+00,4.80e+00,
94,3.12e+00,4.72e+00,
95,3.28e+00,4.96e+00,
96,3.20e+00,4.80e+00,
97,3.52e+00,5.04e+00,
98,3.44e+00,4.88e+00,
99,3.68e+00,5.04e+00,
100,3.52e+00,4.88e+00,
101,3.76e+00,5.04e+00,
102,3.68e+00,4.88e+00,
103,3.92e+00,5.12e+00,
104,3.84e+00,5.04e+00,
105,4.00e+00,4.88e+00,
106,3.92e+00,5.04e+00,
107,4.08e+00,4.88e+00,
108,4.08e+00,5.04e+00,
109,4.24e+00,4.88e+00,
110,4.16e+00,5.12e+00,
111,4.32e+00,4.88e+00,
112,4.32e+00,5.04e+00,
113,4.40e+00,4.88e+00,
114,4.40e+00,5.04e+00,
115,4.56e+00,4.88e+00,
116,4.48e+00,4.96e+00,
117,4.64e+00,5.04e+00,
118,4.56e+00,4.88e+00,
119,4.72e+00,5.12e+00,
120,4.64e+00,5.04e+00,
121,4.80e+00,4.88e+00,
122,4.64e+00,5.04e+00,
123,4.80e+00,4.88e+00,
124,4.72e+00,5.04e+00,
125,4.88e+00,4.88e+00,
126,4.80e+00,4.88e+00,
127,4.96e+00,5.12e+00,
128,4.80e+00,5.04e+00,
129,4.96e+00,4.88e+00,
130,4.96e+00,5.04e+00,
131,4.88e+00,4.88e+00,
132,4.88e+00,5.04e+00,
133,5.04e+00,4.88e+00,
134,5.04e+00,5.12e+00,
135,4.88e+00,4.88e+00,
136,5.04e+00,5.04e+00,
137,4.88e+00,4.88e+00,
138,5.04e+00,5.04e+00,
139,4.88e+00,4.88e+00,
140,5.04e+00,5.04e+00,
141,4.88e+00,4.88e+00,
142,4.88e+00,5.12e+00,
143,5.04e+00,4.88e+00,
144,4.96e+00,4.88e+00,
145,4.80e+00,5.04e+00,
146,4.80e+00,5.04e+00,
147,4.96e+00,4.88e+00,
148,4.88e+00,5.04e+00,
149,4.72e+00,4.96e+00,
150,4.88e+00,4.88e+00,
151,4.64e+00,5.12e+00,
152,4.80e+00,5.04e+00,
153,4.64e+00,4.88e+00,
154,4.72e+00,4.96e+00,
155,4.56e+00,5.04e+00,
156,4.64e+00,5.04e+00,
157,4.48e+00,4.88e+00,
158,4.56e+00,5.04e+00,
159,4.40e+00,4.88e+00,
160,4.48e+00,4.96e+00,
161,4.32e+00,5.04e+00,
162,4.32e+00,5.04e+00,
163,4.16e+00,4.88e+00,
164,4.24e+00,5.04e+00,
165,4.00e+00,4.96e+00,
166,4.16e+00,4.88e+00,
167,3.92e+00,5.12e+00,
168,4.00e+00,5.04e+00,
169,3.84e+00,4.88e+00,
170,3.92e+00,5.04e+00,
171,3.68e+00,4.88e+00,
172,3.76e+00,5.04e+00,
173,3.60e+00,4.88e+00,
174,3.60e+00,4.88e+00,
175,3.44e+00,5.12e+00,
176,3.44e+00,5.04e+00,
177,3.36e+00,4.88e+00,
178,3.36e+00,5.04e+00,
179,3.20e+00,4.88e+00,
180,3.20e+00,5.04e+00,
181,2.96e+00,4.96e+00,
182,3.04e+00,4.96e+00,
183,2.88e+00,5.12e+00,
184,2.96e+00,5.04e+00,
185,2.72e+00,4.96e+00,
186,2.80e+00,5.04e+00,
187,2.56e+00,4.88e+00,
188,2.64e+00,5.04e+00,
189,2.48e+00,4.88e+00,
190,2.48e+00,5.12e+00,
191,2.24e+00,4.88e+00,
192,2.32e+00,5.04e+00,
193,2.08e+00,4.96e+00,
194,2.16e+00,5.04e+00,
195,1.92e+00,4.96e+00,
196,2.00e+00,5.04e+00,
197,1.84e+00,4.88e+00,
198,1.92e+00,4.96e+00,
199,1.68e+00,5.12e+00,
200,1.76e+00,5.04e+00,
201,1.60e+00,4.88e+00,
202,1.60e+00,5.04e+00,
203,1.44e+00,4.96e+00,
204,1.44e+00,5.04e+00,
205,1.20e+00,4.96e+00,
206,1.28e+00,5.12e+00,
207,1.12e+00,4.88e+00,
208,1.20e+00,5.04e+00,
209,9.60e-01,4.88e+00,
210,1.04e+00,5.04e+00,
211,8.80e-01,4.88e+00,
212,9.60e-01,5.04e+00,
213,8.00e-01,4.88e+00,
214,8.80e-01,4.88e+00,
215,6.40e-01,5.12e+00,
216,7.20e-01,5.04e+00,
217,5.60e-01,4.96e+00,
218,6.40e-01,5.04e+00,
219,4.80e-01,4.88e+00,
220,4.80e-01,5.04e+00,
221,3.20e-01,4.88e+00,
222,4.00e-01,5.12e+00,
223,2.40e-01,4.88e+00,
224,3.20e-01,5.04e+00,
225,1.60e-01,4.88e+00,
226,2.40e-01,5.04e+00,
227,1.60e-01,4.96e+00,
228,8.00e-02,5.04e+00,
229,2.40e-01,4.88e+00,
230,1.60e-01,4.88e+00,
231,0.00e+00,5.12e+00,
232,0.00e+00,5.04e+00,
233,8.00e-02,4.88e+00,
234,8.00e-02,4.96e+00,
235,-8.00e-02,5.04e+00,
236,-8.00e-02,5.04e+00,
237,0.00e+00,4.96e+00,
238,0.00e+00,5.04e+00,
239,-8.00e-02,4.40e+00,
240,-8.00e-02,4.24e+00,
241,0.00e+00,2.72e+00,
242,0.00e+00,2.72e+00,
243,-8.00e-02,1.20e+00,
244,0.00e+00,1.12e+00,
245,-8.00e-02,2.40e-01,
246,-8.00e-02,3.20e-01,
247,0.00e+00,2.40e-01,
248,-8.00e-02,2.40e-01,
249,8.00e-02,1.60e-01,
250,8.00e-02,2.40e-01,
251,-8.00e-02,1.60e-01,
252,0.00e+00,2.40e-01,
253,1.60e-01,1.60e-01,
254,1.60e-01,2.40e-01,
255,0.00e+00,1.60e-01,
256,8.00e-02,2.40e-01,
257,2.40e-01,1.60e-01,
258,1.60e-01,2.40e-01,
259,3.20e-01,1.60e-01,
260,2.40e-01,2.40e-01,
261,4.00e-01,1.60e-01,
262,3.20e-01,2.40e-01,
263,4.80e-01,1.60e-01,
264,4.80e-01,2.40e-01,
265,5.60e-01,1.60e-01,
266,5.60e-01,2.40e-01,
267,7.20e-01,1.60e-01,
268,6.40e-01,2.40e-01,
269,8.00e-01,8.00e-02,
270,7.20e-01,2.40e-01,
271,8.80e-01,1.60e-01,
272,8.00e-01,2.40e-01,
273,1.04e+00,1.60e-01,
274,9.60e-01,2.40e-01,
275,1.12e+00,1.60e-01,
276,1.04e+00,2.40e-01,
277,1.28e+00,1.60e-01,
278,1.28e+00,2.40e-01,
279,1.36e+00,1.60e-01,
280,1.28e+00,2.40e-01,
281,1.52e+00,3.20e-01,
282,1.52e+00,3.20e-01,
283,1.68e+00,4.80e-01,
284,1.68e+00,4.00e-01,
285,1.84e+00,8.80e-01,
286,1.76e+00,8.00e-01,
287,2.00e+00,1.44e+00,
288,1.92e+00,1.36e+00,
289,2.16e+00,1.92e+00,
290,2.08e+00,1.84e+00,
291,2.24e+00,2.48e+00,
292,2.16e+00,2.40e+00,
293,2.40e+00,2.96e+00,
294,2.32e+00,2.88e+00,
295,2.64e+00,3.36e+00,
296,2.56e+00,3.36e+00,
297,2.72e+00,3.84e+00,
298,2.72e+00,3.76e+00,
299,2.88e+00,4.16e+00,
300,2.80e+00,4.16e+00,
301,3.04e+00,4.48e+00,
302,2.96e+00,4.48e+00,
303,3.12e+00,4.72e+00,
304,3.04e+00,4.64e+00,
305,3.28e+00,4.96e+00,
306,3.20e+00,4.80e+00,
307,3.44e+00,5.04e+00,
308,3.44e+00,5.04e+00,
309,3.60e+00,4.88e+00,
310,3.52e+00,4.88e+00,
311,3.76e+00,5.12e+00,
312,3.68e+00,5.04e+00,
313,3.84e+00,4.96e+00,
314,3.76e+00,5.04e+00,
315,4.00e+00,4.88e+00,
316,3.92e+00,5.04e+00,
317,4.08e+00,4.88e+00,
318,4.16e+00,4.88e+00,
319,4.00e+00,5.12e+00,
320,4.16e+00,5.04e+00,
321,4.32e+00,4.88e+00,
322,4.24e+00,5.04e+00,
323,4.40e+00,4.88e+00,
324,4.40e+00,5.04e+00,
325,4.48e+00,4.96e+00,
326,4.48e+00,4.88e+00,
327,4.64e+00,5.12e+00,
328,4.56e+00,4.96e+00,
329,4.72e+00,5.04e+00,
330,4.56e+00,5.04e+00,
331,4.80e+00,4.88e+00,
332,4.64e+00,5.04e+00,
333,4.80e+00,4.88e+00,
334,4.72e+00,5.04e+00,
335,4.88e+00,4.88e+00,
336,4.80e+00,5.04e+00,
337,4.96e+00,4.88e+00,
338,4.80e+00,5.04e+00,
339,4.96e+00,4.88e+00,
340,4.88e+00,5.04e+00,
341,4.96e+00,4.88e+00,
342,4.88e+00,4.88e+00,
343,5.04e+00,5.12e+00,
344,5.04e+00,5.04e+00,
345,4.88e+00,4.88e+00,
346,4.88e+00,5.04e+00,
347,5.04e+00,4.88e+00,
348,5.04e+00,4.96e+00,
349,4.88e+00,5.04e+00,
350,4.88e+00,4.88e+00,
351,5.04e+00,5.12e+00,
352,5.04e+00,5.04e+00,
353,4.88e+00,4.88e+00,
354,4.96e+00,5.04e+00,
355,4.80e+00,4.88e+00,
356,4.96e+00,5.04e+00,
357,4.80e+00,4.88e+00,
358,4.88e+00,4.88e+00,
359,4.72e+00,5.12e+00,
360,4.88e+00,5.04e+00,
361,4.72e+00,4.88e+00,
362,4.80e+00,5.04e+00,
363,4.64e+00,4.88e+00,
364,4.72e+00,5.04e+00,
365,4.56e+00,4.88e+00,
366,4.64e+00,5.12e+00,
367,4.48e+00,4.88e+00,
368,4.56e+00,5.04e+00,
369,4.40e+00,4.96e+00,
370,4.48e+00,5.04e+00,
371,4.32e+00,4.88e+00,
372,4.32e+00,4.96e+00,
373,4.16e+00,5.04e+00,
374,4.24e+00,4.88e+00,
375,4.08e+00,5.12e+00,
376,4.16e+00,5.04e+00,
377,3.92e+00,4.88e+00,
378,4.08e+00,5.04e+00,
379,3.84e+00,4.88e+00,
380,3.92e+00,5.04e+00,
381,3.76e+00,4.88e+00,
382,3.84e+00,4.88e+00,
383,3.60e+00,5.12e+00,
384,3.68e+00,5.04e+00,
385,3.52e+00,4.88e+00,
386,3.52e+00,5.04e+00,
387,3.36e+00,4.88e+00,
388,3.36e+00,5.04e+00,
389,3.20e+00,4.88e+00,
390,3.20e+00,5.04e+00,
391,3.04e+00,4.88e+00,
392,3.12e+00,5.04e+00,
393,2.88e+00,4.88e+00,
394,2.96e+00,5.04e+00,
395,2.72e+00,4.88e+00,
396,2.80e+00,5.04e+00,
397,2.64e+00,4.88e+00,
398,2.64e+00,5.12e+00,
399,2.48e+00,4.88e+00,
400,2.48e+00,5.04e+00,
401,2.32e+00,4.88e+00,
402,2.32e+00,5.04e+00,
403,2.16e+00,4.88e+00,
404,2.24e+00,5.04e+00,
405,2.00e+00,4.96e+00,
406,2.08e+00,4.96e+00,
407,1.84e+00,5.12e+00,
408,1.92e+00,5.04e+00,
409,1.76e+00,4.96e+00,
410,1.76e+00,5.04e+00,
411,1.60e+00,4.96e+00,
412,1.68e+00,5.04e+00,
413,1.44e+00,4.88e+00,
414,1.36e+00,4.96e+00,
415,1.44e+00,5.12e+00,
416,1.36e+00,4.96e+00,
417,1.12e+00,5.04e+00,
418,1.20e+00,5.04e+00,
419,1.04e+00,4.88e+00,
420,1.12e+00,5.04e+00,
421,8.80e-01,4.96e+00,
422,9.60e-01,4.96e+00,
423,8.00e-01,5.12e+00,
424,8.80e-01,4.96e+00,
425,7.20e-01,5.04e+00,
426,8.00e-01,5.04e+00,
427,6.40e-01,4.88e+00,
428,6.40e-01,5.04e+00,
429,4.80e-01,4.88e+00,
430,4.80e-01,5.12e+00,
431,3.20e-01,4.88e+00,
432,4.00e-01,5.04e+00,
433,2.40e-01,4.88e+00,
434,3.20e-01,5.04e+00,
435,1.60e-01,4.88e+00,
436,2.40e-01,5.04e+00,
437,1.60e-01,4.88e+00,
438,2.40e-01,5.12e+00,
439,8.00e-02,4.88e+00,
440,1.60e-01,5.04e+00,
441,0.00e+00,4.88e+00,
442,8.00e-02,5.04e+00,
443,0.00e+00,4.88e+00,
444,8.00e-02,5.04e+00,
445,-8.00e-02,4.88e+00,
446,-8.00e-02,4.96e+00,
447,8.00e-02,5.12e+00,
448,-8.00e-02,5.12e+00,
449,0.00e+00,4.56e+00,
450,0.00e+00,4.56e+00,
451,-8.00e-02,3.12e+00,
452,-8.00e-02,3.12e+00,
453,0.00e+00,1.52e+00,
454,-8.00e-02,1.44e+00,
455,0.00e+00,3.20e-01,
456,0.00e+00,4.00e-01,
457,-8.00e-02,1.60e-01,
458,-8.00e-02,2.40e-01,
459,8.00e-02,1.60e-01,
460,-8.00e-02,1.60e-01,
461,8.00e-02,2.40e-01,
462,8.00e-02,2.40e-01,
463,0.00e+00,8.00e-02,
464,0.00e+00,2.40e-01,
465,1.60e-01,8.00e-02,
466,8.00e-02,2.40e-01,
467,2.40e-01,1.60e-01,
468,1.60e-01,2.40e-01,
469,3.20e-01,8.00e-02,
470,2.40e-01,2.40e-01,
471,3.20e-01,8.00e-02,
472,2.40e-01,1.60e-01,
473,4.00e-01,2.40e-01,
474,4.00e-01,2.40e-01,
475,4.80e-01,8.00e-02,
476,4.80e-01,2.40e-01,
477,6.40e-01,1.60e-01,
478,6.40e-01,2.40e-01,
479,8.00e-01,8.00e-02,
480,7.20e-01,2.40e-01,
481,8.80e-01,8.00e-02,
482,8.00e-01,2.40e-01,
483,1.04e+00,8.00e-02,
484,8.80e-01,2.40e-01,
485,1.12e+00,1.60e-01,
486,1.04e+00,2.40e-01,
487,1.20e+00,1.60e-01,
488,1.12e+00,2.40e-01,
489,1.36e+00,1.60e-01,
490,1.36e+00,2.40e-01,
491,1.44e+00,2.40e-01,
492,1.44e+00,2.40e-01,
493,1.68e+00,3.20e-01,
494,1.60e+00,3.20e-01,
495,1.84e+00,7.20e-01,
496,1.76e+00,6.40e-01,
497,1.92e+00,1.20e+00,
498,1.84e+00,1.20e+00,
499,2.08e+00,1.76e+00,
500,2.00e+00,1.76e+00,
501,2.24e+00,2.32e+00,
502,2.16e+00,2.32e+00,
503,2.40e+00,2.80e+00,
504,2.32e+00,2.80e+00,
505,2.48e+00,3.28e+00,
506,2.48e+00,3.28e+00,
507,2.64e+00,3.68e+00,
508,2.64e+00,3.68e+00,
509,2.80e+00,4.08e+00,
510,2.72e+00,4.00e+00,
511,2.96e+00,4.48e+00,
512,2.88e+00,4.32e+00,
513,3.12e+00,4.72e+00,
514,3.04e+00,4.56e+00,
515,3.28e+00,4.88e+00,
516,3.20e+00,4.72e+00,
517,3.36e+00,5.04e+00,
518,3.36e+00,5.04e+00,
519,3.60e+00,4.88e+00,
520,3.52e+00,5.04e+00,
521,3.68e+00,4.88e+00,
522,3.60e+00,5.04e+00,
523,3.84e+00,4.88e+00,
524,3.76e+00,5.04e+00,
525,3.92e+00,4.88e+00,
526,3.84e+00,5.12e+00,
527,4.08e+00,4.88e+00,
528,4.00e+00,4.96e+00,
529,4.16e+00,5.04e+00,
530,4.16e+00,5.04e+00,
531,4.24e+00,4.88e+00,
532,4.16e+00,5.04e+00,
533,4.48e+00,4.88e+00,
534,4.32e+00,4.88e+00,
535,4.48e+00,5.12e+00,
536,4.40e+00,5.04e+00,
537,4.64e+00,4.88e+00,
538,4.48e+00,5.04e+00,
539,4.72e+00,4.88e+00,
540,4.56e+00,5.04e+00,
541,4.72e+00,4.88e+00,
542,4.64e+00,4.88e+00,
543,4.80e+00,5.12e+00,
544,4.72e+00,4.88e+00,
545,4.88e+00,5.04e+00,
546,4.80e+00,5.04e+00,
547,4.88e+00,4.88e+00,
548,4.96e+00,5.04e+00,
549,4.80e+00,4.88e+00,
550,4.80e+00,4.88e+00,
551,4.96e+00,5.20e+00,
552,4.88e+00,5.04e+00,
553,5.04e+00,4.88e+00,
554,4.88e+00,5.04e+00,
555,5.04e+00,4.88e+00,
556,5.04e+00,5.04e+00,
557,4.88e+00,4.88e+00,
558,5.04e+00,4.88e+00,
559,4.88e+00,5.12e+00,
560,5.04e+00,4.88e+00,
561,4.88e+00,5.04e+00,
562,5.04e+00,4.96e+00,
563,4.88e+00,5.04e+00,
564,4.96e+00,5.04e+00,
565,4.80e+00,4.88e+00,
566,4.96e+00,4.88e+00,
567,4.80e+00,5.12e+00,
568,4.88e+00,5.04e+00,
569,4.80e+00,4.88e+00,
570,4.88e+00,5.04e+00,
571,4.72e+00,4.88e+00,
572,4.80e+00,5.04e+00,
573,4.64e+00,4.96e+00,
574,4.80e+00,4.88e+00,
575,4.56e+00,5.12e+00,
576,4.72e+00,4.96e+00,
577,4.56e+00,5.04e+00,
578,4.48e+00,5.04e+00,
579,4.64e+00,4.88e+00,
580,4.56e+00,4.96e+00,
581,4.32e+00,5.04e+00,
582,4.48e+00,4.88e+00,
583,4.16e+00,5.20e+00,
584,4.32e+00,5.04e+00,
585,4.08e+00,4.88e+00,
586,4.16e+00,5.04e+00,
587,4.00e+00,4.88e+00,
588,4.08e+00,4.96e+00,
589,3.84e+00,5.04e+00,
590,4.00e+00,4.88e+00,
591,3.76e+00,5.12e+00,
592,3.84e+00,5.04e+00,
593,3.68e+00,4.88e+00,
594,3.76e+00,4.88e+00,
595,3.52e+00,5.04e+00,
596,3.52e+00,5.04e+00,
597,3.36e+00,4.96e+00,
598,3.44e+00,4.96e+00,
599,3.20e+00,5.12e+00,
600,3.28e+00,5.04e+00,
601,3.04e+00,4.88e+00,
602,3.12e+00,5.04e+00,
603,2.96e+00,4.96e+00,
604,3.04e+00,5.04e+00,
605,2.80e+00,4.88e+00,
606,2.88e+00,4.88e+00,
607,2.64e+00,5.12e+00,
608,2.72e+00,5.04e+00,
609,2.48e+00,4.88e+00,
610,2.56e+00,5.04e+00,
611,2.40e+00,4.88e+00,
612,2.40e+00,5.04e+00,
613,2.16e+00,4.96e+00,
614,2.24e+00,5.12e+00,
615,2.00e+00,4.88e+00,
616,2.08e+00,5.04e+00,
617,1.92e+00,4.96e+00,
618,2.00e+00,5.04e+00,
619,1.76e+00,4.96e+00,
620,1.84e+00,5.04e+00,
621,1.60e+00,4.88e+00,
622,1.68e+00,4.88e+00,
623,1.52e+00,5.20e+00,
624,1.52e+00,5.04e+00,
625,1.28e+00,4.96e+00,
626,1.36e+00,5.04e+00,
627,1.20e+00,4.88e+00,
628,1.28e+00,5.04e+00,
629,1.04e+00,4.96e+00,
630,1.12e+00,4.96e+00,
631,9.60e-01,5.12e+00,
632,1.04e+00,4.88e+00,
633,8.00e-01,5.04e+00,
634,8.80e-01,4.96e+00,
635,7.20e-01,5.04e+00,
636,8.00e-01,5.04e+00,
637,6.40e-01,4.96e+00,
638,7.20e-01,4.88e+00,
639,5.60e-01,5.12e+00,
640,5.60e-01,5.04e+00,
641,4.80e-01,4.96e+00,
642,4.80e-01,5.04e+00,
643,3.20e-01,4.96e+00,
644,4.00e-01,5.04e+00,
645,2.40e-01,4.88e+00,
646,3.20e-01,4.88e+00,
647,1.60e-01,5.12e+00,
648,2.40e-01,5.04e+00,
649,8.00e-02,4.88e+00,
650,1.60e-01,5.04e+00,
651,0.00e+00,4.88e+00,
652,0.00e+00,5.04e+00,
653,1.60e-01,4.96e+00,
654,0.00e+00,4.96e+00,
655,8.00e-02,5.12e+00,
656,8.00e-02,5.04e+00,
657,-8.00e-02,4.96e+00,
658,-8.00e-02,5.04e+00,
659,0.00e+00,4.88e+00,
660,-8.00e-02,4.88e+00,
661,0.00e+00,3.60e+00,
662,-8.00e-02,3.52e+00,
663,0.00e+00,1.92e+00,
664,-8.00e-02,1.84e+00,
665,0.00e+00,5.60e-01,
666,0.00e+00,5.60e-01,
667,-8.00e-02,1.60e-01,
668,0.00e+00,2.40e-01,
669,-8.00e-02,1.60e-01,
670,-8.00e-02,2.40e-01,
671,8.00e-02,1.60e-01,
672,8.00e-02,2.40e-01,
673,0.00e+00,1.60e-01,
674,0.00e+00,2.40e-01,
675,1.60e-01,1.60e-01,
676,8.00e-02,2.40e-01,
677,2.40e-01,1.60e-01,
678,2.40e-01,2.40e-01,
679,1.60e-01,1.60e-01,
680,3.20e-01,2.40e-01,
681,1.60e-01,2.40e-01,
682,2.40e-01,2.40e-01,
683,4.00e-01,1.60e-01,
684,3.20e-01,2.40e-01,
685,4.80e-01,1.60e-01,
686,4.80e-01,2.40e-01,
687,6.40e-01,8.00e-02,
688,5.60e-01,2.40e-01,
689,8.00e-01,8.00e-02,
690,6.40e-01,2.40e-01,
691,8.80e-01,8.00e-02,
692,8.00e-01,2.40e-01,
693,9.60e-01,1.60e-01,
694,8.80e-01,2.40e-01,
695,1.04e+00,1.60e-01,
696,9.60e-01,2.40e-01,
697,1.20e+00,1.60e-01,
698,1.12e+00,2.40e-01,
699,1.36e+00,2.40e-01,
700,1.28e+00,2.40e-01,
701,1.44e+00,1.60e-01,
702,1.44e+00,1.60e-01,
703,1.60e+00,3.20e-01,
704,1.60e+00,3.20e-01,
705,1.76e+00,5.60e-01,
706,1.68e+00,5.60e-01,
707,1.92e+00,1.04e+00,
708,1.84e+00,9.60e-01,
709,2.08e+00,1.68e+00,
710,2.00e+00,1.60e+00,
711,2.16e+00,2.16e+00,
712,2.08e+00,2.16e+00,
713,2.32e+00,2.72e+00,
714,2.24e+00,2.64e+00,
715,2.48e+00,3.20e+00,
716,2.48e+00,3.12e+00,
717,2.64e+00,3.68e+00,
718,2.56e+00,3.52e+00,
719,2.80e+00,4.00e+00,
720,2.72e+00,3.92e+00,
721,2.96e+00,4.40e+00,
722,2.88e+00,4.24e+00,
723,3.04e+00,4.64e+00,
724,3.04e+00,4.48e+00,
725,3.20e+00,4.80e+00,
726,3.12e+00,4.72e+00,
727,3.36e+00,4.96e+00,
728,3.36e+00,4.88e+00,
729,3.52e+00,5.04e+00,
730,3.44e+00,5.04e+00,
731,3.68e+00,4.88e+00,
732,3.60e+00,5.04e+00,
733,3.84e+00,4.88e+00,
734,3.68e+00,5.20e+00,
735,3.92e+00,4.88e+00,
736,3.84e+00,5.04e+00,
737,4.00e+00,4.88e+00,
738,3.92e+00,5.04e+00,
739,4.16e+00,4.88e+00,
740,4.08e+00,5.04e+00,
741,4.24e+00,4.88e+00,
742,4.32e+00,5.12e+00,
743,4.16e+00,4.88e+00,
744,4.32e+00,5.04e+00,
745,4.48e+00,4.88e+00,
746,4.40e+00,5.04e+00,
747,4.56e+00,4.88e+00,
748,4.48e+00,5.04e+00,
749,4.64e+00,4.88e+00,
750,4.56e+00,5.12e+00,
751,4.72e+00,4.88e+00,
752,4.64e+00,4.88e+00,
753,4.80e+00,5.04e+00,
754,4.72e+00,5.04e+00,
755,4.88e+00,4.88e+00,
756,4.88e+00,5.04e+00,
757,4.72e+00,4.88e+00,
758,4.80e+00,4.88e+00,
759,4.96e+00,5.20e+00,
760,4.96e+00,4.88e+00,
761,4.80e+00,5.04e+00,
762,4.96e+00,5.04e+00,
763,4.88e+00,4.88e+00,
764,4.88e+00,5.04e+00,
765,5.04e+00,4.88e+00,
766,4.88e+00,5.12e+00,
767,5.04e+00,4.88e+00,
768,5.04e+00,5.04e+00,
769,4.88e+00,4.88e+00,
770,5.04e+00,5.04e+00,
771,4.88e+00,4.88e+00,
772,4.88e+00,4.88e+00,
773,5.04e+00,5.04e+00,
774,4.80e+00,5.12e+00,
775,5.04e+00,4.88e+00,
776,4.96e+00,5.04e+00,
777,4.80e+00,4.88e+00,
778,4.96e+00,5.04e+00,
779,4.80e+00,4.88e+00,
780,4.88e+00,5.04e+00,
781,4.72e+00,4.96e+00,
782,4.88e+00,4.88e+00,
783,4.64e+00,5.12e+00,
784,4.64e+00,4.96e+00,
785,4.80e+00,5.04e+00,
786,4.72e+00,5.04e+00,
787,4.56e+00,4.88e+00,
788,4.64e+00,5.04e+00,
789,4.48e+00,4.88e+00,
790,4.56e+00,4.96e+00,
791,4.40e+00,5.12e+00,
792,4.40e+00,5.04e+00,
793,4.32e+00,4.88e+00,
794,4.32e+00,4.88e+00,
795,4.16e+00,5.04e+00,
796,4.24e+00,5.04e+00,
797,4.00e+00,4.88e+00,
798,4.08e+00,4.88e+00,
799,3.92e+00,5.12e+00,
800,4.00e+00,5.04e+00,
801,3.76e+00,4.88e+00,
802,3.84e+00,4.96e+00,
803,3.68e+00,5.04e+00,
804,3.76e+00,5.04e+00,
805,3.52e+00,4.88e+00,
806,3.60e+00,4.96e+00,
807,3.44e+00,5.12e+00,
808,3.52e+00,5.04e+00,
809,3.28e+00,4.88e+00,
810,3.28e+00,4.96e+00,
811,3.12e+00,5.04e+00,
812,3.20e+00,5.04e+00,
813,2.96e+00,4.96e+00,
814,3.04e+00,4.88e+00,
815,2.80e+00,5.12e+00,
816,2.88e+00,5.04e+00,
817,2.72e+00,4.88e+00,
818,2.80e+00,5.04e+00,
819,2.56e+00,4.88e+00,
820,2.56e+00,4.96e+00,
821,2.40e+00,5.04e+00,
822,2.40e+00,5.12e+00,
823,2.24e+00,4.88e+00,
824,2.32e+00,5.04e+00,
825,2.08e+00,4.88e+00,
826,2.16e+00,5.04e+00,
827,1.92e+00,4.88e+00,
828,2.00e+00,4.88e+00,
829,1.76e+00,5.04e+00,
830,1.84e+00,4.88e+00,
831,1.68e+00,5.12e+00,
832,1.76e+00,5.04e+00,
833,1.52e+00,4.88e+00,
834,1.52e+00,5.04e+00,
835,1.36e+00,4.88e+00,
836,1.36e+00,5.04e+00,
837,1.20e+00,4.88e+00,
838,1.28e+00,4.88e+00,
839,1.04e+00,5.12e+00,
840,1.20e+00,5.04e+00,
841,9.60e-01,4.88e+00,
842,1.04e+00,5.04e+00,
843,8.80e-01,4.88e+00,
844,8.80e-01,5.04e+00,
845,7.20e-01,4.88e+00,
846,8.00e-01,5.04e+00,
847,6.40e-01,4.88e+00,
848,7.20e-01,5.04e+00,
849,5.60e-01,4.88e+00,
850,5.60e-01,5.04e+00,
851,4.80e-01,4.88e+00,
852,4.80e-01,5.04e+00,
853,3.20e-01,4.88e+00,
854,4.00e-01,4.88e+00,
855,2.40e-01,5.12e+00,
856,3.20e-01,4.96e+00,
857,1.60e-01,5.04e+00,
858,2.40e-01,5.04e+00,
859,8.00e-02,4.88e+00,
860,1.60e-01,4.96e+00,
861,8.00e-02,5.04e+00,
862,1.60e-01,5.12e+00,
863,0.00e+00,4.88e+00,
864,0.00e+00,5.04e+00,
865,8.00e-02,4.88e+00,
866,8.00e-02,5.04e+00,
867,-8.00e-02,4.96e+00,
868,0.00e+00,5.04e+00,
