project/matlab/project_exp3/70 kHz/NewFile1.csv

X,CH1,CH2,Start,Increment,
Sequence,Volt,Volt,6.900000e-04,5.000000e-08
0,4.64e+00,5.12e+00,
1,4.40e+00,4.88e+00,
2,4.48e+00,5.04e+00,
3,4.32e+00,4.88e+00,
4,4.40e+00,5.04e+00,
5,4.24e+00,4.88e+00,
6,4.32e+00,4.88e+00,
7,4.16e+00,5.04e+00,
8,4.24e+00,5.12e+00,
9,4.08e+00,4.88e+00,
10,4.16e+00,5.04e+00,
11,4.00e+00,4.88e+00,
12,4.08e+00,5.04e+00,
13,3.92e+00,4.88e+00,
14,4.00e+00,5.04e+00,
15,3.84e+00,4.88e+00,
16,3.92e+00,5.12e+00,
17,3.76e+00,4.88e+00,
18,3.84e+00,5.04e+00,
19,3.68e+00,4.88e+00,
20,3.76e+00,5.04e+00,
21,3.60e+00,4.88e+00,
22,3.60e+00,5.04e+00,
23,3.44e+00,4.88e+00,
24,3.60e+00,5.12e+00,
25,3.36e+00,4.88e+00,
26,3.36e+00,5.04e+00,
27,3.28e+00,4.88e+00,
28,3.28e+00,5.04e+00,
29,3.12e+00,4.96e+00,
30,3.20e+00,4.88e+00,
31,3.04e+00,5.04e+00,
32,3.12e+00,5.12e+00,
33,2.96e+00,4.88e+00,
34,2.96e+00,5.04e+00,
35,2.80e+00,4.88e+00,
36,2.88e+00,5.04e+00,
37,2.72e+00,4.88e+00,
38,2.80e+00,5.04e+00,
39,2.64e+00,4.96e+00,
40,2.72e+00,5.12e+00,
41,2.48e+00,4.88e+00,
42,2.56e+00,5.04e+00,
43,2.40e+00,4.88e+00,
44,2.40e+00,5.04e+00,
45,2.24e+00,4.88e+00,
46,2.32e+00,5.04e+00,
47,2.16e+00,4.88e+00,
48,2.24e+00,5.12e+00,
49,2.00e+00,4.88e+00,
50,2.08e+00,5.04e+00,
51,1.92e+00,4.88e+00,
52,2.00e+00,5.04e+00,
53,1.84e+00,4.88e+00,
54,1.92e+00,4.96e+00,
55,1.76e+00,5.04e+00,
56,1.84e+00,5.12e+00,
57,1.68e+00,4.88e+00,
58,1.68e+00,5.04e+00,
59,1.52e+00,4.88e+00,
60,1.60e+00,5.04e+00,
61,1.44e+00,4.96e+00,
62,1.44e+00,5.04e+00,
63,1.36e+00,4.88e+00,
64,1.36e+00,5.12e+00,
65,1.20e+00,4.88e+00,
66,1.28e+00,5.04e+00,
67,1.12e+00,4.88e+00,
68,1.20e+00,5.04e+00,
69,1.04e+00,4.88e+00,
70,1.12e+00,5.04e+00,
71,9.60e-01,4.88e+00,
72,1.04e+00,5.20e+00,
73,8.80e-01,4.88e+00,
74,9.60e-01,5.04e+00,
75,8.00e-01,4.88e+00,
76,8.80e-01,5.04e+00,
77,7.20e-01,4.88e+00,
78,8.00e-01,5.04e+00,
79,6.40e-01,4.88e+00,
80,7.20e-01,4.96e+00,
81,5.60e-01,5.12e+00,
82,6.40e-01,5.04e+00,
83,4.00e-01,4.88e+00,
84,4.80e-01,5.04e+00,
85,4.00e-01,4.88e+00,
86,4.80e-01,5.04e+00,
87,3.20e-01,4.88e+00,
88,4.00e-01,5.12e+00,
89,2.40e-01,4.88e+00,
90,3.20e-01,5.04e+00,
91,1.60e-01,4.88e+00,
92,2.40e-01,5.04e+00,
93,1.60e-01,4.88e+00,
94,2.40e-01,5.04e+00,
95,8.00e-02,4.88e+00,
96,1.60e-01,5.12e+00,
97,8.00e-02,4.88e+00,
98,1.60e-01,5.04e+00,
99,0.00e+00,4.88e+00,
100,8.00e-02,5.04e+00,
101,0.00e+00,4.88e+00,
102,8.00e-02,5.04e+00,
103,0.00e+00,4.96e+00,
104,8.00e-02,5.12e+00,
105,-8.00e-02,4.48e+00,
106,8.00e-02,4.56e+00,
107,-8.00e-02,3.12e+00,
108,0.00e+00,3.12e+00,
109,-8.00e-02,1.52e+00,
110,-8.00e-02,1.52e+00,
111,0.00e+00,4.00e-01,
112,0.00e+00,3.20e-01,
113,-8.00e-02,2.40e-01,
114,-8.00e-02,2.40e-01,
115,0.00e+00,1.60e-01,
116,-8.00e-02,2.40e-01,
117,0.00e+00,8.00e-02,
118,0.00e+00,2.40e-01,
119,-8.00e-02,1.60e-01,
120,0.00e+00,2.40e-01,
121,-8.00e-02,8.00e-02,
122,-8.00e-02,2.40e-01,
123,8.00e-02,1.60e-01,
124,-8.00e-02,2.40e-01,
125,8.00e-02,1.60e-01,
126,0.00e+00,1.60e-01,
127,8.00e-02,2.40e-01,
128,0.00e+00,2.40e-01,
129,1.60e-01,1.60e-01,
130,1.60e-01,2.40e-01,
131,0.00e+00,1.60e-01,
132,8.00e-02,2.40e-01,
133,2.40e-01,1.60e-01,
134,2.40e-01,2.40e-01,
135,8.00e-02,1.60e-01,
136,1.60e-01,2.40e-01,
137,3.20e-01,1.60e-01,
138,3.20e-01,2.40e-01,
139,2.40e-01,1.60e-01,
140,2.40e-01,2.40e-01,
141,4.00e-01,1.60e-01,
142,3.20e-01,2.40e-01,
143,4.80e-01,1.60e-01,
144,4.80e-01,2.40e-01,
145,6.40e-01,8.00e-02,
146,5.60e-01,2.40e-01,
147,7.20e-01,8.00e-02,
148,5.60e-01,2.40e-01,
149,7.20e-01,1.60e-01,
150,6.40e-01,2.40e-01,
151,8.00e-01,8.00e-02,
152,7.20e-01,2.40e-01,
153,8.80e-01,8.00e-02,
154,8.00e-01,2.40e-01,
155,9.60e-01,2.40e-01,
156,8.80e-01,2.40e-01,
157,1.04e+00,1.60e-01,
158,9.60e-01,2.40e-01,
159,1.12e+00,1.60e-01,
160,1.04e+00,2.40e-01,
161,1.20e+00,1.60e-01,
162,1.28e+00,2.40e-01,
163,1.12e+00,1.60e-01,
164,1.20e+00,1.60e-01,
165,1.44e+00,3.20e-01,
166,1.36e+00,3.20e-01,
167,1.52e+00,4.80e-01,
168,1.52e+00,4.80e-01,
169,1.60e+00,9.60e-01,
170,1.60e+00,8.80e-01,
171,1.76e+00,1.52e+00,
172,1.68e+00,1.44e+00,
173,1.84e+00,2.08e+00,
174,1.76e+00,2.00e+00,
175,1.92e+00,2.64e+00,
176,1.84e+00,2.48e+00,
177,2.08e+00,3.04e+00,
178,2.00e+00,3.04e+00,
179,2.16e+00,3.44e+00,
180,2.08e+00,3.44e+00,
181,2.24e+00,3.84e+00,
182,2.16e+00,3.84e+00,
183,2.40e+00,4.16e+00,
184,2.24e+00,4.16e+00,
185,2.56e+00,4.56e+00,
186,2.48e+00,4.40e+00,
187,2.64e+00,4.72e+00,
188,2.56e+00,4.64e+00,
189,2.72e+00,4.88e+00,
190,2.64e+00,4.80e+00,
191,2.88e+00,5.04e+00,
192,2.80e+00,5.04e+00,
193,2.96e+00,4.88e+00,
194,2.88e+00,5.04e+00,
195,3.04e+00,4.88e+00,
196,2.96e+00,5.04e+00,
197,3.12e+00,4.88e+00,
198,3.04e+00,4.96e+00,
199,3.28e+00,5.04e+00,
200,3.20e+00,5.04e+00,
201,3.36e+00,4.88e+00,
202,3.36e+00,4.88e+00,
203,3.52e+00,5.04e+00,
204,3.44e+00,5.04e+00,
205,3.60e+00,4.88e+00,
206,3.52e+00,5.04e+00,
207,3.68e+00,4.88e+00,
208,3.60e+00,5.04e+00,
209,3.76e+00,4.88e+00,
210,3.68e+00,5.04e+00,
211,3.84e+00,4.88e+00,
212,3.76e+00,5.04e+00,
213,4.00e+00,4.88e+00,
214,3.84e+00,5.04e+00,
215,4.00e+00,4.88e+00,
216,3.92e+00,5.12e+00,
217,4.16e+00,4.88e+00,
218,4.16e+00,5.04e+00,
219,4.00e+00,4.88e+00,
220,4.16e+00,5.04e+00,
221,4.24e+00,4.88e+00,
222,4.16e+00,5.04e+00,
223,4.32e+00,4.88e+00,
224,4.32e+00,5.12e+00,
225,4.48e+00,4.88e+00,
226,4.40e+00,5.04e+00,
227,4.56e+00,4.88e+00,
228,4.48e+00,5.04e+00,
229,4.56e+00,4.88e+00,
230,4.48e+00,5.04e+00,
231,4.64e+00,4.88e+00,
232,4.56e+00,4.88e+00,
233,4.72e+00,5.04e+00,
234,4.64e+00,5.04e+00,
235,4.72e+00,4.88e+00,
236,4.64e+00,5.04e+00,
237,4.80e+00,4.96e+00,
238,4.72e+00,5.04e+00,
239,4.88e+00,4.88e+00,
240,4.88e+00,5.04e+00,
241,4.72e+00,4.88e+00,
242,4.88e+00,5.04e+00,
243,4.80e+00,4.88e+00,
244,4.96e+00,5.04e+00,
245,4.80e+00,4.96e+00,
246,4.80e+00,4.88e+00,
247,4.96e+00,5.04e+00,
248,4.96e+00,5.12e+00,
249,4.80e+00,4.88e+00,
250,4.88e+00,5.04e+00,
251,5.04e+00,4.88e+00,
252,5.04e+00,5.04e+00,
253,4.88e+00,4.88e+00,
254,4.88e+00,5.04e+00,
255,5.04e+00,4.88e+00,
256,4.88e+00,4.88e+00,
257,5.04e+00,5.12e+00,
258,4.88e+00,5.04e+00,
259,5.04e+00,4.88e+00,
260,5.04e+00,5.04e+00,
261,4.88e+00,4.88e+00,
262,4.88e+00,5.04e+00,
263,5.04e+00,4.88e+00,
264,4.88e+00,5.12e+00,
265,5.04e+00,4.88e+00,
266,4.96e+00,5.04e+00,
267,4.88e+00,4.88e+00,
268,4.96e+00,5.04e+00,
269,4.80e+00,4.96e+00,
270,4.80e+00,5.04e+00,
271,4.96e+00,4.88e+00,
272,4.72e+00,5.12e+00,
273,4.96e+00,4.88e+00,
274,4.72e+00,5.04e+00,
275,4.88e+00,4.88e+00,
276,4.80e+00,5.04e+00,
277,4.64e+00,4.88e+00,
278,4.80e+00,5.04e+00,
279,4.64e+00,4.88e+00,
280,4.72e+00,4.96e+00,
281,4.56e+00,5.12e+00,
282,4.56e+00,5.04e+00,
283,4.72e+00,4.88e+00,
284,4.64e+00,5.04e+00,
285,4.48e+00,4.88e+00,
286,4.56e+00,5.04e+00,
287,4.40e+00,4.88e+00,
288,4.48e+00,4.96e+00,
289,4.32e+00,5.12e+00,
290,4.40e+00,5.04e+00,
291,4.16e+00,4.96e+00,
292,4.32e+00,5.04e+00,
293,4.16e+00,4.88e+00,
294,4.24e+00,5.04e+00,
295,4.08e+00,4.88e+00,
296,4.16e+00,5.12e+00,
297,4.00e+00,4.88e+00,
298,4.08e+00,5.04e+00,
299,3.92e+00,4.88e+00,
300,4.00e+00,5.04e+00,
301,3.84e+00,4.88e+00,
302,3.92e+00,5.04e+00,
303,3.76e+00,4.88e+00,
304,3.84e+00,5.12e+00,
305,3.68e+00,4.88e+00,
306,3.76e+00,5.04e+00,
307,3.52e+00,4.96e+00,
308,3.68e+00,5.04e+00,
309,3.44e+00,4.88e+00,
310,3.52e+00,5.04e+00,
311,3.36e+00,4.88e+00,
312,3.36e+00,5.04e+00,
313,3.20e+00,4.88e+00,
314,3.28e+00,5.04e+00,
315,3.12e+00,4.88e+00,
316,3.20e+00,5.04e+00,
317,3.04e+00,4.88e+00,
318,3.12e+00,5.04e+00,
319,2.88e+00,4.88e+00,
320,3.04e+00,5.12e+00,
321,2.80e+00,4.88e+00,
322,2.88e+00,5.04e+00,
323,2.72e+00,4.88e+00,
324,2.80e+00,5.04e+00,
325,2.64e+00,4.88e+00,
326,2.64e+00,5.04e+00,
327,2.48e+00,4.88e+00,
328,2.56e+00,4.96e+00,
329,2.40e+00,5.12e+00,
330,2.40e+00,5.04e+00,
331,2.24e+00,4.88e+00,
332,2.32e+00,5.04e+00,
333,2.16e+00,4.88e+00,
334,2.24e+00,5.04e+00,
335,2.00e+00,4.88e+00,
336,2.08e+00,5.12e+00,
337,1.92e+00,4.88e+00,
338,2.00e+00,5.04e+00,
339,1.84e+00,4.88e+00,
340,1.92e+00,5.04e+00,
341,1.76e+00,4.88e+00,
342,1.84e+00,5.04e+00,
343,1.60e+00,4.88e+00,
344,1.68e+00,5.12e+00,
345,1.52e+00,4.88e+00,
346,1.60e+00,5.04e+00,
347,1.44e+00,4.88e+00,
348,1.44e+00,5.04e+00,
349,1.28e+00,4.88e+00,
350,1.36e+00,5.04e+00,
351,1.20e+00,4.88e+00,
352,1.28e+00,4.96e+00,
353,1.12e+00,5.12e+00,
354,1.20e+00,5.04e+00,
355,1.04e+00,4.88e+00,
356,1.12e+00,5.04e+00,
357,9.60e-01,4.88e+00,
358,1.04e+00,4.96e+00,
359,8.80e-01,5.04e+00,
360,9.60e-01,5.04e+00,
361,8.00e-01,4.88e+00,
362,8.80e-01,5.04e+00,
363,7.20e-01,4.88e+00,
364,8.00e-01,5.04e+00,
365,6.40e-01,4.88e+00,
366,7.20e-01,5.04e+00,
367,5.60e-01,4.88e+00,
368,5.60e-01,5.12e+00,
369,4.80e-01,4.88e+00,
370,4.80e-01,5.04e+00,
371,4.00e-01,4.88e+00,
372,4.00e-01,5.04e+00,
373,3.20e-01,4.96e+00,
374,4.00e-01,5.04e+00,
375,2.40e-01,4.88e+00,
376,3.20e-01,5.12e+00,
377,1.60e-01,4.88e+00,
378,2.40e-01,5.04e+00,
379,1.60e-01,4.88e+00,
380,2.40e-01,5.04e+00,
381,8.00e-02,4.88e+00,
382,8.00e-02,5.04e+00,
383,1.60e-01,4.88e+00,
384,1.60e-01,5.20e+00,
385,0.00e+00,4.88e+00,
386,8.00e-02,5.04e+00,
387,0.00e+00,4.88e+00,
388,0.00e+00,5.04e+00,
389,8.00e-02,4.96e+00,
390,8.00e-02,5.04e+00,
391,-8.00e-02,4.32e+00,
392,-8.00e-02,4.40e+00,
393,8.00e-02,2.88e+00,
394,-8.00e-02,2.88e+00,
395,0.00e+00,1.28e+00,
396,0.00e+00,1.28e+00,
397,-8.00e-02,3.20e-01,
398,0.00e+00,3.20e-01,
399,-8.00e-02,1.60e-01,
400,0.00e+00,2.40e-01,
401,-8.00e-02,1.60e-01,
402,-8.00e-02,2.40e-01,
403,0.00e+00,1.60e-01,
404,0.00e+00,2.40e-01,
405,-8.00e-02,8.00e-02,
406,-8.00e-02,2.40e-01,
407,0.00e+00,1.60e-01,
408,-8.00e-02,8.00e-02,
409,8.00e-02,2.40e-01,
410,-8.00e-02,2.40e-01,
411,8.00e-02,8.00e-02,
412,8.00e-02,2.40e-01,
413,0.00e+00,8.00e-02,
414,0.00e+00,2.40e-01,
415,1.60e-01,1.60e-01,
416,1.60e-01,2.40e-01,
417,0.00e+00,1.60e-01,
418,1.60e-01,2.40e-01,
419,8.00e-02,1.60e-01,
420,2.40e-01,2.40e-01,
421,8.00e-02,1.60e-01,
422,1.60e-01,2.40e-01,
423,3.20e-01,1.60e-01,
424,3.20e-01,2.40e-01,
425,2.40e-01,1.60e-01,
426,2.40e-01,2.40e-01,
427,4.00e-01,1.60e-01,
428,4.80e-01,2.40e-01,
429,3.20e-01,8.00e-02,
430,4.80e-01,2.40e-01,
431,5.60e-01,8.00e-02,
432,5.60e-01,2.40e-01,
433,6.40e-01,8.00e-02,
434,5.60e-01,2.40e-01,
435,7.20e-01,8.00e-02,
436,6.40e-01,2.40e-01,
437,8.00e-01,1.60e-01,
438,7.20e-01,2.40e-01,
439,8.80e-01,8.00e-02,
440,8.00e-01,2.40e-01,
441,9.60e-01,8.00e-02,
442,8.80e-01,2.40e-01,
443,1.04e+00,1.60e-01,
444,9.60e-01,2.40e-01,
445,1.12e+00,1.60e-01,
446,1.04e+00,2.40e-01,
447,1.20e+00,2.40e-01,
448,1.12e+00,2.40e-01,
449,1.36e+00,1.60e-01,
450,1.28e+00,2.40e-01,
451,1.44e+00,3.20e-01,
452,1.44e+00,3.20e-01,
453,1.60e+00,4.80e-01,
454,1.52e+00,4.80e-01,
455,1.68e+00,1.04e+00,
456,1.60e+00,1.04e+00,
457,1.76e+00,1.60e+00,
458,1.68e+00,1.52e+00,
459,1.84e+00,2.08e+00,
460,1.76e+00,2.00e+00,
461,2.00e+00,2.64e+00,
462,1.92e+00,2.56e+00,
463,2.08e+00,3.12e+00,
464,2.00e+00,2.96e+00,
465,2.16e+00,3.60e+00,
466,2.08e+00,3.44e+00,
467,2.32e+00,3.92e+00,
468,2.16e+00,3.84e+00,
469,2.40e+00,4.24e+00,
470,2.32e+00,4.16e+00,
471,2.56e+00,4.48e+00,
472,2.48e+00,4.40e+00,
473,2.64e+00,4.80e+00,
474,2.56e+00,4.64e+00,
475,2.72e+00,4.96e+00,
476,2.64e+00,4.80e+00,
477,2.88e+00,5.04e+00,
478,2.80e+00,5.04e+00,
479,2.96e+00,4.88e+00,
480,2.88e+00,5.04e+00,
481,3.04e+00,4.88e+00,
482,2.96e+00,5.04e+00,
483,3.20e+00,4.88e+00,
484,3.04e+00,5.04e+00,
485,3.28e+00,4.88e+00,
486,3.20e+00,5.04e+00,
487,3.36e+00,4.88e+00,
488,3.36e+00,5.04e+00,
489,3.52e+00,4.88e+00,
490,3.44e+00,5.04e+00,
491,3.60e+00,4.88e+00,
492,3.52e+00,5.04e+00,
493,3.68e+00,4.88e+00,
494,3.60e+00,5.04e+00,
495,3.84e+00,4.88e+00,
496,3.68e+00,5.04e+00,
497,3.84e+00,4.88e+00,
498,3.76e+00,5.04e+00,
499,4.00e+00,4.88e+00,
500,3.84e+00,4.88e+00,
501,4.08e+00,5.04e+00,
502,3.92e+00,4.88e+00,
503,4.16e+00,5.04e+00,
504,4.08e+00,5.04e+00,
505,4.24e+00,4.88e+00,
506,4.16e+00,5.04e+00,
507,4.32e+00,4.88e+00,
508,4.16e+00,5.04e+00,
509,4.32e+00,4.88e+00,
510,4.32e+00,5.04e+00,
511,4.48e+00,4.88e+00,
512,4.40e+00,5.12e+00,
513,4.56e+00,4.88e+00,
514,4.48e+00,5.04e+00,
515,4.64e+00,4.88e+00,
516,4.48e+00,5.04e+00,
517,4.64e+00,4.88e+00,
518,4.56e+00,5.04e+00,
519,4.72e+00,4.88e+00,
520,4.56e+00,5.12e+00,
521,4.80e+00,4.88e+00,
522,4.64e+00,5.04e+00,
523,4.80e+00,4.88e+00,
524,4.72e+00,5.04e+00,
525,4.88e+00,4.88e+00,
526,4.72e+00,5.04e+00,
527,4.88e+00,4.88e+00,
528,4.80e+00,4.96e+00,
529,4.96e+00,5.12e+00,
530,4.80e+00,5.04e+00,
531,4.96e+00,4.88e+00,
532,4.96e+00,5.04e+00,
533,4.80e+00,4.88e+00,
534,4.88e+00,5.04e+00,
535,5.04e+00,4.88e+00,
536,5.04e+00,5.20e+00,
537,4.88e+00,4.88e+00,
538,5.04e+00,5.04e+00,
539,4.88e+00,4.88e+00,
540,4.88e+00,5.04e+00,
541,5.04e+00,4.88e+00,
542,4.88e+00,5.04e+00,
543,5.04e+00,4.88e+00,
544,5.04e+00,5.12e+00,
545,4.88e+00,4.88e+00,
546,4.88e+00,5.04e+00,
547,5.04e+00,4.88e+00,
548,5.04e+00,5.04e+00,
549,4.88e+00,4.96e+00,
550,4.88e+00,5.04e+00,
551,5.04e+00,4.88e+00,
552,4.96e+00,5.12e+00,
553,4.80e+00,4.88e+00,
554,4.96e+00,5.04e+00,
555,4.80e+00,4.88e+00,
556,4.96e+00,5.04e+00,
557,4.80e+00,4.96e+00,
558,4.88e+00,5.04e+00,
559,4.72e+00,4.88e+00,
560,4.88e+00,4.88e+00,
561,4.72e+00,5.12e+00,
562,4.80e+00,5.04e+00,
563,4.64e+00,4.88e+00,
564,4.80e+00,5.04e+00,
565,4.64e+00,4.88e+00,
566,4.72e+00,5.04e+00,
567,4.56e+00,4.88e+00,
568,4.64e+00,5.20e+00,
569,4.56e+00,4.88e+00,
570,4.64e+00,5.04e+00,
571,4.48e+00,4.88e+00,
572,4.56e+00,5.04e+00,
573,4.40e+00,4.96e+00,
574,4.48e+00,5.04e+00,
575,4.32e+00,4.96e+00,
576,4.40e+00,4.96e+00,
577,4.16e+00,5.12e+00,
578,4.32e+00,5.04e+00,
579,4.16e+00,4.88e+00,
580,4.24e+00,5.04e+00,
581,4.08e+00,4.96e+00,
582,4.16e+00,5.04e+00,
583,4.00e+00,4.96e+00,
584,3.92e+00,5.12e+00,
585,4.08e+00,4.88e+00,
586,4.00e+00,5.04e+00,
587,3.84e+00,4.88e+00,
588,3.92e+00,5.04e+00,
589,3.68e+00,4.88e+00,
590,3.84e+00,5.04e+00,
591,3.60e+00,4.88e+00,
592,3.76e+00,5.20e+00,
593,3.52e+00,4.88e+00,
594,3.60e+00,5.04e+00,
595,3.44e+00,4.88e+00,
596,3.44e+00,5.04e+00,
597,3.36e+00,4.88e+00,
598,3.36e+00,5.04e+00,
599,3.20e+00,4.88e+00,
600,3.28e+00,5.12e+00,
601,3.12e+00,4.88e+00,
602,3.20e+00,5.04e+00,
603,2.96e+00,4.96e+00,
604,3.04e+00,5.04e+00,
605,2.88e+00,4.88e+00,
606,2.96e+00,5.04e+00,
607,2.80e+00,4.96e+00,
608,2.88e+00,5.12e+00,
609,2.72e+00,4.88e+00,
610,2.72e+00,5.04e+00,
611,2.56e+00,4.88e+00,
612,2.64e+00,5.04e+00,
613,2.48e+00,4.88e+00,
614,2.56e+00,5.04e+00,
615,2.40e+00,4.88e+00,
616,2.40e+00,4.96e+00,
617,2.24e+00,5.12e+00,
618,2.32e+00,5.04e+00,
619,2.16e+00,4.96e+00,
620,2.16e+00,5.04e+00,
621,2.00e+00,4.88e+00,
622,2.08e+00,5.04e+00,
623,1.92e+00,4.88e+00,
624,2.00e+00,5.12e+00,
625,1.84e+00,4.88e+00,
626,1.92e+00,5.04e+00,
627,1.76e+00,4.88e+00,
628,1.76e+00,5.04e+00,
629,1.60e+00,4.88e+00,
630,1.68e+00,5.04e+00,
631,1.52e+00,4.96e+00,
632,1.52e+00,4.88e+00,
633,1.44e+00,5.12e+00,
634,1.44e+00,5.04e+00,
635,1.28e+00,4.88e+00,
636,1.36e+00,5.04e+00,
637,1.20e+00,4.88e+00,
638,1.28e+00,5.04e+00,
639,1.12e+00,4.88e+00,
640,1.20e+00,5.12e+00,
641,9.60e-01,4.88e+00,
642,1.12e+00,5.04e+00,
643,8.80e-01,4.88e+00,
644,9.60e-01,5.04e+00,
645,8.00e-01,4.88e+00,
646,8.80e-01,5.04e+00,
647,7.20e-01,4.88e+00,
648,7.20e-01,4.96e+00,
649,8.00e-01,5.12e+00,
650,6.40e-01,5.04e+00,
651,8.00e-01,4.88e+00,
652,6.40e-01,5.04e+00,
653,5.60e-01,4.88e+00,
654,4.80e-01,5.04e+00,
655,6.40e-01,4.96e+00,
656,4.80e-01,5.12e+00,
657,3.20e-01,4.88e+00,
658,4.00e-01,5.04e+00,
659,3.20e-01,4.88e+00,
660,4.00e-01,5.04e+00,
661,2.40e-01,4.88e+00,
662,3.20e-01,4.96e+00,
663,1.60e-01,5.04e+00,
664,2.40e-01,4.88e+00,
665,1.60e-01,5.12e+00,
666,2.40e-01,5.04e+00,
667,8.00e-02,4.88e+00,
668,1.60e-01,5.04e+00,
669,8.00e-02,4.88e+00,
670,1.60e-01,5.04e+00,
671,0.00e+00,4.88e+00,
672,8.00e-02,5.12e+00,
673,0.00e+00,4.88e+00,
674,0.00e+00,5.04e+00,
675,8.00e-02,4.88e+00,
676,8.00e-02,5.04e+00,
677,-8.00e-02,4.16e+00,
678,8.00e-02,4.16e+00,
679,-8.00e-02,2.64e+00,
680,-8.00e-02,2.56e+00,
681,0.00e+00,1.12e+00,
682,-8.00e-02,1.04e+00,
683,0.00e+00,2.40e-01,
684,0.00e+00,2.40e-01,
685,-8.00e-02,1.60e-01,
686,0.00e+00,2.40e-01,
687,-8.00e-02,1.60e-01,
688,-8.00e-02,2.40e-01,
689,0.00e+00,1.60e-01,
690,0.00e+00,2.40e-01,
691,-8.00e-02,8.00e-02,
692,0.00e+00,2.40e-01,
693,-8.00e-02,1.60e-01,
694,-8.00e-02,2.40e-01,
695,8.00e-02,8.00e-02,
696,-8.00e-02,2.40e-01,
697,8.00e-02,1.60e-01,
698,8.00e-02,2.40e-01,
699,0.00e+00,2.40e-01,
700,0.00e+00,2.40e-01,
701,1.60e-01,1.60e-01,
702,1.60e-01,2.40e-01,
703,8.00e-02,1.60e-01,
704,8.00e-02,2.40e-01,
705,2.40e-01,8.00e-02,
706,2.40e-01,2.40e-01,
707,1.60e-01,8.00e-02,
708,1.60e-01,2.40e-01,
709,3.20e-01,8.00e-02,
710,2.40e-01,2.40e-01,
711,4.00e-01,8.00e-02,
712,4.00e-01,2.40e-01,
713,2.40e-01,8.00e-02,
714,3.20e-01,2.40e-01,
715,4.80e-01,8.00e-02,
716,4.80e-01,2.40e-01,
717,5.60e-01,8.00e-02,
718,5.60e-01,2.40e-01,
719,7.20e-01,8.00e-02,
720,6.40e-01,8.00e-02,
721,7.20e-01,2.40e-01,
722,6.40e-01,2.40e-01,
723,8.00e-01,8.00e-02,
724,7.20e-01,2.40e-01,
725,8.80e-01,8.00e-02,
726,8.00e-01,1.60e-01,
727,9.60e-01,2.40e-01,
728,8.80e-01,2.40e-01,
729,1.04e+00,8.00e-02,
730,9.60e-01,2.40e-01,
731,1.12e+00,1.60e-01,
732,1.04e+00,2.40e-01,
733,1.20e+00,1.60e-01,
734,1.20e+00,2.40e-01,
735,1.36e+00,1.60e-01,
736,1.28e+00,2.40e-01,
737,1.44e+00,3.20e-01,
738,1.44e+00,3.20e-01,
739,1.52e+00,6.40e-01,
740,1.52e+00,5.60e-01,
741,1.68e+00,1.12e+00,
742,1.60e+00,1.12e+00,
743,1.76e+00,1.68e+00,
744,1.68e+00,1.60e+00,
745,1.92e+00,2.16e+00,
746,1.84e+00,2.08e+00,
747,2.00e+00,2.72e+00,
748,1.92e+00,2.64e+00,
749,2.08e+00,3.12e+00,
750,2.00e+00,3.12e+00,
751,2.16e+00,3.52e+00,
752,2.08e+00,3.52e+00,
753,2.32e+00,3.92e+00,
754,2.16e+00,3.92e+00,
755,2.40e+00,4.24e+00,
756,2.32e+00,4.24e+00,
757,2.56e+00,4.56e+00,
758,2.48e+00,4.48e+00,
759,2.64e+00,4.80e+00,
760,2.56e+00,4.64e+00,
761,2.80e+00,4.96e+00,
762,2.64e+00,4.80e+00,
763,2.88e+00,5.04e+00,
764,2.80e+00,5.04e+00,
765,2.96e+00,4.88e+00,
766,2.88e+00,5.04e+00,
767,3.04e+00,4.88e+00,
768,2.96e+00,5.04e+00,
769,3.20e+00,4.88e+00,
770,3.12e+00,5.04e+00,
771,3.28e+00,4.88e+00,
772,3.20e+00,4.88e+00,
773,3.36e+00,5.04e+00,
774,3.44e+00,5.04e+00,
775,3.28e+00,4.88e+00,
776,3.44e+00,5.04e+00,
777,3.60e+00,4.88e+00,
778,3.52e+00,5.04e+00,
779,3.76e+00,4.88e+00,
780,3.60e+00,5.04e+00,
781,3.76e+00,4.88e+00,
782,3.68e+00,5.04e+00,
783,3.84e+00,4.88e+00,
784,3.76e+00,5.04e+00,
785,4.00e+00,4.88e+00,
786,3.92e+00,5.04e+00,
787,4.08e+00,4.88e+00,
788,4.00e+00,5.04e+00,
789,4.16e+00,4.88e+00,
790,4.08e+00,5.04e+00,
791,4.24e+00,4.88e+00,
792,4.08e+00,5.04e+00,
793,4.32e+00,4.88e+00,
794,4.16e+00,4.88e+00,
795,4.32e+00,5.04e+00,
796,4.32e+00,5.04e+00,
797,4.48e+00,4.88e+00,
798,4.40e+00,5.04e+00,
799,4.56e+00,4.88e+00,
800,4.48e+00,5.04e+00,
801,4.64e+00,4.88e+00,
802,4.48e+00,5.04e+00,
803,4.64e+00,4.88e+00,
804,4.72e+00,5.04e+00,
805,4.56e+00,4.88e+00,
806,4.64e+00,5.04e+00,
807,4.80e+00,4.88e+00,
808,4.64e+00,5.04e+00,
809,4.80e+00,4.88e+00,
810,4.72e+00,5.04e+00,
811,4.88e+00,4.88e+00,
812,4.88e+00,5.04e+00,
813,4.72e+00,4.88e+00,
814,4.80e+00,5.04e+00,
815,4.96e+00,4.88e+00,
816,4.80e+00,4.88e+00,
817,4.96e+00,5.12e+00,
818,4.88e+00,5.04e+00,
819,4.96e+00,4.88e+00,
820,4.88e+00,5.04e+00,
821,4.96e+00,4.88e+00,
822,4.88e+00,5.04e+00,
823,5.04e+00,4.88e+00,
824,5.04e+00,5.12e+00,
825,4.88e+00,4.88e+00,
826,4.88e+00,5.04e+00,
827,5.04e+00,4.88e+00,
828,5.04e+00,5.04e+00,
829,4.88e+00,4.96e+00,
830,5.04e+00,5.04e+00,
831,4.88e+00,4.88e+00,
832,5.04e+00,5.12e+00,
833,4.88e+00,4.88e+00,
834,4.88e+00,5.04e+00,
835,5.04e+00,4.88e+00,
836,4.88e+00,5.04e+00,
837,4.96e+00,4.88e+00,
838,4.96e+00,5.04e+00,
839,4.80e+00,4.88e+00,
840,4.96e+00,5.12e+00,
841,4.80e+00,4.88e+00,
842,4.96e+00,5.04e+00,
843,4.80e+00,4.88e+00,
844,4.88e+00,5.04e+00,
845,4.72e+00,4.88e+00,
846,4.72e+00,5.04e+00,
847,4.88e+00,4.88e+00,
848,4.80e+00,5.12e+00,
849,4.64e+00,4.88e+00,
850,4.64e+00,5.04e+00,
851,4.80e+00,4.88e+00,
852,4.72e+00,5.04e+00,
853,4.56e+00,4.88e+00,
854,4.64e+00,5.04e+00,
855,4.48e+00,4.88e+00,
856,4.64e+00,5.12e+00,
857,4.48e+00,4.88e+00,
858,4.56e+00,5.04e+00,
859,4.40e+00,4.88e+00,
860,4.40e+00,5.04e+00,
861,4.32e+00,4.88e+00,
862,4.32e+00,5.04e+00,
863,4.24e+00,4.96e+00,
864,4.32e+00,4.96e+00,
865,4.16e+00,5.12e+00,
866,4.24e+00,5.04e+00,
867,4.08e+00,4.88e+00,
868,4.16e+00,5.04e+00,
