project/matlab/project_exp3/60 kHz/NewFile1.csv

X,CH1,CH2,Start,Increment,
Sequence,Volt,Volt,6.900000e-04,5.000000e-08
0,3.28e+00,5.04e+00,
1,3.12e+00,4.88e+00,
2,3.20e+00,5.04e+00,
3,3.04e+00,4.88e+00,
4,3.12e+00,5.04e+00,
5,2.96e+00,4.88e+00,
6,3.04e+00,4.88e+00,
7,2.88e+00,5.20e+00,
8,2.96e+00,5.04e+00,
9,2.80e+00,4.88e+00,
10,2.88e+00,5.04e+00,
11,2.64e+00,4.88e+00,
12,2.72e+00,5.04e+00,
13,2.56e+00,4.88e+00,
14,2.64e+00,4.88e+00,
15,2.48e+00,5.12e+00,
16,2.48e+00,5.04e+00,
17,2.40e+00,4.88e+00,
18,2.40e+00,5.04e+00,
19,2.24e+00,4.88e+00,
20,2.32e+00,5.04e+00,
21,2.16e+00,4.88e+00,
22,2.24e+00,4.96e+00,
23,2.08e+00,5.12e+00,
24,2.16e+00,5.04e+00,
25,2.00e+00,4.88e+00,
26,2.08e+00,5.04e+00,
27,1.92e+00,4.88e+00,
28,2.00e+00,5.04e+00,
29,1.84e+00,4.96e+00,
30,1.92e+00,4.88e+00,
31,1.76e+00,5.12e+00,
32,1.84e+00,5.04e+00,
33,1.68e+00,4.88e+00,
34,1.76e+00,5.04e+00,
35,1.60e+00,4.88e+00,
36,1.68e+00,5.04e+00,
37,1.52e+00,4.96e+00,
38,1.60e+00,4.96e+00,
39,1.36e+00,5.20e+00,
40,1.44e+00,5.04e+00,
41,1.36e+00,4.88e+00,
42,1.36e+00,5.04e+00,
43,1.20e+00,4.88e+00,
44,1.28e+00,5.04e+00,
45,1.12e+00,4.88e+00,
46,1.20e+00,4.88e+00,
47,1.04e+00,5.12e+00,
48,1.12e+00,5.04e+00,
49,9.60e-01,4.88e+00,
50,1.04e+00,4.88e+00,
51,8.80e-01,5.04e+00,
52,9.60e-01,5.04e+00,
53,8.00e-01,4.88e+00,
54,8.80e-01,4.88e+00,
55,7.20e-01,5.12e+00,
56,8.00e-01,5.04e+00,
57,7.20e-01,4.88e+00,
58,6.40e-01,5.04e+00,
59,8.00e-01,4.88e+00,
60,7.20e-01,5.04e+00,
61,5.60e-01,4.88e+00,
62,6.40e-01,4.88e+00,
63,4.80e-01,5.12e+00,
64,4.80e-01,5.04e+00,
65,5.60e-01,4.88e+00,
66,4.80e-01,5.04e+00,
67,3.20e-01,4.88e+00,
68,4.00e-01,5.04e+00,
69,3.20e-01,4.88e+00,
70,3.20e-01,5.12e+00,
71,4.00e-01,4.88e+00,
72,3.20e-01,5.04e+00,
73,1.60e-01,4.88e+00,
74,3.20e-01,4.96e+00,
75,1.60e-01,5.04e+00,
76,2.40e-01,5.04e+00,
77,8.00e-02,4.88e+00,
78,2.40e-01,4.88e+00,
79,8.00e-02,5.12e+00,
80,1.60e-01,5.04e+00,
81,0.00e+00,4.96e+00,
82,1.60e-01,5.04e+00,
83,0.00e+00,4.88e+00,
84,0.00e+00,5.04e+00,
85,8.00e-02,4.88e+00,
86,8.00e-02,5.04e+00,
87,0.00e+00,4.48e+00,
88,8.00e-02,4.48e+00,
89,-8.00e-02,3.12e+00,
90,8.00e-02,3.04e+00,
91,-8.00e-02,1.52e+00,
92,0.00e+00,1.52e+00,
93,-8.00e-02,3.20e-01,
94,-8.00e-02,3.20e-01,
95,0.00e+00,1.60e-01,
96,-8.00e-02,2.40e-01,
97,0.00e+00,1.60e-01,
98,0.00e+00,2.40e-01,
99,-8.00e-02,1.60e-01,
100,0.00e+00,2.40e-01,
101,-8.00e-02,1.60e-01,
102,0.00e+00,2.40e-01,
103,-8.00e-02,1.60e-01,
104,-8.00e-02,2.40e-01,
105,0.00e+00,1.60e-01,
106,0.00e+00,2.40e-01,
107,-8.00e-02,1.60e-01,
108,0.00e+00,2.40e-01,
109,-8.00e-02,1.60e-01,
110,-8.00e-02,2.40e-01,
111,8.00e-02,1.60e-01,
112,0.00e+00,2.40e-01,
113,8.00e-02,1.60e-01,
114,0.00e+00,2.40e-01,
115,8.00e-02,1.60e-01,
116,0.00e+00,2.40e-01,
117,1.60e-01,1.60e-01,
118,0.00e+00,2.40e-01,
119,1.60e-01,1.60e-01,
120,1.60e-01,2.40e-01,
121,8.00e-02,1.60e-01,
122,8.00e-02,2.40e-01,
123,2.40e-01,8.00e-02,
124,1.60e-01,2.40e-01,
125,2.40e-01,8.00e-02,
126,1.60e-01,1.60e-01,
127,3.20e-01,2.40e-01,
128,3.20e-01,2.40e-01,
129,2.40e-01,8.00e-02,
130,2.40e-01,2.40e-01,
131,4.00e-01,1.60e-01,
132,3.20e-01,2.40e-01,
133,4.80e-01,8.00e-02,
134,4.80e-01,2.40e-01,
135,4.80e-01,8.00e-02,
136,4.80e-01,2.40e-01,
137,5.60e-01,8.00e-02,
138,5.60e-01,2.40e-01,
139,7.20e-01,8.00e-02,
140,6.40e-01,2.40e-01,
141,7.20e-01,8.00e-02,
142,6.40e-01,2.40e-01,
143,8.00e-01,8.00e-02,
144,7.20e-01,2.40e-01,
145,8.80e-01,8.00e-02,
146,8.00e-01,8.00e-02,
147,9.60e-01,2.40e-01,
148,8.80e-01,2.40e-01,
149,1.04e+00,1.60e-01,
150,9.60e-01,2.40e-01,
151,1.12e+00,1.60e-01,
152,1.04e+00,2.40e-01,
153,1.20e+00,1.60e-01,
154,1.12e+00,2.40e-01,
155,1.20e+00,2.40e-01,
156,1.12e+00,1.60e-01,
157,1.28e+00,3.20e-01,
158,1.20e+00,2.40e-01,
159,1.36e+00,4.00e-01,
160,1.36e+00,4.00e-01,
161,1.44e+00,8.00e-01,
162,1.44e+00,8.00e-01,
163,1.60e+00,1.28e+00,
164,1.52e+00,1.28e+00,
165,1.68e+00,1.92e+00,
166,1.60e+00,1.84e+00,
167,1.76e+00,2.40e+00,
168,1.68e+00,2.32e+00,
169,1.84e+00,2.88e+00,
170,1.76e+00,2.80e+00,
171,2.00e+00,3.36e+00,
172,1.92e+00,3.28e+00,
173,2.08e+00,3.76e+00,
174,2.00e+00,3.60e+00,
175,2.16e+00,4.08e+00,
176,2.08e+00,4.00e+00,
177,2.24e+00,4.40e+00,
178,2.16e+00,4.32e+00,
179,2.32e+00,4.64e+00,
180,2.24e+00,4.56e+00,
181,2.40e+00,4.88e+00,
182,2.40e+00,4.72e+00,
183,2.48e+00,4.96e+00,
184,2.48e+00,4.88e+00,
185,2.64e+00,5.04e+00,
186,2.56e+00,5.04e+00,
187,2.72e+00,4.88e+00,
188,2.64e+00,5.04e+00,
189,2.80e+00,4.88e+00,
190,2.72e+00,5.04e+00,
191,2.88e+00,4.88e+00,
192,2.96e+00,5.04e+00,
193,2.80e+00,4.88e+00,
194,2.88e+00,5.04e+00,
195,3.04e+00,4.88e+00,
196,2.96e+00,5.04e+00,
197,3.20e+00,4.88e+00,
198,3.04e+00,4.96e+00,
199,3.28e+00,5.04e+00,
200,3.20e+00,5.04e+00,
201,3.36e+00,4.88e+00,
202,3.28e+00,4.88e+00,
203,3.44e+00,5.04e+00,
204,3.36e+00,5.04e+00,
205,3.60e+00,4.88e+00,
206,3.44e+00,5.04e+00,
207,3.68e+00,4.88e+00,
208,3.68e+00,5.04e+00,
209,3.52e+00,4.88e+00,
210,3.60e+00,5.04e+00,
211,3.76e+00,4.88e+00,
212,3.68e+00,5.04e+00,
213,3.84e+00,4.88e+00,
214,3.76e+00,5.04e+00,
215,3.92e+00,4.88e+00,
216,3.84e+00,5.04e+00,
217,4.00e+00,4.88e+00,
218,3.92e+00,5.04e+00,
219,4.08e+00,4.88e+00,
220,4.00e+00,5.04e+00,
221,4.16e+00,4.88e+00,
222,4.08e+00,4.88e+00,
223,4.24e+00,5.12e+00,
224,4.24e+00,5.04e+00,
225,4.16e+00,4.88e+00,
226,4.32e+00,5.04e+00,
227,4.16e+00,4.88e+00,
228,4.32e+00,5.04e+00,
229,4.48e+00,4.88e+00,
230,4.40e+00,4.88e+00,
231,4.48e+00,5.12e+00,
232,4.40e+00,5.04e+00,
233,4.56e+00,4.88e+00,
234,4.48e+00,5.04e+00,
235,4.64e+00,4.88e+00,
236,4.48e+00,5.04e+00,
237,4.64e+00,4.96e+00,
238,4.56e+00,4.88e+00,
239,4.72e+00,5.12e+00,
240,4.64e+00,5.04e+00,
241,4.72e+00,4.88e+00,
242,4.80e+00,5.04e+00,
243,4.64e+00,4.88e+00,
244,4.80e+00,5.04e+00,
245,4.72e+00,4.96e+00,
246,4.72e+00,4.96e+00,
247,4.88e+00,5.12e+00,
248,4.72e+00,5.04e+00,
249,4.88e+00,4.88e+00,
250,4.80e+00,5.04e+00,
251,4.96e+00,4.88e+00,
252,4.96e+00,5.04e+00,
253,4.80e+00,4.88e+00,
254,4.96e+00,4.88e+00,
255,4.80e+00,5.12e+00,
256,4.88e+00,5.04e+00,
257,4.96e+00,4.96e+00,
258,4.88e+00,5.04e+00,
259,4.96e+00,4.88e+00,
260,4.88e+00,5.04e+00,
261,5.04e+00,4.88e+00,
262,4.88e+00,5.12e+00,
263,5.04e+00,4.88e+00,
264,5.04e+00,5.04e+00,
265,4.88e+00,4.88e+00,
266,5.04e+00,5.04e+00,
267,4.88e+00,4.88e+00,
268,5.04e+00,5.04e+00,
269,4.88e+00,4.96e+00,
270,5.04e+00,4.88e+00,
271,4.88e+00,5.12e+00,
272,5.04e+00,5.04e+00,
273,4.88e+00,4.88e+00,
274,4.96e+00,5.04e+00,
275,4.88e+00,4.88e+00,
276,4.96e+00,5.04e+00,
277,4.88e+00,4.88e+00,
278,4.96e+00,4.88e+00,
279,4.80e+00,5.12e+00,
280,4.80e+00,5.04e+00,
281,4.96e+00,4.96e+00,
282,4.88e+00,5.04e+00,
283,4.80e+00,4.88e+00,
284,4.88e+00,5.04e+00,
285,4.72e+00,4.88e+00,
286,4.88e+00,4.88e+00,
287,4.72e+00,5.12e+00,
288,4.80e+00,5.04e+00,
289,4.72e+00,4.88e+00,
290,4.80e+00,5.04e+00,
291,4.64e+00,4.96e+00,
292,4.72e+00,5.04e+00,
293,4.64e+00,4.88e+00,
294,4.72e+00,5.12e+00,
295,4.56e+00,4.88e+00,
296,4.56e+00,5.04e+00,
297,4.72e+00,4.96e+00,
298,4.64e+00,4.96e+00,
299,4.48e+00,5.04e+00,
300,4.56e+00,5.04e+00,
301,4.40e+00,4.88e+00,
302,4.48e+00,4.88e+00,
303,4.40e+00,5.12e+00,
304,4.32e+00,5.04e+00,
305,4.48e+00,4.88e+00,
306,4.32e+00,4.96e+00,
307,4.24e+00,5.04e+00,
308,4.32e+00,5.04e+00,
309,4.08e+00,4.88e+00,
310,4.24e+00,4.96e+00,
311,4.08e+00,5.20e+00,
312,4.16e+00,5.04e+00,
313,4.00e+00,4.96e+00,
314,4.08e+00,5.04e+00,
315,3.92e+00,4.88e+00,
316,4.00e+00,5.04e+00,
317,3.84e+00,4.88e+00,
318,3.92e+00,4.96e+00,
319,3.76e+00,5.12e+00,
320,3.92e+00,5.04e+00,
321,3.68e+00,4.88e+00,
322,3.84e+00,5.04e+00,
323,3.60e+00,4.88e+00,
324,3.68e+00,5.04e+00,
325,3.52e+00,4.96e+00,
326,3.68e+00,4.96e+00,
327,3.44e+00,5.12e+00,
328,3.60e+00,5.04e+00,
329,3.36e+00,4.96e+00,
330,3.44e+00,5.04e+00,
331,3.28e+00,4.88e+00,
332,3.36e+00,5.04e+00,
333,3.20e+00,4.96e+00,
334,3.28e+00,4.88e+00,
335,3.04e+00,5.12e+00,
336,3.12e+00,5.04e+00,
337,2.96e+00,4.88e+00,
338,3.04e+00,5.04e+00,
339,2.88e+00,4.88e+00,
340,2.96e+00,5.04e+00,
341,2.80e+00,4.88e+00,
342,2.88e+00,4.88e+00,
343,2.72e+00,5.20e+00,
344,2.80e+00,5.04e+00,
345,2.64e+00,4.96e+00,
346,2.72e+00,5.04e+00,
347,2.56e+00,4.88e+00,
348,2.64e+00,5.04e+00,
349,2.48e+00,4.88e+00,
350,2.48e+00,4.96e+00,
351,2.40e+00,5.12e+00,
352,2.40e+00,5.04e+00,
353,2.24e+00,4.88e+00,
354,2.32e+00,4.96e+00,
355,2.16e+00,5.04e+00,
356,2.24e+00,5.04e+00,
357,2.08e+00,4.88e+00,
358,2.16e+00,4.96e+00,
359,2.00e+00,5.12e+00,
360,2.08e+00,5.04e+00,
361,1.84e+00,4.88e+00,
362,2.00e+00,5.04e+00,
363,1.76e+00,4.96e+00,
364,1.84e+00,5.04e+00,
365,1.68e+00,4.96e+00,
366,1.76e+00,5.12e+00,
367,1.60e+00,4.88e+00,
368,1.68e+00,5.04e+00,
369,1.52e+00,4.96e+00,
370,1.60e+00,5.04e+00,
371,1.44e+00,4.88e+00,
372,1.44e+00,5.04e+00,
373,1.36e+00,4.96e+00,
374,1.36e+00,5.04e+00,
375,1.20e+00,4.88e+00,
376,1.20e+00,5.04e+00,
377,1.28e+00,4.88e+00,
378,1.20e+00,4.96e+00,
379,1.12e+00,5.04e+00,
380,1.04e+00,5.04e+00,
381,1.20e+00,4.88e+00,
382,1.12e+00,4.88e+00,
383,9.60e-01,5.12e+00,
384,1.04e+00,5.04e+00,
385,8.80e-01,4.88e+00,
386,9.60e-01,5.04e+00,
387,8.00e-01,4.88e+00,
388,8.80e-01,5.04e+00,
389,7.20e-01,4.88e+00,
390,8.00e-01,4.88e+00,
391,6.40e-01,5.12e+00,
392,6.40e-01,5.04e+00,
393,7.20e-01,4.88e+00,
394,6.40e-01,5.04e+00,
395,5.60e-01,4.88e+00,
396,5.60e-01,5.04e+00,
397,4.80e-01,4.88e+00,
398,4.80e-01,4.88e+00,
399,4.80e-01,5.12e+00,
400,4.80e-01,5.04e+00,
401,3.20e-01,4.88e+00,
402,4.00e-01,5.04e+00,
403,2.40e-01,4.88e+00,
404,3.20e-01,5.04e+00,
405,2.40e-01,4.96e+00,
406,3.20e-01,5.12e+00,
407,1.60e-01,4.88e+00,
408,2.40e-01,5.04e+00,
409,1.60e-01,4.96e+00,
410,2.40e-01,5.04e+00,
411,8.00e-02,4.96e+00,
412,1.60e-01,5.04e+00,
413,8.00e-02,4.96e+00,
414,1.60e-01,5.20e+00,
415,0.00e+00,4.88e+00,
416,1.60e-01,5.04e+00,
417,0.00e+00,4.96e+00,
418,8.00e-02,4.96e+00,
419,0.00e+00,5.04e+00,
420,0.00e+00,5.04e+00,
421,8.00e-02,4.08e+00,
422,8.00e-02,4.08e+00,
423,-8.00e-02,2.56e+00,
424,8.00e-02,2.56e+00,
425,-8.00e-02,1.04e+00,
426,0.00e+00,9.60e-01,
427,-8.00e-02,2.40e-01,
428,0.00e+00,3.20e-01,
429,-8.00e-02,1.60e-01,
430,-8.00e-02,2.40e-01,
431,0.00e+00,1.60e-01,
432,-8.00e-02,2.40e-01,
433,0.00e+00,1.60e-01,
434,-8.00e-02,2.40e-01,
435,0.00e+00,8.00e-02,
436,-8.00e-02,2.40e-01,
437,0.00e+00,8.00e-02,
438,-8.00e-02,2.40e-01,
439,0.00e+00,1.60e-01,
440,0.00e+00,2.40e-01,
441,-8.00e-02,1.60e-01,
442,-8.00e-02,2.40e-01,
443,8.00e-02,1.60e-01,
444,-8.00e-02,2.40e-01,
445,8.00e-02,1.60e-01,
446,8.00e-02,2.40e-01,
447,-8.00e-02,1.60e-01,
448,0.00e+00,2.40e-01,
449,8.00e-02,1.60e-01,
450,0.00e+00,2.40e-01,
451,1.60e-01,1.60e-01,
452,0.00e+00,2.40e-01,
453,1.60e-01,1.60e-01,
454,8.00e-02,2.40e-01,
455,2.40e-01,1.60e-01,
456,2.40e-01,2.40e-01,
457,8.00e-02,1.60e-01,
458,1.60e-01,2.40e-01,
459,3.20e-01,8.00e-02,
460,3.20e-01,1.60e-01,
461,1.60e-01,2.40e-01,
462,2.40e-01,2.40e-01,
463,4.00e-01,8.00e-02,
464,2.40e-01,2.40e-01,
465,4.00e-01,8.00e-02,
466,3.20e-01,2.40e-01,
467,4.80e-01,8.00e-02,
468,4.80e-01,2.40e-01,
469,4.80e-01,8.00e-02,
470,4.80e-01,2.40e-01,
471,6.40e-01,8.00e-02,
472,5.60e-01,8.00e-02,
473,7.20e-01,2.40e-01,
474,6.40e-01,2.40e-01,
475,8.00e-01,8.00e-02,
476,7.20e-01,2.40e-01,
477,8.00e-01,1.60e-01,
478,7.20e-01,2.40e-01,
479,8.80e-01,8.00e-02,
480,8.00e-01,2.40e-01,
481,9.60e-01,8.00e-02,
482,8.80e-01,2.40e-01,
483,1.04e+00,1.60e-01,
484,9.60e-01,2.40e-01,
485,1.12e+00,1.60e-01,
486,1.04e+00,2.40e-01,
487,1.20e+00,1.60e-01,
488,1.12e+00,2.40e-01,
489,1.28e+00,1.60e-01,
490,1.20e+00,2.40e-01,
491,1.36e+00,4.00e-01,
492,1.28e+00,3.20e-01,
493,1.44e+00,4.80e-01,
494,1.44e+00,4.80e-01,
495,1.60e+00,9.60e-01,
496,1.52e+00,9.60e-01,
497,1.68e+00,1.52e+00,
498,1.60e+00,1.52e+00,
499,1.76e+00,2.00e+00,
500,1.76e+00,2.00e+00,
501,1.68e+00,2.56e+00,
502,1.76e+00,2.48e+00,
503,1.92e+00,3.04e+00,
504,1.84e+00,3.04e+00,
505,2.00e+00,3.52e+00,
506,1.92e+00,3.44e+00,
507,2.08e+00,3.84e+00,
508,2.00e+00,3.76e+00,
509,2.16e+00,4.24e+00,
510,2.08e+00,4.16e+00,
511,2.24e+00,4.48e+00,
512,2.16e+00,4.40e+00,
513,2.32e+00,4.72e+00,
514,2.24e+00,4.64e+00,
515,2.40e+00,4.88e+00,
516,2.40e+00,4.80e+00,
517,2.48e+00,5.04e+00,
518,2.48e+00,5.04e+00,
519,2.64e+00,4.88e+00,
520,2.56e+00,5.04e+00,
521,2.72e+00,4.88e+00,
522,2.64e+00,5.04e+00,
523,2.88e+00,4.88e+00,
524,2.72e+00,5.04e+00,
525,2.96e+00,4.88e+00,
526,2.88e+00,5.04e+00,
527,3.04e+00,4.88e+00,
528,2.96e+00,5.04e+00,
529,3.12e+00,4.96e+00,
530,3.04e+00,5.04e+00,
531,3.20e+00,4.88e+00,
532,3.12e+00,5.04e+00,
533,3.28e+00,4.88e+00,
534,3.20e+00,5.04e+00,
535,3.36e+00,4.88e+00,
536,3.36e+00,5.04e+00,
537,3.52e+00,4.88e+00,
538,3.44e+00,5.04e+00,
539,3.60e+00,4.88e+00,
540,3.52e+00,5.04e+00,
541,3.68e+00,4.88e+00,
542,3.60e+00,5.04e+00,
543,3.76e+00,4.88e+00,
544,3.68e+00,4.88e+00,
545,3.84e+00,5.04e+00,
546,3.76e+00,5.04e+00,
547,3.92e+00,4.88e+00,
548,3.76e+00,5.04e+00,
549,4.00e+00,4.88e+00,
550,3.84e+00,5.04e+00,
551,4.00e+00,4.88e+00,
552,4.08e+00,5.04e+00,
553,3.92e+00,4.88e+00,
554,4.00e+00,5.04e+00,
555,4.16e+00,4.88e+00,
556,4.08e+00,5.04e+00,
557,4.24e+00,4.88e+00,
558,4.16e+00,5.04e+00,
559,4.32e+00,4.88e+00,
560,4.24e+00,5.04e+00,
561,4.40e+00,4.88e+00,
562,4.32e+00,5.04e+00,
563,4.48e+00,4.88e+00,
564,4.40e+00,5.04e+00,
565,4.56e+00,4.88e+00,
566,4.40e+00,5.04e+00,
567,4.64e+00,4.88e+00,
568,4.48e+00,5.04e+00,
569,4.64e+00,4.88e+00,
570,4.56e+00,4.88e+00,
571,4.72e+00,5.04e+00,
572,4.72e+00,5.04e+00,
573,4.56e+00,4.96e+00,
574,4.64e+00,5.04e+00,
575,4.80e+00,4.88e+00,
576,4.80e+00,5.04e+00,
577,4.64e+00,4.88e+00,
578,4.72e+00,5.04e+00,
579,4.88e+00,4.88e+00,
580,4.72e+00,5.04e+00,
581,4.88e+00,4.96e+00,
582,4.88e+00,4.88e+00,
583,4.80e+00,5.12e+00,
584,4.80e+00,5.04e+00,
585,4.96e+00,4.88e+00,
586,4.80e+00,5.04e+00,
587,4.96e+00,4.88e+00,
588,4.96e+00,5.04e+00,
589,4.88e+00,4.88e+00,
590,4.88e+00,5.04e+00,
591,5.04e+00,4.88e+00,
592,4.88e+00,5.04e+00,
593,4.96e+00,4.88e+00,
594,4.88e+00,4.88e+00,
595,5.04e+00,5.04e+00,
596,4.88e+00,5.04e+00,
597,5.04e+00,4.88e+00,
598,4.88e+00,4.88e+00,
599,5.04e+00,5.20e+00,
600,5.04e+00,5.04e+00,
601,4.88e+00,4.88e+00,
602,5.04e+00,4.96e+00,
603,4.88e+00,5.04e+00,
604,5.04e+00,5.04e+00,
605,4.88e+00,4.88e+00,
606,4.88e+00,4.88e+00,
607,5.04e+00,5.12e+00,
608,4.88e+00,5.04e+00,
609,4.96e+00,4.88e+00,
610,4.96e+00,5.04e+00,
611,4.88e+00,4.88e+00,
612,4.96e+00,5.04e+00,
613,4.80e+00,4.96e+00,
614,4.80e+00,4.88e+00,
615,4.96e+00,5.12e+00,
616,4.88e+00,5.04e+00,
617,4.80e+00,4.96e+00,
618,4.88e+00,4.96e+00,
619,4.72e+00,5.04e+00,
620,4.88e+00,5.04e+00,
621,4.72e+00,4.96e+00,
622,4.80e+00,4.88e+00,
623,4.64e+00,5.12e+00,
624,4.80e+00,5.04e+00,
625,4.64e+00,4.88e+00,
626,4.72e+00,5.04e+00,
627,4.56e+00,4.88e+00,
628,4.56e+00,5.04e+00,
629,4.72e+00,4.88e+00,
630,4.64e+00,5.04e+00,
631,4.48e+00,4.88e+00,
632,4.64e+00,5.04e+00,
633,4.48e+00,4.88e+00,
634,4.56e+00,5.04e+00,
635,4.40e+00,4.88e+00,
636,4.48e+00,5.04e+00,
637,4.32e+00,4.88e+00,
638,4.32e+00,4.88e+00,
639,4.48e+00,5.12e+00,
640,4.32e+00,5.04e+00,
641,4.16e+00,4.88e+00,
642,4.24e+00,4.96e+00,
643,4.08e+00,5.04e+00,
644,4.16e+00,5.04e+00,
645,4.00e+00,4.88e+00,
646,4.16e+00,4.88e+00,
647,3.92e+00,5.12e+00,
648,4.08e+00,5.04e+00,
649,3.92e+00,4.96e+00,
650,4.00e+00,5.04e+00,
651,3.84e+00,4.96e+00,
652,3.92e+00,5.04e+00,
653,3.76e+00,4.88e+00,
654,3.84e+00,4.96e+00,
655,3.68e+00,5.12e+00,
656,3.76e+00,5.04e+00,
657,3.60e+00,4.88e+00,
658,3.68e+00,4.96e+00,
659,3.52e+00,5.04e+00,
660,3.60e+00,5.04e+00,
661,3.44e+00,4.96e+00,
662,3.52e+00,4.96e+00,
663,3.36e+00,5.12e+00,
664,3.36e+00,5.04e+00,
665,3.20e+00,4.88e+00,
666,3.28e+00,5.04e+00,
667,3.12e+00,4.88e+00,
668,3.20e+00,5.04e+00,
669,3.04e+00,4.88e+00,
670,3.12e+00,4.88e+00,
671,2.96e+00,5.12e+00,
672,3.04e+00,5.04e+00,
673,2.88e+00,4.88e+00,
674,2.96e+00,5.04e+00,
675,2.80e+00,4.88e+00,
676,2.88e+00,5.04e+00,
677,2.72e+00,4.88e+00,
678,2.80e+00,4.88e+00,
679,2.64e+00,5.12e+00,
680,2.72e+00,5.04e+00,
681,2.56e+00,4.88e+00,
682,2.56e+00,4.88e+00,
683,2.40e+00,5.04e+00,
684,2.48e+00,5.04e+00,
685,2.32e+00,4.88e+00,
686,2.40e+00,4.88e+00,
687,2.16e+00,5.12e+00,
688,2.24e+00,5.04e+00,
689,2.16e+00,4.88e+00,
690,2.16e+00,5.04e+00,
691,2.00e+00,4.88e+00,
692,2.08e+00,5.04e+00,
693,1.92e+00,4.88e+00,
694,2.00e+00,4.88e+00,
695,1.84e+00,5.12e+00,
696,1.92e+00,5.04e+00,
697,1.76e+00,4.96e+00,
698,1.84e+00,5.04e+00,
699,1.68e+00,4.96e+00,
700,1.76e+00,5.04e+00,
701,1.60e+00,4.88e+00,
702,1.68e+00,4.88e+00,
703,1.52e+00,5.12e+00,
704,1.60e+00,5.04e+00,
705,1.44e+00,4.88e+00,
706,1.44e+00,5.04e+00,
707,1.36e+00,4.88e+00,
708,1.36e+00,5.04e+00,
709,1.20e+00,4.88e+00,
710,1.28e+00,4.88e+00,
711,1.12e+00,5.12e+00,
712,1.20e+00,5.04e+00,
713,1.04e+00,4.88e+00,
714,1.12e+00,5.04e+00,
715,9.60e-01,4.88e+00,
716,1.04e+00,5.04e+00,
717,8.80e-01,4.88e+00,
718,9.60e-01,4.88e+00,
719,8.80e-01,5.20e+00,
720,8.80e-01,5.04e+00,
721,8.00e-01,4.88e+00,
722,8.80e-01,5.04e+00,
723,7.20e-01,4.88e+00,
724,8.00e-01,5.04e+00,
725,6.40e-01,4.96e+00,
726,7.20e-01,4.88e+00,
727,5.60e-01,5.12e+00,
728,6.40e-01,5.04e+00,
729,5.60e-01,4.88e+00,
730,4.80e-01,5.04e+00,
731,6.40e-01,4.88e+00,
732,4.80e-01,5.04e+00,
733,3.20e-01,4.96e+00,
734,4.00e-01,4.88e+00,
735,3.20e-01,5.12e+00,
736,4.00e-01,5.04e+00,
737,2.40e-01,4.88e+00,
738,3.20e-01,4.96e+00,
739,2.40e-01,5.04e+00,
740,3.20e-01,5.04e+00,
741,1.60e-01,4.96e+00,
742,2.40e-01,4.96e+00,
743,1.60e-01,5.12e+00,
744,2.40e-01,5.04e+00,
745,8.00e-02,4.88e+00,
746,8.00e-02,5.04e+00,
747,1.60e-01,4.88e+00,
748,1.60e-01,5.04e+00,
749,0.00e+00,4.88e+00,
750,0.00e+00,5.12e+00,
751,8.00e-02,4.88e+00,
752,0.00e+00,5.04e+00,
753,8.00e-02,4.80e+00,
754,8.00e-02,4.80e+00,
755,-8.00e-02,3.60e+00,
756,-8.00e-02,3.60e+00,
757,8.00e-02,2.00e+00,
758,-8.00e-02,1.92e+00,
759,0.00e+00,6.40e-01,
760,0.00e+00,5.60e-01,
761,-8.00e-02,1.60e-01,
762,0.00e+00,2.40e-01,
763,-8.00e-02,1.60e-01,
764,0.00e+00,2.40e-01,
765,-8.00e-02,1.60e-01,
766,-8.00e-02,2.40e-01,
767,0.00e+00,1.60e-01,
768,0.00e+00,2.40e-01,
769,-8.00e-02,8.00e-02,
770,0.00e+00,2.40e-01,
771,-8.00e-02,1.60e-01,
772,-8.00e-02,1.60e-01,
773,0.00e+00,2.40e-01,
774,0.00e+00,2.40e-01,
775,-8.00e-02,8.00e-02,
776,-8.00e-02,2.40e-01,
777,8.00e-02,8.00e-02,
778,8.00e-02,2.40e-01,
779,-8.00e-02,1.60e-01,
780,0.00e+00,2.40e-01,
781,8.00e-02,1.60e-01,
782,0.00e+00,2.40e-01,
783,1.60e-01,1.60e-01,
784,0.00e+00,2.40e-01,
785,1.60e-01,1.60e-01,
786,1.60e-01,2.40e-01,
787,8.00e-02,8.00e-02,
788,8.00e-02,2.40e-01,
789,2.40e-01,8.00e-02,
790,2.40e-01,2.40e-01,
791,8.00e-02,1.60e-01,
792,1.60e-01,2.40e-01,
793,3.20e-01,8.00e-02,
794,2.40e-01,2.40e-01,
795,3.20e-01,8.00e-02,
796,2.40e-01,2.40e-01,
797,4.00e-01,1.60e-01,
798,3.20e-01,2.40e-01,
799,4.00e-01,8.00e-02,
800,3.20e-01,2.40e-01,
801,4.80e-01,8.00e-02,
802,4.80e-01,2.40e-01,
803,6.40e-01,8.00e-02,
804,6.40e-01,2.40e-01,
805,5.60e-01,8.00e-02,
806,5.60e-01,8.00e-02,
807,7.20e-01,2.40e-01,
808,6.40e-01,2.40e-01,
809,8.00e-01,8.00e-02,
810,7.20e-01,2.40e-01,
811,8.80e-01,8.00e-02,
812,8.00e-01,2.40e-01,
813,9.60e-01,8.00e-02,
814,8.80e-01,2.40e-01,
815,9.60e-01,8.00e-02,
816,8.80e-01,2.40e-01,
817,1.04e+00,8.00e-02,
818,9.60e-01,2.40e-01,
819,1.12e+00,1.60e-01,
820,1.04e+00,2.40e-01,
821,1.20e+00,1.60e-01,
822,1.12e+00,2.40e-01,
823,1.28e+00,1.60e-01,
824,1.20e+00,2.40e-01,
825,1.36e+00,4.00e-01,
826,1.28e+00,3.20e-01,
827,1.44e+00,6.40e-01,
828,1.44e+00,5.60e-01,
829,1.60e+00,1.12e+00,
830,1.52e+00,1.12e+00,
831,1.68e+00,1.68e+00,
832,1.60e+00,1.60e+00,
833,1.76e+00,2.24e+00,
834,1.68e+00,2.24e+00,
835,1.84e+00,2.72e+00,
836,1.76e+00,2.64e+00,
837,1.92e+00,3.20e+00,
838,1.84e+00,3.12e+00,
839,2.00e+00,3.52e+00,
840,1.92e+00,3.52e+00,
841,2.08e+00,4.00e+00,
842,2.08e+00,3.84e+00,
843,2.16e+00,4.24e+00,
844,2.08e+00,4.24e+00,
845,2.24e+00,4.56e+00,
846,2.24e+00,4.48e+00,
847,2.40e+00,4.80e+00,
848,2.40e+00,4.64e+00,
849,2.48e+00,4.96e+00,
850,2.48e+00,4.80e+00,
851,2.56e+00,5.04e+00,
852,2.56e+00,5.04e+00,
853,2.72e+00,4.88e+00,
854,2.64e+00,5.04e+00,
855,2.72e+00,4.88e+00,
856,2.72e+00,5.04e+00,
857,2.88e+00,4.88e+00,
858,2.80e+00,4.88e+00,
859,2.96e+00,5.04e+00,
860,2.88e+00,5.04e+00,
861,3.04e+00,4.88e+00,
862,2.96e+00,5.04e+00,
863,3.12e+00,4.88e+00,
864,3.04e+00,5.04e+00,
865,3.20e+00,4.88e+00,
866,3.28e+00,5.04e+00,
867,3.12e+00,4.88e+00,
868,3.36e+00,5.04e+00,
