project/matlab/project_exp3/900 Hz/NewFile1.csv

X,CH1,CH2,Start,Increment,
Sequence,Volt,Volt,-2.280000e-03,5.000000e-06
0,2.24e+00,4.88e+00,
1,2.56e+00,5.20e+00,
2,2.40e+00,4.88e+00,
3,2.64e+00,5.20e+00,
4,2.56e+00,5.20e+00,
5,2.80e+00,4.88e+00,
6,2.72e+00,5.12e+00,
7,2.96e+00,4.88e+00,
8,2.80e+00,5.20e+00,
9,3.04e+00,4.88e+00,
10,2.96e+00,4.88e+00,
11,3.20e+00,5.20e+00,
12,3.04e+00,4.88e+00,
13,3.28e+00,5.20e+00,
14,3.28e+00,4.88e+00,
15,3.52e+00,5.20e+00,
16,3.36e+00,5.12e+00,
17,3.60e+00,4.88e+00,
18,3.52e+00,5.20e+00,
19,3.76e+00,4.88e+00,
20,3.60e+00,4.88e+00,
21,3.84e+00,5.20e+00,
22,3.68e+00,4.88e+00,
23,3.92e+00,5.20e+00,
24,3.84e+00,4.88e+00,
25,4.08e+00,5.20e+00,
26,3.92e+00,4.88e+00,
27,4.16e+00,5.20e+00,
28,4.00e+00,4.88e+00,
29,4.24e+00,5.20e+00,
30,4.08e+00,5.20e+00,
31,4.40e+00,4.88e+00,
32,4.24e+00,5.12e+00,
33,4.48e+00,4.88e+00,
34,4.32e+00,5.20e+00,
35,4.56e+00,4.88e+00,
36,4.40e+00,5.20e+00,
37,4.64e+00,4.88e+00,
38,4.48e+00,4.88e+00,
39,4.72e+00,5.20e+00,
40,4.56e+00,4.88e+00,
41,4.80e+00,5.20e+00,
42,4.64e+00,4.88e+00,
43,4.80e+00,5.20e+00,
44,4.64e+00,4.88e+00,
45,4.88e+00,5.20e+00,
46,4.88e+00,5.20e+00,
47,4.72e+00,4.88e+00,
48,4.72e+00,4.88e+00,
49,4.96e+00,5.20e+00,
50,4.96e+00,4.88e+00,
51,4.72e+00,5.20e+00,
52,4.96e+00,4.88e+00,
53,4.80e+00,5.20e+00,
54,4.96e+00,4.88e+00,
55,4.80e+00,5.20e+00,
56,4.96e+00,4.88e+00,
57,4.80e+00,5.20e+00,
58,4.96e+00,5.12e+00,
59,4.80e+00,4.88e+00,
60,4.96e+00,4.88e+00,
61,4.80e+00,5.20e+00,
62,4.96e+00,5.20e+00,
63,4.72e+00,4.88e+00,
64,4.96e+00,4.88e+00,
65,4.72e+00,5.20e+00,
66,4.72e+00,5.20e+00,
67,4.88e+00,4.88e+00,
68,4.88e+00,5.20e+00,
69,4.64e+00,4.88e+00,
70,4.64e+00,4.88e+00,
71,4.80e+00,5.20e+00,
72,4.80e+00,5.20e+00,
73,4.56e+00,4.88e+00,
74,4.72e+00,4.88e+00,
75,4.48e+00,5.20e+00,
76,4.64e+00,4.88e+00,
77,4.40e+00,5.20e+00,
78,4.56e+00,4.88e+00,
79,4.32e+00,5.20e+00,
80,4.48e+00,4.88e+00,
81,4.24e+00,5.20e+00,
82,4.40e+00,5.20e+00,
83,4.16e+00,4.88e+00,
84,4.24e+00,4.88e+00,
85,4.00e+00,5.20e+00,
86,4.16e+00,4.88e+00,
87,3.92e+00,5.20e+00,
88,4.08e+00,4.88e+00,
89,3.84e+00,5.20e+00,
90,4.00e+00,4.88e+00,
91,3.68e+00,5.20e+00,
92,3.84e+00,5.20e+00,
93,3.60e+00,4.88e+00,
94,3.76e+00,5.12e+00,
95,3.52e+00,4.88e+00,
96,3.60e+00,4.88e+00,
97,3.36e+00,5.20e+00,
98,3.52e+00,4.88e+00,
99,3.28e+00,5.20e+00,
100,3.28e+00,5.20e+00,
101,3.12e+00,4.88e+00,
102,3.20e+00,4.88e+00,
103,2.96e+00,5.20e+00,
104,3.04e+00,4.88e+00,
105,2.80e+00,5.20e+00,
106,2.96e+00,4.88e+00,
107,2.72e+00,5.20e+00,
108,2.80e+00,5.20e+00,
109,2.56e+00,4.88e+00,
110,2.72e+00,4.88e+00,
111,2.40e+00,5.20e+00,
112,2.56e+00,4.88e+00,
113,2.32e+00,5.20e+00,
114,2.32e+00,5.20e+00,
115,2.08e+00,4.88e+00,
116,2.24e+00,4.88e+00,
117,2.00e+00,5.20e+00,
118,2.08e+00,4.88e+00,
119,1.84e+00,5.20e+00,
120,1.92e+00,5.20e+00,
121,1.76e+00,4.88e+00,
122,1.84e+00,4.88e+00,
123,1.60e+00,5.20e+00,
124,1.68e+00,5.20e+00,
125,1.52e+00,4.88e+00,
126,1.52e+00,5.12e+00,
127,1.28e+00,4.88e+00,
128,1.36e+00,5.20e+00,
129,1.20e+00,4.88e+00,
130,1.28e+00,5.20e+00,
131,1.04e+00,4.88e+00,
132,1.12e+00,4.88e+00,
133,9.60e-01,5.20e+00,
134,1.04e+00,4.88e+00,
135,8.80e-01,5.20e+00,
136,9.60e-01,4.88e+00,
137,7.20e-01,5.20e+00,
138,8.80e-01,4.88e+00,
139,6.40e-01,5.20e+00,
140,7.20e-01,4.88e+00,
141,5.60e-01,5.20e+00,
142,6.40e-01,5.20e+00,
143,4.80e-01,4.88e+00,
144,5.60e-01,5.20e+00,
145,3.20e-01,4.88e+00,
146,4.00e-01,5.20e+00,
147,2.40e-01,4.88e+00,
148,3.20e-01,5.20e+00,
149,1.60e-01,8.00e-02,
150,3.20e-01,2.40e-01,
151,8.00e-02,8.00e-02,
152,8.00e-02,2.40e-01,
153,2.40e-01,8.00e-02,
154,1.60e-01,2.40e-01,
155,0.00e+00,8.00e-02,
156,1.60e-01,2.40e-01,
157,0.00e+00,8.00e-02,
158,8.00e-02,8.00e-02,
159,-8.00e-02,2.40e-01,
160,-8.00e-02,8.00e-02,
161,8.00e-02,2.40e-01,
162,-8.00e-02,2.40e-01,
163,0.00e+00,8.00e-02,
164,0.00e+00,8.00e-02,
165,-1.60e-01,2.40e-01,
166,0.00e+00,8.00e-02,
167,-1.60e-01,2.40e-01,
168,0.00e+00,1.60e-01,
169,-1.60e-01,8.00e-02,
170,0.00e+00,8.00e-02,
171,-1.60e-01,2.40e-01,
172,0.00e+00,1.60e-01,
173,-8.00e-02,8.00e-02,
174,-8.00e-02,1.60e-01,
175,8.00e-02,8.00e-02,
176,8.00e-02,8.00e-02,
177,-8.00e-02,2.40e-01,
178,0.00e+00,8.00e-02,
179,8.00e-02,2.40e-01,
180,0.00e+00,8.00e-02,
181,1.60e-01,2.40e-01,
182,8.00e-02,8.00e-02,
183,2.40e-01,2.40e-01,
184,2.40e-01,2.40e-01,
185,8.00e-02,8.00e-02,
186,1.60e-01,2.40e-01,
187,3.20e-01,8.00e-02,
188,2.40e-01,2.40e-01,
189,4.00e-01,0.00e+00,
190,4.00e-01,8.00e-02,
191,5.60e-01,2.40e-01,
192,4.80e-01,8.00e-02,
193,6.40e-01,2.40e-01,
194,5.60e-01,2.40e-01,
195,7.20e-01,0.00e+00,
196,6.40e-01,8.00e-02,
197,8.00e-01,2.40e-01,
198,7.20e-01,1.60e-01,
199,9.60e-01,5.04e+00,
200,8.00e-01,5.04e+00,
201,1.04e+00,4.88e+00,
202,9.60e-01,4.96e+00,
203,1.12e+00,4.88e+00,
204,1.04e+00,4.96e+00,
205,1.28e+00,4.88e+00,
206,1.20e+00,4.96e+00,
207,1.36e+00,4.88e+00,
208,1.36e+00,4.88e+00,
209,1.52e+00,4.96e+00,
210,1.44e+00,4.96e+00,
211,1.68e+00,4.88e+00,
212,1.60e+00,4.88e+00,
213,1.84e+00,5.12e+00,
214,1.68e+00,5.12e+00,
215,1.92e+00,4.88e+00,
216,1.84e+00,4.88e+00,
217,2.08e+00,5.12e+00,
218,1.92e+00,5.20e+00,
219,2.16e+00,4.88e+00,
220,2.08e+00,5.20e+00,
221,2.32e+00,4.88e+00,
222,2.32e+00,4.88e+00,
223,2.56e+00,5.20e+00,
224,2.40e+00,4.88e+00,
225,2.64e+00,5.20e+00,
226,2.56e+00,4.88e+00,
227,2.80e+00,5.20e+00,
228,2.64e+00,5.12e+00,
229,2.88e+00,4.88e+00,
230,2.80e+00,5.20e+00,
231,3.04e+00,4.88e+00,
232,2.96e+00,5.20e+00,
233,3.20e+00,4.88e+00,
234,3.04e+00,4.88e+00,
235,3.28e+00,5.20e+00,
236,3.28e+00,4.88e+00,
237,3.52e+00,5.20e+00,
238,3.36e+00,4.88e+00,
239,3.60e+00,5.20e+00,
240,3.44e+00,4.88e+00,
241,3.68e+00,5.20e+00,
242,3.60e+00,4.88e+00,
243,3.84e+00,5.20e+00,
244,3.68e+00,4.88e+00,
245,3.92e+00,5.20e+00,
246,3.84e+00,5.20e+00,
247,4.08e+00,4.88e+00,
248,3.92e+00,5.20e+00,
249,4.16e+00,4.88e+00,
250,4.00e+00,5.20e+00,
251,4.24e+00,4.88e+00,
252,4.08e+00,4.88e+00,
253,4.40e+00,5.20e+00,
254,4.24e+00,4.88e+00,
255,4.48e+00,5.20e+00,
256,4.32e+00,4.88e+00,
257,4.56e+00,5.20e+00,
258,4.40e+00,4.88e+00,
259,4.64e+00,5.20e+00,
260,4.48e+00,5.20e+00,
261,4.72e+00,4.88e+00,
262,4.72e+00,5.20e+00,
263,4.56e+00,4.88e+00,
264,4.56e+00,4.88e+00,
265,4.80e+00,5.20e+00,
266,4.64e+00,4.88e+00,
267,4.88e+00,5.20e+00,
268,4.72e+00,5.12e+00,
269,4.88e+00,4.96e+00,
270,4.72e+00,4.88e+00,
271,4.96e+00,5.20e+00,
272,4.72e+00,5.20e+00,
273,4.96e+00,4.88e+00,
274,4.96e+00,5.20e+00,
275,4.80e+00,4.88e+00,
276,4.96e+00,5.20e+00,
277,4.80e+00,4.88e+00,
278,4.96e+00,5.20e+00,
279,4.80e+00,4.88e+00,
280,4.96e+00,4.88e+00,
281,4.80e+00,5.20e+00,
282,4.80e+00,4.88e+00,
283,4.96e+00,5.20e+00,
284,4.96e+00,4.88e+00,
285,4.72e+00,5.20e+00,
286,4.96e+00,4.88e+00,
287,4.72e+00,5.20e+00,
288,4.88e+00,5.12e+00,
289,4.72e+00,4.88e+00,
290,4.88e+00,5.20e+00,
291,4.64e+00,4.88e+00,
292,4.80e+00,5.20e+00,
293,4.64e+00,4.88e+00,
294,4.80e+00,4.88e+00,
295,4.56e+00,5.20e+00,
296,4.72e+00,4.88e+00,
297,4.48e+00,5.20e+00,
298,4.64e+00,4.88e+00,
299,4.40e+00,5.20e+00,
300,4.56e+00,4.88e+00,
301,4.32e+00,5.20e+00,
302,4.32e+00,5.20e+00,
303,4.48e+00,4.88e+00,
304,4.40e+00,5.20e+00,
305,4.08e+00,4.88e+00,
306,4.24e+00,5.20e+00,
307,4.00e+00,4.88e+00,
308,4.16e+00,4.88e+00,
309,3.92e+00,5.20e+00,
310,4.08e+00,5.20e+00,
311,3.84e+00,4.88e+00,
312,4.00e+00,4.88e+00,
313,3.76e+00,5.20e+00,
314,3.84e+00,4.88e+00,
315,3.60e+00,5.20e+00,
316,3.76e+00,4.88e+00,
317,3.52e+00,5.20e+00,
318,3.68e+00,5.20e+00,
319,3.36e+00,4.88e+00,
320,3.52e+00,5.20e+00,
321,3.28e+00,4.88e+00,
322,3.36e+00,4.88e+00,
323,3.12e+00,5.20e+00,
324,3.20e+00,4.88e+00,
325,2.96e+00,5.12e+00,
326,3.04e+00,5.20e+00,
327,2.80e+00,4.88e+00,
328,2.96e+00,4.88e+00,
329,2.72e+00,5.20e+00,
330,2.80e+00,4.88e+00,
331,2.56e+00,5.20e+00,
332,2.72e+00,4.88e+00,
333,2.48e+00,5.20e+00,
334,2.56e+00,4.88e+00,
335,2.24e+00,5.20e+00,
336,2.32e+00,4.88e+00,
337,2.16e+00,5.20e+00,
338,2.24e+00,4.88e+00,
339,2.00e+00,5.20e+00,
340,2.08e+00,5.20e+00,
341,1.84e+00,4.88e+00,
342,2.00e+00,5.12e+00,
343,1.76e+00,4.88e+00,
344,1.84e+00,5.20e+00,
345,1.60e+00,4.88e+00,
346,1.68e+00,5.12e+00,
347,1.52e+00,4.88e+00,
348,1.60e+00,4.88e+00,
349,1.36e+00,5.20e+00,
350,1.36e+00,4.88e+00,
351,1.20e+00,5.20e+00,
352,1.28e+00,5.20e+00,
353,1.04e+00,4.88e+00,
354,1.20e+00,5.20e+00,
355,9.60e-01,4.88e+00,
356,1.04e+00,5.20e+00,
357,8.80e-01,4.88e+00,
358,9.60e-01,5.20e+00,
359,8.00e-01,4.88e+00,
360,8.80e-01,4.88e+00,
361,6.40e-01,5.20e+00,
362,7.20e-01,4.88e+00,
363,5.60e-01,5.20e+00,
364,7.20e-01,4.88e+00,
365,4.80e-01,5.20e+00,
366,5.60e-01,4.88e+00,
367,3.20e-01,5.20e+00,
368,4.80e-01,4.88e+00,
369,2.40e-01,5.20e+00,
370,4.00e-01,5.20e+00,
371,1.60e-01,8.00e-02,
372,3.20e-01,2.40e-01,
373,1.60e-01,8.00e-02,
374,2.40e-01,2.40e-01,
375,8.00e-02,8.00e-02,
376,1.60e-01,2.40e-01,
377,0.00e+00,8.00e-02,
378,1.60e-01,2.40e-01,
379,0.00e+00,8.00e-02,
380,8.00e-02,2.40e-01,
381,-8.00e-02,8.00e-02,
382,-8.00e-02,2.40e-01,
383,8.00e-02,8.00e-02,
384,0.00e+00,8.00e-02,
385,-8.00e-02,2.40e-01,
386,0.00e+00,8.00e-02,
387,-8.00e-02,2.40e-01,
388,0.00e+00,8.00e-02,
389,-1.60e-01,2.40e-01,
390,-1.60e-01,8.00e-02,
391,0.00e+00,2.40e-01,
392,-1.60e-01,1.60e-01,
393,0.00e+00,8.00e-02,
394,0.00e+00,8.00e-02,
395,-8.00e-02,2.40e-01,
396,-8.00e-02,8.00e-02,
397,0.00e+00,2.40e-01,
398,-8.00e-02,8.00e-02,
399,8.00e-02,2.40e-01,
400,8.00e-02,8.00e-02,
401,-8.00e-02,2.40e-01,
402,0.00e+00,1.60e-01,
403,1.60e-01,8.00e-02,
404,8.00e-02,8.00e-02,
405,2.40e-01,2.40e-01,
406,8.00e-02,8.00e-02,
407,2.40e-01,2.40e-01,
408,1.60e-01,1.60e-01,
409,3.20e-01,0.00e+00,
410,2.40e-01,8.00e-02,
411,4.00e-01,2.40e-01,
412,4.00e-01,8.00e-02,
413,5.60e-01,2.40e-01,
414,4.80e-01,8.00e-02,
415,6.40e-01,2.40e-01,
416,5.60e-01,1.60e-01,
417,7.20e-01,0.00e+00,
418,6.40e-01,8.00e-02,
419,8.00e-01,2.40e-01,
420,7.20e-01,8.00e-02,
421,9.60e-01,5.04e+00,
422,8.00e-01,4.88e+00,
423,1.04e+00,5.04e+00,
424,9.60e-01,5.04e+00,
425,1.12e+00,4.88e+00,
426,1.04e+00,5.04e+00,
427,1.28e+00,4.88e+00,
428,1.12e+00,5.04e+00,
429,1.36e+00,4.88e+00,
430,1.28e+00,5.04e+00,
431,1.60e+00,4.88e+00,
432,1.44e+00,5.04e+00,
433,1.68e+00,4.88e+00,
434,1.60e+00,5.04e+00,
435,1.76e+00,4.88e+00,
436,1.68e+00,5.04e+00,
437,1.92e+00,4.88e+00,
438,1.84e+00,4.88e+00,
439,2.08e+00,5.20e+00,
440,1.92e+00,4.88e+00,
441,2.16e+00,5.20e+00,
442,2.08e+00,4.88e+00,
443,2.32e+00,5.20e+00,
444,2.24e+00,4.88e+00,
445,2.48e+00,5.20e+00,
446,2.40e+00,4.88e+00,
447,2.64e+00,5.20e+00,
448,2.56e+00,5.20e+00,
449,2.80e+00,4.88e+00,
450,2.64e+00,5.12e+00,
451,2.88e+00,4.88e+00,
452,2.80e+00,4.88e+00,
453,3.04e+00,5.20e+00,
454,2.88e+00,5.20e+00,
455,3.12e+00,4.88e+00,
456,3.04e+00,4.88e+00,
457,3.28e+00,5.20e+00,
458,3.20e+00,4.88e+00,
459,3.44e+00,5.20e+00,
460,3.36e+00,5.20e+00,
461,3.60e+00,4.88e+00,
462,3.44e+00,4.88e+00,
463,3.68e+00,5.20e+00,
464,3.60e+00,5.20e+00,
465,3.84e+00,4.88e+00,
466,3.68e+00,5.20e+00,
467,3.92e+00,4.88e+00,
468,3.76e+00,5.12e+00,
469,4.08e+00,4.88e+00,
470,3.92e+00,4.88e+00,
471,4.16e+00,5.20e+00,
472,4.00e+00,4.88e+00,
473,4.24e+00,5.20e+00,
474,4.08e+00,4.88e+00,
475,4.40e+00,5.20e+00,
476,4.24e+00,4.88e+00,
477,4.48e+00,5.20e+00,
478,4.32e+00,4.88e+00,
479,4.56e+00,5.20e+00,
480,4.40e+00,4.88e+00,
481,4.64e+00,5.20e+00,
482,4.48e+00,4.88e+00,
483,4.72e+00,5.20e+00,
484,4.72e+00,4.88e+00,
485,4.56e+00,5.20e+00,
486,4.56e+00,4.88e+00,
487,4.80e+00,5.20e+00,
488,4.64e+00,5.12e+00,
489,4.88e+00,4.88e+00,
490,4.88e+00,5.20e+00,
491,4.72e+00,4.88e+00,
492,4.72e+00,4.88e+00,
493,4.96e+00,5.20e+00,
494,4.72e+00,4.88e+00,
495,4.96e+00,5.20e+00,
496,4.80e+00,4.88e+00,
497,4.96e+00,5.20e+00,
498,4.96e+00,5.20e+00,
499,4.80e+00,4.88e+00,
500,4.96e+00,4.88e+00,
501,4.80e+00,5.20e+00,
502,4.96e+00,4.88e+00,
503,4.80e+00,5.20e+00,
504,4.96e+00,4.88e+00,
505,4.80e+00,5.20e+00,
506,4.96e+00,4.88e+00,
507,4.72e+00,5.20e+00,
508,4.96e+00,4.88e+00,
509,4.72e+00,5.20e+00,
510,4.72e+00,4.88e+00,
511,4.88e+00,5.20e+00,
512,4.88e+00,4.88e+00,
513,4.64e+00,5.20e+00,
514,4.64e+00,5.12e+00,
515,4.80e+00,4.88e+00,
516,4.80e+00,4.88e+00,
517,4.56e+00,5.20e+00,
518,4.72e+00,4.88e+00,
519,4.48e+00,5.20e+00,
520,4.64e+00,5.20e+00,
521,4.40e+00,4.88e+00,
522,4.56e+00,4.88e+00,
523,4.40e+00,5.20e+00,
524,4.48e+00,4.88e+00,
525,4.32e+00,5.20e+00,
526,4.40e+00,4.88e+00,
527,4.16e+00,5.20e+00,
528,4.24e+00,4.88e+00,
529,4.08e+00,5.20e+00,
530,4.16e+00,4.88e+00,
531,3.92e+00,5.20e+00,
532,4.08e+00,4.88e+00,
533,3.84e+00,5.20e+00,
534,4.00e+00,4.88e+00,
535,3.76e+00,5.20e+00,
536,3.92e+00,5.20e+00,
537,3.60e+00,4.88e+00,
538,3.76e+00,4.88e+00,
539,3.52e+00,5.20e+00,
540,3.68e+00,5.20e+00,
541,3.44e+00,4.88e+00,
542,3.52e+00,4.96e+00,
543,3.28e+00,5.20e+00,
544,3.44e+00,4.88e+00,
545,3.12e+00,5.20e+00,
546,3.20e+00,5.20e+00,
547,2.96e+00,4.88e+00,
548,3.12e+00,4.88e+00,
549,2.88e+00,5.20e+00,
550,2.96e+00,4.88e+00,
551,2.72e+00,5.20e+00,
552,2.80e+00,4.96e+00,
553,2.56e+00,5.20e+00,
554,2.72e+00,5.20e+00,
555,2.48e+00,4.88e+00,
556,2.56e+00,4.88e+00,
557,2.32e+00,5.20e+00,
558,2.48e+00,5.20e+00,
559,2.16e+00,4.88e+00,
560,2.24e+00,5.20e+00,
561,2.00e+00,4.88e+00,
562,2.08e+00,4.88e+00,
563,1.92e+00,5.20e+00,
564,2.00e+00,5.20e+00,
565,1.76e+00,4.88e+00,
566,1.84e+00,4.88e+00,
567,1.60e+00,5.20e+00,
568,1.76e+00,5.20e+00,
569,1.52e+00,4.88e+00,
570,1.60e+00,4.88e+00,
571,1.36e+00,5.20e+00,
572,1.52e+00,4.88e+00,
573,1.20e+00,5.20e+00,
574,1.28e+00,4.88e+00,
575,1.12e+00,5.20e+00,
576,1.20e+00,4.88e+00,
577,9.60e-01,5.20e+00,
578,1.04e+00,4.88e+00,
579,8.80e-01,5.20e+00,
580,9.60e-01,5.12e+00,
581,8.00e-01,4.88e+00,
582,8.80e-01,5.20e+00,
583,6.40e-01,4.88e+00,
584,8.00e-01,5.20e+00,
585,5.60e-01,4.88e+00,
586,7.20e-01,5.20e+00,
587,4.80e-01,4.88e+00,
588,6.40e-01,4.88e+00,
589,4.00e-01,5.20e+00,
590,4.80e-01,5.12e+00,
591,2.40e-01,4.88e+00,
592,4.00e-01,5.20e+00,
593,1.60e-01,8.00e-02,
594,3.20e-01,2.40e-01,
595,1.60e-01,8.00e-02,
596,2.40e-01,2.40e-01,
597,8.00e-02,8.00e-02,
598,1.60e-01,2.40e-01,
599,0.00e+00,8.00e-02,
600,0.00e+00,2.40e-01,
601,1.60e-01,8.00e-02,
602,8.00e-02,2.40e-01,
603,-8.00e-02,8.00e-02,
604,-8.00e-02,2.40e-01,
605,8.00e-02,8.00e-02,
606,-8.00e-02,2.40e-01,
607,0.00e+00,8.00e-02,
608,0.00e+00,2.40e-01,
609,-8.00e-02,8.00e-02,
610,0.00e+00,8.00e-02,
611,-1.60e-01,2.40e-01,
612,0.00e+00,8.00e-02,
613,-1.60e-01,2.40e-01,
614,0.00e+00,2.40e-01,
615,-1.60e-01,8.00e-02,
616,0.00e+00,8.00e-02,
617,-8.00e-02,2.40e-01,
618,0.00e+00,8.00e-02,
619,-8.00e-02,2.40e-01,
620,-8.00e-02,2.40e-01,
621,8.00e-02,0.00e+00,
622,8.00e-02,8.00e-02,
623,-8.00e-02,1.60e-01,
624,0.00e+00,8.00e-02,
625,1.60e-01,2.40e-01,
626,8.00e-02,8.00e-02,
627,2.40e-01,2.40e-01,
628,2.40e-01,1.60e-01,
629,8.00e-02,8.00e-02,
630,1.60e-01,2.40e-01,
631,3.20e-01,0.00e+00,
632,2.40e-01,1.60e-01,
633,4.00e-01,8.00e-02,
634,3.20e-01,8.00e-02,
635,5.60e-01,2.40e-01,
636,4.80e-01,8.00e-02,
637,6.40e-01,2.40e-01,
638,5.60e-01,8.00e-02,
639,7.20e-01,1.60e-01,
640,6.40e-01,8.00e-02,
641,8.00e-01,2.40e-01,
642,7.20e-01,1.60e-01,
643,8.80e-01,5.04e+00,
644,8.00e-01,4.96e+00,
645,1.04e+00,4.88e+00,
646,8.80e-01,4.96e+00,
647,1.12e+00,4.88e+00,
648,1.04e+00,4.96e+00,
649,1.20e+00,4.88e+00,
650,1.12e+00,4.96e+00,
651,1.36e+00,4.88e+00,
652,1.36e+00,4.96e+00,
653,1.52e+00,4.88e+00,
654,1.44e+00,4.88e+00,
655,1.68e+00,5.12e+00,
656,1.52e+00,4.88e+00,
657,1.76e+00,5.12e+00,
658,1.68e+00,4.88e+00,
659,1.92e+00,5.20e+00,
660,1.84e+00,5.20e+00,
661,2.00e+00,4.88e+00,
662,1.92e+00,5.12e+00,
663,2.16e+00,4.88e+00,
664,2.08e+00,4.88e+00,
665,2.32e+00,5.20e+00,
666,2.16e+00,4.88e+00,
667,2.48e+00,5.20e+00,
668,2.40e+00,4.88e+00,
669,2.64e+00,5.20e+00,
670,2.48e+00,5.20e+00,
671,2.80e+00,4.88e+00,
672,2.64e+00,4.88e+00,
673,2.88e+00,5.20e+00,
674,2.80e+00,4.88e+00,
675,3.04e+00,5.20e+00,
676,2.88e+00,4.88e+00,
677,3.12e+00,5.20e+00,
678,3.04e+00,4.88e+00,
679,3.28e+00,5.20e+00,
680,3.12e+00,5.20e+00,
681,3.44e+00,4.88e+00,
682,3.36e+00,4.88e+00,
683,3.60e+00,5.20e+00,
684,3.44e+00,4.88e+00,
685,3.68e+00,5.20e+00,
686,3.60e+00,4.88e+00,
687,3.84e+00,5.20e+00,
688,3.68e+00,4.88e+00,
689,3.92e+00,5.20e+00,
690,3.76e+00,5.20e+00,
691,4.00e+00,4.88e+00,
692,3.84e+00,5.20e+00,
693,4.16e+00,4.88e+00,
694,4.00e+00,4.88e+00,
695,4.24e+00,5.20e+00,
696,4.08e+00,5.20e+00,
697,4.40e+00,4.88e+00,
698,4.24e+00,4.88e+00,
699,4.48e+00,5.20e+00,
700,4.32e+00,4.88e+00,
701,4.56e+00,5.20e+00,
702,4.40e+00,4.88e+00,
703,4.64e+00,5.20e+00,
704,4.48e+00,4.88e+00,
705,4.72e+00,5.20e+00,
706,4.56e+00,5.20e+00,
707,4.72e+00,4.88e+00,
708,4.56e+00,5.12e+00,
709,4.80e+00,4.88e+00,
710,4.80e+00,4.88e+00,
711,4.64e+00,5.20e+00,
712,4.88e+00,5.12e+00,
713,4.72e+00,4.88e+00,
714,4.72e+00,5.20e+00,
715,4.88e+00,4.88e+00,
716,4.72e+00,4.88e+00,
717,4.96e+00,5.20e+00,
718,4.96e+00,5.12e+00,
719,4.80e+00,4.88e+00,
720,4.96e+00,5.20e+00,
721,4.80e+00,4.88e+00,
722,4.96e+00,5.20e+00,
723,4.80e+00,4.88e+00,
724,4.80e+00,4.88e+00,
725,4.96e+00,5.20e+00,
726,4.96e+00,4.88e+00,
727,4.80e+00,5.20e+00,
728,4.96e+00,5.20e+00,
729,4.80e+00,4.88e+00,
730,4.96e+00,5.20e+00,
731,4.72e+00,4.88e+00,
732,4.72e+00,4.88e+00,
733,4.88e+00,5.20e+00,
734,4.88e+00,4.88e+00,
735,4.64e+00,5.20e+00,
736,4.80e+00,5.20e+00,
737,4.64e+00,4.88e+00,
738,4.80e+00,5.20e+00,
739,4.56e+00,4.88e+00,
740,4.72e+00,5.20e+00,
741,4.48e+00,4.88e+00,
742,4.48e+00,5.20e+00,
743,4.64e+00,4.88e+00,
744,4.56e+00,5.20e+00,
745,4.40e+00,4.88e+00,
746,4.56e+00,4.88e+00,
747,4.32e+00,5.12e+00,
748,4.48e+00,4.88e+00,
749,4.24e+00,5.20e+00,
750,4.40e+00,4.88e+00,
751,4.08e+00,5.20e+00,
752,4.16e+00,4.88e+00,
753,3.92e+00,5.20e+00,
754,4.08e+00,5.20e+00,
755,3.84e+00,4.88e+00,
756,4.00e+00,4.88e+00,
757,3.76e+00,5.20e+00,
758,3.92e+00,4.88e+00,
759,3.68e+00,5.20e+00,
760,3.76e+00,4.88e+00,
761,3.52e+00,5.20e+00,
762,3.68e+00,5.20e+00,
763,3.44e+00,4.88e+00,
764,3.52e+00,4.88e+00,
765,3.28e+00,5.20e+00,
766,3.44e+00,5.20e+00,
767,3.12e+00,4.88e+00,
768,3.20e+00,4.88e+00,
769,2.96e+00,5.20e+00,
770,3.12e+00,4.88e+00,
771,2.88e+00,5.20e+00,
772,2.96e+00,5.20e+00,
773,2.72e+00,4.88e+00,
774,2.88e+00,5.20e+00,
775,2.64e+00,4.88e+00,
776,2.72e+00,4.88e+00,
777,2.48e+00,5.20e+00,
778,2.56e+00,4.88e+00,
779,2.32e+00,5.20e+00,
780,2.48e+00,5.20e+00,
781,2.16e+00,4.88e+00,
782,2.24e+00,5.12e+00,
783,2.00e+00,4.88e+00,
784,2.16e+00,5.20e+00,
785,1.92e+00,4.88e+00,
786,2.00e+00,5.20e+00,
787,1.76e+00,4.88e+00,
788,1.84e+00,4.88e+00,
789,1.68e+00,5.20e+00,
790,1.76e+00,4.88e+00,
791,1.52e+00,5.20e+00,
792,1.60e+00,5.20e+00,
793,1.44e+00,4.88e+00,
794,1.52e+00,5.20e+00,
795,1.20e+00,4.88e+00,
796,1.28e+00,5.20e+00,
797,1.12e+00,4.88e+00,
798,1.20e+00,4.88e+00,
799,9.60e-01,5.20e+00,
800,1.12e+00,4.88e+00,
801,8.80e-01,5.20e+00,
802,9.60e-01,4.88e+00,
803,8.00e-01,5.20e+00,
804,8.80e-01,4.88e+00,
805,7.20e-01,5.20e+00,
806,8.00e-01,4.88e+00,
807,5.60e-01,5.20e+00,
808,7.20e-01,5.20e+00,
809,4.80e-01,4.88e+00,
810,6.40e-01,5.12e+00,
811,4.00e-01,4.88e+00,
812,5.60e-01,4.88e+00,
813,2.40e-01,5.20e+00,
814,4.00e-01,5.20e+00,
815,1.60e-01,8.00e-02,
816,3.20e-01,2.40e-01,
817,1.60e-01,8.00e-02,
818,2.40e-01,2.40e-01,
819,8.00e-02,8.00e-02,
820,1.60e-01,2.40e-01,
821,0.00e+00,8.00e-02,
822,0.00e+00,2.40e-01,
823,1.60e-01,8.00e-02,
824,8.00e-02,2.40e-01,
825,-8.00e-02,8.00e-02,
826,-8.00e-02,2.40e-01,
827,8.00e-02,8.00e-02,
828,-8.00e-02,2.40e-01,
829,0.00e+00,8.00e-02,
830,-8.00e-02,2.40e-01,
831,0.00e+00,8.00e-02,
832,0.00e+00,8.00e-02,
833,-1.60e-01,2.40e-01,
834,-1.60e-01,8.00e-02,
835,0.00e+00,2.40e-01,
836,-1.60e-01,2.40e-01,
837,0.00e+00,8.00e-02,
838,-8.00e-02,8.00e-02,
839,0.00e+00,2.40e-01,
840,0.00e+00,1.60e-01,
841,-8.00e-02,8.00e-02,
842,-8.00e-02,8.00e-02,
843,8.00e-02,2.40e-01,
844,8.00e-02,8.00e-02,
845,-8.00e-02,2.40e-01,
846,0.00e+00,8.00e-02,
847,1.60e-01,2.40e-01,
848,0.00e+00,8.00e-02,
849,2.40e-01,2.40e-01,
850,8.00e-02,1.60e-01,
851,2.40e-01,8.00e-02,
852,1.60e-01,8.00e-02,
853,3.20e-01,2.40e-01,
854,2.40e-01,1.60e-01,
855,4.00e-01,8.00e-02,
856,2.40e-01,1.60e-01,
857,5.60e-01,8.00e-02,
858,4.00e-01,1.60e-01,
859,6.40e-01,8.00e-02,
860,5.60e-01,8.00e-02,
861,7.20e-01,2.40e-01,
862,6.40e-01,8.00e-02,
863,8.00e-01,2.40e-01,
864,7.20e-01,8.00e-02,
865,8.80e-01,5.04e+00,
866,8.00e-01,5.04e+00,
867,1.04e+00,4.88e+00,
868,8.80e-01,5.04e+00,
