project/matlab/project_exp3/800 Hz/NewFile1.csv

X,CH1,CH2,Start,Increment,
Sequence,Volt,Volt,-2.280000e-03,5.000000e-06
0,4.80e+00,4.88e+00,
1,4.96e+00,5.20e+00,
2,4.96e+00,4.88e+00,
3,4.80e+00,5.20e+00,
4,4.96e+00,4.88e+00,
5,4.80e+00,5.20e+00,
6,4.96e+00,4.88e+00,
7,4.80e+00,5.20e+00,
8,4.96e+00,5.20e+00,
9,4.80e+00,4.88e+00,
10,4.96e+00,4.88e+00,
11,4.80e+00,5.20e+00,
12,4.96e+00,4.88e+00,
13,4.80e+00,5.20e+00,
14,4.96e+00,4.88e+00,
15,4.72e+00,5.20e+00,
16,4.88e+00,4.88e+00,
17,4.72e+00,5.20e+00,
18,4.88e+00,5.20e+00,
19,4.72e+00,4.88e+00,
20,4.64e+00,5.20e+00,
21,4.88e+00,4.88e+00,
22,4.80e+00,4.88e+00,
23,4.64e+00,5.20e+00,
24,4.80e+00,4.88e+00,
25,4.56e+00,5.20e+00,
26,4.72e+00,4.88e+00,
27,4.48e+00,5.20e+00,
28,4.48e+00,4.88e+00,
29,4.64e+00,5.20e+00,
30,4.40e+00,5.20e+00,
31,4.56e+00,4.88e+00,
32,4.56e+00,4.88e+00,
33,4.32e+00,5.20e+00,
34,4.48e+00,5.20e+00,
35,4.24e+00,4.88e+00,
36,4.40e+00,5.20e+00,
37,4.08e+00,4.88e+00,
38,4.24e+00,4.88e+00,
39,4.00e+00,5.20e+00,
40,4.16e+00,4.88e+00,
41,3.92e+00,5.20e+00,
42,4.08e+00,4.88e+00,
43,3.84e+00,5.20e+00,
44,4.00e+00,5.20e+00,
45,3.76e+00,4.88e+00,
46,3.92e+00,4.88e+00,
47,3.60e+00,5.20e+00,
48,3.76e+00,4.88e+00,
49,3.52e+00,5.20e+00,
50,3.68e+00,5.20e+00,
51,3.44e+00,4.88e+00,
52,3.60e+00,4.88e+00,
53,3.36e+00,5.20e+00,
54,3.44e+00,4.88e+00,
55,3.20e+00,5.12e+00,
56,3.28e+00,4.88e+00,
57,3.04e+00,5.20e+00,
58,3.20e+00,5.20e+00,
59,2.96e+00,4.88e+00,
60,3.04e+00,4.88e+00,
61,2.80e+00,5.20e+00,
62,2.96e+00,5.20e+00,
63,2.72e+00,4.88e+00,
64,2.80e+00,4.88e+00,
65,2.64e+00,5.20e+00,
66,2.72e+00,4.88e+00,
67,2.48e+00,5.20e+00,
68,2.56e+00,4.88e+00,
69,2.40e+00,5.20e+00,
70,2.48e+00,4.88e+00,
71,2.24e+00,5.20e+00,
72,2.32e+00,5.20e+00,
73,2.08e+00,4.88e+00,
74,2.16e+00,4.88e+00,
75,2.00e+00,5.20e+00,
76,2.08e+00,4.88e+00,
77,1.84e+00,5.20e+00,
78,1.92e+00,4.88e+00,
79,1.76e+00,5.20e+00,
80,1.84e+00,4.88e+00,
81,1.60e+00,5.20e+00,
82,1.76e+00,4.88e+00,
83,1.52e+00,5.20e+00,
84,1.60e+00,4.88e+00,
85,1.44e+00,5.20e+00,
86,1.52e+00,4.88e+00,
87,1.28e+00,5.20e+00,
88,1.36e+00,4.88e+00,
89,1.12e+00,5.20e+00,
90,1.20e+00,5.12e+00,
91,1.04e+00,4.88e+00,
92,1.12e+00,4.88e+00,
93,9.60e-01,5.20e+00,
94,1.04e+00,4.88e+00,
95,8.80e-01,5.20e+00,
96,9.60e-01,4.88e+00,
97,7.20e-01,5.20e+00,
98,8.80e-01,4.88e+00,
99,6.40e-01,5.20e+00,
100,8.00e-01,4.88e+00,
101,5.60e-01,5.20e+00,
102,7.20e-01,4.88e+00,
103,4.80e-01,5.20e+00,
104,4.80e-01,4.88e+00,
105,6.40e-01,5.20e+00,
106,5.60e-01,4.88e+00,
107,3.20e-01,5.20e+00,
108,4.00e-01,5.20e+00,
109,2.40e-01,2.64e+00,
110,3.20e-01,1.68e+00,
111,1.60e-01,8.00e-02,
112,2.40e-01,2.40e-01,
113,8.00e-02,8.00e-02,
114,8.00e-02,2.40e-01,
115,2.40e-01,8.00e-02,
116,1.60e-01,2.40e-01,
117,0.00e+00,8.00e-02,
118,0.00e+00,2.40e-01,
119,1.60e-01,8.00e-02,
120,8.00e-02,2.40e-01,
121,-8.00e-02,8.00e-02,
122,-8.00e-02,2.40e-01,
123,8.00e-02,8.00e-02,
124,0.00e+00,8.00e-02,
125,-8.00e-02,2.40e-01,
126,-8.00e-02,8.00e-02,
127,0.00e+00,2.40e-01,
128,0.00e+00,8.00e-02,
129,-1.60e-01,2.40e-01,
130,0.00e+00,1.60e-01,
131,-1.60e-01,8.00e-02,
132,-1.60e-01,8.00e-02,
133,0.00e+00,2.40e-01,
134,-1.60e-01,8.00e-02,
135,0.00e+00,2.40e-01,
136,-8.00e-02,8.00e-02,
137,0.00e+00,1.60e-01,
138,-8.00e-02,1.60e-01,
139,0.00e+00,8.00e-02,
140,-8.00e-02,8.00e-02,
141,8.00e-02,2.40e-01,
142,-8.00e-02,8.00e-02,
143,8.00e-02,1.60e-01,
144,0.00e+00,1.60e-01,
145,1.60e-01,8.00e-02,
146,1.60e-01,1.60e-01,
147,0.00e+00,8.00e-02,
148,8.00e-02,8.00e-02,
149,2.40e-01,2.40e-01,
150,8.00e-02,1.60e-01,
151,2.40e-01,8.00e-02,
152,1.60e-01,1.60e-01,
153,3.20e-01,8.00e-02,
154,2.40e-01,1.60e-01,
155,4.00e-01,8.00e-02,
156,3.20e-01,1.60e-01,
157,5.60e-01,8.00e-02,
158,4.00e-01,8.00e-02,
159,6.40e-01,1.60e-01,
160,4.80e-01,8.00e-02,
161,7.20e-01,1.60e-01,
162,5.60e-01,8.00e-02,
163,7.20e-01,2.40e-01,
164,6.40e-01,8.00e-02,
165,8.80e-01,4.00e-01,
166,7.20e-01,6.40e-01,
167,9.60e-01,5.04e+00,
168,8.80e-01,4.96e+00,
169,1.04e+00,4.88e+00,
170,9.60e-01,4.96e+00,
171,1.12e+00,4.88e+00,
172,1.04e+00,4.96e+00,
173,1.20e+00,4.88e+00,
174,1.12e+00,4.88e+00,
175,1.36e+00,5.12e+00,
176,1.28e+00,4.88e+00,
177,1.52e+00,5.20e+00,
178,1.44e+00,4.88e+00,
179,1.60e+00,5.12e+00,
180,1.52e+00,4.88e+00,
181,1.76e+00,5.12e+00,
182,1.60e+00,4.88e+00,
183,1.84e+00,5.20e+00,
184,1.76e+00,4.88e+00,
185,1.92e+00,5.12e+00,
186,1.84e+00,4.88e+00,
187,2.08e+00,5.20e+00,
188,1.92e+00,4.88e+00,
189,2.16e+00,5.20e+00,
190,2.08e+00,4.88e+00,
191,2.32e+00,5.20e+00,
192,2.16e+00,4.88e+00,
193,2.48e+00,5.20e+00,
194,2.40e+00,5.12e+00,
195,2.56e+00,4.88e+00,
196,2.48e+00,4.88e+00,
197,2.72e+00,5.20e+00,
198,2.56e+00,4.88e+00,
199,2.80e+00,5.20e+00,
200,2.72e+00,4.88e+00,
201,2.96e+00,5.20e+00,
202,2.80e+00,4.88e+00,
203,3.04e+00,5.20e+00,
204,2.96e+00,5.12e+00,
205,3.20e+00,4.88e+00,
206,3.04e+00,4.88e+00,
207,3.28e+00,5.20e+00,
208,3.20e+00,5.20e+00,
209,3.44e+00,4.88e+00,
210,3.36e+00,4.88e+00,
211,3.52e+00,5.20e+00,
212,3.44e+00,4.88e+00,
213,3.68e+00,5.20e+00,
214,3.52e+00,5.20e+00,
215,3.76e+00,4.88e+00,
216,3.60e+00,4.88e+00,
217,3.84e+00,5.20e+00,
218,3.76e+00,5.20e+00,
219,3.92e+00,4.88e+00,
220,3.84e+00,5.20e+00,
221,4.08e+00,4.88e+00,
222,3.92e+00,4.88e+00,
223,4.16e+00,5.20e+00,
224,4.00e+00,4.88e+00,
225,4.24e+00,5.20e+00,
226,4.08e+00,4.88e+00,
227,4.40e+00,5.20e+00,
228,4.24e+00,4.88e+00,
229,4.48e+00,5.20e+00,
230,4.32e+00,4.88e+00,
231,4.56e+00,5.20e+00,
232,4.40e+00,4.88e+00,
233,4.56e+00,5.20e+00,
234,4.40e+00,4.88e+00,
235,4.64e+00,5.20e+00,
236,4.48e+00,4.88e+00,
237,4.72e+00,5.20e+00,
238,4.56e+00,4.88e+00,
239,4.80e+00,5.20e+00,
240,4.64e+00,4.88e+00,
241,4.80e+00,5.20e+00,
242,4.64e+00,4.88e+00,
243,4.88e+00,5.20e+00,
244,4.64e+00,4.88e+00,
245,4.88e+00,5.20e+00,
246,4.88e+00,4.88e+00,
247,4.72e+00,5.20e+00,
248,4.72e+00,4.88e+00,
249,4.96e+00,5.20e+00,
250,4.80e+00,4.88e+00,
251,4.96e+00,5.20e+00,
252,4.96e+00,4.88e+00,
253,4.80e+00,5.20e+00,
254,4.80e+00,4.88e+00,
255,4.96e+00,5.20e+00,
256,4.96e+00,4.88e+00,
257,4.80e+00,5.20e+00,
258,4.80e+00,4.88e+00,
259,4.96e+00,5.20e+00,
260,4.96e+00,5.20e+00,
261,4.80e+00,4.88e+00,
262,4.96e+00,5.20e+00,
263,4.72e+00,4.88e+00,
264,4.96e+00,5.12e+00,
265,4.72e+00,4.88e+00,
266,4.72e+00,4.88e+00,
267,4.88e+00,5.20e+00,
268,4.72e+00,4.88e+00,
269,4.88e+00,5.20e+00,
270,4.88e+00,4.88e+00,
271,4.64e+00,5.20e+00,
272,4.80e+00,4.88e+00,
273,4.64e+00,5.20e+00,
274,4.80e+00,5.20e+00,
275,4.56e+00,4.88e+00,
276,4.72e+00,5.20e+00,
277,4.48e+00,4.88e+00,
278,4.48e+00,5.20e+00,
279,4.64e+00,4.88e+00,
280,4.64e+00,4.88e+00,
281,4.40e+00,5.20e+00,
282,4.56e+00,4.88e+00,
283,4.32e+00,5.12e+00,
284,4.48e+00,5.12e+00,
285,4.16e+00,4.88e+00,
286,4.32e+00,4.88e+00,
287,4.08e+00,5.20e+00,
288,4.24e+00,4.88e+00,
289,4.00e+00,5.20e+00,
290,4.16e+00,5.20e+00,
291,3.92e+00,4.88e+00,
292,4.08e+00,5.20e+00,
293,3.84e+00,4.88e+00,
294,4.00e+00,4.88e+00,
295,3.76e+00,5.20e+00,
296,3.84e+00,4.88e+00,
297,3.68e+00,5.20e+00,
298,3.76e+00,4.88e+00,
299,3.52e+00,5.20e+00,
300,3.68e+00,5.20e+00,
301,3.44e+00,4.88e+00,
302,3.60e+00,5.20e+00,
303,3.36e+00,4.88e+00,
304,3.44e+00,4.88e+00,
305,3.12e+00,5.20e+00,
306,3.28e+00,4.88e+00,
307,3.04e+00,5.20e+00,
308,3.20e+00,4.88e+00,
309,2.96e+00,5.20e+00,
310,3.04e+00,4.88e+00,
311,2.80e+00,5.20e+00,
312,2.96e+00,5.20e+00,
313,2.72e+00,4.88e+00,
314,2.80e+00,5.20e+00,
315,2.64e+00,4.88e+00,
316,2.72e+00,5.12e+00,
317,2.48e+00,4.88e+00,
318,2.64e+00,4.88e+00,
319,2.40e+00,5.20e+00,
320,2.48e+00,4.88e+00,
321,2.16e+00,5.20e+00,
322,2.32e+00,4.88e+00,
323,2.08e+00,5.20e+00,
324,2.16e+00,5.20e+00,
325,1.92e+00,4.88e+00,
326,2.08e+00,5.20e+00,
327,1.84e+00,4.88e+00,
328,1.92e+00,4.88e+00,
329,1.76e+00,5.20e+00,
330,1.84e+00,4.88e+00,
331,1.60e+00,5.20e+00,
332,1.76e+00,5.20e+00,
333,1.52e+00,4.88e+00,
334,1.60e+00,5.12e+00,
335,1.44e+00,4.88e+00,
336,1.52e+00,4.88e+00,
337,1.28e+00,5.20e+00,
338,1.36e+00,4.88e+00,
339,1.12e+00,5.20e+00,
340,1.20e+00,5.20e+00,
341,1.04e+00,4.88e+00,
342,1.12e+00,5.12e+00,
343,9.60e-01,4.88e+00,
344,1.04e+00,5.20e+00,
345,8.80e-01,4.88e+00,
346,9.60e-01,5.12e+00,
347,7.20e-01,4.88e+00,
348,8.80e-01,4.88e+00,
349,6.40e-01,5.20e+00,
350,8.00e-01,4.88e+00,
351,5.60e-01,5.20e+00,
352,7.20e-01,5.12e+00,
353,4.80e-01,4.88e+00,
354,4.80e-01,5.20e+00,
355,6.40e-01,4.88e+00,
356,3.20e-01,5.20e+00,
357,5.60e-01,4.88e+00,
358,4.00e-01,5.20e+00,
359,2.40e-01,3.04e+00,
360,3.20e-01,2.32e+00,
361,1.60e-01,8.00e-02,
362,2.40e-01,2.40e-01,
363,8.00e-02,8.00e-02,
364,8.00e-02,2.40e-01,
365,2.40e-01,8.00e-02,
366,1.60e-01,1.60e-01,
367,0.00e+00,2.40e-01,
368,1.60e-01,2.40e-01,
369,0.00e+00,1.60e-01,
370,8.00e-02,2.40e-01,
371,-8.00e-02,8.00e-02,
372,-8.00e-02,2.40e-01,
373,8.00e-02,8.00e-02,
374,0.00e+00,8.00e-02,
375,-8.00e-02,2.40e-01,
376,-8.00e-02,8.00e-02,
377,0.00e+00,2.40e-01,
378,0.00e+00,8.00e-02,
379,-1.60e-01,2.40e-01,
380,0.00e+00,8.00e-02,
381,-1.60e-01,2.40e-01,
382,-1.60e-01,1.60e-01,
383,0.00e+00,8.00e-02,
384,0.00e+00,8.00e-02,
385,-1.60e-01,2.40e-01,
386,0.00e+00,8.00e-02,
387,-8.00e-02,2.40e-01,
388,-8.00e-02,8.00e-02,
389,0.00e+00,1.60e-01,
390,-8.00e-02,1.60e-01,
391,8.00e-02,8.00e-02,
392,-8.00e-02,2.40e-01,
393,8.00e-02,0.00e+00,
394,0.00e+00,1.60e-01,
395,1.60e-01,8.00e-02,
396,0.00e+00,8.00e-02,
397,1.60e-01,2.40e-01,
398,8.00e-02,1.60e-01,
399,2.40e-01,8.00e-02,
400,2.40e-01,8.00e-02,
401,8.00e-02,2.40e-01,
402,1.60e-01,1.60e-01,
403,3.20e-01,8.00e-02,
404,2.40e-01,1.60e-01,
405,4.00e-01,8.00e-02,
406,4.00e-01,8.00e-02,
407,5.60e-01,1.60e-01,
408,4.00e-01,1.60e-01,
409,6.40e-01,8.00e-02,
410,4.80e-01,1.60e-01,
411,7.20e-01,8.00e-02,
412,5.60e-01,8.00e-02,
413,8.00e-01,2.40e-01,
414,6.40e-01,8.00e-02,
415,8.80e-01,4.80e-01,
416,7.20e-01,5.60e-01,
417,9.60e-01,5.04e+00,
418,8.80e-01,4.88e+00,
419,1.04e+00,5.04e+00,
420,9.60e-01,5.04e+00,
421,1.12e+00,4.88e+00,
422,1.04e+00,4.88e+00,
423,1.20e+00,5.04e+00,
424,1.12e+00,5.04e+00,
425,1.36e+00,4.88e+00,
426,1.20e+00,4.88e+00,
427,1.52e+00,5.20e+00,
428,1.44e+00,4.88e+00,
429,1.60e+00,5.20e+00,
430,1.52e+00,4.88e+00,
431,1.76e+00,5.12e+00,
432,1.60e+00,4.88e+00,
433,1.84e+00,5.12e+00,
434,1.76e+00,4.88e+00,
435,1.92e+00,5.20e+00,
436,1.84e+00,4.88e+00,
437,2.08e+00,5.20e+00,
438,1.92e+00,4.88e+00,
439,2.16e+00,5.20e+00,
440,2.08e+00,4.88e+00,
441,2.32e+00,5.20e+00,
442,2.16e+00,4.88e+00,
443,2.48e+00,5.20e+00,
444,2.40e+00,4.88e+00,
445,2.56e+00,5.20e+00,
446,2.48e+00,4.88e+00,
447,2.72e+00,5.20e+00,
448,2.56e+00,5.20e+00,
449,2.80e+00,4.88e+00,
450,2.72e+00,5.12e+00,
451,2.96e+00,4.88e+00,
452,2.80e+00,4.88e+00,
453,3.04e+00,5.20e+00,
454,2.96e+00,5.20e+00,
455,3.12e+00,4.88e+00,
456,3.04e+00,4.88e+00,
457,3.28e+00,5.20e+00,
458,3.20e+00,4.88e+00,
459,3.44e+00,5.20e+00,
460,3.36e+00,5.20e+00,
461,3.60e+00,4.88e+00,
462,3.44e+00,4.88e+00,
463,3.68e+00,5.20e+00,
464,3.52e+00,5.20e+00,
465,3.76e+00,4.88e+00,
466,3.60e+00,5.20e+00,
467,3.84e+00,4.88e+00,
468,3.76e+00,5.12e+00,
469,4.00e+00,4.88e+00,
470,3.84e+00,4.88e+00,
471,4.08e+00,5.20e+00,
472,3.92e+00,4.88e+00,
473,4.16e+00,5.20e+00,
474,4.00e+00,4.88e+00,
475,4.24e+00,5.20e+00,
476,4.08e+00,4.88e+00,
477,4.40e+00,5.20e+00,
478,4.24e+00,4.88e+00,
479,4.48e+00,5.20e+00,
480,4.32e+00,5.20e+00,
481,4.56e+00,4.88e+00,
482,4.56e+00,4.88e+00,
483,4.40e+00,5.20e+00,
484,4.40e+00,4.88e+00,
485,4.64e+00,5.20e+00,
486,4.48e+00,4.88e+00,
487,4.72e+00,5.20e+00,
488,4.56e+00,5.20e+00,
489,4.72e+00,4.88e+00,
490,4.80e+00,5.20e+00,
491,4.56e+00,4.88e+00,
492,4.64e+00,4.88e+00,
493,4.88e+00,5.20e+00,
494,4.72e+00,4.88e+00,
495,4.88e+00,5.20e+00,
496,4.72e+00,5.20e+00,
497,4.88e+00,4.88e+00,
498,4.72e+00,5.12e+00,
499,4.96e+00,4.88e+00,
500,4.80e+00,4.88e+00,
501,4.96e+00,5.20e+00,
502,4.96e+00,5.20e+00,
503,4.80e+00,4.88e+00,
504,4.96e+00,4.88e+00,
505,4.80e+00,5.20e+00,
506,4.96e+00,4.88e+00,
507,4.80e+00,5.20e+00,
508,4.96e+00,4.88e+00,
509,4.80e+00,5.20e+00,
510,4.96e+00,4.88e+00,
511,4.80e+00,5.20e+00,
512,4.96e+00,4.88e+00,
513,4.80e+00,5.20e+00,
514,4.96e+00,4.88e+00,
515,4.72e+00,5.20e+00,
516,4.72e+00,4.88e+00,
517,4.88e+00,5.20e+00,
518,4.88e+00,5.20e+00,
519,4.72e+00,4.88e+00,
520,4.88e+00,5.20e+00,
521,4.64e+00,4.88e+00,
522,4.80e+00,4.88e+00,
523,4.64e+00,5.20e+00,
524,4.80e+00,4.88e+00,
525,4.56e+00,5.20e+00,
526,4.72e+00,5.12e+00,
527,4.48e+00,4.88e+00,
528,4.64e+00,4.88e+00,
529,4.48e+00,5.20e+00,
530,4.56e+00,4.88e+00,
531,4.40e+00,5.20e+00,
532,4.56e+00,5.20e+00,
533,4.32e+00,4.88e+00,
534,4.48e+00,5.12e+00,
535,4.16e+00,4.88e+00,
536,4.40e+00,5.20e+00,
537,4.08e+00,4.88e+00,
538,4.24e+00,4.88e+00,
539,4.00e+00,5.20e+00,
540,4.16e+00,5.20e+00,
541,3.92e+00,4.88e+00,
542,4.08e+00,5.20e+00,
543,3.84e+00,4.96e+00,
544,4.00e+00,4.88e+00,
545,3.76e+00,5.20e+00,
546,3.84e+00,4.88e+00,
547,3.60e+00,5.20e+00,
548,3.76e+00,4.88e+00,
549,3.52e+00,5.20e+00,
550,3.68e+00,5.20e+00,
551,3.44e+00,4.88e+00,
552,3.60e+00,4.88e+00,
553,3.36e+00,5.20e+00,
554,3.44e+00,5.20e+00,
555,3.12e+00,4.88e+00,
556,3.28e+00,4.88e+00,
557,3.04e+00,5.20e+00,
558,3.20e+00,5.20e+00,
559,2.96e+00,4.88e+00,
560,3.04e+00,5.20e+00,
561,2.80e+00,4.88e+00,
562,2.96e+00,5.20e+00,
563,2.72e+00,4.88e+00,
564,2.80e+00,4.88e+00,
565,2.64e+00,5.20e+00,
566,2.72e+00,5.12e+00,
567,2.48e+00,4.88e+00,
568,2.56e+00,4.88e+00,
569,2.40e+00,5.20e+00,
570,2.48e+00,5.20e+00,
571,2.24e+00,4.88e+00,
572,2.32e+00,4.88e+00,
573,2.08e+00,5.20e+00,
574,2.16e+00,4.88e+00,
575,1.92e+00,5.20e+00,
576,2.08e+00,4.88e+00,
577,1.84e+00,5.20e+00,
578,1.92e+00,4.88e+00,
579,1.76e+00,5.20e+00,
580,1.84e+00,4.88e+00,
581,1.60e+00,5.20e+00,
582,1.76e+00,4.88e+00,
583,1.52e+00,5.20e+00,
584,1.60e+00,5.20e+00,
585,1.44e+00,4.88e+00,
586,1.52e+00,4.88e+00,
587,1.28e+00,5.20e+00,
588,1.36e+00,4.88e+00,
589,1.12e+00,5.20e+00,
590,1.20e+00,4.88e+00,
591,1.04e+00,5.20e+00,
592,1.12e+00,5.20e+00,
593,9.60e-01,4.88e+00,
594,1.04e+00,4.88e+00,
595,8.80e-01,5.20e+00,
596,9.60e-01,5.20e+00,
597,7.20e-01,4.88e+00,
598,8.80e-01,4.88e+00,
599,6.40e-01,5.20e+00,
600,8.00e-01,5.12e+00,
601,5.60e-01,4.88e+00,
602,7.20e-01,4.88e+00,
603,4.80e-01,5.20e+00,
604,4.80e-01,5.12e+00,
605,5.60e-01,4.88e+00,
606,5.60e-01,5.20e+00,
607,3.20e-01,4.88e+00,
608,4.00e-01,5.20e+00,
609,2.40e-01,2.80e+00,
610,3.20e-01,1.92e+00,
611,1.60e-01,8.00e-02,
612,2.40e-01,2.40e-01,
613,8.00e-02,8.00e-02,
614,2.40e-01,2.40e-01,
615,8.00e-02,8.00e-02,
616,1.60e-01,2.40e-01,
617,0.00e+00,8.00e-02,
618,1.60e-01,8.00e-02,
619,0.00e+00,2.40e-01,
620,8.00e-02,2.40e-01,
621,-8.00e-02,8.00e-02,
622,8.00e-02,2.40e-01,
623,-8.00e-02,8.00e-02,
624,-8.00e-02,8.00e-02,
625,8.00e-02,2.40e-01,
626,0.00e+00,2.40e-01,
627,-8.00e-02,8.00e-02,
628,0.00e+00,8.00e-02,
629,-8.00e-02,2.40e-01,
630,0.00e+00,8.00e-02,
631,-1.60e-01,2.40e-01,
632,-1.60e-01,8.00e-02,
633,0.00e+00,2.40e-01,
634,0.00e+00,8.00e-02,
635,-1.60e-01,2.40e-01,
636,0.00e+00,8.00e-02,
637,-8.00e-02,2.40e-01,
638,0.00e+00,8.00e-02,
639,-8.00e-02,2.40e-01,
640,-8.00e-02,1.60e-01,
641,8.00e-02,8.00e-02,
642,8.00e-02,8.00e-02,
643,-8.00e-02,2.40e-01,
644,0.00e+00,8.00e-02,
645,1.60e-01,2.40e-01,
646,0.00e+00,1.60e-01,
647,1.60e-01,8.00e-02,
648,8.00e-02,8.00e-02,
649,2.40e-01,2.40e-01,
650,2.40e-01,1.60e-01,
651,8.00e-02,8.00e-02,
652,1.60e-01,1.60e-01,
653,3.20e-01,8.00e-02,
654,2.40e-01,8.00e-02,
655,4.00e-01,2.40e-01,
656,3.20e-01,1.60e-01,
657,5.60e-01,8.00e-02,
658,4.00e-01,8.00e-02,
659,6.40e-01,2.40e-01,
660,4.80e-01,1.60e-01,
661,7.20e-01,8.00e-02,
662,5.60e-01,1.60e-01,
663,8.00e-01,8.00e-02,
664,6.40e-01,8.00e-02,
665,8.80e-01,4.00e-01,
666,7.20e-01,4.80e-01,
667,9.60e-01,5.04e+00,
668,8.00e-01,5.04e+00,
669,1.04e+00,4.88e+00,
670,9.60e-01,5.04e+00,
671,1.12e+00,4.88e+00,
672,1.04e+00,5.04e+00,
673,1.20e+00,4.88e+00,
674,1.12e+00,5.04e+00,
675,1.36e+00,4.88e+00,
676,1.28e+00,5.04e+00,
677,1.52e+00,4.88e+00,
678,1.44e+00,5.04e+00,
679,1.60e+00,4.88e+00,
680,1.52e+00,4.88e+00,
681,1.76e+00,5.12e+00,
682,1.60e+00,4.88e+00,
683,1.84e+00,5.20e+00,
684,1.76e+00,4.88e+00,
685,1.92e+00,5.20e+00,
686,1.84e+00,4.88e+00,
687,2.08e+00,5.20e+00,
688,1.92e+00,5.12e+00,
689,2.16e+00,4.88e+00,
690,2.08e+00,5.20e+00,
691,2.32e+00,4.88e+00,
692,2.16e+00,5.20e+00,
693,2.48e+00,4.88e+00,
694,2.40e+00,4.88e+00,
695,2.56e+00,5.20e+00,
696,2.48e+00,5.20e+00,
697,2.72e+00,4.88e+00,
698,2.56e+00,4.88e+00,
699,2.80e+00,5.20e+00,
700,2.72e+00,4.88e+00,
701,2.96e+00,5.20e+00,
702,2.80e+00,4.88e+00,
703,3.04e+00,5.20e+00,
704,2.96e+00,4.88e+00,
705,3.20e+00,5.20e+00,
706,3.04e+00,5.20e+00,
707,3.28e+00,4.88e+00,
708,3.12e+00,5.12e+00,
709,3.44e+00,4.88e+00,
710,3.36e+00,5.20e+00,
711,3.52e+00,4.88e+00,
712,3.44e+00,5.12e+00,
713,3.68e+00,4.88e+00,
714,3.52e+00,4.88e+00,
715,3.76e+00,5.20e+00,
716,3.60e+00,4.88e+00,
717,3.84e+00,5.20e+00,
718,3.76e+00,5.12e+00,
719,3.92e+00,4.88e+00,
720,3.84e+00,4.88e+00,
721,4.08e+00,5.20e+00,
722,3.92e+00,5.20e+00,
723,4.16e+00,4.88e+00,
724,4.00e+00,4.88e+00,
725,4.24e+00,5.20e+00,
726,4.08e+00,5.20e+00,
727,4.40e+00,4.88e+00,
728,4.24e+00,5.20e+00,
729,4.48e+00,4.88e+00,
730,4.32e+00,4.88e+00,
731,4.48e+00,5.20e+00,
732,4.40e+00,5.20e+00,
733,4.56e+00,4.88e+00,
734,4.40e+00,4.88e+00,
735,4.64e+00,5.20e+00,
736,4.48e+00,5.12e+00,
737,4.72e+00,4.88e+00,
738,4.56e+00,4.88e+00,
739,4.80e+00,5.20e+00,
740,4.56e+00,5.20e+00,
741,4.80e+00,4.88e+00,
742,4.64e+00,5.20e+00,
743,4.80e+00,4.88e+00,
744,4.64e+00,5.20e+00,
745,4.88e+00,4.88e+00,
746,4.88e+00,4.88e+00,
747,4.72e+00,5.20e+00,
748,4.72e+00,4.88e+00,
749,4.96e+00,5.20e+00,
750,4.96e+00,5.20e+00,
751,4.72e+00,4.88e+00,
752,4.96e+00,5.20e+00,
753,4.80e+00,4.88e+00,
754,4.96e+00,5.20e+00,
755,4.80e+00,4.88e+00,
756,4.96e+00,4.88e+00,
757,4.80e+00,5.20e+00,
758,4.96e+00,4.88e+00,
759,4.80e+00,5.12e+00,
760,4.80e+00,4.88e+00,
761,4.96e+00,5.20e+00,
762,4.80e+00,4.88e+00,
763,4.96e+00,5.20e+00,
764,4.96e+00,4.88e+00,
765,4.72e+00,5.20e+00,
766,4.88e+00,4.88e+00,
767,4.72e+00,5.20e+00,
768,4.72e+00,4.88e+00,
769,4.88e+00,5.20e+00,
770,4.88e+00,4.88e+00,
771,4.64e+00,5.20e+00,
772,4.80e+00,4.88e+00,
773,4.64e+00,5.20e+00,
774,4.80e+00,4.88e+00,
775,4.56e+00,5.20e+00,
776,4.72e+00,4.88e+00,
777,4.48e+00,5.20e+00,
778,4.48e+00,5.20e+00,
779,4.64e+00,4.88e+00,
780,4.56e+00,4.88e+00,
781,4.40e+00,5.20e+00,
782,4.48e+00,4.88e+00,
783,4.32e+00,5.20e+00,
784,4.48e+00,5.20e+00,
785,4.16e+00,4.88e+00,
786,4.32e+00,5.20e+00,
787,4.08e+00,4.88e+00,
788,4.24e+00,4.88e+00,
789,4.00e+00,5.20e+00,
790,4.16e+00,4.88e+00,
791,3.92e+00,5.20e+00,
792,4.08e+00,5.20e+00,
793,3.84e+00,4.88e+00,
794,4.00e+00,5.20e+00,
795,3.76e+00,4.88e+00,
796,3.84e+00,4.88e+00,
797,3.68e+00,5.20e+00,
798,3.76e+00,4.88e+00,
799,3.52e+00,5.20e+00,
800,3.68e+00,4.88e+00,
801,3.44e+00,5.20e+00,
802,3.60e+00,5.20e+00,
803,3.36e+00,4.88e+00,
804,3.44e+00,5.20e+00,
805,3.12e+00,4.88e+00,
806,3.28e+00,5.20e+00,
807,3.04e+00,4.88e+00,
808,3.20e+00,4.88e+00,
809,2.96e+00,5.20e+00,
810,3.04e+00,4.88e+00,
811,2.80e+00,5.20e+00,
812,2.96e+00,4.88e+00,
813,2.72e+00,5.20e+00,
814,2.80e+00,4.88e+00,
815,2.56e+00,5.20e+00,
816,2.72e+00,4.88e+00,
817,2.48e+00,5.20e+00,
818,2.56e+00,4.88e+00,
819,2.40e+00,5.20e+00,
820,2.48e+00,4.88e+00,
821,2.16e+00,5.20e+00,
822,2.32e+00,4.88e+00,
823,2.08e+00,5.20e+00,
824,2.16e+00,5.20e+00,
825,1.92e+00,4.88e+00,
826,2.08e+00,5.20e+00,
827,1.84e+00,4.88e+00,
828,1.92e+00,4.88e+00,
829,1.76e+00,5.20e+00,
830,1.84e+00,5.20e+00,
831,1.60e+00,4.88e+00,
832,1.76e+00,4.88e+00,
833,1.52e+00,5.20e+00,
834,1.60e+00,4.88e+00,
835,1.44e+00,5.20e+00,
836,1.52e+00,5.20e+00,
837,1.28e+00,4.88e+00,
838,1.36e+00,5.20e+00,
839,1.12e+00,4.88e+00,
840,1.20e+00,4.88e+00,
841,1.04e+00,5.20e+00,
842,1.12e+00,4.88e+00,
843,9.60e-01,5.20e+00,
844,1.04e+00,4.88e+00,
845,8.80e-01,5.20e+00,
846,9.60e-01,5.20e+00,
847,7.20e-01,4.88e+00,
848,8.80e-01,4.88e+00,
849,6.40e-01,5.20e+00,
850,8.00e-01,5.20e+00,
851,5.60e-01,4.88e+00,
852,7.20e-01,4.88e+00,
853,4.80e-01,5.12e+00,
854,4.80e-01,5.20e+00,
855,6.40e-01,4.88e+00,
856,5.60e-01,4.88e+00,
857,4.00e-01,5.20e+00,
858,4.00e-01,5.20e+00,
859,2.40e-01,3.20e+00,
860,3.20e-01,2.40e+00,
861,1.60e-01,8.00e-02,
862,2.40e-01,2.40e-01,
863,8.00e-02,8.00e-02,
864,8.00e-02,2.40e-01,
865,2.40e-01,8.00e-02,
866,1.60e-01,2.40e-01,
867,0.00e+00,8.00e-02,
868,0.00e+00,2.40e-01,
