project/matlab/project_exp3/400 Hz/NewFile1.csv

X,CH1,CH2,Start,Increment,
Sequence,Volt,Volt,-5.280000e-03,1.000000e-05
0,1.44e+00,4.96e+00,
1,1.60e+00,5.20e+00,
2,1.52e+00,4.88e+00,
3,1.68e+00,5.12e+00,
4,1.60e+00,5.20e+00,
5,1.84e+00,4.88e+00,
6,1.76e+00,4.88e+00,
7,1.92e+00,5.20e+00,
8,1.84e+00,5.20e+00,
9,2.08e+00,4.88e+00,
10,1.92e+00,4.88e+00,
11,2.16e+00,5.20e+00,
12,2.08e+00,5.20e+00,
13,2.32e+00,4.88e+00,
14,2.24e+00,4.88e+00,
15,2.48e+00,5.20e+00,
16,2.40e+00,4.88e+00,
17,2.56e+00,5.20e+00,
18,2.48e+00,5.20e+00,
19,2.72e+00,4.88e+00,
20,2.56e+00,4.88e+00,
21,2.80e+00,5.20e+00,
22,2.72e+00,4.88e+00,
23,2.96e+00,5.20e+00,
24,2.80e+00,5.20e+00,
25,3.04e+00,4.88e+00,
26,2.88e+00,4.88e+00,
27,3.20e+00,5.20e+00,
28,3.04e+00,4.88e+00,
29,3.28e+00,5.20e+00,
30,3.12e+00,5.20e+00,
31,3.36e+00,4.88e+00,
32,3.36e+00,4.88e+00,
33,3.52e+00,5.20e+00,
34,3.44e+00,5.20e+00,
35,3.68e+00,4.88e+00,
36,3.52e+00,5.20e+00,
37,3.76e+00,4.88e+00,
38,3.60e+00,4.88e+00,
39,3.84e+00,5.20e+00,
40,3.76e+00,4.88e+00,
41,3.92e+00,5.20e+00,
42,3.84e+00,4.88e+00,
43,4.08e+00,5.20e+00,
44,3.92e+00,4.88e+00,
45,4.16e+00,5.20e+00,
46,4.00e+00,4.88e+00,
47,4.24e+00,5.20e+00,
48,4.08e+00,4.88e+00,
49,4.32e+00,5.20e+00,
50,4.24e+00,4.88e+00,
51,4.48e+00,5.20e+00,
52,4.32e+00,4.88e+00,
53,4.56e+00,5.20e+00,
54,4.40e+00,4.88e+00,
55,4.56e+00,5.20e+00,
56,4.40e+00,4.88e+00,
57,4.64e+00,5.20e+00,
58,4.48e+00,5.20e+00,
59,4.72e+00,4.88e+00,
60,4.72e+00,5.20e+00,
61,4.56e+00,4.88e+00,
62,4.56e+00,5.20e+00,
63,4.80e+00,4.88e+00,
64,4.64e+00,4.88e+00,
65,4.88e+00,5.20e+00,
66,4.64e+00,5.20e+00,
67,4.88e+00,4.88e+00,
68,4.88e+00,4.88e+00,
69,4.72e+00,5.20e+00,
70,4.72e+00,4.88e+00,
71,4.96e+00,5.20e+00,
72,4.72e+00,5.20e+00,
73,4.96e+00,4.88e+00,
74,4.88e+00,4.88e+00,
75,4.96e+00,5.20e+00,
76,4.96e+00,4.88e+00,
77,4.88e+00,5.20e+00,
78,4.96e+00,5.20e+00,
79,4.88e+00,4.88e+00,
80,4.96e+00,4.88e+00,
81,4.80e+00,5.20e+00,
82,4.96e+00,4.88e+00,
83,4.80e+00,5.20e+00,
84,4.96e+00,4.88e+00,
85,4.80e+00,5.20e+00,
86,4.96e+00,4.88e+00,
87,4.72e+00,5.20e+00,
88,4.72e+00,4.88e+00,
89,4.88e+00,5.20e+00,
90,4.88e+00,4.88e+00,
91,4.72e+00,5.20e+00,
92,4.88e+00,5.20e+00,
93,4.64e+00,4.88e+00,
94,4.80e+00,4.88e+00,
95,4.56e+00,5.20e+00,
96,4.56e+00,4.88e+00,
97,4.80e+00,5.20e+00,
98,4.72e+00,4.88e+00,
99,4.48e+00,5.20e+00,
100,4.48e+00,4.88e+00,
101,4.64e+00,5.20e+00,
102,4.40e+00,5.20e+00,
103,4.56e+00,4.88e+00,
104,4.56e+00,4.88e+00,
105,4.32e+00,5.20e+00,
106,4.48e+00,4.88e+00,
107,4.16e+00,5.20e+00,
108,4.40e+00,5.20e+00,
109,4.08e+00,4.88e+00,
110,4.24e+00,4.88e+00,
111,4.00e+00,5.20e+00,
112,4.16e+00,4.88e+00,
113,3.92e+00,5.20e+00,
114,4.08e+00,4.88e+00,
115,3.84e+00,5.20e+00,
116,4.00e+00,4.88e+00,
117,3.76e+00,5.20e+00,
118,3.84e+00,4.88e+00,
119,3.60e+00,5.20e+00,
120,3.76e+00,4.88e+00,
121,3.52e+00,5.20e+00,
122,3.68e+00,4.88e+00,
123,3.44e+00,5.20e+00,
124,3.60e+00,5.20e+00,
125,3.36e+00,4.88e+00,
126,3.44e+00,4.88e+00,
127,3.20e+00,5.20e+00,
128,3.28e+00,5.20e+00,
129,3.04e+00,4.88e+00,
130,3.20e+00,5.20e+00,
131,2.96e+00,4.88e+00,
132,3.04e+00,4.88e+00,
133,2.80e+00,5.20e+00,
134,2.96e+00,4.88e+00,
135,2.72e+00,5.20e+00,
136,2.80e+00,4.88e+00,
137,2.56e+00,5.20e+00,
138,2.72e+00,4.88e+00,
139,2.48e+00,5.20e+00,
140,2.56e+00,4.88e+00,
141,2.40e+00,5.20e+00,
142,2.48e+00,5.20e+00,
143,2.16e+00,4.88e+00,
144,2.32e+00,4.88e+00,
145,2.08e+00,5.20e+00,
146,2.16e+00,4.88e+00,
147,2.00e+00,5.20e+00,
148,2.08e+00,5.20e+00,
149,1.84e+00,4.88e+00,
150,1.92e+00,4.88e+00,
151,1.76e+00,5.20e+00,
152,1.84e+00,5.20e+00,
153,1.60e+00,4.88e+00,
154,1.76e+00,4.88e+00,
155,1.52e+00,5.20e+00,
156,1.60e+00,4.88e+00,
157,1.44e+00,5.20e+00,
158,1.52e+00,4.88e+00,
159,1.28e+00,5.20e+00,
160,1.36e+00,4.88e+00,
161,1.12e+00,5.20e+00,
162,1.20e+00,4.88e+00,
163,1.04e+00,5.20e+00,
164,1.12e+00,4.88e+00,
165,9.60e-01,5.20e+00,
166,1.04e+00,5.20e+00,
167,8.80e-01,4.88e+00,
168,9.60e-01,4.88e+00,
169,8.00e-01,5.20e+00,
170,8.80e-01,4.88e+00,
171,6.40e-01,5.20e+00,
172,8.00e-01,4.88e+00,
173,5.60e-01,5.20e+00,
174,5.60e-01,4.88e+00,
175,7.20e-01,5.20e+00,
176,6.40e-01,4.88e+00,
177,4.80e-01,5.20e+00,
178,4.80e-01,5.20e+00,
179,3.20e-01,4.88e+00,
180,4.00e-01,5.20e+00,
181,2.40e-01,1.60e-01,
182,3.20e-01,2.40e-01,
183,1.60e-01,8.00e-02,
184,2.40e-01,2.40e-01,
185,1.60e-01,8.00e-02,
186,2.40e-01,2.40e-01,
187,8.00e-02,8.00e-02,
188,1.60e-01,2.40e-01,
189,0.00e+00,8.00e-02,
190,0.00e+00,8.00e-02,
191,1.60e-01,2.40e-01,
192,8.00e-02,8.00e-02,
193,-8.00e-02,2.40e-01,
194,-8.00e-02,8.00e-02,
195,8.00e-02,2.40e-01,
196,0.00e+00,8.00e-02,
197,-8.00e-02,2.40e-01,
198,0.00e+00,1.60e-01,
199,-8.00e-02,8.00e-02,
200,0.00e+00,2.40e-01,
201,-8.00e-02,8.00e-02,
202,0.00e+00,8.00e-02,
203,-1.60e-01,2.40e-01,
204,0.00e+00,8.00e-02,
205,-8.00e-02,2.40e-01,
206,0.00e+00,1.60e-01,
207,-8.00e-02,0.00e+00,
208,0.00e+00,8.00e-02,
209,-8.00e-02,1.60e-01,
210,-8.00e-02,1.60e-01,
211,0.00e+00,0.00e+00,
212,-8.00e-02,1.60e-01,
213,8.00e-02,0.00e+00,
214,-8.00e-02,8.00e-02,
215,8.00e-02,2.40e-01,
216,0.00e+00,8.00e-02,
217,1.60e-01,2.40e-01,
218,1.60e-01,1.60e-01,
219,0.00e+00,0.00e+00,
220,8.00e-02,1.60e-01,
221,2.40e-01,8.00e-02,
222,2.40e-01,8.00e-02,
223,8.00e-02,2.40e-01,
224,1.60e-01,1.60e-01,
225,3.20e-01,0.00e+00,
226,2.40e-01,1.60e-01,
227,4.00e-01,8.00e-02,
228,4.00e-01,2.40e-01,
229,5.60e-01,8.00e-02,
230,4.80e-01,2.40e-01,
231,6.40e-01,0.00e+00,
232,4.80e-01,1.60e-01,
233,6.40e-01,0.00e+00,
234,5.60e-01,8.00e-02,
235,8.00e-01,2.40e-01,
236,6.40e-01,8.00e-02,
237,8.80e-01,5.04e+00,
238,7.20e-01,5.04e+00,
239,9.60e-01,4.88e+00,
240,8.80e-01,5.04e+00,
241,1.04e+00,4.88e+00,
242,9.60e-01,5.04e+00,
243,1.12e+00,4.96e+00,
244,1.04e+00,5.04e+00,
245,1.20e+00,4.96e+00,
246,1.12e+00,5.12e+00,
247,1.36e+00,4.96e+00,
248,1.28e+00,4.88e+00,
249,1.52e+00,5.20e+00,
250,1.44e+00,4.88e+00,
251,1.60e+00,5.20e+00,
252,1.52e+00,4.88e+00,
253,1.76e+00,5.20e+00,
254,1.60e+00,4.88e+00,
255,1.84e+00,5.20e+00,
256,1.76e+00,5.20e+00,
257,1.92e+00,4.88e+00,
258,1.84e+00,4.88e+00,
259,2.08e+00,5.20e+00,
260,1.92e+00,5.20e+00,
261,2.16e+00,4.88e+00,
262,2.08e+00,5.20e+00,
263,2.32e+00,4.88e+00,
264,2.24e+00,4.88e+00,
265,2.48e+00,5.20e+00,
266,2.40e+00,5.20e+00,
267,2.56e+00,4.88e+00,
268,2.48e+00,4.88e+00,
269,2.72e+00,5.20e+00,
270,2.56e+00,5.20e+00,
271,2.80e+00,4.88e+00,
272,2.72e+00,4.88e+00,
273,2.96e+00,5.20e+00,
274,2.80e+00,5.20e+00,
275,3.04e+00,4.88e+00,
276,2.96e+00,5.20e+00,
277,3.20e+00,4.88e+00,
278,3.04e+00,5.20e+00,
279,3.28e+00,4.88e+00,
280,3.12e+00,4.88e+00,
281,3.44e+00,5.20e+00,
282,3.36e+00,4.88e+00,
283,3.60e+00,5.20e+00,
284,3.44e+00,4.88e+00,
285,3.68e+00,5.20e+00,
286,3.52e+00,4.88e+00,
287,3.76e+00,5.20e+00,
288,3.60e+00,4.88e+00,
289,3.84e+00,5.20e+00,
290,3.76e+00,5.20e+00,
291,3.92e+00,4.88e+00,
292,3.84e+00,5.20e+00,
293,4.08e+00,4.88e+00,
294,3.92e+00,4.88e+00,
295,4.16e+00,5.20e+00,
296,4.00e+00,4.88e+00,
297,4.24e+00,5.20e+00,
298,4.08e+00,4.88e+00,
299,4.40e+00,5.20e+00,
300,4.24e+00,5.20e+00,
301,4.48e+00,4.88e+00,
302,4.32e+00,5.20e+00,
303,4.48e+00,4.88e+00,
304,4.40e+00,5.20e+00,
305,4.56e+00,4.88e+00,
306,4.40e+00,4.88e+00,
307,4.64e+00,5.20e+00,
308,4.48e+00,4.88e+00,
309,4.72e+00,5.20e+00,
310,4.72e+00,4.88e+00,
311,4.56e+00,5.20e+00,
312,4.56e+00,5.20e+00,
313,4.80e+00,4.88e+00,
314,4.64e+00,5.20e+00,
315,4.88e+00,4.88e+00,
316,4.64e+00,4.88e+00,
317,4.88e+00,5.20e+00,
318,4.88e+00,5.20e+00,
319,4.72e+00,4.88e+00,
320,4.72e+00,4.88e+00,
321,4.96e+00,5.20e+00,
322,4.80e+00,4.88e+00,
323,4.96e+00,5.20e+00,
324,4.96e+00,5.20e+00,
325,4.80e+00,4.88e+00,
326,4.80e+00,5.20e+00,
327,4.96e+00,4.88e+00,
328,4.96e+00,4.88e+00,
329,4.80e+00,5.20e+00,
330,4.80e+00,4.88e+00,
331,4.96e+00,5.20e+00,
332,4.96e+00,5.20e+00,
333,4.80e+00,4.88e+00,
334,4.96e+00,4.88e+00,
335,4.80e+00,5.20e+00,
336,4.96e+00,4.88e+00,
337,4.72e+00,5.20e+00,
338,4.72e+00,4.88e+00,
339,4.88e+00,5.20e+00,
340,4.88e+00,5.20e+00,
341,4.72e+00,4.88e+00,
342,4.88e+00,5.12e+00,
343,4.64e+00,4.88e+00,
344,4.80e+00,5.20e+00,
345,4.56e+00,4.88e+00,
346,4.56e+00,4.88e+00,
347,4.72e+00,5.20e+00,
348,4.72e+00,5.20e+00,
349,4.48e+00,4.88e+00,
350,4.48e+00,4.88e+00,
351,4.64e+00,5.20e+00,
352,4.40e+00,4.88e+00,
353,4.56e+00,5.20e+00,
354,4.56e+00,5.20e+00,
355,4.32e+00,4.88e+00,
356,4.48e+00,5.20e+00,
357,4.24e+00,4.88e+00,
358,4.40e+00,4.88e+00,
359,4.08e+00,5.20e+00,
360,4.24e+00,5.20e+00,
361,4.00e+00,4.88e+00,
362,4.16e+00,5.12e+00,
363,3.92e+00,4.88e+00,
364,4.08e+00,4.88e+00,
365,3.84e+00,5.20e+00,
366,4.00e+00,4.88e+00,
367,3.76e+00,5.20e+00,
368,3.84e+00,5.20e+00,
369,3.60e+00,4.88e+00,
370,3.76e+00,5.20e+00,
371,3.52e+00,4.88e+00,
372,3.68e+00,5.20e+00,
373,3.44e+00,4.88e+00,
374,3.60e+00,5.20e+00,
375,3.36e+00,4.88e+00,
376,3.44e+00,4.88e+00,
377,3.20e+00,5.20e+00,
378,3.28e+00,4.88e+00,
379,3.04e+00,5.20e+00,
380,3.20e+00,4.88e+00,
381,2.96e+00,5.20e+00,
382,3.04e+00,4.88e+00,
383,2.80e+00,5.20e+00,
384,2.96e+00,4.88e+00,
385,2.72e+00,5.20e+00,
386,2.80e+00,4.88e+00,
387,2.64e+00,5.20e+00,
388,2.72e+00,4.88e+00,
389,2.48e+00,5.20e+00,
390,2.64e+00,4.88e+00,
391,2.40e+00,5.20e+00,
392,2.48e+00,4.88e+00,
393,2.16e+00,5.20e+00,
394,2.32e+00,5.20e+00,
395,2.08e+00,4.88e+00,
396,2.16e+00,4.88e+00,
397,1.92e+00,5.20e+00,
398,2.08e+00,5.20e+00,
399,1.84e+00,4.88e+00,
400,1.92e+00,5.20e+00,
401,1.76e+00,4.88e+00,
402,1.84e+00,4.88e+00,
403,1.60e+00,5.20e+00,
404,1.76e+00,5.20e+00,
405,1.52e+00,4.88e+00,
406,1.60e+00,5.20e+00,
407,1.44e+00,4.88e+00,
408,1.52e+00,5.20e+00,
409,1.20e+00,4.88e+00,
410,1.36e+00,4.88e+00,
411,1.12e+00,5.20e+00,
412,1.20e+00,5.20e+00,
413,1.04e+00,4.88e+00,
414,1.12e+00,4.88e+00,
415,9.60e-01,5.20e+00,
416,1.04e+00,4.88e+00,
417,8.80e-01,5.20e+00,
418,9.60e-01,5.20e+00,
419,7.20e-01,4.88e+00,
420,8.80e-01,4.88e+00,
421,6.40e-01,5.20e+00,
422,8.00e-01,4.88e+00,
423,5.60e-01,5.20e+00,
424,5.60e-01,4.88e+00,
425,7.20e-01,5.20e+00,
426,6.40e-01,4.88e+00,
427,4.80e-01,5.20e+00,
428,5.60e-01,4.88e+00,
429,3.20e-01,5.20e+00,
430,4.00e-01,5.20e+00,
431,2.40e-01,1.60e-01,
432,3.20e-01,2.40e-01,
433,1.60e-01,8.00e-02,
434,2.40e-01,2.40e-01,
435,1.60e-01,8.00e-02,
436,2.40e-01,2.40e-01,
437,8.00e-02,8.00e-02,
438,1.60e-01,2.40e-01,
439,0.00e+00,8.00e-02,
440,0.00e+00,8.00e-02,
441,1.60e-01,2.40e-01,
442,8.00e-02,8.00e-02,
443,-8.00e-02,2.40e-01,
444,-8.00e-02,8.00e-02,
445,8.00e-02,2.40e-01,
446,-8.00e-02,8.00e-02,
447,0.00e+00,2.40e-01,
448,0.00e+00,8.00e-02,
449,-8.00e-02,2.40e-01,
450,-8.00e-02,2.40e-01,
451,0.00e+00,0.00e+00,
452,0.00e+00,2.40e-01,
453,-8.00e-02,0.00e+00,
454,-8.00e-02,1.60e-01,
455,0.00e+00,8.00e-02,
456,-8.00e-02,2.40e-01,
457,0.00e+00,0.00e+00,
458,0.00e+00,0.00e+00,
459,-8.00e-02,2.40e-01,
460,0.00e+00,0.00e+00,
461,-8.00e-02,2.40e-01,
462,-8.00e-02,1.60e-01,
463,8.00e-02,0.00e+00,
464,-8.00e-02,8.00e-02,
465,8.00e-02,2.40e-01,
466,0.00e+00,0.00e+00,
467,1.60e-01,2.40e-01,
468,1.60e-01,8.00e-02,
469,0.00e+00,2.40e-01,
470,8.00e-02,8.00e-02,
471,2.40e-01,2.40e-01,
472,2.40e-01,8.00e-02,
473,8.00e-02,2.40e-01,
474,1.60e-01,8.00e-02,
475,3.20e-01,2.40e-01,
476,2.40e-01,2.40e-01,
477,4.00e-01,0.00e+00,
478,4.00e-01,2.40e-01,
479,5.60e-01,0.00e+00,
480,4.00e-01,2.40e-01,
481,6.40e-01,0.00e+00,
482,4.80e-01,0.00e+00,
483,7.20e-01,2.40e-01,
484,5.60e-01,8.00e-02,
485,8.00e-01,2.40e-01,
486,6.40e-01,0.00e+00,
487,8.80e-01,5.04e+00,
488,7.20e-01,4.88e+00,
489,9.60e-01,5.04e+00,
490,8.80e-01,5.04e+00,
491,1.04e+00,4.96e+00,
492,9.60e-01,5.04e+00,
493,1.12e+00,4.96e+00,
494,1.04e+00,5.04e+00,
495,1.20e+00,4.96e+00,
496,1.12e+00,5.04e+00,
497,1.36e+00,4.96e+00,
498,1.20e+00,5.12e+00,
499,1.52e+00,4.88e+00,
500,1.44e+00,4.88e+00,
501,1.60e+00,5.12e+00,
502,1.52e+00,5.20e+00,
503,1.76e+00,4.88e+00,
504,1.60e+00,4.88e+00,
505,1.84e+00,5.20e+00,
506,1.76e+00,4.88e+00,
507,1.92e+00,5.20e+00,
508,1.84e+00,4.88e+00,
509,2.08e+00,5.20e+00,
510,1.92e+00,4.88e+00,
511,2.16e+00,5.20e+00,
512,2.08e+00,4.88e+00,
513,2.32e+00,5.20e+00,
514,2.16e+00,4.88e+00,
515,2.48e+00,5.20e+00,
516,2.40e+00,4.88e+00,
517,2.56e+00,5.20e+00,
518,2.48e+00,4.88e+00,
519,2.72e+00,5.20e+00,
520,2.56e+00,4.88e+00,
521,2.80e+00,5.20e+00,
522,2.72e+00,5.20e+00,
523,2.96e+00,4.88e+00,
524,2.80e+00,4.88e+00,
525,3.04e+00,5.20e+00,
526,2.96e+00,4.88e+00,
527,3.12e+00,5.20e+00,
528,3.04e+00,4.88e+00,
529,3.28e+00,5.20e+00,
530,3.20e+00,4.88e+00,
531,3.44e+00,5.20e+00,
532,3.36e+00,5.20e+00,
533,3.60e+00,4.88e+00,
534,3.44e+00,4.88e+00,
535,3.68e+00,5.20e+00,
536,3.52e+00,5.20e+00,
537,3.76e+00,4.88e+00,
538,3.60e+00,4.88e+00,
539,3.84e+00,5.20e+00,
540,3.76e+00,5.20e+00,
541,3.92e+00,4.88e+00,
542,3.84e+00,4.88e+00,
543,4.08e+00,5.20e+00,
544,3.92e+00,4.88e+00,
545,4.16e+00,5.20e+00,
546,4.00e+00,4.88e+00,
547,4.24e+00,5.20e+00,
548,4.08e+00,4.88e+00,
549,4.40e+00,5.20e+00,
550,4.24e+00,5.20e+00,
551,4.48e+00,4.88e+00,
552,4.32e+00,4.88e+00,
553,4.56e+00,5.20e+00,
554,4.56e+00,5.20e+00,
555,4.40e+00,4.88e+00,
556,4.40e+00,4.88e+00,
557,4.64e+00,5.20e+00,
558,4.48e+00,5.20e+00,
559,4.72e+00,4.88e+00,
560,4.56e+00,5.20e+00,
561,4.80e+00,4.88e+00,
562,4.56e+00,4.88e+00,
563,4.80e+00,5.20e+00,
564,4.80e+00,5.20e+00,
565,4.64e+00,4.88e+00,
566,4.88e+00,4.88e+00,
567,4.72e+00,5.20e+00,
568,4.88e+00,4.88e+00,
569,4.72e+00,5.20e+00,
570,4.72e+00,4.88e+00,
571,4.96e+00,5.20e+00,
572,4.80e+00,4.88e+00,
573,4.96e+00,5.20e+00,
574,4.96e+00,4.88e+00,
575,4.80e+00,5.20e+00,
576,4.96e+00,4.88e+00,
577,4.80e+00,5.20e+00,
578,4.96e+00,4.88e+00,
579,4.80e+00,5.20e+00,
580,4.96e+00,4.88e+00,
581,4.80e+00,5.20e+00,
582,4.88e+00,5.20e+00,
583,4.96e+00,4.88e+00,
584,4.96e+00,5.20e+00,
585,4.72e+00,4.88e+00,
586,4.72e+00,4.88e+00,
587,4.96e+00,5.20e+00,
588,4.72e+00,4.88e+00,
589,4.88e+00,5.20e+00,
590,4.88e+00,4.88e+00,
591,4.64e+00,5.20e+00,
592,4.64e+00,4.88e+00,
593,4.88e+00,5.20e+00,
594,4.80e+00,4.88e+00,
595,4.56e+00,5.20e+00,
596,4.56e+00,5.20e+00,
597,4.72e+00,4.88e+00,
598,4.72e+00,4.88e+00,
599,4.48e+00,5.20e+00,
600,4.64e+00,4.88e+00,
601,4.40e+00,5.20e+00,
602,4.56e+00,5.20e+00,
603,4.40e+00,4.88e+00,
604,4.48e+00,4.88e+00,
605,4.32e+00,5.20e+00,
606,4.48e+00,5.20e+00,
607,4.24e+00,4.88e+00,
608,4.40e+00,4.88e+00,
609,4.08e+00,5.20e+00,
610,4.24e+00,5.20e+00,
611,4.00e+00,4.88e+00,
612,4.16e+00,4.88e+00,
613,3.92e+00,5.20e+00,
614,4.08e+00,4.88e+00,
615,3.84e+00,5.20e+00,
616,4.00e+00,4.88e+00,
617,3.76e+00,5.20e+00,
618,3.84e+00,4.88e+00,
619,3.60e+00,5.20e+00,
620,3.76e+00,4.88e+00,
621,3.52e+00,5.20e+00,
622,3.68e+00,4.88e+00,
623,3.44e+00,5.20e+00,
624,3.60e+00,4.88e+00,
625,3.36e+00,5.20e+00,
626,3.44e+00,5.20e+00,
627,3.12e+00,4.88e+00,
628,3.28e+00,4.88e+00,
629,3.04e+00,5.20e+00,
630,3.20e+00,4.88e+00,
631,2.96e+00,5.20e+00,
632,3.04e+00,4.88e+00,
633,2.80e+00,5.20e+00,
634,2.96e+00,5.20e+00,
635,2.72e+00,4.88e+00,
636,2.88e+00,5.20e+00,
637,2.64e+00,4.88e+00,
638,2.72e+00,5.20e+00,
639,2.48e+00,4.88e+00,
640,2.56e+00,4.88e+00,
641,2.40e+00,5.20e+00,
642,2.48e+00,4.88e+00,
643,2.16e+00,5.20e+00,
644,2.32e+00,5.20e+00,
645,2.08e+00,4.88e+00,
646,2.16e+00,4.88e+00,
647,2.00e+00,5.20e+00,
648,2.08e+00,5.20e+00,
649,1.84e+00,4.88e+00,
650,1.92e+00,5.20e+00,
651,1.76e+00,4.88e+00,
652,1.84e+00,5.20e+00,
653,1.60e+00,4.88e+00,
654,1.76e+00,5.20e+00,
655,1.52e+00,4.88e+00,
656,1.60e+00,5.20e+00,
657,1.44e+00,4.88e+00,
658,1.52e+00,4.88e+00,
659,1.28e+00,5.20e+00,
660,1.36e+00,5.20e+00,
661,1.12e+00,4.88e+00,
662,1.20e+00,5.20e+00,
663,1.04e+00,4.88e+00,
664,1.12e+00,4.88e+00,
665,9.60e-01,5.20e+00,
666,1.04e+00,5.20e+00,
667,8.80e-01,4.88e+00,
668,9.60e-01,4.88e+00,
669,8.00e-01,5.20e+00,
670,8.80e-01,5.20e+00,
671,6.40e-01,4.88e+00,
672,8.00e-01,4.88e+00,
673,5.60e-01,5.20e+00,
674,7.20e-01,4.88e+00,
675,5.60e-01,5.20e+00,
676,4.80e-01,4.88e+00,
677,6.40e-01,5.20e+00,
678,4.00e-01,4.88e+00,
679,5.60e-01,5.20e+00,
680,4.00e-01,5.20e+00,
681,2.40e-01,1.60e-01,
682,3.20e-01,8.00e-02,
683,1.60e-01,2.40e-01,
684,1.60e-01,2.40e-01,
685,2.40e-01,8.00e-02,
686,2.40e-01,8.00e-02,
687,8.00e-02,2.40e-01,
688,1.60e-01,2.40e-01,
689,0.00e+00,8.00e-02,
690,0.00e+00,2.40e-01,
691,1.60e-01,8.00e-02,
692,8.00e-02,2.40e-01,
693,-8.00e-02,8.00e-02,
694,8.00e-02,8.00e-02,
695,-8.00e-02,2.40e-01,
696,0.00e+00,2.40e-01,
697,-8.00e-02,0.00e+00,
698,-8.00e-02,8.00e-02,
699,0.00e+00,2.40e-01,
700,0.00e+00,2.40e-01,
701,-1.60e-01,8.00e-02,
702,0.00e+00,8.00e-02,
703,-1.60e-01,2.40e-01,
704,0.00e+00,8.00e-02,
705,-8.00e-02,2.40e-01,
706,-8.00e-02,8.00e-02,
707,0.00e+00,2.40e-01,
708,0.00e+00,2.40e-01,
709,-8.00e-02,0.00e+00,
710,0.00e+00,1.60e-01,
711,-8.00e-02,8.00e-02,
712,-8.00e-02,1.60e-01,
713,8.00e-02,8.00e-02,
714,-8.00e-02,2.40e-01,
715,8.00e-02,0.00e+00,
716,0.00e+00,1.60e-01,
717,1.60e-01,8.00e-02,
718,1.60e-01,2.40e-01,
719,0.00e+00,0.00e+00,
720,8.00e-02,1.60e-01,
721,2.40e-01,8.00e-02,
722,2.40e-01,8.00e-02,
723,1.60e-01,2.40e-01,
724,1.60e-01,1.60e-01,
725,3.20e-01,8.00e-02,
726,2.40e-01,8.00e-02,
727,4.00e-01,2.40e-01,
728,5.60e-01,1.60e-01,
729,3.20e-01,0.00e+00,
730,4.00e-01,1.60e-01,
731,6.40e-01,8.00e-02,
732,4.80e-01,1.60e-01,
733,6.40e-01,0.00e+00,
734,5.60e-01,1.60e-01,
735,8.00e-01,8.00e-02,
736,6.40e-01,8.00e-02,
737,8.80e-01,5.04e+00,
738,7.20e-01,5.04e+00,
739,9.60e-01,4.88e+00,
740,8.80e-01,5.04e+00,
741,1.04e+00,4.88e+00,
742,9.60e-01,5.04e+00,
743,1.12e+00,4.88e+00,
744,1.04e+00,4.88e+00,
745,1.20e+00,5.12e+00,
746,1.12e+00,4.88e+00,
747,1.36e+00,5.20e+00,
748,1.28e+00,5.20e+00,
749,1.52e+00,4.88e+00,
750,1.44e+00,4.88e+00,
751,1.60e+00,5.12e+00,
752,1.52e+00,4.88e+00,
753,1.68e+00,5.20e+00,
754,1.60e+00,5.12e+00,
755,1.84e+00,4.88e+00,
756,1.76e+00,4.88e+00,
757,1.92e+00,5.20e+00,
758,1.84e+00,4.88e+00,
759,2.08e+00,5.20e+00,
760,1.92e+00,4.88e+00,
761,2.16e+00,5.20e+00,
762,2.08e+00,4.88e+00,
763,2.32e+00,5.20e+00,
764,2.16e+00,4.88e+00,
765,2.48e+00,5.20e+00,
766,2.40e+00,5.20e+00,
767,2.56e+00,4.88e+00,
768,2.48e+00,4.88e+00,
769,2.72e+00,5.20e+00,
770,2.56e+00,4.88e+00,
771,2.80e+00,5.20e+00,
772,2.72e+00,5.20e+00,
773,2.96e+00,4.88e+00,
774,2.80e+00,5.20e+00,
775,3.04e+00,4.88e+00,
776,2.96e+00,4.88e+00,
777,3.20e+00,5.20e+00,
778,3.04e+00,5.20e+00,
779,3.28e+00,4.88e+00,
780,3.12e+00,4.88e+00,
781,3.44e+00,5.20e+00,
782,3.36e+00,4.88e+00,
783,3.60e+00,5.20e+00,
784,3.44e+00,5.20e+00,
785,3.68e+00,4.88e+00,
786,3.52e+00,4.88e+00,
787,3.76e+00,5.20e+00,
788,3.60e+00,4.88e+00,
789,3.84e+00,5.20e+00,
790,3.76e+00,5.20e+00,
791,3.92e+00,4.88e+00,
792,3.84e+00,5.20e+00,
793,4.08e+00,4.88e+00,
794,3.92e+00,4.88e+00,
795,4.16e+00,5.20e+00,
796,4.00e+00,4.88e+00,
797,4.24e+00,5.20e+00,
798,4.08e+00,4.88e+00,
799,4.40e+00,5.20e+00,
800,4.16e+00,4.88e+00,
801,4.48e+00,5.20e+00,
802,4.32e+00,5.20e+00,
803,4.56e+00,4.88e+00,
804,4.56e+00,4.88e+00,
805,4.40e+00,5.20e+00,
806,4.40e+00,5.20e+00,
807,4.64e+00,4.88e+00,
808,4.48e+00,5.20e+00,
809,4.72e+00,4.88e+00,
810,4.56e+00,4.88e+00,
811,4.80e+00,5.20e+00,
812,4.56e+00,4.88e+00,
813,4.80e+00,5.20e+00,
814,4.64e+00,5.20e+00,
815,4.80e+00,4.88e+00,
816,4.64e+00,4.88e+00,
817,4.88e+00,5.20e+00,
818,4.88e+00,5.20e+00,
819,4.72e+00,4.88e+00,
820,4.72e+00,4.88e+00,
821,4.96e+00,5.20e+00,
822,4.72e+00,4.88e+00,
823,4.96e+00,5.20e+00,
824,4.96e+00,5.20e+00,
825,4.88e+00,4.88e+00,
826,4.96e+00,5.20e+00,
827,4.88e+00,4.88e+00,
828,4.88e+00,4.88e+00,
829,4.96e+00,5.20e+00,
830,4.96e+00,5.20e+00,
831,4.88e+00,4.88e+00,
832,4.96e+00,4.88e+00,
833,4.88e+00,5.20e+00,
834,4.96e+00,5.20e+00,
835,4.80e+00,4.88e+00,
836,4.96e+00,5.20e+00,
837,4.72e+00,4.88e+00,
838,4.72e+00,4.88e+00,
839,4.88e+00,5.20e+00,
840,4.88e+00,4.88e+00,
841,4.64e+00,5.20e+00,
842,4.88e+00,4.88e+00,
843,4.64e+00,5.20e+00,
844,4.80e+00,4.88e+00,
845,4.56e+00,5.20e+00,
846,4.80e+00,4.88e+00,
847,4.56e+00,5.20e+00,
848,4.72e+00,5.20e+00,
849,4.48e+00,4.88e+00,
850,4.64e+00,5.20e+00,
851,4.40e+00,4.88e+00,
852,4.56e+00,4.88e+00,
853,4.40e+00,5.20e+00,
854,4.56e+00,5.20e+00,
855,4.32e+00,4.88e+00,
856,4.48e+00,5.20e+00,
857,4.24e+00,4.88e+00,
858,4.40e+00,4.88e+00,
859,4.08e+00,5.20e+00,
860,4.24e+00,4.88e+00,
861,4.00e+00,5.20e+00,
862,4.16e+00,4.88e+00,
863,3.92e+00,5.20e+00,
864,4.08e+00,4.88e+00,
865,3.84e+00,5.20e+00,
866,4.00e+00,4.88e+00,
867,3.76e+00,5.20e+00,
868,3.84e+00,5.20e+00,
