project/matlab/project_exp3/50 Hz/NewFile1.csv

X,CH1,CH2,Start,Increment,
Sequence,Volt,Volt,-2.928000e-02,5.000000e-05
0,1.28e+00,5.04e+00,
1,1.12e+00,4.88e+00,
2,1.20e+00,4.88e+00,
3,1.04e+00,5.12e+00,
4,1.20e+00,5.04e+00,
5,1.04e+00,4.88e+00,
6,1.12e+00,5.04e+00,
7,9.60e-01,4.88e+00,
8,1.04e+00,5.04e+00,
9,8.80e-01,4.88e+00,
10,9.60e-01,5.04e+00,
11,8.00e-01,4.88e+00,
12,9.60e-01,5.04e+00,
13,8.00e-01,4.88e+00,
14,8.80e-01,5.04e+00,
15,7.20e-01,4.88e+00,
16,8.00e-01,4.88e+00,
17,6.40e-01,5.04e+00,
18,6.40e-01,5.04e+00,
19,8.00e-01,4.88e+00,
20,7.20e-01,4.88e+00,
21,5.60e-01,5.04e+00,
22,7.20e-01,5.04e+00,
23,5.60e-01,4.88e+00,
24,6.40e-01,5.04e+00,
25,4.80e-01,4.88e+00,
26,5.60e-01,5.04e+00,
27,4.00e-01,4.88e+00,
28,5.60e-01,5.04e+00,
29,3.20e-01,4.88e+00,
30,4.00e-01,4.88e+00,
31,2.40e-01,5.20e+00,
32,4.00e-01,5.12e+00,
33,2.40e-01,8.00e-02,
34,3.20e-01,2.40e-01,
35,1.60e-01,8.00e-02,
36,1.60e-01,2.40e-01,
37,3.20e-01,0.00e+00,
38,2.40e-01,1.60e-01,
39,1.60e-01,8.00e-02,
40,2.40e-01,2.40e-01,
41,8.00e-02,0.00e+00,
42,8.00e-02,1.60e-01,
43,1.60e-01,0.00e+00,
44,8.00e-02,1.60e-01,
45,1.60e-01,0.00e+00,
46,1.60e-01,1.60e-01,
47,0.00e+00,0.00e+00,
48,0.00e+00,1.60e-01,
49,1.60e-01,0.00e+00,
50,8.00e-02,1.60e-01,
51,0.00e+00,8.00e-02,
52,8.00e-02,8.00e-02,
53,-8.00e-02,2.40e-01,
54,-8.00e-02,1.60e-01,
55,8.00e-02,0.00e+00,
56,8.00e-02,1.60e-01,
57,-8.00e-02,0.00e+00,
58,-8.00e-02,1.60e-01,
59,0.00e+00,0.00e+00,
60,-8.00e-02,1.60e-01,
61,0.00e+00,0.00e+00,
62,0.00e+00,1.60e-01,
63,-8.00e-02,0.00e+00,
64,0.00e+00,1.60e-01,
65,-8.00e-02,0.00e+00,
66,0.00e+00,1.60e-01,
67,-1.60e-01,0.00e+00,
68,0.00e+00,1.60e-01,
69,-1.60e-01,0.00e+00,
70,0.00e+00,1.60e-01,
71,-1.60e-01,0.00e+00,
72,0.00e+00,1.60e-01,
73,-1.60e-01,0.00e+00,
74,0.00e+00,1.60e-01,
75,-8.00e-02,0.00e+00,
76,-8.00e-02,1.60e-01,
77,0.00e+00,0.00e+00,
78,0.00e+00,1.60e-01,
79,-8.00e-02,0.00e+00,
80,-8.00e-02,0.00e+00,
81,0.00e+00,2.40e-01,
82,-8.00e-02,1.60e-01,
83,8.00e-02,0.00e+00,
84,8.00e-02,1.60e-01,
85,-8.00e-02,0.00e+00,
86,8.00e-02,1.60e-01,
87,0.00e+00,0.00e+00,
88,8.00e-02,1.60e-01,
89,0.00e+00,0.00e+00,
90,0.00e+00,1.60e-01,
91,1.60e-01,0.00e+00,
92,0.00e+00,1.60e-01,
93,1.60e-01,0.00e+00,
94,1.60e-01,1.60e-01,
95,8.00e-02,0.00e+00,
96,8.00e-02,1.60e-01,
97,2.40e-01,0.00e+00,
98,2.40e-01,1.60e-01,
99,1.60e-01,0.00e+00,
100,1.60e-01,1.60e-01,
101,3.20e-01,0.00e+00,
102,3.20e-01,1.60e-01,
103,1.60e-01,8.00e-02,
104,2.40e-01,1.60e-01,
105,4.00e-01,0.00e+00,
106,2.40e-01,1.60e-01,
107,4.00e-01,0.00e+00,
108,4.00e-01,1.60e-01,
109,4.80e-01,0.00e+00,
110,3.20e-01,1.60e-01,
111,5.60e-01,0.00e+00,
112,4.80e-01,1.60e-01,
113,6.40e-01,0.00e+00,
114,4.80e-01,8.00e-02,
115,6.40e-01,1.60e-01,
116,5.60e-01,1.60e-01,
117,7.20e-01,0.00e+00,
118,5.60e-01,1.60e-01,
119,7.20e-01,0.00e+00,
120,6.40e-01,8.00e-02,
121,8.00e-01,2.40e-01,
122,7.20e-01,8.00e-02,
123,8.80e-01,5.04e+00,
124,8.00e-01,5.04e+00,
125,8.80e-01,4.96e+00,
126,8.00e-01,5.04e+00,
127,9.60e-01,4.96e+00,
128,8.80e-01,5.04e+00,
129,1.04e+00,4.96e+00,
130,9.60e-01,5.04e+00,
131,1.12e+00,4.88e+00,
132,1.12e+00,5.04e+00,
133,9.60e-01,4.88e+00,
134,1.04e+00,5.04e+00,
135,1.20e+00,4.88e+00,
136,1.12e+00,4.88e+00,
137,1.28e+00,5.04e+00,
138,1.20e+00,4.88e+00,
139,1.36e+00,5.12e+00,
140,1.28e+00,4.88e+00,
141,1.44e+00,5.12e+00,
142,1.36e+00,5.12e+00,
143,1.52e+00,4.88e+00,
144,1.44e+00,4.88e+00,
145,1.60e+00,5.20e+00,
146,1.52e+00,5.12e+00,
147,1.68e+00,4.88e+00,
148,1.52e+00,5.20e+00,
149,1.76e+00,4.88e+00,
150,1.60e+00,4.88e+00,
151,1.84e+00,5.20e+00,
152,1.68e+00,4.88e+00,
153,1.92e+00,5.20e+00,
154,1.92e+00,5.20e+00,
155,1.76e+00,4.88e+00,
156,1.84e+00,5.20e+00,
157,2.00e+00,4.88e+00,
158,1.92e+00,5.20e+00,
159,2.08e+00,4.88e+00,
160,2.00e+00,5.20e+00,
161,2.16e+00,4.88e+00,
162,2.08e+00,5.12e+00,
163,2.24e+00,5.20e+00,
164,2.16e+00,5.20e+00,
165,2.32e+00,4.88e+00,
166,2.24e+00,5.20e+00,
167,2.40e+00,4.96e+00,
168,2.24e+00,5.20e+00,
169,2.56e+00,5.12e+00,
170,2.40e+00,5.20e+00,
171,2.56e+00,4.88e+00,
172,2.48e+00,5.20e+00,
173,2.64e+00,4.96e+00,
174,2.56e+00,5.12e+00,
175,2.72e+00,5.20e+00,
176,2.64e+00,5.20e+00,
177,2.80e+00,4.96e+00,
178,2.72e+00,5.20e+00,
179,2.88e+00,4.96e+00,
180,2.80e+00,4.96e+00,
181,2.96e+00,5.20e+00,
182,2.80e+00,5.20e+00,
183,3.04e+00,4.96e+00,
184,2.88e+00,5.20e+00,
185,3.12e+00,4.96e+00,
186,2.96e+00,5.20e+00,
187,3.20e+00,4.96e+00,
188,3.04e+00,4.96e+00,
189,3.28e+00,5.20e+00,
190,3.12e+00,5.20e+00,
191,3.28e+00,4.88e+00,
192,3.28e+00,5.20e+00,
193,3.44e+00,4.88e+00,
194,3.28e+00,5.20e+00,
195,3.52e+00,4.88e+00,
196,3.52e+00,5.20e+00,
197,3.36e+00,4.88e+00,
198,3.60e+00,5.20e+00,
199,3.44e+00,4.88e+00,
200,3.52e+00,5.20e+00,
201,3.68e+00,4.88e+00,
202,3.60e+00,5.20e+00,
203,3.76e+00,4.88e+00,
204,3.60e+00,5.20e+00,
205,3.84e+00,4.88e+00,
206,3.84e+00,4.88e+00,
207,3.68e+00,5.20e+00,
208,3.76e+00,4.88e+00,
209,3.92e+00,5.20e+00,
210,3.84e+00,5.20e+00,
211,4.00e+00,4.88e+00,
212,3.84e+00,5.12e+00,
213,4.08e+00,4.88e+00,
214,4.08e+00,4.88e+00,
215,3.92e+00,5.20e+00,
216,4.00e+00,4.88e+00,
217,4.16e+00,5.20e+00,
218,4.00e+00,4.88e+00,
219,4.24e+00,5.20e+00,
220,4.24e+00,4.88e+00,
221,4.08e+00,5.20e+00,
222,4.16e+00,4.88e+00,
223,4.40e+00,5.12e+00,
224,4.40e+00,4.88e+00,
225,4.24e+00,5.12e+00,
226,4.32e+00,4.88e+00,
227,4.48e+00,5.12e+00,
228,4.32e+00,4.88e+00,
229,4.56e+00,5.12e+00,
230,4.40e+00,4.88e+00,
231,4.56e+00,5.12e+00,
232,4.40e+00,4.88e+00,
233,4.64e+00,5.12e+00,
234,4.48e+00,5.04e+00,
235,4.64e+00,4.88e+00,
236,4.64e+00,5.04e+00,
237,4.48e+00,4.88e+00,
238,4.48e+00,4.88e+00,
239,4.72e+00,5.20e+00,
240,4.72e+00,5.04e+00,
241,4.56e+00,4.88e+00,
242,4.72e+00,4.88e+00,
243,4.56e+00,5.12e+00,
244,4.64e+00,5.04e+00,
245,4.80e+00,4.88e+00,
246,4.64e+00,5.04e+00,
247,4.80e+00,4.88e+00,
248,4.80e+00,4.88e+00,
249,4.64e+00,5.04e+00,
250,4.72e+00,5.04e+00,
251,4.88e+00,4.88e+00,
252,4.72e+00,5.04e+00,
253,4.88e+00,4.88e+00,
254,4.88e+00,5.04e+00,
255,4.72e+00,4.88e+00,
256,4.88e+00,5.04e+00,
257,4.72e+00,4.88e+00,
258,4.88e+00,5.04e+00,
259,4.72e+00,4.88e+00,
260,4.80e+00,5.04e+00,
261,4.96e+00,4.88e+00,
262,4.80e+00,5.04e+00,
263,4.96e+00,4.88e+00,
264,4.88e+00,5.04e+00,
265,4.96e+00,4.88e+00,
266,4.96e+00,4.88e+00,
267,4.88e+00,5.12e+00,
268,4.96e+00,5.04e+00,
269,4.88e+00,4.88e+00,
270,4.96e+00,4.88e+00,
271,4.88e+00,5.12e+00,
272,4.96e+00,5.04e+00,
273,4.88e+00,4.88e+00,
274,4.88e+00,4.88e+00,
275,4.96e+00,5.12e+00,
276,4.96e+00,5.04e+00,
277,4.80e+00,4.88e+00,
278,4.96e+00,4.88e+00,
279,4.72e+00,5.12e+00,
280,4.88e+00,5.04e+00,
281,4.72e+00,4.88e+00,
282,4.88e+00,5.04e+00,
283,4.72e+00,4.88e+00,
284,4.88e+00,5.04e+00,
285,4.72e+00,4.96e+00,
286,4.72e+00,5.04e+00,
287,4.88e+00,4.88e+00,
288,4.88e+00,5.04e+00,
289,4.64e+00,4.96e+00,
290,4.80e+00,5.04e+00,
291,4.64e+00,4.88e+00,
292,4.64e+00,5.04e+00,
293,4.80e+00,4.88e+00,
294,4.80e+00,5.04e+00,
295,4.64e+00,4.96e+00,
296,4.72e+00,5.04e+00,
297,4.56e+00,4.96e+00,
298,4.56e+00,5.04e+00,
299,4.72e+00,4.96e+00,
300,4.72e+00,5.04e+00,
301,4.48e+00,4.88e+00,
302,4.64e+00,5.04e+00,
303,4.48e+00,4.88e+00,
304,4.64e+00,4.88e+00,
305,4.48e+00,5.04e+00,
306,4.40e+00,4.88e+00,
307,4.56e+00,5.04e+00,
308,4.56e+00,4.88e+00,
309,4.40e+00,5.12e+00,
310,4.48e+00,4.88e+00,
311,4.32e+00,5.12e+00,
312,4.48e+00,4.88e+00,
313,4.24e+00,5.12e+00,
314,4.16e+00,5.04e+00,
315,4.40e+00,4.88e+00,
316,4.40e+00,4.88e+00,
317,4.08e+00,5.12e+00,
318,4.24e+00,5.04e+00,
319,4.08e+00,4.88e+00,
320,4.16e+00,5.04e+00,
321,4.00e+00,4.88e+00,
322,4.16e+00,5.04e+00,
323,3.92e+00,4.88e+00,
324,4.08e+00,5.04e+00,
325,3.92e+00,4.88e+00,
326,4.00e+00,5.04e+00,
327,3.84e+00,4.88e+00,
328,4.00e+00,5.04e+00,
329,3.76e+00,4.88e+00,
330,3.92e+00,4.88e+00,
331,3.76e+00,5.04e+00,
332,3.84e+00,5.04e+00,
333,3.68e+00,4.88e+00,
334,3.76e+00,5.04e+00,
335,3.60e+00,4.88e+00,
336,3.76e+00,5.04e+00,
337,3.52e+00,4.88e+00,
338,3.68e+00,5.04e+00,
339,3.44e+00,4.88e+00,
340,3.44e+00,5.04e+00,
341,3.60e+00,4.88e+00,
342,3.52e+00,5.04e+00,
343,3.36e+00,4.88e+00,
344,3.44e+00,5.04e+00,
345,3.20e+00,4.88e+00,
346,3.36e+00,5.04e+00,
347,3.12e+00,4.88e+00,
348,3.28e+00,5.04e+00,
349,3.04e+00,4.88e+00,
350,3.20e+00,4.88e+00,
351,2.96e+00,5.12e+00,
352,3.12e+00,5.04e+00,
353,2.96e+00,4.88e+00,
354,3.04e+00,4.88e+00,
355,2.88e+00,5.20e+00,
356,2.96e+00,4.88e+00,
357,2.80e+00,5.20e+00,
358,2.88e+00,5.04e+00,
359,2.72e+00,4.88e+00,
360,2.88e+00,4.88e+00,
361,2.64e+00,5.12e+00,
362,2.80e+00,5.04e+00,
363,2.56e+00,4.88e+00,
364,2.72e+00,5.04e+00,
365,2.48e+00,4.88e+00,
366,2.48e+00,4.88e+00,
367,2.64e+00,5.04e+00,
368,2.40e+00,5.04e+00,
369,2.56e+00,4.88e+00,
370,2.48e+00,5.04e+00,
371,2.32e+00,4.88e+00,
372,2.32e+00,5.04e+00,
373,2.16e+00,4.88e+00,
374,2.24e+00,5.04e+00,
375,2.08e+00,4.88e+00,
376,2.16e+00,5.04e+00,
377,2.00e+00,4.88e+00,
378,2.08e+00,5.04e+00,
379,1.92e+00,4.88e+00,
380,2.08e+00,5.04e+00,
381,1.84e+00,4.88e+00,
382,1.84e+00,5.04e+00,
383,2.00e+00,4.88e+00,
384,1.92e+00,5.04e+00,
385,1.76e+00,4.88e+00,
386,1.84e+00,4.88e+00,
387,1.68e+00,5.04e+00,
388,1.76e+00,5.04e+00,
389,1.60e+00,4.88e+00,
390,1.68e+00,5.04e+00,
391,1.52e+00,4.88e+00,
392,1.60e+00,4.88e+00,
393,1.44e+00,5.12e+00,
394,1.60e+00,5.04e+00,
395,1.36e+00,4.88e+00,
396,1.52e+00,5.12e+00,
397,1.28e+00,4.88e+00,
398,1.36e+00,5.12e+00,
399,1.20e+00,4.88e+00,
400,1.28e+00,4.88e+00,
401,1.12e+00,5.12e+00,
402,1.28e+00,5.04e+00,
403,1.04e+00,4.88e+00,
404,1.20e+00,5.04e+00,
405,1.04e+00,4.88e+00,
406,1.12e+00,5.04e+00,
407,9.60e-01,4.88e+00,
408,1.04e+00,4.88e+00,
409,8.80e-01,5.04e+00,
410,9.60e-01,5.04e+00,
411,8.00e-01,4.88e+00,
412,8.00e-01,4.96e+00,
413,9.60e-01,5.04e+00,
414,8.80e-01,5.04e+00,
415,7.20e-01,4.88e+00,
416,8.00e-01,5.04e+00,
417,6.40e-01,4.88e+00,
418,8.00e-01,5.04e+00,
419,6.40e-01,4.88e+00,
420,7.20e-01,5.04e+00,
421,5.60e-01,4.88e+00,
422,5.60e-01,5.04e+00,
423,6.40e-01,4.88e+00,
424,6.40e-01,5.04e+00,
425,4.80e-01,4.88e+00,
426,5.60e-01,5.04e+00,
427,4.00e-01,4.88e+00,
428,3.20e-01,5.04e+00,
429,5.60e-01,4.88e+00,
430,4.00e-01,5.04e+00,
431,2.40e-01,4.88e+00,
432,2.40e-01,5.04e+00,
433,4.00e-01,8.00e-02,
434,3.20e-01,2.40e-01,
435,2.40e-01,8.00e-02,
436,3.20e-01,1.60e-01,
437,1.60e-01,8.00e-02,
438,1.60e-01,1.60e-01,
439,2.40e-01,8.00e-02,
440,2.40e-01,8.00e-02,
441,8.00e-02,2.40e-01,
442,8.00e-02,1.60e-01,
443,2.40e-01,0.00e+00,
444,1.60e-01,1.60e-01,
445,0.00e+00,8.00e-02,
446,1.60e-01,1.60e-01,
447,0.00e+00,0.00e+00,
448,1.60e-01,1.60e-01,
449,0.00e+00,0.00e+00,
450,8.00e-02,1.60e-01,
451,0.00e+00,0.00e+00,
452,8.00e-02,8.00e-02,
453,-8.00e-02,1.60e-01,
454,-8.00e-02,1.60e-01,
455,8.00e-02,0.00e+00,
456,8.00e-02,1.60e-01,
457,-8.00e-02,8.00e-02,
458,0.00e+00,1.60e-01,
459,-8.00e-02,0.00e+00,
460,-8.00e-02,1.60e-01,
461,0.00e+00,0.00e+00,
462,-8.00e-02,1.60e-01,
463,0.00e+00,0.00e+00,
464,0.00e+00,1.60e-01,
465,-8.00e-02,0.00e+00,
466,0.00e+00,0.00e+00,
467,-1.60e-01,1.60e-01,
468,0.00e+00,1.60e-01,
469,-1.60e-01,0.00e+00,
470,0.00e+00,1.60e-01,
471,-1.60e-01,0.00e+00,
472,0.00e+00,1.60e-01,
473,-1.60e-01,0.00e+00,
474,-8.00e-02,1.60e-01,
475,0.00e+00,0.00e+00,
476,-8.00e-02,1.60e-01,
477,0.00e+00,0.00e+00,
478,0.00e+00,1.60e-01,
479,-8.00e-02,0.00e+00,
480,-8.00e-02,1.60e-01,
481,0.00e+00,0.00e+00,
482,-8.00e-02,1.60e-01,
483,8.00e-02,0.00e+00,
484,8.00e-02,1.60e-01,
485,-8.00e-02,0.00e+00,
486,0.00e+00,1.60e-01,
487,8.00e-02,0.00e+00,
488,0.00e+00,1.60e-01,
489,8.00e-02,0.00e+00,
490,0.00e+00,1.60e-01,
491,1.60e-01,0.00e+00,
492,0.00e+00,1.60e-01,
493,1.60e-01,0.00e+00,
494,1.60e-01,1.60e-01,
495,8.00e-02,0.00e+00,
496,8.00e-02,1.60e-01,
497,2.40e-01,0.00e+00,
498,2.40e-01,1.60e-01,
499,8.00e-02,0.00e+00,
500,1.60e-01,1.60e-01,
501,3.20e-01,0.00e+00,
502,3.20e-01,1.60e-01,
503,1.60e-01,0.00e+00,
504,2.40e-01,1.60e-01,
505,4.00e-01,0.00e+00,
506,4.00e-01,0.00e+00,
507,2.40e-01,1.60e-01,
508,3.20e-01,0.00e+00,
509,5.60e-01,2.40e-01,
510,4.00e-01,1.60e-01,
511,5.60e-01,0.00e+00,
512,4.80e-01,1.60e-01,
513,6.40e-01,0.00e+00,
514,6.40e-01,1.60e-01,
515,4.80e-01,0.00e+00,
516,5.60e-01,1.60e-01,
517,7.20e-01,0.00e+00,
518,7.20e-01,0.00e+00,
519,5.60e-01,2.40e-01,
520,6.40e-01,2.40e-01,
521,8.00e-01,0.00e+00,
522,7.20e-01,8.00e-02,
523,8.80e-01,5.04e+00,
524,8.80e-01,5.04e+00,
525,7.20e-01,4.96e+00,
526,8.00e-01,5.04e+00,
527,9.60e-01,4.96e+00,
528,8.80e-01,5.04e+00,
529,1.04e+00,4.88e+00,
530,9.60e-01,4.96e+00,
531,1.12e+00,5.04e+00,
532,1.12e+00,5.04e+00,
533,9.60e-01,4.88e+00,
534,1.04e+00,5.04e+00,
535,1.20e+00,4.88e+00,
536,1.12e+00,5.04e+00,
537,1.28e+00,4.88e+00,
538,1.20e+00,4.88e+00,
539,1.36e+00,5.12e+00,
540,1.20e+00,4.88e+00,
541,1.44e+00,5.12e+00,
542,1.36e+00,4.88e+00,
543,1.60e+00,5.20e+00,
544,1.44e+00,4.88e+00,
545,1.60e+00,5.12e+00,
546,1.52e+00,4.88e+00,
547,1.68e+00,5.20e+00,
548,1.60e+00,5.12e+00,
549,1.76e+00,4.88e+00,
550,1.60e+00,4.88e+00,
551,1.84e+00,5.20e+00,
552,1.68e+00,5.20e+00,
553,1.92e+00,4.88e+00,
554,1.92e+00,4.88e+00,
555,1.76e+00,5.20e+00,
556,1.84e+00,5.20e+00,
557,2.00e+00,4.88e+00,
558,2.08e+00,4.96e+00,
559,1.92e+00,5.20e+00,
560,2.00e+00,5.20e+00,
561,2.16e+00,4.96e+00,
562,2.08e+00,5.12e+00,
563,2.24e+00,5.20e+00,
564,2.16e+00,5.20e+00,
565,2.32e+00,4.96e+00,
566,2.24e+00,5.12e+00,
567,2.48e+00,5.20e+00,
568,2.32e+00,5.12e+00,
569,2.48e+00,5.20e+00,
570,2.56e+00,5.12e+00,
571,2.40e+00,5.20e+00,
572,2.48e+00,5.12e+00,
573,2.64e+00,5.20e+00,
574,2.56e+00,5.12e+00,
575,2.72e+00,5.20e+00,
576,2.64e+00,5.12e+00,
577,2.80e+00,5.20e+00,
578,2.72e+00,5.20e+00,
579,2.88e+00,4.96e+00,
580,2.80e+00,4.96e+00,
581,2.96e+00,5.20e+00,
582,2.80e+00,5.20e+00,
583,3.04e+00,4.96e+00,
584,2.88e+00,5.20e+00,
585,3.12e+00,4.96e+00,
586,2.96e+00,5.20e+00,
587,3.20e+00,4.96e+00,
588,3.04e+00,4.96e+00,
589,3.20e+00,5.20e+00,
590,3.12e+00,5.20e+00,
591,3.28e+00,4.96e+00,
592,3.20e+00,5.20e+00,
593,3.44e+00,4.96e+00,
594,3.28e+00,5.20e+00,
595,3.52e+00,4.88e+00,
596,3.36e+00,5.20e+00,
597,3.60e+00,4.88e+00,
598,3.60e+00,5.20e+00,
599,3.44e+00,4.88e+00,
600,3.52e+00,4.88e+00,
601,3.68e+00,5.20e+00,
602,3.60e+00,4.88e+00,
603,3.76e+00,5.20e+00,
604,3.60e+00,5.20e+00,
605,3.84e+00,4.88e+00,
606,3.84e+00,4.88e+00,
607,3.68e+00,5.20e+00,
608,3.76e+00,4.88e+00,
609,3.92e+00,5.20e+00,
610,3.76e+00,4.88e+00,
611,4.00e+00,5.20e+00,
612,3.84e+00,5.20e+00,
613,4.08e+00,4.88e+00,
614,4.08e+00,4.88e+00,
615,3.92e+00,5.20e+00,
616,4.00e+00,4.88e+00,
617,4.16e+00,5.20e+00,
618,4.00e+00,4.88e+00,
619,4.24e+00,5.12e+00,
620,4.24e+00,4.88e+00,
621,4.08e+00,5.12e+00,
622,4.24e+00,4.88e+00,
623,4.40e+00,5.20e+00,
624,4.24e+00,4.88e+00,
625,4.40e+00,5.12e+00,
626,4.32e+00,4.88e+00,
627,4.48e+00,5.20e+00,
628,4.32e+00,4.88e+00,
629,4.48e+00,5.12e+00,
630,4.40e+00,4.88e+00,
631,4.56e+00,5.12e+00,
632,4.56e+00,4.88e+00,
633,4.40e+00,5.12e+00,
634,4.48e+00,5.04e+00,
635,4.64e+00,4.88e+00,
636,4.64e+00,5.04e+00,
637,4.48e+00,4.88e+00,
638,4.56e+00,4.88e+00,
639,4.72e+00,5.04e+00,
640,4.56e+00,5.04e+00,
641,4.72e+00,4.88e+00,
642,4.56e+00,5.04e+00,
643,4.80e+00,4.88e+00,
644,4.64e+00,5.04e+00,
645,4.80e+00,4.88e+00,
646,4.80e+00,5.04e+00,
647,4.64e+00,4.88e+00,
648,4.64e+00,5.04e+00,
649,4.80e+00,4.88e+00,
650,4.72e+00,4.88e+00,
651,4.88e+00,5.12e+00,
652,4.88e+00,5.04e+00,
653,4.72e+00,4.96e+00,
654,4.72e+00,5.04e+00,
655,4.88e+00,4.96e+00,
656,4.88e+00,5.04e+00,
657,4.72e+00,4.88e+00,
658,4.88e+00,5.04e+00,
659,4.80e+00,4.88e+00,
660,4.80e+00,5.04e+00,
661,4.96e+00,4.88e+00,
662,4.96e+00,5.04e+00,
663,4.80e+00,4.88e+00,
664,4.96e+00,5.04e+00,
665,4.88e+00,4.88e+00,
666,4.96e+00,5.04e+00,
667,4.88e+00,4.88e+00,
668,4.96e+00,5.04e+00,
669,4.88e+00,4.88e+00,
670,4.88e+00,4.88e+00,
671,4.96e+00,5.12e+00,
672,4.96e+00,5.04e+00,
673,4.88e+00,4.88e+00,
674,4.96e+00,5.04e+00,
675,4.88e+00,4.88e+00,
676,4.96e+00,5.04e+00,
677,4.80e+00,4.88e+00,
678,4.96e+00,4.88e+00,
679,4.72e+00,5.12e+00,
680,4.88e+00,5.04e+00,
681,4.72e+00,4.88e+00,
682,4.72e+00,4.88e+00,
683,4.88e+00,5.12e+00,
684,4.88e+00,5.04e+00,
685,4.72e+00,4.96e+00,
686,4.88e+00,5.04e+00,
687,4.72e+00,4.88e+00,
688,4.88e+00,4.96e+00,
689,4.72e+00,5.12e+00,
690,4.80e+00,5.04e+00,
691,4.64e+00,4.96e+00,
692,4.64e+00,5.04e+00,
693,4.80e+00,4.96e+00,
694,4.64e+00,5.04e+00,
695,4.80e+00,4.88e+00,
696,4.72e+00,5.04e+00,
697,4.56e+00,4.88e+00,
698,4.56e+00,5.04e+00,
699,4.72e+00,4.88e+00,
700,4.72e+00,5.04e+00,
701,4.48e+00,4.88e+00,
702,4.48e+00,5.04e+00,
703,4.64e+00,4.88e+00,
704,4.64e+00,5.04e+00,
705,4.40e+00,4.88e+00,
706,4.56e+00,5.04e+00,
707,4.40e+00,4.88e+00,
708,4.56e+00,4.88e+00,
709,4.32e+00,5.12e+00,
710,4.48e+00,5.04e+00,
711,4.32e+00,4.88e+00,
712,4.48e+00,5.12e+00,
713,4.24e+00,4.88e+00,
714,4.16e+00,5.12e+00,
715,4.40e+00,4.88e+00,
716,4.40e+00,4.88e+00,
717,4.08e+00,5.04e+00,
718,4.24e+00,5.04e+00,
719,4.08e+00,4.88e+00,
720,4.24e+00,5.04e+00,
721,4.00e+00,4.88e+00,
722,4.16e+00,5.04e+00,
723,3.92e+00,4.88e+00,
724,4.08e+00,5.04e+00,
725,3.92e+00,4.88e+00,
726,4.00e+00,5.04e+00,
727,3.84e+00,4.88e+00,
728,4.00e+00,5.04e+00,
729,3.76e+00,4.88e+00,
730,3.92e+00,5.04e+00,
731,3.68e+00,4.96e+00,
732,3.84e+00,5.04e+00,
733,3.68e+00,4.88e+00,
734,3.76e+00,4.96e+00,
735,3.60e+00,5.04e+00,
736,3.76e+00,5.04e+00,
737,3.52e+00,4.88e+00,
738,3.52e+00,5.04e+00,
739,3.68e+00,4.88e+00,
740,3.60e+00,5.04e+00,
741,3.44e+00,4.88e+00,
742,3.52e+00,5.04e+00,
743,3.36e+00,4.88e+00,
744,3.44e+00,5.04e+00,
745,3.28e+00,4.88e+00,
746,3.36e+00,4.88e+00,
747,3.12e+00,5.04e+00,
748,3.28e+00,5.04e+00,
749,3.04e+00,4.88e+00,
750,3.20e+00,5.04e+00,
751,3.04e+00,4.88e+00,
752,3.12e+00,5.04e+00,
753,2.96e+00,4.88e+00,
754,3.04e+00,5.04e+00,
755,2.88e+00,4.88e+00,
756,2.96e+00,4.88e+00,
757,2.80e+00,5.12e+00,
758,2.88e+00,5.04e+00,
759,2.72e+00,4.88e+00,
760,2.88e+00,4.88e+00,
761,2.64e+00,5.12e+00,
762,2.80e+00,5.04e+00,
763,2.56e+00,4.88e+00,
764,2.72e+00,5.04e+00,
765,2.48e+00,4.88e+00,
766,2.64e+00,4.88e+00,
767,2.48e+00,5.12e+00,
768,2.40e+00,5.12e+00,
769,2.56e+00,4.88e+00,
770,2.48e+00,5.04e+00,
771,2.32e+00,4.88e+00,
772,2.32e+00,5.04e+00,
773,2.16e+00,4.88e+00,
774,2.24e+00,5.04e+00,
775,2.08e+00,4.88e+00,
776,2.16e+00,5.04e+00,
777,2.00e+00,4.88e+00,
778,2.16e+00,5.04e+00,
779,1.92e+00,4.88e+00,
780,2.08e+00,5.04e+00,
781,1.84e+00,4.88e+00,
782,1.84e+00,4.88e+00,
783,2.00e+00,5.04e+00,
784,1.92e+00,5.04e+00,
785,1.76e+00,4.88e+00,
786,1.84e+00,5.04e+00,
787,1.68e+00,4.88e+00,
788,1.76e+00,4.88e+00,
789,1.60e+00,5.04e+00,
790,1.68e+00,5.04e+00,
791,1.52e+00,4.88e+00,
792,1.60e+00,4.88e+00,
793,1.44e+00,5.12e+00,
794,1.60e+00,5.04e+00,
795,1.44e+00,4.88e+00,
796,1.52e+00,4.88e+00,
797,1.28e+00,5.12e+00,
798,1.36e+00,4.88e+00,
799,1.20e+00,5.12e+00,
800,1.28e+00,5.04e+00,
801,1.12e+00,4.88e+00,
802,1.20e+00,5.04e+00,
803,1.04e+00,4.88e+00,
804,1.20e+00,5.04e+00,
805,1.04e+00,4.88e+00,
806,1.12e+00,5.04e+00,
807,9.60e-01,4.88e+00,
808,1.04e+00,5.04e+00,
809,8.80e-01,4.88e+00,
810,9.60e-01,5.04e+00,
811,8.00e-01,4.88e+00,
812,8.00e-01,5.04e+00,
813,9.60e-01,4.88e+00,
814,8.80e-01,5.04e+00,
815,7.20e-01,4.88e+00,
816,8.00e-01,5.04e+00,
817,6.40e-01,4.88e+00,
818,8.00e-01,5.04e+00,
819,6.40e-01,4.88e+00,
820,7.20e-01,5.04e+00,
821,5.60e-01,4.88e+00,
822,5.60e-01,5.04e+00,
823,6.40e-01,4.88e+00,
824,6.40e-01,5.04e+00,
825,4.80e-01,4.88e+00,
826,5.60e-01,5.04e+00,
827,4.00e-01,4.88e+00,
828,4.00e-01,5.04e+00,
829,5.60e-01,4.88e+00,
830,4.00e-01,5.04e+00,
831,2.40e-01,4.88e+00,
832,2.40e-01,5.12e+00,
833,4.00e-01,8.00e-02,
834,3.20e-01,2.40e-01,
835,1.60e-01,8.00e-02,
836,1.60e-01,8.00e-02,
837,3.20e-01,2.40e-01,
838,2.40e-01,0.00e+00,
839,1.60e-01,2.40e-01,
840,2.40e-01,2.40e-01,
841,8.00e-02,0.00e+00,
842,2.40e-01,1.60e-01,
843,8.00e-02,0.00e+00,
844,1.60e-01,2.40e-01,
845,0.00e+00,0.00e+00,
846,1.60e-01,1.60e-01,
847,0.00e+00,0.00e+00,
848,0.00e+00,1.60e-01,
849,1.60e-01,0.00e+00,
850,8.00e-02,1.60e-01,
851,-8.00e-02,0.00e+00,
852,8.00e-02,1.60e-01,
853,-8.00e-02,0.00e+00,
854,-8.00e-02,1.60e-01,
855,8.00e-02,0.00e+00,
856,8.00e-02,1.60e-01,
857,-8.00e-02,0.00e+00,
858,0.00e+00,1.60e-01,
859,-8.00e-02,0.00e+00,
860,0.00e+00,0.00e+00,
861,-8.00e-02,2.40e-01,
862,-8.00e-02,0.00e+00,
863,0.00e+00,1.60e-01,
864,-8.00e-02,1.60e-01,
865,0.00e+00,0.00e+00,
866,-8.00e-02,1.60e-01,
867,0.00e+00,0.00e+00,
868,0.00e+00,1.60e-01,
