project/matlab/project_exp3/85 kHz/NewFile1.csv

X,CH1,CH2,Start,Increment,
Sequence,Volt,Volt,6.900000e-04,5.000000e-08
0,8.00e-02,5.04e+00,
1,0.00e+00,4.88e+00,
2,0.00e+00,5.04e+00,
3,8.00e-02,4.96e+00,
4,8.00e-02,5.12e+00,
5,-8.00e-02,4.88e+00,
6,0.00e+00,5.04e+00,
7,-8.00e-02,4.08e+00,
8,0.00e+00,4.00e+00,
9,-8.00e-02,2.40e+00,
10,-8.00e-02,2.40e+00,
11,0.00e+00,8.80e-01,
12,-8.00e-02,8.80e-01,
13,0.00e+00,2.40e-01,
14,-8.00e-02,2.40e-01,
15,0.00e+00,1.60e-01,
16,-8.00e-02,2.40e-01,
17,0.00e+00,8.00e-02,
18,-8.00e-02,2.40e-01,
19,8.00e-02,1.60e-01,
20,8.00e-02,2.40e-01,
21,-8.00e-02,1.60e-01,
22,0.00e+00,2.40e-01,
23,8.00e-02,1.60e-01,
24,0.00e+00,2.40e-01,
25,1.60e-01,8.00e-02,
26,8.00e-02,2.40e-01,
27,2.40e-01,8.00e-02,
28,8.00e-02,2.40e-01,
29,2.40e-01,1.60e-01,
30,1.60e-01,2.40e-01,
31,3.20e-01,8.00e-02,
32,2.40e-01,2.40e-01,
33,4.00e-01,1.60e-01,
34,3.20e-01,2.40e-01,
35,4.80e-01,1.60e-01,
36,4.80e-01,2.40e-01,
37,6.40e-01,1.60e-01,
38,6.40e-01,8.00e-02,
39,5.60e-01,2.40e-01,
40,6.40e-01,2.40e-01,
41,7.20e-01,8.00e-02,
42,7.20e-01,2.40e-01,
43,8.80e-01,8.00e-02,
44,8.00e-01,2.40e-01,
45,9.60e-01,8.00e-02,
46,8.80e-01,2.40e-01,
47,1.04e+00,8.00e-02,
48,9.60e-01,2.40e-01,
49,1.20e+00,1.60e-01,
50,1.12e+00,1.60e-01,
51,1.28e+00,2.40e-01,
52,1.20e+00,2.40e-01,
53,1.36e+00,1.60e-01,
54,1.36e+00,2.40e-01,
55,1.52e+00,4.00e-01,
56,1.52e+00,3.20e-01,
57,1.68e+00,5.60e-01,
58,1.60e+00,4.80e-01,
59,1.84e+00,9.60e-01,
60,1.76e+00,9.60e-01,
61,1.92e+00,1.52e+00,
62,1.84e+00,1.52e+00,
63,2.08e+00,2.08e+00,
64,2.00e+00,2.08e+00,
65,2.16e+00,2.56e+00,
66,2.16e+00,2.56e+00,
67,2.32e+00,3.12e+00,
68,2.24e+00,3.04e+00,
69,2.40e+00,3.60e+00,
70,2.40e+00,3.44e+00,
71,2.64e+00,3.92e+00,
72,2.56e+00,3.84e+00,
73,2.72e+00,4.32e+00,
74,2.64e+00,4.16e+00,
75,2.88e+00,4.56e+00,
76,2.80e+00,4.48e+00,
77,2.96e+00,4.80e+00,
78,2.88e+00,4.64e+00,
79,3.12e+00,4.96e+00,
80,3.04e+00,4.80e+00,
81,3.20e+00,5.04e+00,
82,3.20e+00,4.88e+00,
83,3.36e+00,5.04e+00,
84,3.36e+00,5.04e+00,
85,3.52e+00,4.88e+00,
86,3.44e+00,4.88e+00,
87,3.68e+00,5.12e+00,
88,3.60e+00,5.04e+00,
89,3.76e+00,4.88e+00,
90,3.68e+00,5.04e+00,
91,3.84e+00,4.88e+00,
92,3.76e+00,5.04e+00,
93,4.00e+00,4.88e+00,
94,3.84e+00,4.88e+00,
95,4.08e+00,5.12e+00,
96,3.92e+00,5.04e+00,
97,4.16e+00,4.88e+00,
98,4.08e+00,4.88e+00,
99,4.24e+00,5.04e+00,
100,4.16e+00,4.88e+00,
101,4.32e+00,5.04e+00,
102,4.32e+00,4.88e+00,
103,4.48e+00,5.12e+00,
104,4.40e+00,5.04e+00,
105,4.56e+00,4.88e+00,
106,4.48e+00,5.04e+00,
107,4.64e+00,4.88e+00,
108,4.56e+00,5.04e+00,
109,4.72e+00,4.88e+00,
110,4.64e+00,5.12e+00,
111,4.80e+00,4.88e+00,
112,4.80e+00,5.04e+00,
113,4.64e+00,4.88e+00,
114,4.72e+00,5.04e+00,
115,4.88e+00,4.88e+00,
116,4.88e+00,4.96e+00,
117,4.80e+00,5.04e+00,
118,4.80e+00,4.88e+00,
119,4.96e+00,5.12e+00,
120,4.96e+00,5.04e+00,
121,4.80e+00,4.88e+00,
122,4.96e+00,5.04e+00,
123,4.88e+00,4.88e+00,
124,4.88e+00,5.04e+00,
125,5.04e+00,4.88e+00,
126,4.88e+00,4.88e+00,
127,5.04e+00,5.12e+00,
128,4.88e+00,5.04e+00,
129,5.04e+00,4.88e+00,
130,5.04e+00,5.04e+00,
131,4.88e+00,4.88e+00,
132,4.88e+00,5.04e+00,
133,5.04e+00,4.88e+00,
134,5.04e+00,4.88e+00,
135,4.88e+00,5.12e+00,
136,4.96e+00,5.04e+00,
137,4.88e+00,4.88e+00,
138,4.96e+00,5.04e+00,
139,4.80e+00,4.96e+00,
140,4.80e+00,5.04e+00,
141,4.96e+00,4.88e+00,
142,4.88e+00,4.88e+00,
143,4.72e+00,5.12e+00,
144,4.88e+00,4.88e+00,
145,4.72e+00,5.04e+00,
146,4.80e+00,5.04e+00,
147,4.64e+00,4.88e+00,
148,4.72e+00,4.96e+00,
149,4.56e+00,5.04e+00,
150,4.64e+00,4.88e+00,
151,4.48e+00,5.12e+00,
152,4.64e+00,5.04e+00,
153,4.48e+00,4.96e+00,
154,4.40e+00,4.96e+00,
155,4.56e+00,5.04e+00,
156,4.32e+00,5.04e+00,
157,4.48e+00,4.88e+00,
158,4.32e+00,5.12e+00,
159,4.16e+00,4.88e+00,
160,4.24e+00,5.04e+00,
161,4.08e+00,4.96e+00,
162,4.16e+00,5.04e+00,
163,3.92e+00,4.96e+00,
164,4.00e+00,5.04e+00,
165,3.84e+00,4.88e+00,
166,3.92e+00,4.88e+00,
167,3.76e+00,5.12e+00,
168,3.84e+00,5.04e+00,
169,3.60e+00,4.88e+00,
170,3.68e+00,5.04e+00,
171,3.52e+00,4.88e+00,
172,3.60e+00,5.04e+00,
173,3.44e+00,4.96e+00,
174,3.44e+00,4.88e+00,
175,3.20e+00,5.12e+00,
176,3.28e+00,5.04e+00,
177,3.12e+00,4.88e+00,
178,3.20e+00,5.04e+00,
179,2.96e+00,4.88e+00,
180,3.04e+00,5.04e+00,
181,2.88e+00,4.88e+00,
182,2.96e+00,5.12e+00,
183,2.72e+00,4.88e+00,
184,2.80e+00,5.04e+00,
185,2.64e+00,4.96e+00,
186,2.72e+00,5.04e+00,
187,2.48e+00,4.88e+00,
188,2.56e+00,5.04e+00,
189,2.40e+00,4.96e+00,
190,2.40e+00,5.12e+00,
191,2.16e+00,4.88e+00,
192,2.24e+00,5.04e+00,
193,2.08e+00,4.96e+00,
194,2.08e+00,5.04e+00,
195,1.92e+00,4.96e+00,
196,2.00e+00,5.04e+00,
197,1.84e+00,4.88e+00,
198,1.92e+00,4.96e+00,
199,1.68e+00,5.12e+00,
200,1.76e+00,5.04e+00,
201,1.60e+00,4.88e+00,
202,1.60e+00,5.04e+00,
203,1.44e+00,4.96e+00,
204,1.44e+00,5.04e+00,
205,1.28e+00,4.96e+00,
206,1.36e+00,4.96e+00,
207,1.20e+00,5.12e+00,
208,1.20e+00,5.04e+00,
209,1.04e+00,4.96e+00,
210,1.12e+00,5.04e+00,
211,9.60e-01,4.88e+00,
212,1.04e+00,5.04e+00,
213,8.80e-01,4.96e+00,
214,9.60e-01,5.12e+00,
215,7.20e-01,4.88e+00,
216,8.00e-01,5.04e+00,
217,6.40e-01,4.96e+00,
218,7.20e-01,4.96e+00,
219,5.60e-01,5.04e+00,
220,6.40e-01,5.04e+00,
221,4.80e-01,4.88e+00,
222,4.80e-01,5.12e+00,
223,4.00e-01,4.88e+00,
224,4.00e-01,5.04e+00,
225,2.40e-01,4.88e+00,
226,3.20e-01,5.04e+00,
227,2.40e-01,4.96e+00,
228,3.20e-01,4.96e+00,
229,1.60e-01,5.04e+00,
230,2.40e-01,4.96e+00,
231,8.00e-02,5.12e+00,
232,8.00e-02,5.04e+00,
233,1.60e-01,4.96e+00,
234,1.60e-01,5.04e+00,
235,0.00e+00,4.88e+00,
236,0.00e+00,5.04e+00,
237,8.00e-02,4.96e+00,
238,8.00e-02,4.96e+00,
239,-8.00e-02,5.20e+00,
240,-8.00e-02,5.04e+00,
241,8.00e-02,4.88e+00,
242,0.00e+00,4.88e+00,
243,-8.00e-02,3.60e+00,
244,0.00e+00,3.60e+00,
245,-8.00e-02,1.84e+00,
246,-8.00e-02,1.84e+00,
247,0.00e+00,5.60e-01,
248,-8.00e-02,6.40e-01,
249,0.00e+00,2.40e-01,
250,-8.00e-02,2.40e-01,
251,0.00e+00,1.60e-01,
252,-8.00e-02,2.40e-01,
253,8.00e-02,1.60e-01,
254,-8.00e-02,2.40e-01,
255,8.00e-02,1.60e-01,
256,0.00e+00,2.40e-01,
257,8.00e-02,1.60e-01,
258,0.00e+00,2.40e-01,
259,1.60e-01,8.00e-02,
260,1.60e-01,2.40e-01,
261,0.00e+00,8.00e-02,
262,8.00e-02,2.40e-01,
263,2.40e-01,8.00e-02,
264,2.40e-01,2.40e-01,
265,1.60e-01,1.60e-01,
266,1.60e-01,2.40e-01,
267,3.20e-01,1.60e-01,
268,2.40e-01,2.40e-01,
269,4.00e-01,1.60e-01,
270,3.20e-01,2.40e-01,
271,4.80e-01,8.00e-02,
272,4.80e-01,2.40e-01,
273,6.40e-01,1.60e-01,
274,5.60e-01,2.40e-01,
275,7.20e-01,8.00e-02,
276,6.40e-01,2.40e-01,
277,8.00e-01,8.00e-02,
278,7.20e-01,2.40e-01,
279,8.80e-01,1.60e-01,
280,8.00e-01,2.40e-01,
281,9.60e-01,1.60e-01,
282,8.80e-01,2.40e-01,
283,1.12e+00,1.60e-01,
284,1.04e+00,2.40e-01,
285,1.20e+00,1.60e-01,
286,1.12e+00,2.40e-01,
287,1.28e+00,1.60e-01,
288,1.20e+00,4.00e-01,
289,1.44e+00,1.60e-01,
290,1.36e+00,2.40e-01,
291,1.52e+00,4.00e-01,
292,1.52e+00,3.20e-01,
293,1.68e+00,6.40e-01,
294,1.68e+00,6.40e-01,
295,1.84e+00,1.20e+00,
296,1.76e+00,1.20e+00,
297,2.00e+00,1.76e+00,
298,1.92e+00,1.68e+00,
299,2.08e+00,2.24e+00,
300,2.00e+00,2.24e+00,
301,2.24e+00,2.80e+00,
302,2.16e+00,2.80e+00,
303,2.32e+00,3.20e+00,
304,2.24e+00,3.20e+00,
305,2.48e+00,3.68e+00,
306,2.48e+00,3.60e+00,
307,2.64e+00,4.00e+00,
308,2.56e+00,4.00e+00,
309,2.80e+00,4.40e+00,
310,2.72e+00,4.32e+00,
311,2.88e+00,4.64e+00,
312,2.80e+00,4.56e+00,
313,3.04e+00,4.88e+00,
314,2.96e+00,4.72e+00,
315,3.12e+00,4.96e+00,
316,3.04e+00,4.88e+00,
317,3.28e+00,5.04e+00,
318,3.20e+00,5.04e+00,
319,3.36e+00,4.88e+00,
320,3.36e+00,5.04e+00,
321,3.52e+00,4.88e+00,
322,3.44e+00,5.04e+00,
323,3.68e+00,4.88e+00,
324,3.60e+00,5.04e+00,
325,3.76e+00,4.88e+00,
326,3.68e+00,4.88e+00,
327,3.92e+00,5.12e+00,
328,3.84e+00,4.96e+00,
329,4.00e+00,5.04e+00,
330,3.92e+00,5.04e+00,
331,4.08e+00,4.88e+00,
332,4.00e+00,5.04e+00,
333,4.16e+00,4.88e+00,
334,4.24e+00,5.04e+00,
335,4.08e+00,4.88e+00,
336,4.16e+00,5.04e+00,
337,4.40e+00,4.88e+00,
338,4.32e+00,5.04e+00,
339,4.48e+00,4.88e+00,
340,4.40e+00,5.04e+00,
341,4.64e+00,4.88e+00,
342,4.48e+00,5.04e+00,
343,4.64e+00,4.88e+00,
344,4.56e+00,5.04e+00,
345,4.72e+00,4.88e+00,
346,4.64e+00,5.04e+00,
347,4.80e+00,4.88e+00,
348,4.64e+00,5.04e+00,
349,4.88e+00,4.88e+00,
350,4.72e+00,5.04e+00,
351,4.88e+00,4.88e+00,
352,4.88e+00,5.04e+00,
353,4.80e+00,4.88e+00,
354,4.80e+00,4.96e+00,
355,4.96e+00,5.04e+00,
356,4.88e+00,5.04e+00,
357,4.96e+00,4.88e+00,
358,4.88e+00,4.88e+00,
359,5.04e+00,5.04e+00,
360,5.04e+00,5.04e+00,
361,4.88e+00,4.88e+00,
362,5.04e+00,5.04e+00,
363,4.88e+00,4.88e+00,
364,5.04e+00,5.04e+00,
365,4.88e+00,4.88e+00,
366,5.04e+00,5.12e+00,
367,4.88e+00,4.88e+00,
368,4.88e+00,5.04e+00,
369,5.04e+00,4.88e+00,
370,4.96e+00,5.04e+00,
371,4.88e+00,4.88e+00,
372,4.96e+00,4.96e+00,
373,4.80e+00,5.04e+00,
374,4.80e+00,4.88e+00,
375,4.96e+00,5.12e+00,
376,4.80e+00,5.04e+00,
377,4.88e+00,4.88e+00,
378,4.88e+00,5.04e+00,
379,4.72e+00,4.88e+00,
380,4.80e+00,5.04e+00,
381,4.64e+00,4.88e+00,
382,4.64e+00,5.04e+00,
383,4.80e+00,4.88e+00,
384,4.56e+00,4.96e+00,
385,4.72e+00,5.04e+00,
386,4.64e+00,5.04e+00,
387,4.48e+00,4.88e+00,
388,4.40e+00,5.04e+00,
389,4.56e+00,4.88e+00,
390,4.48e+00,4.88e+00,
391,4.32e+00,5.12e+00,
392,4.40e+00,5.04e+00,
393,4.24e+00,4.88e+00,
394,4.24e+00,5.04e+00,
395,4.08e+00,4.88e+00,
396,4.16e+00,5.04e+00,
397,4.00e+00,4.88e+00,
398,4.08e+00,5.04e+00,
399,3.92e+00,4.88e+00,
400,4.00e+00,5.04e+00,
401,3.76e+00,4.88e+00,
402,3.84e+00,5.04e+00,
403,3.68e+00,4.88e+00,
404,3.76e+00,4.96e+00,
405,3.60e+00,5.04e+00,
406,3.68e+00,4.96e+00,
407,3.44e+00,5.12e+00,
408,3.60e+00,4.88e+00,
409,3.36e+00,5.04e+00,
410,3.36e+00,4.88e+00,
411,3.20e+00,5.04e+00,
412,3.28e+00,5.04e+00,
413,3.04e+00,4.88e+00,
414,3.12e+00,5.20e+00,
415,2.96e+00,4.88e+00,
416,3.04e+00,5.04e+00,
417,2.80e+00,4.88e+00,
418,2.88e+00,5.04e+00,
419,2.72e+00,4.88e+00,
420,2.72e+00,5.04e+00,
421,2.56e+00,4.88e+00,
422,2.64e+00,4.96e+00,
423,2.48e+00,5.20e+00,
424,2.56e+00,5.04e+00,
425,2.24e+00,4.88e+00,
426,2.32e+00,5.04e+00,
427,2.16e+00,4.88e+00,
428,2.24e+00,5.04e+00,
429,2.00e+00,4.88e+00,
430,2.08e+00,4.88e+00,
431,1.84e+00,5.12e+00,
432,2.00e+00,5.04e+00,
433,1.76e+00,4.96e+00,
434,1.84e+00,5.04e+00,
435,1.68e+00,4.96e+00,
436,1.68e+00,5.04e+00,
437,1.52e+00,4.88e+00,
438,1.60e+00,4.88e+00,
439,1.44e+00,5.12e+00,
440,1.44e+00,5.04e+00,
441,1.20e+00,4.88e+00,
442,1.28e+00,5.04e+00,
443,1.12e+00,4.88e+00,
444,1.20e+00,4.96e+00,
445,1.04e+00,5.04e+00,
446,1.12e+00,4.96e+00,
447,8.80e-01,5.12e+00,
448,9.60e-01,4.96e+00,
449,8.00e-01,5.04e+00,
450,8.80e-01,5.04e+00,
451,7.20e-01,4.96e+00,
452,8.00e-01,4.88e+00,
453,6.40e-01,5.04e+00,
454,7.20e-01,5.12e+00,
455,5.60e-01,4.88e+00,
456,6.40e-01,5.04e+00,
457,4.00e-01,4.88e+00,
458,4.80e-01,5.04e+00,
459,3.20e-01,4.88e+00,
460,4.00e-01,4.88e+00,
461,2.40e-01,5.04e+00,
462,3.20e-01,4.88e+00,
463,1.60e-01,5.12e+00,
464,1.60e-01,5.04e+00,
465,2.40e-01,4.88e+00,
466,2.40e-01,5.04e+00,
467,8.00e-02,4.88e+00,
468,1.60e-01,4.96e+00,
469,0.00e+00,5.04e+00,
470,1.60e-01,5.12e+00,
471,0.00e+00,4.88e+00,
472,8.00e-02,5.04e+00,
473,0.00e+00,4.96e+00,
474,8.00e-02,5.04e+00,
475,-8.00e-02,4.96e+00,
476,-8.00e-02,5.04e+00,
477,0.00e+00,4.56e+00,
478,-8.00e-02,4.48e+00,
479,0.00e+00,2.88e+00,
480,0.00e+00,2.96e+00,
481,-8.00e-02,1.36e+00,
482,-8.00e-02,1.36e+00,
483,0.00e+00,3.20e-01,
484,-8.00e-02,3.20e-01,
485,0.00e+00,1.60e-01,
486,-8.00e-02,2.40e-01,
487,0.00e+00,1.60e-01,
488,-8.00e-02,2.40e-01,
489,8.00e-02,1.60e-01,
490,-8.00e-02,2.40e-01,
491,8.00e-02,1.60e-01,
492,8.00e-02,2.40e-01,
493,0.00e+00,1.60e-01,
494,0.00e+00,2.40e-01,
495,1.60e-01,1.60e-01,
496,8.00e-02,2.40e-01,
497,1.60e-01,1.60e-01,
498,8.00e-02,2.40e-01,
499,2.40e-01,1.60e-01,
500,1.60e-01,2.40e-01,
501,3.20e-01,8.00e-02,
502,2.40e-01,2.40e-01,
503,4.00e-01,8.00e-02,
504,3.20e-01,2.40e-01,
505,4.00e-01,1.60e-01,
506,4.00e-01,2.40e-01,
507,4.80e-01,1.60e-01,
508,4.80e-01,2.40e-01,
509,6.40e-01,1.60e-01,
510,5.60e-01,2.40e-01,
511,7.20e-01,1.60e-01,
512,6.40e-01,2.40e-01,
513,8.00e-01,1.60e-01,
514,7.20e-01,2.40e-01,
515,9.60e-01,1.60e-01,
516,8.80e-01,8.00e-02,
517,1.04e+00,2.40e-01,
518,9.60e-01,2.40e-01,
519,1.12e+00,1.60e-01,
520,1.04e+00,2.40e-01,
521,1.20e+00,1.60e-01,
522,1.20e+00,2.40e-01,
523,1.36e+00,1.60e-01,
524,1.28e+00,1.60e-01,
525,1.44e+00,3.20e-01,
526,1.44e+00,3.20e-01,
527,1.60e+00,4.80e-01,
528,1.60e+00,4.00e-01,
529,1.76e+00,8.80e-01,
530,1.68e+00,8.00e-01,
531,1.92e+00,1.36e+00,
532,1.84e+00,1.36e+00,
533,2.00e+00,1.92e+00,
534,1.92e+00,1.92e+00,
535,2.16e+00,2.48e+00,
536,2.08e+00,2.48e+00,
537,2.24e+00,2.96e+00,
538,2.24e+00,2.88e+00,
539,2.40e+00,3.44e+00,
540,2.40e+00,3.36e+00,
541,2.56e+00,3.84e+00,
542,2.48e+00,3.68e+00,
543,2.72e+00,4.16e+00,
544,2.64e+00,4.00e+00,
545,2.80e+00,4.48e+00,
546,2.72e+00,4.40e+00,
547,2.96e+00,4.72e+00,
548,2.88e+00,4.64e+00,
549,3.04e+00,4.88e+00,
550,2.96e+00,4.80e+00,
551,3.20e+00,5.04e+00,
552,3.12e+00,5.04e+00,
553,3.28e+00,4.88e+00,
554,3.28e+00,5.04e+00,
555,3.44e+00,4.88e+00,
556,3.44e+00,5.04e+00,
557,3.60e+00,4.88e+00,
558,3.52e+00,4.88e+00,
559,3.76e+00,5.20e+00,
560,3.60e+00,4.88e+00,
561,3.84e+00,5.04e+00,
562,3.76e+00,5.04e+00,
563,3.92e+00,4.88e+00,
564,3.84e+00,5.04e+00,
565,4.08e+00,4.88e+00,
566,4.00e+00,5.04e+00,
567,4.16e+00,4.88e+00,
568,4.08e+00,5.04e+00,
569,4.24e+00,4.88e+00,
570,4.16e+00,4.88e+00,
571,4.32e+00,5.04e+00,
572,4.32e+00,4.96e+00,
573,4.48e+00,5.04e+00,
574,4.40e+00,5.04e+00,
575,4.56e+00,4.88e+00,
576,4.48e+00,5.04e+00,
577,4.64e+00,4.88e+00,
578,4.48e+00,5.04e+00,
579,4.72e+00,4.88e+00,
580,4.56e+00,4.96e+00,
581,4.72e+00,5.04e+00,
582,4.64e+00,4.88e+00,
583,4.80e+00,5.12e+00,
584,4.72e+00,5.04e+00,
585,4.88e+00,4.88e+00,
586,4.72e+00,5.04e+00,
587,4.88e+00,4.88e+00,
588,4.80e+00,4.88e+00,
589,4.96e+00,5.04e+00,
590,4.80e+00,4.88e+00,
591,4.96e+00,5.12e+00,
592,4.88e+00,5.04e+00,
593,4.96e+00,4.88e+00,
594,4.88e+00,4.88e+00,
595,5.04e+00,5.04e+00,
596,4.88e+00,5.04e+00,
597,5.04e+00,4.88e+00,
598,4.88e+00,5.12e+00,
599,5.04e+00,4.88e+00,
600,5.04e+00,5.04e+00,
601,4.88e+00,4.88e+00,
602,5.04e+00,4.96e+00,
603,4.88e+00,5.04e+00,
604,5.04e+00,5.04e+00,
605,4.88e+00,4.88e+00,
606,4.88e+00,4.88e+00,
607,5.04e+00,5.12e+00,
608,4.96e+00,5.04e+00,
609,4.80e+00,4.88e+00,
610,4.80e+00,5.04e+00,
611,4.96e+00,4.88e+00,
612,4.88e+00,5.04e+00,
613,4.72e+00,4.96e+00,
614,4.88e+00,4.96e+00,
615,4.72e+00,5.12e+00,
616,4.80e+00,5.04e+00,
617,4.64e+00,4.96e+00,
618,4.72e+00,5.04e+00,
619,4.56e+00,4.88e+00,
620,4.72e+00,5.04e+00,
621,4.56e+00,4.88e+00,
622,4.64e+00,5.12e+00,
623,4.48e+00,4.88e+00,
624,4.48e+00,5.04e+00,
625,4.40e+00,4.88e+00,
626,4.48e+00,5.04e+00,
627,4.24e+00,4.88e+00,
628,4.32e+00,4.96e+00,
629,4.16e+00,5.04e+00,
630,4.24e+00,5.12e+00,
631,4.08e+00,4.88e+00,
632,4.16e+00,5.04e+00,
633,4.00e+00,4.88e+00,
634,4.08e+00,5.04e+00,
635,3.84e+00,4.96e+00,
636,3.92e+00,5.04e+00,
637,3.76e+00,4.96e+00,
638,3.84e+00,4.88e+00,
639,3.68e+00,5.12e+00,
640,3.76e+00,5.04e+00,
641,3.60e+00,4.88e+00,
642,3.68e+00,5.04e+00,
643,3.44e+00,4.88e+00,
644,3.44e+00,4.96e+00,
645,3.28e+00,5.04e+00,
646,3.36e+00,5.12e+00,
647,3.12e+00,4.88e+00,
648,3.20e+00,4.96e+00,
649,3.04e+00,5.04e+00,
650,3.12e+00,5.04e+00,
651,2.88e+00,4.88e+00,
652,2.96e+00,5.04e+00,
653,2.80e+00,4.88e+00,
654,2.88e+00,4.96e+00,
655,2.64e+00,5.12e+00,
656,2.72e+00,5.04e+00,
657,2.56e+00,4.88e+00,
658,2.56e+00,4.96e+00,
659,2.40e+00,5.04e+00,
660,2.40e+00,5.04e+00,
661,2.24e+00,4.88e+00,
662,2.32e+00,4.96e+00,
663,2.08e+00,5.12e+00,
664,2.16e+00,4.88e+00,
665,1.92e+00,5.04e+00,
666,2.00e+00,5.04e+00,
667,1.84e+00,4.88e+00,
668,1.92e+00,5.04e+00,
669,1.68e+00,4.88e+00,
670,1.76e+00,4.88e+00,
671,1.60e+00,5.12e+00,
672,1.68e+00,5.04e+00,
673,1.52e+00,4.88e+00,
674,1.52e+00,5.04e+00,
675,1.36e+00,4.88e+00,
676,1.36e+00,5.04e+00,
677,1.20e+00,4.88e+00,
678,1.28e+00,4.88e+00,
679,1.12e+00,5.12e+00,
680,1.12e+00,4.88e+00,
681,9.60e-01,5.04e+00,
682,1.04e+00,4.88e+00,
683,8.80e-01,5.04e+00,
684,9.60e-01,5.04e+00,
685,8.00e-01,4.88e+00,
686,8.80e-01,5.12e+00,
687,7.20e-01,4.88e+00,
688,8.00e-01,5.04e+00,
689,6.40e-01,4.88e+00,
690,7.20e-01,5.04e+00,
691,4.80e-01,4.88e+00,
692,6.40e-01,5.04e+00,
693,4.00e-01,4.88e+00,
694,4.80e-01,4.88e+00,
695,3.20e-01,5.12e+00,
696,3.20e-01,5.04e+00,
697,4.00e-01,4.88e+00,
698,3.20e-01,4.96e+00,
699,1.60e-01,5.04e+00,
700,2.40e-01,5.04e+00,
701,8.00e-02,4.88e+00,
702,2.40e-01,4.96e+00,
703,8.00e-02,5.12e+00,
704,1.60e-01,5.04e+00,
705,0.00e+00,4.88e+00,
706,8.00e-02,5.04e+00,
707,0.00e+00,4.88e+00,
708,8.00e-02,4.88e+00,
709,-8.00e-02,5.04e+00,
710,-8.00e-02,4.96e+00,
711,8.00e-02,5.12e+00,
712,0.00e+00,5.04e+00,
713,-8.00e-02,3.92e+00,
714,0.00e+00,3.92e+00,
715,-8.00e-02,2.32e+00,
716,-8.00e-02,2.24e+00,
717,0.00e+00,8.80e-01,
718,0.00e+00,8.00e-01,
719,-8.00e-02,1.60e-01,
720,0.00e+00,2.40e-01,
721,-8.00e-02,1.60e-01,
722,-8.00e-02,2.40e-01,
723,0.00e+00,8.00e-02,
724,-8.00e-02,2.40e-01,
725,8.00e-02,8.00e-02,
726,8.00e-02,1.60e-01,
727,-8.00e-02,2.40e-01,
728,8.00e-02,2.40e-01,
729,0.00e+00,1.60e-01,
730,0.00e+00,2.40e-01,
731,1.60e-01,1.60e-01,
732,1.60e-01,2.40e-01,
733,8.00e-02,1.60e-01,
734,2.40e-01,2.40e-01,
735,8.00e-02,8.00e-02,
736,1.60e-01,2.40e-01,
737,3.20e-01,8.00e-02,
738,2.40e-01,2.40e-01,
739,4.00e-01,8.00e-02,
740,4.00e-01,2.40e-01,
741,4.80e-01,1.60e-01,
742,4.80e-01,2.40e-01,
743,6.40e-01,1.60e-01,
744,5.60e-01,2.40e-01,
745,7.20e-01,8.00e-02,
746,6.40e-01,2.40e-01,
747,8.00e-01,1.60e-01,
748,7.20e-01,2.40e-01,
749,8.80e-01,1.60e-01,
750,8.00e-01,2.40e-01,
751,9.60e-01,8.00e-02,
752,8.80e-01,1.60e-01,
753,1.04e+00,2.40e-01,
754,9.60e-01,2.40e-01,
755,1.20e+00,1.60e-01,
756,1.12e+00,2.40e-01,
757,1.28e+00,1.60e-01,
758,1.20e+00,2.40e-01,
759,1.36e+00,1.60e-01,
760,1.36e+00,1.60e-01,
761,1.60e+00,4.00e-01,
762,1.52e+00,3.20e-01,
763,1.68e+00,4.80e-01,
764,1.60e+00,4.80e-01,
765,1.84e+00,1.04e+00,
766,1.76e+00,1.04e+00,
767,1.92e+00,1.60e+00,
768,1.84e+00,1.60e+00,
769,2.08e+00,2.16e+00,
770,2.00e+00,2.08e+00,
771,2.16e+00,2.56e+00,
772,2.08e+00,2.56e+00,
773,2.32e+00,3.12e+00,
774,2.24e+00,3.12e+00,
775,2.40e+00,3.60e+00,
776,2.40e+00,3.44e+00,
777,2.64e+00,3.92e+00,
778,2.56e+00,3.84e+00,
779,2.72e+00,4.24e+00,
780,2.64e+00,4.24e+00,
781,2.88e+00,4.56e+00,
782,2.80e+00,4.48e+00,
783,2.96e+00,4.80e+00,
784,2.88e+00,4.72e+00,
785,3.12e+00,4.96e+00,
786,3.04e+00,4.88e+00,
787,3.20e+00,5.04e+00,
788,3.12e+00,5.04e+00,
789,3.36e+00,4.88e+00,
790,3.44e+00,5.04e+00,
791,3.28e+00,4.88e+00,
792,3.44e+00,5.04e+00,
793,3.60e+00,4.88e+00,
794,3.52e+00,4.88e+00,
795,3.76e+00,5.04e+00,
796,3.68e+00,5.04e+00,
797,3.84e+00,4.88e+00,
798,3.76e+00,5.04e+00,
799,4.00e+00,4.88e+00,
800,3.92e+00,5.04e+00,
801,4.08e+00,4.88e+00,
802,4.00e+00,5.04e+00,
803,4.16e+00,4.88e+00,
804,4.08e+00,5.04e+00,
805,4.24e+00,4.88e+00,
806,4.16e+00,5.04e+00,
807,4.32e+00,4.88e+00,
808,4.32e+00,5.04e+00,
809,4.48e+00,4.88e+00,
810,4.40e+00,5.04e+00,
811,4.56e+00,4.88e+00,
812,4.48e+00,5.04e+00,
813,4.64e+00,4.88e+00,
814,4.56e+00,5.04e+00,
815,4.72e+00,4.88e+00,
816,4.64e+00,4.88e+00,
817,4.80e+00,5.04e+00,
818,4.80e+00,5.04e+00,
819,4.64e+00,4.88e+00,
820,4.72e+00,4.96e+00,
821,4.88e+00,5.04e+00,
822,4.80e+00,5.12e+00,
823,4.96e+00,4.88e+00,
824,4.80e+00,4.96e+00,
825,4.96e+00,5.04e+00,
826,4.80e+00,5.04e+00,
827,4.96e+00,4.88e+00,
828,4.88e+00,5.04e+00,
829,5.04e+00,4.96e+00,
830,5.04e+00,5.04e+00,
831,4.88e+00,4.88e+00,
832,5.04e+00,5.04e+00,
833,4.88e+00,4.88e+00,
834,4.88e+00,5.04e+00,
835,5.04e+00,4.96e+00,
836,5.04e+00,5.04e+00,
837,4.88e+00,4.88e+00,
838,4.88e+00,4.88e+00,
839,5.04e+00,5.12e+00,
840,4.88e+00,5.04e+00,
841,5.04e+00,4.88e+00,
842,4.96e+00,4.96e+00,
843,4.88e+00,5.04e+00,
844,4.96e+00,5.04e+00,
845,4.80e+00,4.88e+00,
846,4.80e+00,4.88e+00,
847,4.96e+00,5.12e+00,
848,4.88e+00,4.96e+00,
849,4.72e+00,5.04e+00,
850,4.72e+00,5.04e+00,
851,4.88e+00,4.88e+00,
852,4.64e+00,5.04e+00,
853,4.80e+00,4.88e+00,
854,4.72e+00,4.88e+00,
855,4.56e+00,5.20e+00,
856,4.72e+00,5.04e+00,
857,4.48e+00,4.96e+00,
858,4.64e+00,5.04e+00,
859,4.40e+00,4.88e+00,
860,4.40e+00,4.96e+00,
861,4.56e+00,5.04e+00,
862,4.40e+00,5.04e+00,
863,4.24e+00,4.88e+00,
864,4.32e+00,4.96e+00,
865,4.16e+00,5.04e+00,
866,4.24e+00,4.96e+00,
867,4.08e+00,5.04e+00,
868,4.16e+00,5.04e+00,
