project/matlab/project_exp3/7.5 kHz/NewFile1.csv

X,CH1,CH2,Start,Increment,
Sequence,Volt,Volt,4.200000e-04,5.000000e-07
0,4.88e+00,5.12e+00,
1,4.72e+00,4.88e+00,
2,4.80e+00,4.88e+00,
3,4.96e+00,5.12e+00,
4,4.96e+00,4.88e+00,
5,4.80e+00,5.20e+00,
6,4.96e+00,4.88e+00,
7,4.80e+00,5.12e+00,
8,5.04e+00,5.12e+00,
9,4.88e+00,4.88e+00,
10,4.88e+00,4.88e+00,
11,5.04e+00,5.12e+00,
12,5.04e+00,4.88e+00,
13,4.88e+00,5.12e+00,
14,5.04e+00,4.88e+00,
15,4.88e+00,5.12e+00,
16,5.04e+00,5.04e+00,
17,4.88e+00,4.88e+00,
18,4.88e+00,5.04e+00,
19,5.04e+00,4.88e+00,
20,4.96e+00,4.88e+00,
21,4.80e+00,5.12e+00,
22,4.96e+00,5.04e+00,
23,4.80e+00,4.88e+00,
24,4.96e+00,5.04e+00,
25,4.80e+00,4.88e+00,
26,4.88e+00,5.04e+00,
27,4.72e+00,4.88e+00,
28,4.88e+00,4.88e+00,
29,4.72e+00,5.12e+00,
30,4.80e+00,4.88e+00,
31,4.64e+00,5.12e+00,
32,4.80e+00,4.88e+00,
33,4.64e+00,5.12e+00,
34,4.72e+00,5.04e+00,
35,4.56e+00,4.88e+00,
36,4.72e+00,4.88e+00,
37,4.48e+00,5.20e+00,
38,4.64e+00,4.88e+00,
39,4.48e+00,5.12e+00,
40,4.56e+00,5.12e+00,
41,4.40e+00,4.88e+00,
42,4.32e+00,5.12e+00,
43,4.48e+00,4.88e+00,
44,4.40e+00,5.12e+00,
45,4.24e+00,4.88e+00,
46,4.32e+00,5.12e+00,
47,4.08e+00,4.88e+00,
48,4.24e+00,5.12e+00,
49,4.00e+00,4.88e+00,
50,4.16e+00,4.88e+00,
51,3.92e+00,5.12e+00,
52,4.08e+00,5.12e+00,
53,3.84e+00,4.88e+00,
54,3.92e+00,4.88e+00,
55,3.76e+00,5.12e+00,
56,3.92e+00,5.12e+00,
57,3.68e+00,4.88e+00,
58,3.76e+00,5.12e+00,
59,3.60e+00,4.88e+00,
60,3.68e+00,4.88e+00,
61,3.44e+00,5.20e+00,
62,3.52e+00,5.12e+00,
63,3.36e+00,4.88e+00,
64,3.52e+00,5.12e+00,
65,3.20e+00,4.88e+00,
66,3.28e+00,4.88e+00,
67,3.12e+00,5.12e+00,
68,3.20e+00,5.12e+00,
69,2.96e+00,4.88e+00,
70,3.12e+00,4.88e+00,
71,2.88e+00,5.12e+00,
72,2.96e+00,5.12e+00,
73,2.80e+00,4.88e+00,
74,2.88e+00,4.88e+00,
75,2.64e+00,5.12e+00,
76,2.80e+00,5.12e+00,
77,2.56e+00,4.88e+00,
78,2.64e+00,5.12e+00,
79,2.48e+00,4.88e+00,
80,2.56e+00,5.12e+00,
81,2.32e+00,4.88e+00,
82,2.48e+00,5.12e+00,
83,2.24e+00,4.88e+00,
84,2.24e+00,5.12e+00,
85,2.08e+00,4.88e+00,
86,2.16e+00,4.88e+00,
87,2.00e+00,5.12e+00,
88,2.08e+00,5.12e+00,
89,1.84e+00,4.88e+00,
90,1.92e+00,4.88e+00,
91,1.76e+00,5.12e+00,
92,1.84e+00,5.12e+00,
93,1.68e+00,4.88e+00,
94,1.76e+00,5.20e+00,
95,1.52e+00,4.88e+00,
96,1.60e+00,5.12e+00,
97,1.44e+00,4.88e+00,
98,1.52e+00,4.88e+00,
99,1.36e+00,5.20e+00,
100,1.36e+00,5.12e+00,
101,1.20e+00,4.88e+00,
102,1.28e+00,4.88e+00,
103,1.04e+00,5.12e+00,
104,1.20e+00,4.88e+00,
105,9.60e-01,5.12e+00,
106,1.04e+00,4.88e+00,
107,8.80e-01,5.12e+00,
108,9.60e-01,5.12e+00,
109,8.00e-01,4.88e+00,
110,8.80e-01,4.88e+00,
111,7.20e-01,5.20e+00,
112,8.00e-01,5.12e+00,
113,6.40e-01,4.88e+00,
114,7.20e-01,4.88e+00,
115,5.60e-01,5.12e+00,
116,6.40e-01,5.12e+00,
117,4.80e-01,4.88e+00,
118,4.80e-01,4.96e+00,
119,5.60e-01,5.12e+00,
120,4.80e-01,4.96e+00,
121,4.00e-01,5.12e+00,
122,4.00e-01,4.88e+00,
123,2.40e-01,5.20e+00,
124,3.20e-01,5.20e+00,
125,1.60e-01,3.84e+00,
126,3.20e-01,3.76e+00,
127,1.60e-01,1.60e-01,
128,2.40e-01,2.40e-01,
129,8.00e-02,8.00e-02,
130,8.00e-02,2.40e-01,
131,1.60e-01,8.00e-02,
132,1.60e-01,2.40e-01,
133,0.00e+00,8.00e-02,
134,8.00e-02,2.40e-01,
135,0.00e+00,8.00e-02,
136,8.00e-02,2.40e-01,
137,-8.00e-02,8.00e-02,
138,-8.00e-02,2.40e-01,
139,8.00e-02,8.00e-02,
140,0.00e+00,2.40e-01,
141,-8.00e-02,8.00e-02,
142,0.00e+00,2.40e-01,
143,-8.00e-02,8.00e-02,
144,0.00e+00,2.40e-01,
145,-8.00e-02,8.00e-02,
146,-8.00e-02,2.40e-01,
147,0.00e+00,8.00e-02,
148,0.00e+00,2.40e-01,
149,-8.00e-02,8.00e-02,
150,-8.00e-02,2.40e-01,
151,0.00e+00,8.00e-02,
152,-8.00e-02,2.40e-01,
153,0.00e+00,8.00e-02,
154,-8.00e-02,2.40e-01,
155,8.00e-02,8.00e-02,
156,-8.00e-02,2.40e-01,
157,8.00e-02,8.00e-02,
158,0.00e+00,2.40e-01,
159,8.00e-02,8.00e-02,
160,0.00e+00,2.40e-01,
161,1.60e-01,8.00e-02,
162,1.60e-01,8.00e-02,
163,8.00e-02,2.40e-01,
164,8.00e-02,2.40e-01,
165,2.40e-01,8.00e-02,
166,2.40e-01,8.00e-02,
167,1.60e-01,2.40e-01,
168,3.20e-01,8.00e-02,
169,1.60e-01,2.40e-01,
170,2.40e-01,2.40e-01,
171,4.00e-01,8.00e-02,
172,4.00e-01,8.00e-02,
173,4.80e-01,2.40e-01,
174,5.60e-01,8.00e-02,
175,4.80e-01,2.40e-01,
176,4.80e-01,2.40e-01,
177,6.40e-01,8.00e-02,
178,5.60e-01,2.40e-01,
179,7.20e-01,8.00e-02,
180,6.40e-01,2.40e-01,
181,8.00e-01,8.00e-02,
182,7.20e-01,2.40e-01,
183,8.80e-01,8.00e-02,
184,8.00e-01,1.60e-01,
185,9.60e-01,2.56e+00,
186,8.80e-01,2.64e+00,
187,1.12e+00,5.04e+00,
188,9.60e-01,5.04e+00,
189,1.20e+00,4.88e+00,
190,1.12e+00,5.04e+00,
191,1.28e+00,4.88e+00,
192,1.20e+00,5.12e+00,
193,1.36e+00,4.88e+00,
194,1.36e+00,4.88e+00,
195,1.52e+00,5.12e+00,
196,1.44e+00,4.88e+00,
197,1.60e+00,5.12e+00,
198,1.52e+00,4.88e+00,
199,1.76e+00,5.12e+00,
200,1.68e+00,4.88e+00,
201,1.84e+00,5.12e+00,
202,1.76e+00,4.88e+00,
203,1.92e+00,5.12e+00,
204,1.84e+00,5.12e+00,
205,2.08e+00,4.88e+00,
206,1.92e+00,5.12e+00,
207,2.16e+00,4.88e+00,
208,2.08e+00,5.12e+00,
209,2.24e+00,4.88e+00,
210,2.16e+00,4.88e+00,
211,2.48e+00,5.12e+00,
212,2.32e+00,4.88e+00,
213,2.56e+00,5.20e+00,
214,2.48e+00,4.88e+00,
215,2.64e+00,5.12e+00,
216,2.56e+00,5.12e+00,
217,2.80e+00,4.88e+00,
218,2.72e+00,4.88e+00,
219,2.88e+00,5.12e+00,
220,2.80e+00,4.88e+00,
221,2.96e+00,5.20e+00,
222,2.88e+00,4.88e+00,
223,3.12e+00,5.12e+00,
224,3.04e+00,5.12e+00,
225,3.20e+00,4.88e+00,
226,3.12e+00,4.88e+00,
227,3.28e+00,5.12e+00,
228,3.44e+00,5.12e+00,
229,3.20e+00,4.88e+00,
230,3.36e+00,5.12e+00,
231,3.60e+00,4.88e+00,
232,3.52e+00,4.88e+00,
233,3.68e+00,5.12e+00,
234,3.60e+00,4.88e+00,
235,3.76e+00,5.12e+00,
236,3.68e+00,4.88e+00,
237,3.84e+00,5.20e+00,
238,3.76e+00,4.88e+00,
239,3.92e+00,5.12e+00,
240,3.84e+00,5.12e+00,
241,4.08e+00,4.88e+00,
242,3.92e+00,4.88e+00,
243,4.16e+00,5.12e+00,
244,4.00e+00,5.12e+00,
245,4.24e+00,4.88e+00,
246,4.16e+00,5.12e+00,
247,4.32e+00,4.88e+00,
248,4.24e+00,5.12e+00,
249,4.48e+00,4.88e+00,
250,4.32e+00,5.20e+00,
251,4.48e+00,4.88e+00,
252,4.40e+00,4.88e+00,
253,4.56e+00,5.12e+00,
254,4.48e+00,4.88e+00,
255,4.64e+00,5.12e+00,
256,4.48e+00,5.12e+00,
257,4.72e+00,4.88e+00,
258,4.56e+00,4.88e+00,
259,4.72e+00,5.12e+00,
260,4.64e+00,5.20e+00,
261,4.80e+00,4.88e+00,
262,4.80e+00,5.12e+00,
263,4.64e+00,4.88e+00,
264,4.72e+00,5.12e+00,
265,4.88e+00,4.88e+00,
266,4.88e+00,4.88e+00,
267,4.72e+00,5.12e+00,
268,4.80e+00,5.12e+00,
269,4.96e+00,4.88e+00,
270,4.96e+00,4.88e+00,
271,4.80e+00,5.20e+00,
272,4.80e+00,5.12e+00,
273,4.96e+00,4.88e+00,
274,4.88e+00,5.12e+00,
275,5.04e+00,4.88e+00,
276,5.04e+00,4.88e+00,
277,4.88e+00,5.12e+00,
278,5.04e+00,5.12e+00,
279,4.88e+00,4.88e+00,
280,5.04e+00,5.12e+00,
281,4.88e+00,4.88e+00,
282,4.88e+00,4.88e+00,
283,5.04e+00,5.20e+00,
284,5.04e+00,5.12e+00,
285,4.88e+00,4.88e+00,
286,5.04e+00,4.88e+00,
287,4.80e+00,5.12e+00,
288,4.80e+00,5.12e+00,
289,4.96e+00,4.88e+00,
290,4.96e+00,4.88e+00,
291,4.80e+00,5.12e+00,
292,4.96e+00,5.12e+00,
293,4.72e+00,4.88e+00,
294,4.88e+00,4.88e+00,
295,4.72e+00,5.12e+00,
296,4.80e+00,4.88e+00,
297,4.64e+00,5.12e+00,
298,4.64e+00,4.88e+00,
299,4.80e+00,5.12e+00,
300,4.80e+00,5.12e+00,
301,4.56e+00,4.88e+00,
302,4.56e+00,4.88e+00,
303,4.72e+00,5.12e+00,
304,4.64e+00,4.88e+00,
305,4.48e+00,5.12e+00,
306,4.56e+00,4.88e+00,
307,4.40e+00,5.12e+00,
308,4.56e+00,5.12e+00,
309,4.32e+00,4.88e+00,
310,4.48e+00,5.12e+00,
311,4.24e+00,4.88e+00,
312,4.40e+00,5.12e+00,
313,4.16e+00,4.88e+00,
314,4.08e+00,4.88e+00,
315,4.24e+00,5.12e+00,
316,4.16e+00,5.12e+00,
317,3.92e+00,4.88e+00,
318,4.08e+00,4.88e+00,
319,3.84e+00,5.12e+00,
320,4.00e+00,5.12e+00,
321,3.76e+00,4.88e+00,
322,3.92e+00,4.88e+00,
323,3.68e+00,5.20e+00,
324,3.84e+00,5.12e+00,
325,3.60e+00,4.88e+00,
326,3.68e+00,5.12e+00,
327,3.52e+00,4.88e+00,
328,3.60e+00,5.12e+00,
329,3.44e+00,4.88e+00,
330,3.52e+00,5.20e+00,
331,3.28e+00,4.88e+00,
332,3.36e+00,5.12e+00,
333,3.12e+00,4.88e+00,
334,3.20e+00,5.12e+00,
335,3.04e+00,4.88e+00,
336,3.12e+00,4.88e+00,
337,2.96e+00,5.12e+00,
338,3.04e+00,5.12e+00,
339,2.80e+00,4.88e+00,
340,2.96e+00,5.12e+00,
341,2.72e+00,4.88e+00,
342,2.80e+00,4.88e+00,
343,2.56e+00,5.12e+00,
344,2.72e+00,5.12e+00,
345,2.48e+00,4.88e+00,
346,2.56e+00,4.88e+00,
347,2.40e+00,5.12e+00,
348,2.40e+00,5.12e+00,
349,2.32e+00,4.88e+00,
350,2.32e+00,5.12e+00,
351,2.08e+00,4.88e+00,
352,2.16e+00,4.88e+00,
353,2.00e+00,5.20e+00,
354,2.08e+00,5.12e+00,
355,1.92e+00,4.88e+00,
356,2.00e+00,5.12e+00,
357,1.76e+00,4.88e+00,
358,1.84e+00,4.88e+00,
359,1.68e+00,5.12e+00,
360,1.76e+00,4.88e+00,
361,1.60e+00,5.20e+00,
362,1.68e+00,4.88e+00,
363,1.44e+00,5.12e+00,
364,1.52e+00,5.12e+00,
365,1.36e+00,4.88e+00,
366,1.36e+00,4.88e+00,
367,1.20e+00,5.12e+00,
368,1.28e+00,4.88e+00,
369,1.12e+00,5.12e+00,
370,1.20e+00,5.12e+00,
371,1.04e+00,4.88e+00,
372,1.12e+00,4.88e+00,
373,9.60e-01,5.12e+00,
374,1.04e+00,5.12e+00,
375,8.80e-01,4.88e+00,
376,9.60e-01,4.88e+00,
377,7.20e-01,5.12e+00,
378,8.80e-01,4.88e+00,
379,6.40e-01,5.12e+00,
380,6.40e-01,4.88e+00,
381,8.00e-01,5.12e+00,
382,7.20e-01,4.88e+00,
383,5.60e-01,5.12e+00,
384,6.40e-01,5.12e+00,
385,4.80e-01,4.88e+00,
386,5.60e-01,4.88e+00,
387,4.00e-01,5.12e+00,
388,4.00e-01,4.88e+00,
389,2.40e-01,5.20e+00,
390,3.20e-01,5.12e+00,
391,2.40e-01,4.88e+00,
392,3.20e-01,5.04e+00,
393,1.60e-01,2.40e-01,
394,2.40e-01,1.60e-01,
395,8.00e-02,2.40e-01,
396,8.00e-02,2.40e-01,
397,1.60e-01,8.00e-02,
398,1.60e-01,8.00e-02,
399,0.00e+00,2.40e-01,
400,8.00e-02,2.40e-01,
401,0.00e+00,8.00e-02,
402,8.00e-02,2.40e-01,
403,-8.00e-02,8.00e-02,
404,-8.00e-02,2.40e-01,
405,8.00e-02,8.00e-02,
406,8.00e-02,2.40e-01,
407,-8.00e-02,8.00e-02,
408,-8.00e-02,2.40e-01,
409,0.00e+00,8.00e-02,
410,0.00e+00,2.40e-01,
411,-8.00e-02,8.00e-02,
412,0.00e+00,2.40e-01,
413,-8.00e-02,8.00e-02,
414,0.00e+00,2.40e-01,
415,-8.00e-02,8.00e-02,
416,0.00e+00,2.40e-01,
417,-8.00e-02,8.00e-02,
418,-8.00e-02,2.40e-01,
419,0.00e+00,8.00e-02,
420,-8.00e-02,2.40e-01,
421,8.00e-02,8.00e-02,
422,8.00e-02,2.40e-01,
423,-8.00e-02,8.00e-02,
424,0.00e+00,2.40e-01,
425,8.00e-02,8.00e-02,
426,0.00e+00,2.40e-01,
427,1.60e-01,8.00e-02,
428,1.60e-01,2.40e-01,
429,0.00e+00,8.00e-02,
430,8.00e-02,2.40e-01,
431,2.40e-01,8.00e-02,
432,8.00e-02,2.40e-01,
433,2.40e-01,8.00e-02,
434,1.60e-01,2.40e-01,
435,3.20e-01,8.00e-02,
436,2.40e-01,8.00e-02,
437,4.00e-01,2.40e-01,
438,3.20e-01,8.00e-02,
439,4.00e-01,2.40e-01,
440,4.00e-01,2.40e-01,
441,5.60e-01,8.00e-02,
442,4.80e-01,2.40e-01,
443,6.40e-01,8.00e-02,
444,5.60e-01,2.40e-01,
445,7.20e-01,8.00e-02,
446,6.40e-01,2.40e-01,
447,8.00e-01,8.00e-02,
448,7.20e-01,2.40e-01,
449,8.80e-01,8.00e-02,
450,8.00e-01,1.60e-01,
451,9.60e-01,8.80e-01,
452,8.80e-01,9.60e-01,
453,1.04e+00,4.88e+00,
454,9.60e-01,4.80e+00,
455,1.12e+00,5.04e+00,
456,1.04e+00,4.88e+00,
457,1.20e+00,5.04e+00,
458,1.12e+00,4.88e+00,
459,1.36e+00,5.12e+00,
460,1.28e+00,5.12e+00,
461,1.44e+00,4.88e+00,
462,1.44e+00,4.88e+00,
463,1.60e+00,5.12e+00,
464,1.52e+00,5.12e+00,
465,1.68e+00,4.88e+00,
466,1.60e+00,4.88e+00,
467,1.84e+00,5.12e+00,
468,1.68e+00,5.12e+00,
469,1.92e+00,4.88e+00,
470,1.84e+00,4.88e+00,
471,2.00e+00,5.12e+00,
472,1.92e+00,5.12e+00,
473,2.16e+00,4.88e+00,
474,2.00e+00,4.88e+00,
475,2.24e+00,5.12e+00,
476,2.16e+00,4.88e+00,
477,2.32e+00,5.20e+00,
478,2.32e+00,4.88e+00,
479,2.56e+00,5.12e+00,
480,2.40e+00,5.20e+00,
481,2.64e+00,4.88e+00,
482,2.56e+00,4.88e+00,
483,2.72e+00,5.12e+00,
484,2.64e+00,5.12e+00,
485,2.88e+00,4.88e+00,
486,2.72e+00,4.88e+00,
487,2.96e+00,5.12e+00,
488,2.88e+00,4.88e+00,
489,3.04e+00,5.12e+00,
490,2.96e+00,4.88e+00,
491,3.20e+00,5.12e+00,
492,3.04e+00,5.12e+00,
493,3.28e+00,4.88e+00,
494,3.20e+00,4.88e+00,
495,3.36e+00,5.12e+00,
496,3.36e+00,5.12e+00,
497,3.52e+00,4.88e+00,
498,3.44e+00,5.12e+00,
499,3.68e+00,4.88e+00,
500,3.52e+00,5.12e+00,
501,3.76e+00,4.88e+00,
502,3.60e+00,4.88e+00,
503,3.84e+00,5.12e+00,
504,3.76e+00,5.12e+00,
505,3.92e+00,4.88e+00,
506,3.84e+00,4.88e+00,
507,4.00e+00,5.12e+00,
508,3.92e+00,5.12e+00,
509,4.08e+00,4.88e+00,
510,4.00e+00,4.88e+00,
511,4.16e+00,5.12e+00,
512,4.24e+00,4.88e+00,
513,4.08e+00,5.20e+00,
514,4.24e+00,4.88e+00,
515,4.40e+00,5.12e+00,
516,4.32e+00,4.88e+00,
517,4.48e+00,5.20e+00,
518,4.40e+00,5.12e+00,
519,4.56e+00,4.88e+00,
520,4.40e+00,5.12e+00,
521,4.64e+00,4.88e+00,
522,4.48e+00,4.88e+00,
523,4.64e+00,5.20e+00,
524,4.72e+00,5.12e+00,
525,4.56e+00,4.88e+00,
526,4.56e+00,4.88e+00,
527,4.80e+00,5.12e+00,
528,4.80e+00,5.12e+00,
529,4.64e+00,4.88e+00,
530,4.72e+00,4.88e+00,
531,4.88e+00,5.12e+00,
532,4.88e+00,5.12e+00,
533,4.72e+00,4.88e+00,
534,4.72e+00,5.12e+00,
535,4.96e+00,4.88e+00,
536,4.96e+00,5.12e+00,
537,4.80e+00,4.88e+00,
538,4.96e+00,4.88e+00,
539,4.80e+00,5.12e+00,
540,5.04e+00,5.12e+00,
541,4.80e+00,4.88e+00,
542,4.88e+00,4.88e+00,
543,5.04e+00,5.20e+00,
544,4.88e+00,5.12e+00,
545,5.04e+00,4.88e+00,
546,5.04e+00,4.88e+00,
547,4.88e+00,5.12e+00,
548,5.04e+00,4.88e+00,
549,4.88e+00,5.12e+00,
550,4.88e+00,5.12e+00,
551,5.04e+00,4.88e+00,
552,4.88e+00,5.12e+00,
553,5.04e+00,4.88e+00,
554,4.96e+00,5.12e+00,
555,4.80e+00,4.88e+00,
556,4.96e+00,5.12e+00,
557,4.80e+00,4.88e+00,
558,4.96e+00,4.88e+00,
559,4.80e+00,5.12e+00,
560,4.88e+00,5.12e+00,
561,4.72e+00,4.88e+00,
562,4.88e+00,5.12e+00,
563,4.72e+00,4.88e+00,
564,4.88e+00,5.12e+00,
565,4.64e+00,4.88e+00,
566,4.80e+00,4.88e+00,
567,4.64e+00,5.12e+00,
568,4.56e+00,5.20e+00,
569,4.72e+00,4.88e+00,
570,4.64e+00,4.88e+00,
571,4.48e+00,5.12e+00,
572,4.64e+00,5.12e+00,
573,4.40e+00,4.88e+00,
574,4.40e+00,4.88e+00,
575,4.56e+00,5.20e+00,
576,4.32e+00,5.20e+00,
577,4.48e+00,4.88e+00,
578,4.40e+00,4.88e+00,
579,4.24e+00,5.12e+00,
580,4.32e+00,5.12e+00,
581,4.08e+00,4.88e+00,
582,4.16e+00,5.12e+00,
583,4.00e+00,4.88e+00,
584,4.16e+00,4.88e+00,
585,3.92e+00,5.12e+00,
586,4.00e+00,5.12e+00,
587,3.84e+00,4.88e+00,
588,3.92e+00,5.12e+00,
589,3.76e+00,4.88e+00,
590,3.84e+00,4.88e+00,
591,3.60e+00,5.12e+00,
592,3.76e+00,4.88e+00,
593,3.52e+00,5.20e+00,
594,3.68e+00,4.88e+00,
595,3.44e+00,5.12e+00,
596,3.52e+00,4.88e+00,
597,3.36e+00,5.12e+00,
598,3.44e+00,4.88e+00,
599,3.20e+00,5.12e+00,
600,3.28e+00,4.88e+00,
601,3.04e+00,5.12e+00,
602,3.12e+00,5.12e+00,
603,2.96e+00,4.88e+00,
604,3.04e+00,5.12e+00,
605,2.88e+00,4.88e+00,
606,2.96e+00,4.88e+00,
607,2.72e+00,5.20e+00,
608,2.88e+00,4.88e+00,
609,2.64e+00,5.12e+00,
610,2.72e+00,5.20e+00,
611,2.56e+00,4.88e+00,
612,2.64e+00,5.12e+00,
613,2.40e+00,4.88e+00,
614,2.48e+00,5.12e+00,
615,2.32e+00,4.88e+00,
616,2.32e+00,4.88e+00,
617,2.16e+00,5.12e+00,
618,2.24e+00,4.88e+00,
619,2.00e+00,5.12e+00,
620,2.16e+00,5.20e+00,
621,1.92e+00,4.88e+00,
622,2.00e+00,4.96e+00,
623,1.84e+00,5.12e+00,
624,1.92e+00,5.12e+00,
625,1.68e+00,4.88e+00,
626,1.84e+00,5.12e+00,
627,1.60e+00,4.88e+00,
628,1.68e+00,5.12e+00,
629,1.52e+00,4.88e+00,
630,1.60e+00,4.88e+00,
631,1.44e+00,5.20e+00,
632,1.52e+00,5.20e+00,
633,1.20e+00,4.88e+00,
634,1.28e+00,5.12e+00,
635,1.12e+00,4.88e+00,
636,1.20e+00,5.12e+00,
637,1.04e+00,4.88e+00,
638,1.12e+00,4.88e+00,
639,9.60e-01,5.20e+00,
640,1.04e+00,5.12e+00,
641,8.80e-01,4.88e+00,
642,9.60e-01,4.88e+00,
643,8.00e-01,5.12e+00,
644,8.80e-01,5.12e+00,
645,7.20e-01,4.88e+00,
646,8.00e-01,4.88e+00,
647,6.40e-01,5.12e+00,
648,7.20e-01,5.12e+00,
649,5.60e-01,4.88e+00,
650,6.40e-01,5.12e+00,
651,4.80e-01,4.88e+00,
652,5.60e-01,4.88e+00,
653,4.00e-01,5.12e+00,
654,4.00e-01,4.88e+00,
655,2.40e-01,5.12e+00,
656,4.00e-01,5.20e+00,
657,2.40e-01,4.88e+00,
658,3.20e-01,5.12e+00,
659,1.60e-01,3.20e-01,
660,2.40e-01,3.20e-01,
661,8.00e-02,1.60e-01,
662,8.00e-02,2.40e-01,
663,2.40e-01,1.60e-01,
664,1.60e-01,2.40e-01,
665,0.00e+00,8.00e-02,
666,1.60e-01,2.40e-01,
667,0.00e+00,8.00e-02,
668,8.00e-02,8.00e-02,
669,0.00e+00,2.40e-01,
670,8.00e-02,2.40e-01,
671,-8.00e-02,8.00e-02,
672,8.00e-02,2.40e-01,
673,-8.00e-02,8.00e-02,
674,0.00e+00,2.40e-01,
675,-8.00e-02,8.00e-02,
676,-8.00e-02,2.40e-01,
677,0.00e+00,8.00e-02,
678,-8.00e-02,2.40e-01,
679,0.00e+00,8.00e-02,
680,-8.00e-02,2.40e-01,
681,0.00e+00,8.00e-02,
682,-8.00e-02,2.40e-01,
683,0.00e+00,8.00e-02,
684,0.00e+00,2.40e-01,
685,-8.00e-02,8.00e-02,
686,-8.00e-02,2.40e-01,
687,8.00e-02,8.00e-02,
688,-8.00e-02,2.40e-01,
689,8.00e-02,8.00e-02,
690,8.00e-02,2.40e-01,
691,0.00e+00,8.00e-02,
692,0.00e+00,8.00e-02,
693,1.60e-01,2.40e-01,
694,1.60e-01,2.40e-01,
695,0.00e+00,8.00e-02,
696,8.00e-02,2.40e-01,
697,2.40e-01,8.00e-02,
698,2.40e-01,2.40e-01,
699,8.00e-02,8.00e-02,
700,1.60e-01,2.40e-01,
701,3.20e-01,8.00e-02,
702,3.20e-01,8.00e-02,
703,2.40e-01,2.40e-01,
704,4.00e-01,8.00e-02,
705,2.40e-01,2.40e-01,
706,4.00e-01,2.40e-01,
707,5.60e-01,8.00e-02,
708,4.80e-01,8.00e-02,
709,6.40e-01,2.40e-01,
710,5.60e-01,8.00e-02,
711,7.20e-01,2.40e-01,
712,6.40e-01,8.00e-02,
713,8.00e-01,2.40e-01,
714,7.20e-01,2.40e-01,
715,8.80e-01,8.00e-02,
716,8.00e-01,2.40e-01,
717,9.60e-01,8.00e-02,
718,8.80e-01,2.40e-01,
719,1.04e+00,4.00e+00,
720,9.60e-01,4.08e+00,
721,1.12e+00,5.04e+00,
722,1.04e+00,5.04e+00,
723,1.20e+00,4.88e+00,
724,1.12e+00,5.20e+00,
725,1.28e+00,4.88e+00,
726,1.20e+00,4.88e+00,
727,1.36e+00,5.12e+00,
728,1.36e+00,5.12e+00,
729,1.60e+00,4.88e+00,
730,1.52e+00,5.12e+00,
731,1.68e+00,4.88e+00,
732,1.60e+00,5.20e+00,
733,1.76e+00,4.88e+00,
734,1.68e+00,4.88e+00,
735,1.84e+00,5.12e+00,
736,1.76e+00,5.12e+00,
737,2.00e+00,4.88e+00,
738,1.92e+00,4.88e+00,
739,2.08e+00,5.12e+00,
740,2.00e+00,5.12e+00,
741,2.16e+00,4.88e+00,
742,2.08e+00,4.88e+00,
743,2.32e+00,5.12e+00,
744,2.32e+00,5.12e+00,
745,2.48e+00,4.88e+00,
746,2.40e+00,4.88e+00,
747,2.64e+00,5.12e+00,
748,2.48e+00,5.12e+00,
749,2.72e+00,4.88e+00,
750,2.64e+00,4.88e+00,
751,2.80e+00,5.12e+00,
752,2.72e+00,5.12e+00,
753,2.96e+00,4.88e+00,
754,2.80e+00,4.88e+00,
755,3.04e+00,5.12e+00,
756,2.96e+00,5.12e+00,
757,3.12e+00,4.88e+00,
758,3.04e+00,5.12e+00,
759,3.28e+00,4.88e+00,
760,3.12e+00,4.88e+00,
761,3.36e+00,5.12e+00,
762,3.28e+00,4.88e+00,
763,3.52e+00,5.12e+00,
764,3.44e+00,5.20e+00,
765,3.60e+00,4.88e+00,
766,3.52e+00,4.88e+00,
767,3.68e+00,5.12e+00,
768,3.60e+00,5.12e+00,
769,3.84e+00,4.88e+00,
770,3.68e+00,4.88e+00,
771,3.92e+00,5.12e+00,
772,3.76e+00,4.88e+00,
773,4.00e+00,5.12e+00,
774,3.92e+00,4.88e+00,
775,4.08e+00,5.12e+00,
776,3.92e+00,5.12e+00,
777,4.16e+00,4.88e+00,
778,4.08e+00,4.88e+00,
779,4.24e+00,5.12e+00,
780,4.16e+00,5.20e+00,
781,4.40e+00,4.88e+00,
782,4.24e+00,4.88e+00,
783,4.48e+00,5.12e+00,
784,4.32e+00,4.88e+00,
785,4.56e+00,5.12e+00,
786,4.56e+00,4.88e+00,
787,4.40e+00,5.12e+00,
788,4.64e+00,5.12e+00,
789,4.48e+00,4.88e+00,
790,4.56e+00,5.12e+00,
791,4.72e+00,4.88e+00,
792,4.56e+00,5.12e+00,
793,4.80e+00,4.88e+00,
794,4.64e+00,4.88e+00,
795,4.80e+00,5.20e+00,
796,4.72e+00,4.88e+00,
797,4.88e+00,5.12e+00,
798,4.88e+00,4.88e+00,
799,4.72e+00,5.12e+00,
800,4.72e+00,4.88e+00,
801,4.96e+00,5.12e+00,
802,4.80e+00,4.88e+00,
803,4.96e+00,5.12e+00,
804,4.96e+00,4.96e+00,
805,4.80e+00,5.20e+00,
806,4.96e+00,4.88e+00,
807,4.80e+00,5.12e+00,
808,5.04e+00,4.88e+00,
809,4.80e+00,5.12e+00,
810,4.88e+00,4.88e+00,
811,5.04e+00,5.12e+00,
812,5.04e+00,5.20e+00,
813,4.88e+00,4.88e+00,
814,5.04e+00,5.12e+00,
815,4.88e+00,4.88e+00,
816,5.04e+00,5.12e+00,
817,4.88e+00,4.88e+00,
818,5.04e+00,4.88e+00,
819,4.80e+00,5.12e+00,
820,4.96e+00,5.12e+00,
821,4.80e+00,4.88e+00,
822,4.96e+00,4.88e+00,
823,4.80e+00,5.12e+00,
824,4.96e+00,5.12e+00,
825,4.80e+00,4.88e+00,
826,4.96e+00,5.12e+00,
827,4.72e+00,4.88e+00,
828,4.88e+00,4.88e+00,
829,4.72e+00,5.12e+00,
830,4.80e+00,4.88e+00,
831,4.64e+00,5.12e+00,
832,4.80e+00,5.12e+00,
833,4.64e+00,4.88e+00,
834,4.72e+00,4.88e+00,
835,4.56e+00,5.20e+00,
836,4.72e+00,5.12e+00,
837,4.48e+00,4.88e+00,
838,4.48e+00,4.88e+00,
839,4.64e+00,5.12e+00,
840,4.56e+00,5.12e+00,
841,4.40e+00,4.88e+00,
842,4.48e+00,5.12e+00,
843,4.32e+00,4.88e+00,
844,4.40e+00,4.88e+00,
845,4.24e+00,5.12e+00,
846,4.40e+00,4.88e+00,
847,4.08e+00,5.12e+00,
848,4.24e+00,5.12e+00,
849,4.00e+00,4.88e+00,
850,4.16e+00,4.88e+00,
851,3.92e+00,5.12e+00,
852,4.08e+00,4.88e+00,
853,3.84e+00,5.12e+00,
854,4.00e+00,5.12e+00,
855,3.76e+00,4.88e+00,
856,3.84e+00,5.12e+00,
857,3.68e+00,4.88e+00,
858,3.76e+00,5.12e+00,
859,3.60e+00,4.88e+00,
860,3.68e+00,4.88e+00,
861,3.44e+00,5.12e+00,
862,3.60e+00,4.88e+00,
863,3.36e+00,5.12e+00,
864,3.44e+00,4.88e+00,
865,3.28e+00,5.20e+00,
866,3.28e+00,4.88e+00,
867,3.12e+00,5.12e+00,
868,3.20e+00,5.12e+00,
