project/matlab/project_exp3/8 kHz/NewFile1.csv

X,CH1,CH2,Start,Increment,
Sequence,Volt,Volt,4.200000e-04,5.000000e-07
0,3.92e+00,5.12e+00,
1,3.68e+00,4.88e+00,
2,3.76e+00,4.88e+00,
3,3.52e+00,5.12e+00,
4,3.68e+00,4.88e+00,
5,3.44e+00,5.12e+00,
6,3.60e+00,4.88e+00,
7,3.36e+00,5.12e+00,
8,3.44e+00,5.12e+00,
9,3.28e+00,4.88e+00,
10,3.28e+00,4.88e+00,
11,3.04e+00,5.12e+00,
12,3.20e+00,4.88e+00,
13,2.96e+00,5.12e+00,
14,3.04e+00,5.12e+00,
15,2.80e+00,4.88e+00,
16,2.96e+00,5.04e+00,
17,2.72e+00,4.88e+00,
18,2.80e+00,5.04e+00,
19,2.64e+00,4.88e+00,
20,2.72e+00,4.88e+00,
21,2.48e+00,5.12e+00,
22,2.56e+00,5.04e+00,
23,2.40e+00,4.88e+00,
24,2.48e+00,5.12e+00,
25,2.16e+00,4.88e+00,
26,2.32e+00,4.88e+00,
27,2.08e+00,5.12e+00,
28,2.16e+00,4.88e+00,
29,1.92e+00,5.04e+00,
30,2.08e+00,4.88e+00,
31,1.84e+00,5.12e+00,
32,1.92e+00,4.88e+00,
33,1.76e+00,5.12e+00,
34,1.84e+00,4.88e+00,
35,1.60e+00,5.12e+00,
36,1.68e+00,5.20e+00,
37,1.52e+00,4.88e+00,
38,1.60e+00,4.88e+00,
39,1.44e+00,5.12e+00,
40,1.52e+00,4.88e+00,
41,1.20e+00,5.20e+00,
42,1.28e+00,5.12e+00,
43,1.12e+00,4.88e+00,
44,1.20e+00,4.88e+00,
45,1.04e+00,5.12e+00,
46,1.12e+00,5.12e+00,
47,9.60e-01,4.88e+00,
48,1.04e+00,5.12e+00,
49,8.80e-01,4.88e+00,
50,9.60e-01,4.88e+00,
51,7.20e-01,5.12e+00,
52,8.80e-01,5.12e+00,
53,6.40e-01,4.88e+00,
54,7.20e-01,4.96e+00,
55,5.60e-01,5.12e+00,
56,5.60e-01,5.12e+00,
57,7.20e-01,4.88e+00,
58,4.80e-01,5.12e+00,
59,6.40e-01,4.88e+00,
60,4.80e-01,4.88e+00,
61,3.20e-01,5.20e+00,
62,4.00e-01,5.20e+00,
63,2.40e-01,4.88e+00,
64,3.20e-01,5.12e+00,
65,1.60e-01,3.36e+00,
66,2.40e-01,3.20e+00,
67,1.60e-01,1.60e-01,
68,2.40e-01,2.40e-01,
69,8.00e-02,8.00e-02,
70,1.60e-01,2.40e-01,
71,0.00e+00,8.00e-02,
72,1.60e-01,2.40e-01,
73,0.00e+00,8.00e-02,
74,8.00e-02,2.40e-01,
75,0.00e+00,8.00e-02,
76,8.00e-02,2.40e-01,
77,-8.00e-02,8.00e-02,
78,-8.00e-02,2.40e-01,
79,8.00e-02,8.00e-02,
80,-8.00e-02,2.40e-01,
81,0.00e+00,8.00e-02,
82,-8.00e-02,2.40e-01,
83,0.00e+00,8.00e-02,
84,0.00e+00,2.40e-01,
85,-8.00e-02,8.00e-02,
86,-8.00e-02,2.40e-01,
87,0.00e+00,8.00e-02,
88,-8.00e-02,2.40e-01,
89,0.00e+00,8.00e-02,
90,-8.00e-02,2.40e-01,
91,0.00e+00,8.00e-02,
92,-8.00e-02,2.40e-01,
93,8.00e-02,8.00e-02,
94,8.00e-02,2.40e-01,
95,-8.00e-02,8.00e-02,
96,0.00e+00,2.40e-01,
97,1.60e-01,8.00e-02,
98,1.60e-01,2.40e-01,
99,0.00e+00,8.00e-02,
100,8.00e-02,2.40e-01,
101,2.40e-01,8.00e-02,
102,2.40e-01,2.40e-01,
103,8.00e-02,8.00e-02,
104,1.60e-01,8.00e-02,
105,3.20e-01,2.40e-01,
106,2.40e-01,2.40e-01,
107,4.00e-01,8.00e-02,
108,2.40e-01,8.00e-02,
109,4.00e-01,2.40e-01,
110,4.00e-01,2.40e-01,
111,5.60e-01,8.00e-02,
112,4.80e-01,2.40e-01,
113,6.40e-01,8.00e-02,
114,5.60e-01,2.40e-01,
115,7.20e-01,8.00e-02,
116,6.40e-01,2.40e-01,
117,8.00e-01,8.00e-02,
118,7.20e-01,2.40e-01,
119,8.80e-01,8.00e-02,
120,8.00e-01,2.40e-01,
121,9.60e-01,2.24e+00,
122,8.80e-01,2.32e+00,
123,1.12e+00,5.04e+00,
124,1.04e+00,5.04e+00,
125,1.20e+00,4.88e+00,
126,1.12e+00,5.04e+00,
127,1.28e+00,4.88e+00,
128,1.20e+00,4.88e+00,
129,1.36e+00,5.12e+00,
130,1.36e+00,4.88e+00,
131,1.52e+00,5.12e+00,
132,1.52e+00,5.12e+00,
133,1.68e+00,4.88e+00,
134,1.60e+00,4.88e+00,
135,1.76e+00,5.12e+00,
136,1.68e+00,5.12e+00,
137,1.92e+00,4.88e+00,
138,1.84e+00,4.88e+00,
139,2.00e+00,5.20e+00,
140,1.92e+00,5.12e+00,
141,2.16e+00,4.88e+00,
142,2.00e+00,5.12e+00,
143,2.24e+00,4.88e+00,
144,2.16e+00,5.12e+00,
145,2.32e+00,4.88e+00,
146,2.32e+00,5.12e+00,
147,2.56e+00,4.88e+00,
148,2.48e+00,5.12e+00,
149,2.64e+00,4.88e+00,
150,2.56e+00,4.88e+00,
151,2.80e+00,5.20e+00,
152,2.64e+00,5.12e+00,
153,2.88e+00,4.88e+00,
154,2.80e+00,5.12e+00,
155,3.04e+00,4.88e+00,
156,2.88e+00,4.88e+00,
157,3.12e+00,5.20e+00,
158,3.04e+00,5.12e+00,
159,3.28e+00,4.88e+00,
160,3.12e+00,5.12e+00,
161,3.36e+00,4.88e+00,
162,3.28e+00,4.88e+00,
163,3.52e+00,5.12e+00,
164,3.44e+00,5.12e+00,
165,3.60e+00,4.88e+00,
166,3.52e+00,4.88e+00,
167,3.76e+00,5.12e+00,
168,3.60e+00,5.12e+00,
169,3.84e+00,4.88e+00,
170,3.76e+00,4.88e+00,
171,3.92e+00,5.12e+00,
172,3.84e+00,4.88e+00,
173,4.00e+00,5.12e+00,
174,3.92e+00,5.12e+00,
175,4.16e+00,4.88e+00,
176,4.00e+00,5.12e+00,
177,4.24e+00,4.88e+00,
178,4.08e+00,4.88e+00,
179,4.32e+00,5.20e+00,
180,4.40e+00,5.12e+00,
181,4.16e+00,4.88e+00,
182,4.32e+00,4.88e+00,
183,4.48e+00,5.12e+00,
184,4.40e+00,5.12e+00,
185,4.56e+00,4.88e+00,
186,4.48e+00,4.88e+00,
187,4.64e+00,5.20e+00,
188,4.56e+00,5.12e+00,
189,4.72e+00,4.88e+00,
190,4.56e+00,5.12e+00,
191,4.80e+00,4.88e+00,
192,4.80e+00,5.12e+00,
193,4.64e+00,4.88e+00,
194,4.72e+00,4.88e+00,
195,4.88e+00,5.12e+00,
196,4.88e+00,5.12e+00,
197,4.72e+00,4.88e+00,
198,4.96e+00,4.88e+00,
199,4.72e+00,5.12e+00,
200,4.96e+00,4.88e+00,
201,4.80e+00,5.20e+00,
202,4.96e+00,4.88e+00,
203,4.80e+00,5.12e+00,
204,4.80e+00,5.12e+00,
205,5.04e+00,4.88e+00,
206,4.88e+00,4.88e+00,
207,5.04e+00,5.20e+00,
208,5.04e+00,5.12e+00,
209,4.88e+00,4.88e+00,
210,4.88e+00,4.88e+00,
211,5.04e+00,5.12e+00,
212,5.04e+00,5.12e+00,
213,4.88e+00,4.88e+00,
214,4.88e+00,4.88e+00,
215,5.04e+00,5.12e+00,
216,4.80e+00,5.12e+00,
217,4.96e+00,4.88e+00,
218,4.96e+00,4.88e+00,
219,4.80e+00,5.12e+00,
220,4.96e+00,5.20e+00,
221,4.80e+00,4.88e+00,
222,4.88e+00,4.88e+00,
223,4.72e+00,5.12e+00,
224,4.88e+00,5.12e+00,
225,4.72e+00,4.88e+00,
226,4.80e+00,5.12e+00,
227,4.64e+00,4.88e+00,
228,4.80e+00,5.12e+00,
229,4.56e+00,4.88e+00,
230,4.72e+00,5.12e+00,
231,4.56e+00,4.88e+00,
232,4.72e+00,4.88e+00,
233,4.48e+00,5.12e+00,
234,4.64e+00,4.88e+00,
235,4.40e+00,5.20e+00,
236,4.56e+00,4.88e+00,
237,4.32e+00,5.12e+00,
238,4.48e+00,4.88e+00,
239,4.24e+00,5.12e+00,
240,4.40e+00,4.88e+00,
241,4.16e+00,5.12e+00,
242,4.24e+00,4.88e+00,
243,4.00e+00,5.12e+00,
244,4.16e+00,5.12e+00,
245,3.92e+00,4.88e+00,
246,4.08e+00,5.12e+00,
247,3.84e+00,4.88e+00,
248,4.00e+00,5.12e+00,
249,3.76e+00,4.88e+00,
250,3.84e+00,4.88e+00,
251,3.68e+00,5.12e+00,
252,3.76e+00,5.12e+00,
253,3.60e+00,4.88e+00,
254,3.68e+00,5.12e+00,
255,3.44e+00,4.88e+00,
256,3.52e+00,5.12e+00,
257,3.36e+00,4.88e+00,
258,3.44e+00,4.88e+00,
259,3.20e+00,5.20e+00,
260,3.28e+00,5.12e+00,
261,3.04e+00,4.88e+00,
262,3.20e+00,5.12e+00,
263,2.96e+00,4.88e+00,
264,3.04e+00,5.12e+00,
265,2.80e+00,4.88e+00,
266,2.96e+00,4.88e+00,
267,2.72e+00,5.20e+00,
268,2.80e+00,4.88e+00,
269,2.64e+00,5.12e+00,
270,2.72e+00,4.88e+00,
271,2.48e+00,5.12e+00,
272,2.56e+00,5.12e+00,
273,2.40e+00,4.88e+00,
274,2.40e+00,5.12e+00,
275,2.24e+00,4.88e+00,
276,2.32e+00,5.12e+00,
277,2.08e+00,4.88e+00,
278,2.16e+00,5.12e+00,
279,1.92e+00,4.88e+00,
280,2.08e+00,4.88e+00,
281,1.84e+00,5.12e+00,
282,1.92e+00,5.12e+00,
283,1.76e+00,4.88e+00,
284,1.84e+00,5.12e+00,
285,1.60e+00,4.88e+00,
286,1.68e+00,4.88e+00,
287,1.52e+00,5.12e+00,
288,1.60e+00,4.88e+00,
289,1.44e+00,5.12e+00,
290,1.52e+00,5.12e+00,
291,1.28e+00,4.88e+00,
292,1.28e+00,4.88e+00,
293,1.12e+00,5.12e+00,
294,1.20e+00,4.88e+00,
295,1.04e+00,5.12e+00,
296,1.12e+00,4.88e+00,
297,9.60e-01,5.12e+00,
298,1.04e+00,4.88e+00,
299,8.80e-01,5.12e+00,
300,9.60e-01,4.88e+00,
301,8.00e-01,5.12e+00,
302,8.80e-01,4.88e+00,
303,6.40e-01,5.20e+00,
304,8.00e-01,5.12e+00,
305,5.60e-01,4.88e+00,
306,6.40e-01,4.88e+00,
307,4.80e-01,5.12e+00,
308,4.80e-01,5.12e+00,
309,5.60e-01,4.88e+00,
310,5.60e-01,4.88e+00,
311,3.20e-01,5.12e+00,
312,4.00e-01,4.88e+00,
313,2.40e-01,5.12e+00,
314,3.20e-01,5.12e+00,
315,1.60e-01,3.28e+00,
316,2.40e-01,3.20e+00,
317,1.60e-01,1.60e-01,
318,8.00e-02,2.40e-01,
319,2.40e-01,1.60e-01,
320,1.60e-01,2.40e-01,
321,0.00e+00,8.00e-02,
322,0.00e+00,2.40e-01,
323,1.60e-01,8.00e-02,
324,8.00e-02,2.40e-01,
325,0.00e+00,8.00e-02,
326,8.00e-02,2.40e-01,
327,-8.00e-02,8.00e-02,
328,-8.00e-02,2.40e-01,
329,8.00e-02,8.00e-02,
330,0.00e+00,2.40e-01,
331,-8.00e-02,8.00e-02,
332,-8.00e-02,2.40e-01,
333,0.00e+00,8.00e-02,
334,0.00e+00,2.40e-01,
335,-8.00e-02,8.00e-02,
336,-8.00e-02,2.40e-01,
337,0.00e+00,8.00e-02,
338,0.00e+00,2.40e-01,
339,-8.00e-02,8.00e-02,
340,-8.00e-02,2.40e-01,
341,0.00e+00,8.00e-02,
342,-8.00e-02,2.40e-01,
343,8.00e-02,8.00e-02,
344,-8.00e-02,2.40e-01,
345,8.00e-02,8.00e-02,
346,8.00e-02,2.40e-01,
347,0.00e+00,8.00e-02,
348,1.60e-01,8.00e-02,
349,0.00e+00,2.40e-01,
350,8.00e-02,2.40e-01,
351,2.40e-01,8.00e-02,
352,2.40e-01,2.40e-01,
353,8.00e-02,8.00e-02,
354,1.60e-01,2.40e-01,
355,3.20e-01,8.00e-02,
356,2.40e-01,8.00e-02,
357,4.00e-01,2.40e-01,
358,2.40e-01,2.40e-01,
359,4.00e-01,8.00e-02,
360,4.00e-01,8.00e-02,
361,5.60e-01,2.40e-01,
362,4.80e-01,2.40e-01,
363,6.40e-01,8.00e-02,
364,5.60e-01,8.00e-02,
365,7.20e-01,2.40e-01,
366,6.40e-01,2.40e-01,
367,8.00e-01,8.00e-02,
368,7.20e-01,2.40e-01,
369,8.80e-01,8.00e-02,
370,8.00e-01,1.60e-01,
371,9.60e-01,2.24e+00,
372,8.80e-01,2.32e+00,
373,1.12e+00,5.04e+00,
374,1.04e+00,5.04e+00,
375,1.20e+00,4.88e+00,
376,1.12e+00,4.88e+00,
377,1.28e+00,5.04e+00,
378,1.20e+00,4.88e+00,
379,1.36e+00,5.12e+00,
380,1.36e+00,5.12e+00,
381,1.60e+00,4.88e+00,
382,1.44e+00,4.88e+00,
383,1.68e+00,5.20e+00,
384,1.60e+00,5.12e+00,
385,1.76e+00,4.88e+00,
386,1.68e+00,4.88e+00,
387,1.92e+00,5.12e+00,
388,1.84e+00,5.12e+00,
389,2.00e+00,4.88e+00,
390,1.92e+00,5.12e+00,
391,2.16e+00,4.88e+00,
392,2.08e+00,4.88e+00,
393,2.24e+00,5.20e+00,
394,2.16e+00,4.88e+00,
395,2.40e+00,5.12e+00,
396,2.32e+00,4.88e+00,
397,2.48e+00,5.20e+00,
398,2.48e+00,4.88e+00,
399,2.64e+00,5.12e+00,
400,2.56e+00,5.12e+00,
401,2.80e+00,4.88e+00,
402,2.72e+00,5.12e+00,
403,2.88e+00,4.88e+00,
404,2.80e+00,5.12e+00,
405,3.04e+00,4.88e+00,
406,2.88e+00,4.88e+00,
407,3.12e+00,5.12e+00,
408,3.04e+00,5.12e+00,
409,3.20e+00,4.88e+00,
410,3.12e+00,4.88e+00,
411,3.36e+00,5.12e+00,
412,3.28e+00,5.12e+00,
413,3.52e+00,4.88e+00,
414,3.44e+00,4.88e+00,
415,3.60e+00,5.12e+00,
416,3.52e+00,5.20e+00,
417,3.76e+00,4.88e+00,
418,3.60e+00,4.88e+00,
419,3.84e+00,5.12e+00,
420,3.68e+00,5.12e+00,
421,3.92e+00,4.88e+00,
422,3.84e+00,5.12e+00,
423,4.00e+00,4.88e+00,
424,3.92e+00,5.12e+00,
425,4.16e+00,4.88e+00,
426,4.00e+00,4.88e+00,
427,4.24e+00,5.12e+00,
428,4.16e+00,5.12e+00,
429,4.32e+00,4.88e+00,
430,4.24e+00,5.12e+00,
431,4.48e+00,4.88e+00,
432,4.32e+00,5.12e+00,
433,4.56e+00,4.88e+00,
434,4.40e+00,5.12e+00,
435,4.56e+00,4.88e+00,
436,4.48e+00,4.88e+00,
437,4.64e+00,5.12e+00,
438,4.56e+00,5.12e+00,
439,4.72e+00,4.88e+00,
440,4.56e+00,5.12e+00,
441,4.80e+00,4.88e+00,
442,4.64e+00,4.88e+00,
443,4.80e+00,5.12e+00,
444,4.64e+00,4.88e+00,
445,4.88e+00,5.20e+00,
446,4.72e+00,4.88e+00,
447,4.96e+00,5.12e+00,
448,4.72e+00,5.12e+00,
449,4.96e+00,4.88e+00,
450,4.80e+00,4.88e+00,
451,4.96e+00,5.12e+00,
452,4.80e+00,4.88e+00,
453,4.96e+00,5.12e+00,
454,4.80e+00,4.88e+00,
455,5.04e+00,5.20e+00,
456,5.04e+00,5.12e+00,
457,4.88e+00,4.88e+00,
458,4.88e+00,4.88e+00,
459,5.04e+00,5.12e+00,
460,5.04e+00,5.20e+00,
461,4.88e+00,4.88e+00,
462,4.88e+00,4.88e+00,
463,5.04e+00,5.12e+00,
464,5.04e+00,4.88e+00,
465,4.88e+00,5.20e+00,
466,4.96e+00,4.88e+00,
467,4.80e+00,5.12e+00,
468,4.96e+00,5.12e+00,
469,4.80e+00,4.88e+00,
470,4.96e+00,5.12e+00,
471,4.80e+00,4.88e+00,
472,4.72e+00,4.88e+00,
473,4.88e+00,5.12e+00,
474,4.72e+00,5.12e+00,
475,4.88e+00,4.88e+00,
476,4.88e+00,5.12e+00,
477,4.64e+00,4.88e+00,
478,4.80e+00,4.88e+00,
479,4.56e+00,5.12e+00,
480,4.56e+00,5.20e+00,
481,4.72e+00,4.88e+00,
482,4.64e+00,4.88e+00,
483,4.48e+00,5.12e+00,
484,4.64e+00,5.20e+00,
485,4.40e+00,4.88e+00,
486,4.56e+00,4.88e+00,
487,4.32e+00,5.12e+00,
488,4.48e+00,5.12e+00,
489,4.24e+00,4.88e+00,
490,4.32e+00,4.88e+00,
491,4.16e+00,5.12e+00,
492,4.24e+00,4.88e+00,
493,4.00e+00,5.20e+00,
494,4.16e+00,4.88e+00,
495,3.92e+00,5.12e+00,
496,4.08e+00,5.12e+00,
497,3.84e+00,4.88e+00,
498,4.00e+00,5.12e+00,
499,3.76e+00,4.88e+00,
500,3.92e+00,4.88e+00,
501,3.68e+00,5.12e+00,
502,3.76e+00,4.88e+00,
503,3.60e+00,5.12e+00,
504,3.68e+00,4.88e+00,
505,3.44e+00,5.20e+00,
506,3.52e+00,4.88e+00,
507,3.36e+00,5.12e+00,
508,3.44e+00,5.12e+00,
509,3.20e+00,4.88e+00,
510,3.28e+00,5.12e+00,
511,3.12e+00,4.88e+00,
512,3.20e+00,5.12e+00,
513,2.96e+00,4.88e+00,
514,3.04e+00,4.88e+00,
515,2.80e+00,5.12e+00,
516,2.96e+00,5.12e+00,
517,2.72e+00,4.88e+00,
518,2.80e+00,5.12e+00,
519,2.64e+00,4.88e+00,
520,2.72e+00,5.12e+00,
521,2.48e+00,4.88e+00,
522,2.56e+00,4.88e+00,
523,2.40e+00,5.20e+00,
524,2.40e+00,4.88e+00,
525,2.16e+00,5.12e+00,
526,2.24e+00,4.88e+00,
527,2.08e+00,5.12e+00,
528,2.16e+00,5.20e+00,
529,1.92e+00,4.88e+00,
530,2.08e+00,5.12e+00,
531,1.84e+00,4.88e+00,
532,1.92e+00,4.88e+00,
533,1.76e+00,5.12e+00,
534,1.84e+00,5.12e+00,
535,1.60e+00,4.88e+00,
536,1.68e+00,4.88e+00,
537,1.52e+00,5.12e+00,
538,1.60e+00,4.88e+00,
539,1.44e+00,5.12e+00,
540,1.44e+00,5.12e+00,
541,1.28e+00,4.88e+00,
542,1.28e+00,4.88e+00,
543,1.12e+00,5.20e+00,
544,1.20e+00,4.88e+00,
545,1.04e+00,5.12e+00,
546,1.12e+00,4.88e+00,
547,9.60e-01,5.20e+00,
548,1.04e+00,4.88e+00,
549,8.80e-01,5.12e+00,
550,9.60e-01,4.88e+00,
551,7.20e-01,5.12e+00,
552,8.80e-01,5.12e+00,
553,6.40e-01,4.88e+00,
554,7.20e-01,5.12e+00,
555,5.60e-01,4.88e+00,
556,6.40e-01,4.88e+00,
557,4.80e-01,5.20e+00,
558,4.80e-01,4.88e+00,
559,6.40e-01,5.12e+00,
560,5.60e-01,5.12e+00,
561,4.00e-01,4.88e+00,
562,4.00e-01,5.20e+00,
563,2.40e-01,4.88e+00,
564,3.20e-01,5.12e+00,
565,1.60e-01,3.28e+00,
566,1.60e-01,3.20e+00,
567,2.40e-01,1.60e-01,
568,8.00e-02,2.40e-01,
569,2.40e-01,1.60e-01,
570,1.60e-01,2.40e-01,
571,0.00e+00,8.00e-02,
572,1.60e-01,2.40e-01,
573,0.00e+00,8.00e-02,
574,8.00e-02,2.40e-01,
575,0.00e+00,8.00e-02,
576,8.00e-02,2.40e-01,
577,-8.00e-02,8.00e-02,
578,8.00e-02,2.40e-01,
579,-8.00e-02,8.00e-02,
580,-8.00e-02,2.40e-01,
581,0.00e+00,8.00e-02,
582,-8.00e-02,2.40e-01,
583,0.00e+00,8.00e-02,
584,0.00e+00,2.40e-01,
585,-8.00e-02,8.00e-02,
586,0.00e+00,8.00e-02,
587,-8.00e-02,2.40e-01,
588,0.00e+00,2.40e-01,
589,-8.00e-02,8.00e-02,
590,0.00e+00,8.00e-02,
591,-8.00e-02,2.40e-01,
592,-8.00e-02,8.00e-02,
593,8.00e-02,2.40e-01,
594,8.00e-02,2.40e-01,
595,-8.00e-02,8.00e-02,
596,0.00e+00,2.40e-01,
597,1.60e-01,8.00e-02,
598,1.60e-01,8.00e-02,
599,0.00e+00,2.40e-01,
600,8.00e-02,8.00e-02,
601,2.40e-01,2.40e-01,
602,2.40e-01,2.40e-01,
603,8.00e-02,8.00e-02,
604,1.60e-01,2.40e-01,
605,3.20e-01,8.00e-02,
606,2.40e-01,8.00e-02,
607,4.00e-01,2.40e-01,
608,4.00e-01,8.00e-02,
609,2.40e-01,2.40e-01,
610,3.20e-01,8.00e-02,
611,5.60e-01,2.40e-01,
612,4.80e-01,8.00e-02,
613,6.40e-01,2.40e-01,
614,5.60e-01,8.00e-02,
615,7.20e-01,2.40e-01,
616,6.40e-01,8.00e-02,
617,8.00e-01,2.40e-01,
618,7.20e-01,2.40e-01,
619,8.80e-01,8.00e-02,
620,8.00e-01,1.60e-01,
621,9.60e-01,2.24e+00,
622,8.80e-01,2.32e+00,
623,1.12e+00,5.04e+00,
624,9.60e-01,5.04e+00,
625,1.20e+00,4.88e+00,
626,1.12e+00,5.04e+00,
627,1.28e+00,4.88e+00,
628,1.20e+00,5.12e+00,
629,1.36e+00,4.88e+00,
630,1.36e+00,4.88e+00,
631,1.60e+00,5.12e+00,
632,1.52e+00,4.88e+00,
633,1.68e+00,5.12e+00,
634,1.60e+00,5.12e+00,
635,1.76e+00,4.88e+00,
636,1.68e+00,5.12e+00,
637,1.92e+00,4.88e+00,
638,1.84e+00,4.88e+00,
639,2.00e+00,5.20e+00,
640,1.92e+00,5.12e+00,
641,2.16e+00,4.88e+00,
642,2.08e+00,4.88e+00,
643,2.24e+00,5.12e+00,
644,2.16e+00,5.12e+00,
645,2.32e+00,4.88e+00,
646,2.32e+00,4.88e+00,
647,2.56e+00,5.12e+00,
648,2.48e+00,5.12e+00,
649,2.64e+00,4.88e+00,
650,2.56e+00,4.88e+00,
651,2.80e+00,5.12e+00,
652,2.72e+00,4.88e+00,
653,2.88e+00,5.20e+00,
654,2.80e+00,4.88e+00,
655,3.04e+00,5.12e+00,
656,2.88e+00,5.12e+00,
657,3.12e+00,4.88e+00,
658,3.04e+00,4.88e+00,
659,3.28e+00,5.12e+00,
660,3.12e+00,5.12e+00,
661,3.44e+00,4.88e+00,
662,3.36e+00,5.12e+00,
663,3.52e+00,4.88e+00,
664,3.44e+00,5.12e+00,
665,3.60e+00,4.88e+00,
666,3.52e+00,4.88e+00,
667,3.76e+00,5.12e+00,
668,3.60e+00,5.12e+00,
669,3.84e+00,4.88e+00,
670,3.76e+00,4.88e+00,
671,3.92e+00,5.12e+00,
672,3.84e+00,5.12e+00,
673,4.00e+00,4.88e+00,
674,3.92e+00,4.88e+00,
675,4.16e+00,5.12e+00,
676,4.00e+00,4.88e+00,
677,4.24e+00,5.12e+00,
678,4.08e+00,4.88e+00,
679,4.40e+00,5.12e+00,
680,4.24e+00,5.12e+00,
681,4.40e+00,4.88e+00,
682,4.32e+00,4.88e+00,
683,4.56e+00,5.12e+00,
684,4.56e+00,4.88e+00,
685,4.40e+00,5.12e+00,
686,4.48e+00,4.88e+00,
687,4.64e+00,5.12e+00,
688,4.56e+00,4.88e+00,
689,4.72e+00,5.20e+00,
690,4.56e+00,4.88e+00,
691,4.80e+00,5.12e+00,
692,4.80e+00,4.88e+00,
693,4.64e+00,5.12e+00,
694,4.72e+00,5.12e+00,
695,4.88e+00,4.88e+00,
696,4.88e+00,5.12e+00,
697,4.72e+00,4.88e+00,
698,4.72e+00,4.88e+00,
699,4.96e+00,5.12e+00,
700,4.96e+00,5.12e+00,
701,4.80e+00,4.88e+00,
702,4.80e+00,5.12e+00,
703,4.96e+00,4.88e+00,
704,4.80e+00,5.12e+00,
705,5.04e+00,4.88e+00,
706,4.88e+00,5.12e+00,
707,5.04e+00,4.88e+00,
708,5.04e+00,5.12e+00,
709,4.88e+00,4.88e+00,
710,4.88e+00,5.12e+00,
711,5.04e+00,4.88e+00,
712,5.04e+00,4.88e+00,
713,4.88e+00,5.12e+00,
714,4.88e+00,4.88e+00,
715,5.04e+00,5.12e+00,
716,4.96e+00,5.12e+00,
717,4.80e+00,4.88e+00,
718,4.96e+00,4.88e+00,
719,4.80e+00,5.12e+00,
720,4.96e+00,5.12e+00,
721,4.80e+00,4.88e+00,
722,4.96e+00,4.88e+00,
723,4.72e+00,5.12e+00,
724,4.72e+00,5.12e+00,
725,4.88e+00,4.88e+00,
726,4.80e+00,4.88e+00,
727,4.64e+00,5.12e+00,
728,4.64e+00,5.12e+00,
729,4.80e+00,4.88e+00,
730,4.72e+00,4.88e+00,
731,4.56e+00,5.12e+00,
732,4.72e+00,5.12e+00,
733,4.48e+00,4.88e+00,
734,4.64e+00,4.88e+00,
735,4.40e+00,5.12e+00,
736,4.56e+00,4.88e+00,
737,4.32e+00,5.12e+00,
738,4.48e+00,5.20e+00,
739,4.24e+00,4.88e+00,
740,4.16e+00,4.88e+00,
741,4.40e+00,5.12e+00,
742,4.24e+00,4.88e+00,
743,4.00e+00,5.12e+00,
744,4.16e+00,4.88e+00,
745,3.92e+00,5.12e+00,
746,4.08e+00,4.88e+00,
747,3.84e+00,5.12e+00,
748,4.00e+00,5.20e+00,
749,3.76e+00,4.88e+00,
750,3.84e+00,4.88e+00,
751,3.68e+00,5.12e+00,
752,3.60e+00,5.12e+00,
753,3.76e+00,4.88e+00,
754,3.60e+00,4.88e+00,
755,3.44e+00,5.12e+00,
756,3.52e+00,5.12e+00,
757,3.36e+00,4.88e+00,
758,3.44e+00,4.88e+00,
759,3.20e+00,5.12e+00,
760,3.28e+00,4.88e+00,
761,3.04e+00,5.12e+00,
762,3.20e+00,5.12e+00,
763,2.96e+00,4.88e+00,
764,3.04e+00,5.12e+00,
765,2.88e+00,4.88e+00,
766,2.96e+00,5.12e+00,
767,2.72e+00,4.88e+00,
768,2.80e+00,5.12e+00,
769,2.64e+00,4.88e+00,
770,2.72e+00,4.88e+00,
771,2.48e+00,5.12e+00,
772,2.56e+00,5.12e+00,
773,2.40e+00,4.88e+00,
774,2.40e+00,4.88e+00,
775,2.16e+00,5.12e+00,
776,2.32e+00,4.88e+00,
777,2.08e+00,5.12e+00,
778,2.16e+00,5.12e+00,
779,1.92e+00,4.88e+00,
780,2.08e+00,5.12e+00,
781,1.84e+00,4.88e+00,
782,1.92e+00,4.88e+00,
783,1.76e+00,5.12e+00,
784,1.84e+00,4.88e+00,
785,1.60e+00,5.20e+00,
786,1.68e+00,4.88e+00,
787,1.52e+00,5.12e+00,
788,1.60e+00,5.12e+00,
789,1.44e+00,4.88e+00,
790,1.52e+00,5.12e+00,
791,1.28e+00,4.88e+00,
792,1.28e+00,4.88e+00,
793,1.12e+00,5.20e+00,
794,1.20e+00,5.20e+00,
795,1.04e+00,4.88e+00,
796,1.12e+00,5.12e+00,
797,9.60e-01,4.88e+00,
798,1.04e+00,4.88e+00,
799,8.80e-01,5.12e+00,
800,9.60e-01,4.88e+00,
801,7.20e-01,5.20e+00,
802,8.80e-01,4.88e+00,
803,6.40e-01,5.12e+00,
804,7.20e-01,5.12e+00,
805,5.60e-01,4.88e+00,
806,7.20e-01,4.88e+00,
807,4.80e-01,5.12e+00,
808,4.80e-01,4.88e+00,
809,6.40e-01,5.12e+00,
810,4.80e-01,5.12e+00,
811,4.00e-01,4.88e+00,
812,4.00e-01,5.20e+00,
813,2.40e-01,4.88e+00,
814,3.20e-01,5.20e+00,
815,1.60e-01,3.28e+00,
816,1.60e-01,3.12e+00,
817,2.40e-01,1.60e-01,
818,8.00e-02,2.40e-01,
819,2.40e-01,1.60e-01,
820,1.60e-01,2.40e-01,
821,0.00e+00,8.00e-02,
822,1.60e-01,2.40e-01,
823,0.00e+00,8.00e-02,
824,8.00e-02,2.40e-01,
825,0.00e+00,8.00e-02,
826,8.00e-02,2.40e-01,
827,-8.00e-02,8.00e-02,
828,8.00e-02,2.40e-01,
829,-8.00e-02,8.00e-02,
830,0.00e+00,2.40e-01,
831,-8.00e-02,8.00e-02,
832,0.00e+00,2.40e-01,
833,-8.00e-02,8.00e-02,
834,-8.00e-02,8.00e-02,
835,0.00e+00,2.40e-01,
836,0.00e+00,2.40e-01,
837,-8.00e-02,8.00e-02,
838,0.00e+00,2.40e-01,
839,-8.00e-02,8.00e-02,
840,0.00e+00,2.40e-01,
841,-8.00e-02,8.00e-02,
842,-8.00e-02,2.40e-01,
843,8.00e-02,8.00e-02,
844,8.00e-02,2.40e-01,
845,-8.00e-02,8.00e-02,
846,8.00e-02,2.40e-01,
847,0.00e+00,8.00e-02,
848,0.00e+00,2.40e-01,
849,1.60e-01,8.00e-02,
850,8.00e-02,8.00e-02,
851,2.40e-01,2.40e-01,
852,2.40e-01,2.40e-01,
853,8.00e-02,8.00e-02,
854,1.60e-01,2.40e-01,
855,3.20e-01,8.00e-02,
856,2.40e-01,2.40e-01,
857,4.00e-01,8.00e-02,
858,4.00e-01,2.40e-01,
859,2.40e-01,8.00e-02,
860,4.00e-01,2.40e-01,
861,5.60e-01,8.00e-02,
862,4.80e-01,2.40e-01,
863,6.40e-01,8.00e-02,
864,5.60e-01,2.40e-01,
865,7.20e-01,8.00e-02,
866,6.40e-01,8.00e-02,
867,8.00e-01,2.40e-01,
868,7.20e-01,2.40e-01,
