project/matlab/project_exp3/6.5 kHz/NewFile1.csv

X,CH1,CH2,Start,Increment,
Sequence,Volt,Volt,4.200000e-04,5.000000e-07
0,8.00e-02,8.00e-02,
1,-8.00e-02,2.40e-01,
2,8.00e-02,2.40e-01,
3,-8.00e-02,8.00e-02,
4,8.00e-02,2.40e-01,
5,0.00e+00,8.00e-02,
6,0.00e+00,2.40e-01,
7,1.60e-01,8.00e-02,
8,1.60e-01,2.40e-01,
9,8.00e-02,8.00e-02,
10,8.00e-02,2.40e-01,
11,2.40e-01,8.00e-02,
12,8.00e-02,2.40e-01,
13,2.40e-01,8.00e-02,
14,1.60e-01,2.40e-01,
15,3.20e-01,8.00e-02,
16,2.40e-01,2.40e-01,
17,3.20e-01,8.00e-02,
18,2.40e-01,2.40e-01,
19,4.00e-01,8.00e-02,
20,3.20e-01,2.40e-01,
21,4.80e-01,8.00e-02,
22,4.00e-01,8.00e-02,
23,5.60e-01,2.40e-01,
24,4.80e-01,2.40e-01,
25,6.40e-01,8.00e-02,
26,5.60e-01,2.40e-01,
27,7.20e-01,8.00e-02,
28,6.40e-01,8.00e-02,
29,8.00e-01,2.40e-01,
30,6.40e-01,2.40e-01,
31,8.00e-01,8.00e-02,
32,7.20e-01,2.40e-01,
33,8.80e-01,8.00e-02,
34,8.00e-01,1.60e-01,
35,9.60e-01,2.96e+00,
36,8.80e-01,3.04e+00,
37,1.04e+00,5.04e+00,
38,9.60e-01,4.96e+00,
39,1.12e+00,4.88e+00,
40,1.04e+00,4.88e+00,
41,1.20e+00,5.12e+00,
42,1.12e+00,4.88e+00,
43,1.28e+00,5.12e+00,
44,1.20e+00,4.88e+00,
45,1.36e+00,5.12e+00,
46,1.36e+00,4.88e+00,
47,1.52e+00,5.12e+00,
48,1.44e+00,4.88e+00,
49,1.68e+00,5.20e+00,
50,1.52e+00,4.88e+00,
51,1.68e+00,5.12e+00,
52,1.60e+00,5.12e+00,
53,1.84e+00,4.88e+00,
54,1.76e+00,4.88e+00,
55,1.92e+00,5.12e+00,
56,1.84e+00,4.88e+00,
57,2.00e+00,5.12e+00,
58,1.92e+00,4.88e+00,
59,2.08e+00,5.12e+00,
60,2.00e+00,4.88e+00,
61,2.16e+00,5.12e+00,
62,2.08e+00,5.12e+00,
63,2.24e+00,4.88e+00,
64,2.16e+00,4.88e+00,
65,2.48e+00,5.12e+00,
66,2.32e+00,4.88e+00,
67,2.56e+00,5.12e+00,
68,2.40e+00,5.12e+00,
69,2.64e+00,4.88e+00,
70,2.56e+00,4.88e+00,
71,2.72e+00,5.12e+00,
72,2.64e+00,5.12e+00,
73,2.80e+00,4.88e+00,
74,2.72e+00,4.88e+00,
75,2.88e+00,5.12e+00,
76,2.80e+00,4.88e+00,
77,3.04e+00,5.12e+00,
78,2.88e+00,4.88e+00,
79,3.12e+00,5.12e+00,
80,3.04e+00,5.12e+00,
81,3.20e+00,4.88e+00,
82,3.12e+00,4.88e+00,
83,3.28e+00,5.12e+00,
84,3.20e+00,5.12e+00,
85,3.36e+00,4.88e+00,
86,3.36e+00,4.88e+00,
87,3.52e+00,5.12e+00,
88,3.44e+00,4.88e+00,
89,3.60e+00,5.12e+00,
90,3.52e+00,4.88e+00,
91,3.68e+00,5.12e+00,
92,3.60e+00,4.88e+00,
93,3.76e+00,5.20e+00,
94,3.68e+00,4.88e+00,
95,3.84e+00,5.12e+00,
96,3.76e+00,5.12e+00,
97,3.92e+00,4.88e+00,
98,3.84e+00,5.12e+00,
99,4.00e+00,4.88e+00,
100,3.92e+00,4.88e+00,
101,4.08e+00,5.20e+00,
102,4.00e+00,4.88e+00,
103,4.16e+00,5.12e+00,
104,4.08e+00,4.88e+00,
105,4.24e+00,5.12e+00,
106,4.16e+00,4.88e+00,
107,4.40e+00,5.12e+00,
108,4.16e+00,4.88e+00,
109,4.48e+00,5.20e+00,
110,4.32e+00,4.88e+00,
111,4.48e+00,5.12e+00,
112,4.40e+00,4.88e+00,
113,4.56e+00,5.12e+00,
114,4.48e+00,4.88e+00,
115,4.64e+00,5.12e+00,
116,4.48e+00,4.88e+00,
117,4.64e+00,5.20e+00,
118,4.56e+00,5.12e+00,
119,4.72e+00,4.88e+00,
120,4.56e+00,5.12e+00,
121,4.80e+00,4.88e+00,
122,4.64e+00,4.88e+00,
123,4.80e+00,5.20e+00,
124,4.64e+00,4.88e+00,
125,4.88e+00,5.20e+00,
126,4.72e+00,4.88e+00,
127,4.88e+00,5.20e+00,
128,4.72e+00,4.88e+00,
129,4.88e+00,5.20e+00,
130,4.80e+00,4.88e+00,
131,4.96e+00,5.12e+00,
132,4.80e+00,5.12e+00,
133,4.96e+00,4.88e+00,
134,4.96e+00,4.88e+00,
135,4.80e+00,5.20e+00,
136,4.96e+00,4.88e+00,
137,4.80e+00,5.12e+00,
138,4.88e+00,4.88e+00,
139,5.04e+00,5.12e+00,
140,5.04e+00,4.88e+00,
141,4.88e+00,5.12e+00,
142,4.88e+00,5.12e+00,
143,5.04e+00,4.88e+00,
144,5.04e+00,4.88e+00,
145,4.88e+00,5.12e+00,
146,4.88e+00,5.12e+00,
147,5.04e+00,4.88e+00,
148,5.04e+00,5.12e+00,
149,4.88e+00,4.88e+00,
150,4.88e+00,4.88e+00,
151,5.04e+00,5.12e+00,
152,4.96e+00,4.88e+00,
153,4.80e+00,5.12e+00,
154,4.96e+00,5.12e+00,
155,4.80e+00,4.88e+00,
156,4.96e+00,4.88e+00,
157,4.80e+00,5.12e+00,
158,4.96e+00,4.88e+00,
159,4.72e+00,5.12e+00,
160,4.88e+00,4.96e+00,
161,4.72e+00,5.12e+00,
162,4.88e+00,4.88e+00,
163,4.72e+00,5.12e+00,
164,4.88e+00,5.12e+00,
165,4.64e+00,4.88e+00,
166,4.80e+00,4.88e+00,
167,4.64e+00,5.12e+00,
168,4.72e+00,4.88e+00,
169,4.56e+00,5.12e+00,
170,4.72e+00,4.88e+00,
171,4.56e+00,5.12e+00,
172,4.64e+00,4.88e+00,
173,4.48e+00,5.12e+00,
174,4.64e+00,4.88e+00,
175,4.40e+00,5.12e+00,
176,4.40e+00,5.12e+00,
177,4.56e+00,4.88e+00,
178,4.48e+00,4.88e+00,
179,4.32e+00,5.12e+00,
180,4.48e+00,5.12e+00,
181,4.24e+00,4.88e+00,
182,4.32e+00,5.12e+00,
183,4.16e+00,4.88e+00,
184,4.24e+00,4.88e+00,
185,4.08e+00,5.12e+00,
186,4.16e+00,4.88e+00,
187,4.00e+00,5.12e+00,
188,4.08e+00,4.88e+00,
189,3.92e+00,5.12e+00,
190,4.00e+00,4.88e+00,
191,3.84e+00,5.20e+00,
192,3.92e+00,4.88e+00,
193,3.76e+00,5.12e+00,
194,3.84e+00,4.88e+00,
195,3.68e+00,5.12e+00,
196,3.76e+00,5.12e+00,
197,3.60e+00,4.88e+00,
198,3.68e+00,4.88e+00,
199,3.52e+00,5.12e+00,
200,3.60e+00,5.12e+00,
201,3.44e+00,4.88e+00,
202,3.52e+00,4.88e+00,
203,3.36e+00,5.12e+00,
204,3.28e+00,4.88e+00,
205,3.44e+00,5.20e+00,
206,3.28e+00,5.12e+00,
207,3.12e+00,4.88e+00,
208,3.20e+00,5.12e+00,
209,2.96e+00,4.88e+00,
210,3.12e+00,4.88e+00,
211,2.88e+00,5.12e+00,
212,3.04e+00,4.88e+00,
213,2.80e+00,5.12e+00,
214,2.88e+00,4.88e+00,
215,2.72e+00,5.12e+00,
216,2.80e+00,4.88e+00,
217,2.64e+00,5.12e+00,
218,2.72e+00,4.88e+00,
219,2.56e+00,5.12e+00,
220,2.64e+00,5.12e+00,
221,2.40e+00,4.88e+00,
222,2.48e+00,4.88e+00,
223,2.32e+00,5.12e+00,
224,2.40e+00,5.12e+00,
225,2.24e+00,4.88e+00,
226,2.24e+00,5.12e+00,
227,2.08e+00,4.88e+00,
228,2.16e+00,4.88e+00,
229,2.00e+00,5.20e+00,
230,2.08e+00,4.88e+00,
231,1.92e+00,5.12e+00,
232,2.00e+00,4.88e+00,
233,1.84e+00,5.12e+00,
234,1.92e+00,4.88e+00,
235,1.68e+00,5.20e+00,
236,1.84e+00,4.88e+00,
237,1.60e+00,5.12e+00,
238,1.68e+00,4.88e+00,
239,1.52e+00,5.12e+00,
240,1.60e+00,4.88e+00,
241,1.44e+00,5.12e+00,
242,1.52e+00,4.88e+00,
243,1.28e+00,5.12e+00,
244,1.36e+00,4.88e+00,
245,1.20e+00,5.12e+00,
246,1.28e+00,5.12e+00,
247,1.12e+00,4.88e+00,
248,1.20e+00,5.12e+00,
249,1.04e+00,4.88e+00,
250,1.12e+00,5.12e+00,
251,9.60e-01,4.88e+00,
252,1.04e+00,5.12e+00,
253,8.80e-01,4.88e+00,
254,9.60e-01,4.88e+00,
255,8.00e-01,5.12e+00,
256,8.80e-01,4.88e+00,
257,7.20e-01,5.12e+00,
258,7.20e-01,4.88e+00,
259,8.00e-01,5.12e+00,
260,8.00e-01,5.12e+00,
261,6.40e-01,4.88e+00,
262,7.20e-01,5.12e+00,
263,5.60e-01,4.88e+00,
264,6.40e-01,4.96e+00,
265,4.80e-01,5.20e+00,
266,5.60e-01,4.88e+00,
267,4.00e-01,5.12e+00,
268,4.00e-01,4.88e+00,
269,5.60e-01,5.20e+00,
270,4.00e-01,4.88e+00,
271,2.40e-01,5.12e+00,
272,3.20e-01,5.12e+00,
273,1.60e-01,4.64e+00,
274,1.60e-01,4.56e+00,
275,3.20e-01,1.60e-01,
276,2.40e-01,2.40e-01,
277,8.00e-02,8.00e-02,
278,2.40e-01,2.40e-01,
279,8.00e-02,8.00e-02,
280,1.60e-01,8.00e-02,
281,0.00e+00,2.40e-01,
282,1.60e-01,2.40e-01,
283,0.00e+00,8.00e-02,
284,8.00e-02,2.40e-01,
285,0.00e+00,8.00e-02,
286,8.00e-02,2.40e-01,
287,0.00e+00,8.00e-02,
288,8.00e-02,2.40e-01,
289,-8.00e-02,8.00e-02,
290,-8.00e-02,2.40e-01,
291,8.00e-02,8.00e-02,
292,0.00e+00,2.40e-01,
293,-8.00e-02,8.00e-02,
294,0.00e+00,2.40e-01,
295,-8.00e-02,8.00e-02,
296,-8.00e-02,2.40e-01,
297,0.00e+00,8.00e-02,
298,-8.00e-02,8.00e-02,
299,0.00e+00,2.40e-01,
300,0.00e+00,2.40e-01,
301,-8.00e-02,8.00e-02,
302,0.00e+00,2.40e-01,
303,-8.00e-02,8.00e-02,
304,0.00e+00,8.00e-02,
305,-8.00e-02,2.40e-01,
306,-8.00e-02,8.00e-02,
307,8.00e-02,2.40e-01,
308,-8.00e-02,2.40e-01,
309,8.00e-02,8.00e-02,
310,0.00e+00,2.40e-01,
311,8.00e-02,8.00e-02,
312,8.00e-02,2.40e-01,
313,0.00e+00,8.00e-02,
314,0.00e+00,2.40e-01,
315,1.60e-01,8.00e-02,
316,1.60e-01,2.40e-01,
317,8.00e-02,8.00e-02,
318,8.00e-02,2.40e-01,
319,2.40e-01,8.00e-02,
320,1.60e-01,2.40e-01,
321,2.40e-01,8.00e-02,
322,1.60e-01,2.40e-01,
323,3.20e-01,8.00e-02,
324,3.20e-01,2.40e-01,
325,2.40e-01,8.00e-02,
326,4.00e-01,2.40e-01,
327,2.40e-01,8.00e-02,
328,4.00e-01,2.40e-01,
329,5.60e-01,8.00e-02,
330,4.00e-01,2.40e-01,
331,5.60e-01,8.00e-02,
332,4.80e-01,8.00e-02,
333,6.40e-01,2.40e-01,
334,5.60e-01,2.40e-01,
335,7.20e-01,8.00e-02,
336,6.40e-01,8.00e-02,
337,8.00e-01,2.40e-01,
338,7.20e-01,2.40e-01,
339,8.80e-01,8.00e-02,
340,7.20e-01,2.40e-01,
341,8.80e-01,8.00e-02,
342,8.00e-01,1.60e-01,
343,9.60e-01,3.52e+00,
344,8.80e-01,3.60e+00,
345,1.04e+00,5.04e+00,
346,9.60e-01,5.04e+00,
347,1.12e+00,4.88e+00,
348,1.04e+00,5.04e+00,
349,1.20e+00,4.88e+00,
350,1.20e+00,5.04e+00,
351,1.28e+00,4.88e+00,
352,1.28e+00,5.20e+00,
353,1.36e+00,4.88e+00,
354,1.36e+00,5.12e+00,
355,1.52e+00,4.88e+00,
356,1.44e+00,4.88e+00,
357,1.68e+00,5.12e+00,
358,1.52e+00,4.88e+00,
359,1.76e+00,5.12e+00,
360,1.68e+00,4.88e+00,
361,1.84e+00,5.12e+00,
362,1.76e+00,4.88e+00,
363,1.92e+00,5.12e+00,
364,1.84e+00,5.12e+00,
365,2.00e+00,4.88e+00,
366,1.92e+00,4.88e+00,
367,2.08e+00,5.12e+00,
368,2.00e+00,4.88e+00,
369,2.16e+00,5.12e+00,
370,2.16e+00,4.88e+00,
371,2.32e+00,5.12e+00,
372,2.24e+00,5.12e+00,
373,2.48e+00,4.88e+00,
374,2.40e+00,5.04e+00,
375,2.56e+00,4.88e+00,
376,2.48e+00,4.88e+00,
377,2.64e+00,5.12e+00,
378,2.56e+00,4.88e+00,
379,2.72e+00,5.12e+00,
380,2.64e+00,4.88e+00,
381,2.80e+00,5.12e+00,
382,2.72e+00,4.88e+00,
383,2.96e+00,5.12e+00,
384,2.80e+00,4.88e+00,
385,3.04e+00,5.12e+00,
386,2.96e+00,4.88e+00,
387,3.12e+00,5.12e+00,
388,3.04e+00,4.88e+00,
389,3.20e+00,5.20e+00,
390,3.12e+00,5.12e+00,
391,3.28e+00,4.88e+00,
392,3.28e+00,4.88e+00,
393,3.44e+00,5.20e+00,
394,3.36e+00,4.88e+00,
395,3.52e+00,5.12e+00,
396,3.44e+00,4.88e+00,
397,3.60e+00,5.12e+00,
398,3.52e+00,4.88e+00,
399,3.68e+00,5.12e+00,
400,3.60e+00,5.12e+00,
401,3.76e+00,4.88e+00,
402,3.68e+00,4.88e+00,
403,3.84e+00,5.12e+00,
404,3.76e+00,4.88e+00,
405,3.92e+00,5.20e+00,
406,3.84e+00,4.88e+00,
407,4.00e+00,5.20e+00,
408,3.92e+00,4.88e+00,
409,4.08e+00,5.12e+00,
410,4.00e+00,4.88e+00,
411,4.16e+00,5.12e+00,
412,4.08e+00,5.12e+00,
413,4.24e+00,4.88e+00,
414,4.24e+00,4.88e+00,
415,4.32e+00,5.20e+00,
416,4.24e+00,5.12e+00,
417,4.48e+00,4.88e+00,
418,4.32e+00,4.88e+00,
419,4.48e+00,5.12e+00,
420,4.40e+00,4.88e+00,
421,4.56e+00,5.12e+00,
422,4.48e+00,4.88e+00,
423,4.64e+00,5.12e+00,
424,4.48e+00,5.12e+00,
425,4.72e+00,4.88e+00,
426,4.56e+00,4.88e+00,
427,4.72e+00,5.12e+00,
428,4.56e+00,5.12e+00,
429,4.80e+00,4.88e+00,
430,4.80e+00,4.88e+00,
431,4.64e+00,5.12e+00,
432,4.64e+00,4.88e+00,
433,4.88e+00,5.12e+00,
434,4.72e+00,5.12e+00,
435,4.88e+00,4.88e+00,
436,4.88e+00,4.88e+00,
437,4.72e+00,5.12e+00,
438,4.80e+00,5.12e+00,
439,4.96e+00,4.88e+00,
440,4.80e+00,5.12e+00,
441,4.96e+00,4.88e+00,
442,4.96e+00,4.88e+00,
443,4.80e+00,5.12e+00,
444,4.80e+00,4.88e+00,
445,4.96e+00,5.12e+00,
446,4.88e+00,4.88e+00,
447,5.04e+00,5.12e+00,
448,4.88e+00,5.12e+00,
449,5.04e+00,4.88e+00,
450,4.88e+00,4.88e+00,
451,5.04e+00,5.20e+00,
452,4.88e+00,4.88e+00,
453,5.04e+00,5.12e+00,
454,5.04e+00,4.88e+00,
455,4.88e+00,5.12e+00,
456,4.88e+00,4.88e+00,
457,5.04e+00,5.20e+00,
458,5.04e+00,4.88e+00,
459,4.80e+00,5.12e+00,
460,4.96e+00,4.88e+00,
461,4.80e+00,5.12e+00,
462,4.96e+00,4.88e+00,
463,4.80e+00,5.12e+00,
464,4.96e+00,4.88e+00,
465,4.80e+00,5.12e+00,
466,4.96e+00,4.88e+00,
467,4.72e+00,5.12e+00,
468,4.88e+00,5.20e+00,
469,4.72e+00,4.88e+00,
470,4.88e+00,4.88e+00,
471,4.72e+00,5.12e+00,
472,4.88e+00,4.88e+00,
473,4.64e+00,5.12e+00,
474,4.64e+00,4.88e+00,
475,4.80e+00,5.12e+00,
476,4.72e+00,4.88e+00,
477,4.56e+00,5.12e+00,
478,4.72e+00,4.88e+00,
479,4.48e+00,5.20e+00,
480,4.64e+00,4.88e+00,
481,4.48e+00,5.12e+00,
482,4.56e+00,4.88e+00,
483,4.40e+00,5.12e+00,
484,4.56e+00,5.12e+00,
485,4.32e+00,4.88e+00,
486,4.48e+00,4.88e+00,
487,4.32e+00,5.12e+00,
488,4.48e+00,4.88e+00,
489,4.24e+00,5.12e+00,
490,4.32e+00,4.88e+00,
491,4.08e+00,5.12e+00,
492,4.24e+00,5.12e+00,
493,4.00e+00,4.88e+00,
494,4.16e+00,4.88e+00,
495,4.00e+00,5.12e+00,
496,4.08e+00,4.88e+00,
497,3.92e+00,5.20e+00,
498,4.00e+00,4.88e+00,
499,3.84e+00,5.12e+00,
500,3.92e+00,5.20e+00,
501,3.76e+00,4.88e+00,
502,3.84e+00,4.88e+00,
503,3.68e+00,5.12e+00,
504,3.76e+00,5.12e+00,
505,3.60e+00,4.88e+00,
506,3.68e+00,4.88e+00,
507,3.52e+00,5.12e+00,
508,3.60e+00,4.88e+00,
509,3.36e+00,5.12e+00,
510,3.52e+00,4.88e+00,
511,3.28e+00,5.12e+00,
512,3.44e+00,4.88e+00,
513,3.20e+00,5.12e+00,
514,3.28e+00,4.88e+00,
515,3.04e+00,5.12e+00,
516,3.20e+00,5.12e+00,
517,2.96e+00,4.88e+00,
518,3.04e+00,5.12e+00,
519,2.88e+00,4.88e+00,
520,2.96e+00,4.88e+00,
521,2.80e+00,5.12e+00,
522,2.88e+00,5.12e+00,
523,2.72e+00,4.88e+00,
524,2.80e+00,5.12e+00,
525,2.64e+00,4.88e+00,
526,2.72e+00,4.88e+00,
527,2.48e+00,5.12e+00,
528,2.64e+00,5.12e+00,
529,2.40e+00,4.88e+00,
530,2.48e+00,4.88e+00,
531,2.32e+00,5.12e+00,
532,2.32e+00,5.12e+00,
533,2.16e+00,4.88e+00,
534,2.24e+00,4.88e+00,
535,2.08e+00,5.12e+00,
536,2.16e+00,4.88e+00,
537,2.00e+00,5.20e+00,
538,2.08e+00,4.88e+00,
539,1.92e+00,5.12e+00,
540,2.00e+00,4.88e+00,
541,1.76e+00,5.20e+00,
542,1.92e+00,4.88e+00,
543,1.68e+00,5.12e+00,
544,1.76e+00,5.20e+00,
545,1.60e+00,4.88e+00,
546,1.68e+00,4.88e+00,
547,1.52e+00,5.20e+00,
548,1.60e+00,4.88e+00,
549,1.44e+00,5.12e+00,
550,1.52e+00,4.88e+00,
551,1.36e+00,5.12e+00,
552,1.36e+00,4.88e+00,
553,1.20e+00,5.20e+00,
554,1.28e+00,4.88e+00,
555,1.12e+00,5.12e+00,
556,1.20e+00,5.12e+00,
557,1.04e+00,4.88e+00,
558,1.12e+00,4.88e+00,
559,9.60e-01,5.12e+00,
560,1.04e+00,4.88e+00,
561,8.80e-01,5.20e+00,
562,9.60e-01,4.88e+00,
563,8.00e-01,5.12e+00,
564,8.80e-01,4.88e+00,
565,7.20e-01,5.12e+00,
566,8.00e-01,4.88e+00,
567,6.40e-01,5.12e+00,
568,6.40e-01,5.12e+00,
569,8.00e-01,4.88e+00,
570,7.20e-01,4.88e+00,
571,5.60e-01,5.12e+00,
572,6.40e-01,5.12e+00,
573,4.80e-01,4.88e+00,
574,5.60e-01,4.88e+00,
575,4.00e-01,5.12e+00,
576,4.00e-01,4.88e+00,
577,4.00e-01,5.12e+00,
578,4.00e-01,4.88e+00,
579,2.40e-01,5.12e+00,
580,3.20e-01,5.12e+00,
581,1.60e-01,3.92e+00,
582,3.20e-01,3.84e+00,
583,1.60e-01,1.60e-01,
584,2.40e-01,2.40e-01,
585,8.00e-02,8.00e-02,
586,2.40e-01,2.40e-01,
587,8.00e-02,8.00e-02,
588,1.60e-01,2.40e-01,
589,0.00e+00,8.00e-02,
590,0.00e+00,8.00e-02,
591,1.60e-01,2.40e-01,
592,8.00e-02,2.40e-01,
593,0.00e+00,8.00e-02,
594,8.00e-02,2.40e-01,
595,-8.00e-02,8.00e-02,
596,8.00e-02,2.40e-01,
597,-8.00e-02,8.00e-02,
598,8.00e-02,8.00e-02,
599,-8.00e-02,2.40e-01,
600,-8.00e-02,2.40e-01,
601,0.00e+00,8.00e-02,
602,-8.00e-02,2.40e-01,
603,0.00e+00,8.00e-02,
604,0.00e+00,2.40e-01,
605,-8.00e-02,8.00e-02,
606,0.00e+00,2.40e-01,
607,-8.00e-02,8.00e-02,
608,-8.00e-02,8.00e-02,
609,0.00e+00,2.40e-01,
610,-8.00e-02,2.40e-01,
611,0.00e+00,8.00e-02,
612,0.00e+00,2.40e-01,
613,-8.00e-02,8.00e-02,
614,-8.00e-02,8.00e-02,
615,8.00e-02,2.40e-01,
616,-8.00e-02,8.00e-02,
617,8.00e-02,2.40e-01,
618,0.00e+00,8.00e-02,
619,8.00e-02,2.40e-01,
620,0.00e+00,8.00e-02,
621,1.60e-01,2.40e-01,
622,0.00e+00,2.40e-01,
623,1.60e-01,8.00e-02,
624,1.60e-01,8.00e-02,
625,8.00e-02,2.40e-01,
626,8.00e-02,8.00e-02,
627,2.40e-01,2.40e-01,
628,2.40e-01,2.40e-01,
629,1.60e-01,8.00e-02,
630,1.60e-01,8.00e-02,
631,3.20e-01,2.40e-01,
632,2.40e-01,2.40e-01,
633,4.00e-01,8.00e-02,
634,2.40e-01,2.40e-01,
635,4.00e-01,8.00e-02,
636,4.00e-01,2.40e-01,
637,5.60e-01,8.00e-02,
638,4.80e-01,2.40e-01,
639,5.60e-01,8.00e-02,
640,4.80e-01,2.40e-01,
641,6.40e-01,8.00e-02,
642,5.60e-01,2.40e-01,
643,7.20e-01,8.00e-02,
644,6.40e-01,2.40e-01,
645,8.00e-01,8.00e-02,
646,7.20e-01,2.40e-01,
647,8.80e-01,8.00e-02,
648,8.00e-01,1.60e-01,
649,9.60e-01,2.40e-01,
650,8.00e-01,2.40e-01,
651,1.04e+00,4.16e+00,
652,9.60e-01,4.16e+00,
653,1.12e+00,5.04e+00,
654,9.60e-01,4.88e+00,
655,1.12e+00,5.04e+00,
656,1.04e+00,5.04e+00,
657,1.28e+00,4.88e+00,
658,1.20e+00,5.04e+00,
659,1.36e+00,4.88e+00,
660,1.20e+00,4.88e+00,
661,1.52e+00,5.12e+00,
662,1.44e+00,4.88e+00,
663,1.60e+00,5.12e+00,
664,1.52e+00,4.88e+00,
665,1.68e+00,5.12e+00,
666,1.60e+00,4.88e+00,
667,1.76e+00,5.12e+00,
668,1.68e+00,4.88e+00,
669,1.84e+00,5.12e+00,
670,1.76e+00,4.88e+00,
671,1.92e+00,5.12e+00,
672,1.84e+00,4.88e+00,
673,2.00e+00,5.20e+00,
674,1.92e+00,4.88e+00,
675,2.08e+00,5.12e+00,
676,2.00e+00,4.88e+00,
677,2.24e+00,5.12e+00,
678,2.16e+00,4.88e+00,
679,2.32e+00,5.12e+00,
680,2.32e+00,5.12e+00,
681,2.48e+00,4.88e+00,
682,2.40e+00,4.88e+00,
683,2.56e+00,5.12e+00,
684,2.48e+00,4.88e+00,
685,2.64e+00,5.12e+00,
686,2.56e+00,4.88e+00,
687,2.72e+00,5.20e+00,
688,2.64e+00,4.88e+00,
689,2.88e+00,5.12e+00,
690,2.72e+00,4.88e+00,
691,2.96e+00,5.12e+00,
692,2.80e+00,4.88e+00,
693,3.04e+00,5.12e+00,
694,2.96e+00,5.12e+00,
695,3.12e+00,4.88e+00,
696,3.04e+00,4.88e+00,
697,3.20e+00,5.12e+00,
698,3.12e+00,4.88e+00,
699,3.28e+00,5.12e+00,
700,3.28e+00,5.12e+00,
701,3.44e+00,4.88e+00,
702,3.36e+00,4.88e+00,
703,3.52e+00,5.12e+00,
704,3.44e+00,4.88e+00,
705,3.68e+00,5.12e+00,
706,3.52e+00,5.12e+00,
707,3.76e+00,4.88e+00,
708,3.60e+00,4.88e+00,
709,3.84e+00,5.12e+00,
710,3.68e+00,5.20e+00,
711,3.92e+00,4.88e+00,
712,3.76e+00,4.88e+00,
713,4.00e+00,5.12e+00,
714,4.00e+00,4.88e+00,
715,3.84e+00,5.12e+00,
716,4.08e+00,4.88e+00,
717,3.92e+00,5.12e+00,
718,4.16e+00,4.88e+00,
719,4.00e+00,5.12e+00,
720,4.24e+00,4.88e+00,
721,4.08e+00,5.12e+00,
722,4.24e+00,4.88e+00,
723,4.40e+00,5.12e+00,
724,4.24e+00,5.12e+00,
725,4.48e+00,4.88e+00,
726,4.32e+00,4.88e+00,
727,4.48e+00,5.12e+00,
728,4.40e+00,5.12e+00,
729,4.56e+00,4.88e+00,
730,4.48e+00,5.12e+00,
731,4.64e+00,4.88e+00,
732,4.64e+00,5.12e+00,
733,4.48e+00,4.88e+00,
734,4.56e+00,4.88e+00,
735,4.72e+00,5.12e+00,
736,4.56e+00,4.88e+00,
737,4.80e+00,5.12e+00,
738,4.80e+00,4.88e+00,
739,4.64e+00,5.12e+00,
740,4.64e+00,4.88e+00,
741,4.88e+00,5.12e+00,
742,4.72e+00,4.88e+00,
743,4.88e+00,5.20e+00,
744,4.88e+00,4.88e+00,
745,4.72e+00,5.12e+00,
746,4.80e+00,4.88e+00,
747,4.96e+00,5.12e+00,
748,4.96e+00,5.20e+00,
749,4.80e+00,4.88e+00,
750,4.96e+00,5.12e+00,
751,4.80e+00,4.88e+00,
752,4.96e+00,4.88e+00,
753,4.80e+00,5.12e+00,
754,5.04e+00,4.88e+00,
755,4.80e+00,5.12e+00,
756,4.88e+00,4.88e+00,
757,5.04e+00,5.12e+00,
758,4.88e+00,4.88e+00,
759,5.04e+00,5.12e+00,
760,4.88e+00,4.88e+00,
761,5.04e+00,5.12e+00,
762,4.88e+00,4.88e+00,
763,5.04e+00,5.12e+00,
764,4.88e+00,5.12e+00,
765,5.04e+00,4.88e+00,
766,4.88e+00,4.88e+00,
767,5.04e+00,5.12e+00,
768,4.96e+00,5.12e+00,
769,4.80e+00,4.88e+00,
770,4.96e+00,5.12e+00,
771,4.80e+00,4.88e+00,
772,4.96e+00,4.88e+00,
773,4.80e+00,5.20e+00,
774,4.88e+00,4.88e+00,
775,4.72e+00,5.12e+00,
776,4.72e+00,4.88e+00,
777,4.88e+00,5.12e+00,
778,4.88e+00,4.88e+00,
779,4.72e+00,5.12e+00,
780,4.80e+00,5.12e+00,
781,4.64e+00,4.88e+00,
782,4.80e+00,4.88e+00,
783,4.64e+00,5.12e+00,
784,4.72e+00,4.88e+00,
785,4.56e+00,5.12e+00,
786,4.72e+00,4.88e+00,
787,4.56e+00,5.12e+00,
788,4.64e+00,5.12e+00,
789,4.48e+00,4.88e+00,
790,4.56e+00,5.12e+00,
791,4.40e+00,4.88e+00,
792,4.56e+00,5.12e+00,
793,4.32e+00,4.88e+00,
794,4.32e+00,4.88e+00,
795,4.48e+00,5.12e+00,
796,4.40e+00,4.88e+00,
797,4.16e+00,5.12e+00,
798,4.24e+00,4.88e+00,
799,4.08e+00,5.12e+00,
800,4.24e+00,4.88e+00,
801,4.00e+00,5.12e+00,
802,4.16e+00,4.88e+00,
803,4.00e+00,5.12e+00,
804,4.08e+00,5.12e+00,
805,3.92e+00,4.88e+00,
806,4.00e+00,4.88e+00,
807,3.84e+00,5.20e+00,
808,3.92e+00,4.88e+00,
809,3.68e+00,5.12e+00,
810,3.84e+00,4.88e+00,
811,3.68e+00,5.20e+00,
812,3.76e+00,4.88e+00,
813,3.60e+00,5.20e+00,
814,3.68e+00,5.12e+00,
815,3.44e+00,4.88e+00,
816,3.60e+00,4.88e+00,
817,3.36e+00,5.12e+00,
818,3.52e+00,4.88e+00,
819,3.28e+00,5.12e+00,
820,3.36e+00,4.88e+00,
821,3.12e+00,5.12e+00,
822,3.28e+00,4.88e+00,
823,3.04e+00,5.20e+00,
824,3.12e+00,5.12e+00,
825,2.96e+00,4.88e+00,
826,3.04e+00,4.88e+00,
827,2.88e+00,5.12e+00,
828,2.96e+00,4.88e+00,
829,2.80e+00,5.12e+00,
830,2.88e+00,4.88e+00,
831,2.72e+00,5.12e+00,
832,2.80e+00,4.88e+00,
833,2.56e+00,5.20e+00,
834,2.72e+00,4.88e+00,
835,2.48e+00,5.12e+00,
836,2.56e+00,5.20e+00,
837,2.40e+00,4.88e+00,
838,2.48e+00,4.88e+00,
839,2.24e+00,5.12e+00,
840,2.32e+00,4.88e+00,
841,2.16e+00,5.20e+00,
842,2.24e+00,4.88e+00,
843,2.08e+00,5.12e+00,
844,2.16e+00,5.12e+00,
845,2.00e+00,4.88e+00,
846,2.08e+00,4.88e+00,
847,1.84e+00,5.12e+00,
848,2.00e+00,5.12e+00,
849,1.76e+00,4.88e+00,
850,1.84e+00,4.88e+00,
851,1.68e+00,5.12e+00,
852,1.76e+00,4.88e+00,
853,1.60e+00,5.12e+00,
854,1.68e+00,5.12e+00,
855,1.52e+00,4.88e+00,
856,1.60e+00,5.12e+00,
857,1.44e+00,4.88e+00,
858,1.44e+00,5.12e+00,
859,1.28e+00,4.88e+00,
860,1.36e+00,4.88e+00,
861,1.20e+00,5.12e+00,
862,1.28e+00,4.88e+00,
863,1.12e+00,5.20e+00,
864,1.20e+00,4.88e+00,
865,1.04e+00,5.12e+00,
866,1.12e+00,4.88e+00,
867,9.60e-01,5.12e+00,
868,1.04e+00,4.88e+00,
869,8.80e-01,5.20e+00,
