project/matlab/project_exp3/10 kHz/NewFile1.csv

X,CH1,CH2,Start,Increment,
Sequence,Volt,Volt,4.200000e-04,5.000000e-07
0,4.96e+00,4.88e+00,
1,4.80e+00,5.04e+00,
2,4.96e+00,5.04e+00,
3,4.80e+00,4.88e+00,
4,4.96e+00,4.88e+00,
5,4.80e+00,5.20e+00,
6,4.96e+00,4.88e+00,
7,4.80e+00,5.12e+00,
8,4.96e+00,5.12e+00,
9,4.72e+00,4.88e+00,
10,4.72e+00,4.88e+00,
11,4.88e+00,5.12e+00,
12,4.88e+00,5.12e+00,
13,4.64e+00,4.88e+00,
14,4.80e+00,5.12e+00,
15,4.56e+00,4.88e+00,
16,4.72e+00,5.12e+00,
17,4.48e+00,4.88e+00,
18,4.48e+00,5.12e+00,
19,4.64e+00,4.88e+00,
20,4.56e+00,5.12e+00,
21,4.32e+00,4.88e+00,
22,4.48e+00,4.88e+00,
23,4.24e+00,5.04e+00,
24,4.40e+00,5.20e+00,
25,4.08e+00,4.88e+00,
26,4.24e+00,5.04e+00,
27,4.00e+00,4.88e+00,
28,4.16e+00,4.88e+00,
29,3.92e+00,5.12e+00,
30,4.00e+00,4.88e+00,
31,3.76e+00,5.04e+00,
32,3.92e+00,5.12e+00,
33,3.68e+00,4.88e+00,
34,3.76e+00,5.04e+00,
35,3.52e+00,4.88e+00,
36,3.60e+00,4.88e+00,
37,3.36e+00,5.20e+00,
38,3.44e+00,4.88e+00,
39,3.28e+00,5.20e+00,
40,3.28e+00,5.12e+00,
41,3.04e+00,4.88e+00,
42,3.12e+00,5.12e+00,
43,2.88e+00,4.88e+00,
44,2.96e+00,5.12e+00,
45,2.72e+00,4.88e+00,
46,2.88e+00,5.12e+00,
47,2.64e+00,4.88e+00,
48,2.72e+00,5.12e+00,
49,2.48e+00,4.88e+00,
50,2.56e+00,4.88e+00,
51,2.32e+00,5.12e+00,
52,2.32e+00,5.12e+00,
53,2.08e+00,4.88e+00,
54,2.16e+00,4.88e+00,
55,2.00e+00,5.12e+00,
56,2.08e+00,5.12e+00,
57,1.84e+00,4.88e+00,
58,1.92e+00,5.20e+00,
59,1.68e+00,4.88e+00,
60,1.76e+00,4.88e+00,
61,1.52e+00,5.20e+00,
62,1.52e+00,5.12e+00,
63,1.44e+00,4.88e+00,
64,1.44e+00,4.88e+00,
65,1.20e+00,5.20e+00,
66,1.28e+00,4.88e+00,
67,1.12e+00,5.12e+00,
68,1.20e+00,5.12e+00,
69,9.60e-01,4.88e+00,
70,1.04e+00,5.12e+00,
71,8.80e-01,4.88e+00,
72,9.60e-01,5.12e+00,
73,7.20e-01,4.88e+00,
74,8.00e-01,4.88e+00,
75,6.40e-01,5.12e+00,
76,7.20e-01,5.12e+00,
77,5.60e-01,4.88e+00,
78,5.60e-01,5.12e+00,
79,4.00e-01,4.88e+00,
80,4.80e-01,5.12e+00,
81,2.40e-01,4.88e+00,
82,3.20e-01,4.88e+00,
83,2.40e-01,5.12e+00,
84,3.20e-01,5.12e+00,
85,1.60e-01,2.80e+00,
86,8.00e-02,2.56e+00,
87,2.40e-01,1.60e-01,
88,1.60e-01,2.40e-01,
89,0.00e+00,8.00e-02,
90,8.00e-02,2.40e-01,
91,-8.00e-02,8.00e-02,
92,-8.00e-02,2.40e-01,
93,8.00e-02,8.00e-02,
94,0.00e+00,8.00e-02,
95,-8.00e-02,2.40e-01,
96,0.00e+00,2.40e-01,
97,-1.60e-01,8.00e-02,
98,-1.60e-01,2.40e-01,
99,0.00e+00,8.00e-02,
100,-1.60e-01,2.40e-01,
101,0.00e+00,8.00e-02,
102,0.00e+00,2.40e-01,
103,-1.60e-01,8.00e-02,
104,0.00e+00,8.00e-02,
105,-1.60e-01,2.40e-01,
106,0.00e+00,2.40e-01,
107,-8.00e-02,8.00e-02,
108,-8.00e-02,8.00e-02,
109,8.00e-02,2.40e-01,
110,8.00e-02,8.00e-02,
111,-8.00e-02,2.40e-01,
112,0.00e+00,2.40e-01,
113,1.60e-01,8.00e-02,
114,8.00e-02,2.40e-01,
115,2.40e-01,8.00e-02,
116,1.60e-01,2.40e-01,
117,3.20e-01,8.00e-02,
118,2.40e-01,2.40e-01,
119,4.00e-01,8.00e-02,
120,3.20e-01,2.40e-01,
121,4.80e-01,8.00e-02,
122,4.80e-01,8.00e-02,
123,6.40e-01,2.40e-01,
124,5.60e-01,2.40e-01,
125,7.20e-01,8.00e-02,
126,6.40e-01,2.40e-01,
127,8.00e-01,8.00e-02,
128,7.20e-01,8.00e-02,
129,9.60e-01,5.60e-01,
130,8.80e-01,6.40e-01,
131,1.04e+00,4.72e+00,
132,9.60e-01,4.64e+00,
133,1.20e+00,5.04e+00,
134,1.12e+00,4.88e+00,
135,1.28e+00,5.04e+00,
136,1.28e+00,5.12e+00,
137,1.52e+00,4.88e+00,
138,1.44e+00,4.88e+00,
139,1.68e+00,5.12e+00,
140,1.60e+00,5.12e+00,
141,1.76e+00,4.88e+00,
142,1.68e+00,5.12e+00,
143,1.92e+00,4.88e+00,
144,1.84e+00,5.12e+00,
145,2.08e+00,4.88e+00,
146,2.00e+00,5.12e+00,
147,2.24e+00,4.88e+00,
148,2.16e+00,5.12e+00,
149,2.40e+00,4.88e+00,
150,2.32e+00,4.88e+00,
151,2.56e+00,5.12e+00,
152,2.48e+00,5.12e+00,
153,2.72e+00,4.88e+00,
154,2.64e+00,5.12e+00,
155,2.88e+00,4.88e+00,
156,2.80e+00,4.88e+00,
157,3.04e+00,5.12e+00,
158,2.88e+00,4.88e+00,
159,3.20e+00,5.12e+00,
160,3.04e+00,5.12e+00,
161,3.28e+00,4.88e+00,
162,3.28e+00,4.88e+00,
163,3.52e+00,5.20e+00,
164,3.36e+00,4.88e+00,
165,3.60e+00,5.20e+00,
166,3.52e+00,4.88e+00,
167,3.76e+00,5.12e+00,
168,3.68e+00,4.88e+00,
169,3.92e+00,5.12e+00,
170,3.76e+00,4.88e+00,
171,4.00e+00,5.12e+00,
172,3.84e+00,4.88e+00,
173,4.08e+00,5.12e+00,
174,4.00e+00,5.20e+00,
175,4.24e+00,4.88e+00,
176,4.08e+00,5.12e+00,
177,4.40e+00,4.88e+00,
178,4.24e+00,4.88e+00,
179,4.48e+00,5.12e+00,
180,4.32e+00,5.12e+00,
181,4.56e+00,4.88e+00,
182,4.48e+00,4.88e+00,
183,4.64e+00,5.12e+00,
184,4.48e+00,4.88e+00,
185,4.72e+00,5.20e+00,
186,4.56e+00,4.88e+00,
187,4.80e+00,5.12e+00,
188,4.80e+00,5.12e+00,
189,4.64e+00,4.88e+00,
190,4.72e+00,5.12e+00,
191,4.88e+00,4.88e+00,
192,4.72e+00,5.12e+00,
193,4.96e+00,4.88e+00,
194,4.80e+00,4.88e+00,
195,4.96e+00,5.12e+00,
196,4.96e+00,5.12e+00,
197,4.80e+00,4.88e+00,
198,4.96e+00,5.12e+00,
199,4.80e+00,4.88e+00,
200,4.80e+00,5.12e+00,
201,4.96e+00,4.88e+00,
202,4.96e+00,5.12e+00,
203,4.80e+00,4.88e+00,
204,4.80e+00,5.12e+00,
205,4.96e+00,4.88e+00,
206,4.96e+00,4.88e+00,
207,4.80e+00,5.20e+00,
208,4.96e+00,5.12e+00,
209,4.72e+00,4.88e+00,
210,4.88e+00,4.88e+00,
211,4.72e+00,5.12e+00,
212,4.88e+00,4.88e+00,
213,4.64e+00,5.20e+00,
214,4.80e+00,4.88e+00,
215,4.56e+00,5.12e+00,
216,4.72e+00,5.12e+00,
217,4.48e+00,4.88e+00,
218,4.64e+00,4.88e+00,
219,4.48e+00,5.12e+00,
220,4.56e+00,4.88e+00,
221,4.32e+00,5.20e+00,
222,4.48e+00,4.88e+00,
223,4.24e+00,5.12e+00,
224,4.32e+00,5.12e+00,
225,4.16e+00,4.88e+00,
226,4.24e+00,4.88e+00,
227,4.00e+00,5.12e+00,
228,4.08e+00,5.12e+00,
229,3.84e+00,4.88e+00,
230,4.00e+00,5.12e+00,
231,3.76e+00,4.88e+00,
232,3.92e+00,5.12e+00,
233,3.68e+00,4.88e+00,
234,3.76e+00,4.88e+00,
235,3.52e+00,5.12e+00,
236,3.60e+00,4.88e+00,
237,3.36e+00,5.20e+00,
238,3.44e+00,4.88e+00,
239,3.28e+00,5.12e+00,
240,3.28e+00,5.12e+00,
241,3.04e+00,4.88e+00,
242,3.12e+00,4.88e+00,
243,2.88e+00,5.12e+00,
244,3.04e+00,5.12e+00,
245,2.72e+00,4.88e+00,
246,2.88e+00,5.12e+00,
247,2.64e+00,4.88e+00,
248,2.72e+00,5.20e+00,
249,2.48e+00,4.88e+00,
250,2.56e+00,4.88e+00,
251,2.24e+00,5.20e+00,
252,2.32e+00,5.20e+00,
253,2.08e+00,4.88e+00,
254,2.16e+00,4.88e+00,
255,2.00e+00,5.12e+00,
256,2.08e+00,5.12e+00,
257,1.84e+00,4.88e+00,
258,1.92e+00,4.88e+00,
259,1.68e+00,5.12e+00,
260,1.76e+00,5.20e+00,
261,1.52e+00,4.88e+00,
262,1.60e+00,5.12e+00,
263,1.44e+00,4.88e+00,
264,1.44e+00,5.12e+00,
265,1.20e+00,4.88e+00,
266,1.28e+00,4.88e+00,
267,1.12e+00,5.12e+00,
268,1.20e+00,5.12e+00,
269,9.60e-01,4.88e+00,
270,1.04e+00,4.88e+00,
271,8.80e-01,5.20e+00,
272,9.60e-01,5.12e+00,
273,7.20e-01,4.88e+00,
274,8.00e-01,5.12e+00,
275,6.40e-01,4.88e+00,
276,7.20e-01,4.88e+00,
277,5.60e-01,5.12e+00,
278,6.40e-01,4.88e+00,
279,4.00e-01,5.12e+00,
280,4.80e-01,5.12e+00,
281,2.40e-01,4.88e+00,
282,4.00e-01,4.88e+00,
283,1.60e-01,5.20e+00,
284,3.20e-01,5.20e+00,
285,1.60e-01,2.64e+00,
286,2.40e-01,2.48e+00,
287,8.00e-02,8.00e-02,
288,1.60e-01,2.40e-01,
289,0.00e+00,8.00e-02,
290,8.00e-02,2.40e-01,
291,-8.00e-02,8.00e-02,
292,8.00e-02,2.40e-01,
293,-8.00e-02,8.00e-02,
294,0.00e+00,2.40e-01,
295,-8.00e-02,8.00e-02,
296,0.00e+00,2.40e-01,
297,-1.60e-01,8.00e-02,
298,-1.60e-01,2.40e-01,
299,0.00e+00,8.00e-02,
300,-1.60e-01,2.40e-01,
301,0.00e+00,8.00e-02,
302,-1.60e-01,2.40e-01,
303,0.00e+00,8.00e-02,
304,0.00e+00,2.40e-01,
305,-1.60e-01,8.00e-02,
306,-8.00e-02,2.40e-01,
307,0.00e+00,8.00e-02,
308,-8.00e-02,2.40e-01,
309,8.00e-02,8.00e-02,
310,-8.00e-02,2.40e-01,
311,8.00e-02,8.00e-02,
312,0.00e+00,2.40e-01,
313,1.60e-01,8.00e-02,
314,8.00e-02,2.40e-01,
315,2.40e-01,8.00e-02,
316,1.60e-01,2.40e-01,
317,3.20e-01,8.00e-02,
318,1.60e-01,8.00e-02,
319,4.00e-01,2.40e-01,
320,3.20e-01,2.40e-01,
321,4.80e-01,8.00e-02,
322,4.00e-01,8.00e-02,
323,6.40e-01,2.40e-01,
324,5.60e-01,8.00e-02,
325,7.20e-01,2.40e-01,
326,6.40e-01,8.00e-02,
327,8.00e-01,2.40e-01,
328,7.20e-01,8.00e-02,
329,9.60e-01,4.80e-01,
330,8.80e-01,5.60e-01,
331,1.04e+00,4.64e+00,
332,9.60e-01,4.64e+00,
333,1.20e+00,5.04e+00,
334,1.12e+00,5.04e+00,
335,1.28e+00,4.88e+00,
336,1.20e+00,5.12e+00,
337,1.52e+00,4.88e+00,
338,1.44e+00,5.12e+00,
339,1.68e+00,4.88e+00,
340,1.60e+00,5.12e+00,
341,1.76e+00,4.88e+00,
342,1.68e+00,4.88e+00,
343,1.92e+00,5.12e+00,
344,1.84e+00,5.12e+00,
345,2.08e+00,4.88e+00,
346,2.00e+00,5.12e+00,
347,2.24e+00,4.88e+00,
348,2.08e+00,5.12e+00,
349,2.32e+00,4.88e+00,
350,2.32e+00,4.88e+00,
351,2.56e+00,5.12e+00,
352,2.48e+00,4.88e+00,
353,2.72e+00,5.20e+00,
354,2.64e+00,5.12e+00,
355,2.88e+00,4.88e+00,
356,2.80e+00,5.12e+00,
357,3.04e+00,4.88e+00,
358,2.88e+00,4.88e+00,
359,3.12e+00,5.12e+00,
360,3.04e+00,4.88e+00,
361,3.28e+00,5.20e+00,
362,3.20e+00,4.88e+00,
363,3.52e+00,5.12e+00,
364,3.36e+00,5.12e+00,
365,3.60e+00,4.88e+00,
366,3.52e+00,4.88e+00,
367,3.76e+00,5.12e+00,
368,3.68e+00,4.88e+00,
369,3.92e+00,5.12e+00,
370,3.76e+00,5.12e+00,
371,4.00e+00,4.88e+00,
372,3.84e+00,4.88e+00,
373,4.08e+00,5.12e+00,
374,4.00e+00,4.88e+00,
375,4.24e+00,5.12e+00,
376,4.16e+00,4.88e+00,
377,4.32e+00,5.12e+00,
378,4.24e+00,4.88e+00,
379,4.48e+00,5.12e+00,
380,4.40e+00,4.88e+00,
381,4.56e+00,5.12e+00,
382,4.48e+00,4.88e+00,
383,4.64e+00,5.12e+00,
384,4.48e+00,4.88e+00,
385,4.72e+00,5.20e+00,
386,4.56e+00,4.88e+00,
387,4.80e+00,5.12e+00,
388,4.80e+00,4.88e+00,
389,4.64e+00,5.12e+00,
390,4.72e+00,4.88e+00,
391,4.88e+00,5.12e+00,
392,4.88e+00,4.88e+00,
393,4.72e+00,5.20e+00,
394,4.80e+00,4.88e+00,
395,4.96e+00,5.12e+00,
396,4.80e+00,5.12e+00,
397,4.96e+00,4.88e+00,
398,4.96e+00,4.88e+00,
399,4.80e+00,5.12e+00,
400,4.96e+00,5.12e+00,
401,4.80e+00,4.88e+00,
402,4.96e+00,4.88e+00,
403,4.80e+00,5.12e+00,
404,4.96e+00,4.88e+00,
405,4.80e+00,5.12e+00,
406,4.96e+00,5.12e+00,
407,4.80e+00,4.88e+00,
408,4.96e+00,5.12e+00,
409,4.72e+00,4.88e+00,
410,4.88e+00,4.88e+00,
411,4.72e+00,5.12e+00,
412,4.80e+00,5.12e+00,
413,4.64e+00,4.88e+00,
414,4.80e+00,4.88e+00,
415,4.56e+00,5.12e+00,
416,4.72e+00,5.20e+00,
417,4.56e+00,4.88e+00,
418,4.48e+00,4.88e+00,
419,4.64e+00,5.12e+00,
420,4.56e+00,4.88e+00,
421,4.32e+00,5.12e+00,
422,4.48e+00,4.88e+00,
423,4.24e+00,5.12e+00,
424,4.40e+00,5.12e+00,
425,4.08e+00,4.88e+00,
426,4.24e+00,4.88e+00,
427,4.00e+00,5.12e+00,
428,4.08e+00,5.12e+00,
429,3.84e+00,4.88e+00,
430,4.00e+00,4.88e+00,
431,3.76e+00,5.12e+00,
432,3.84e+00,5.12e+00,
433,3.68e+00,4.88e+00,
434,3.76e+00,5.12e+00,
435,3.52e+00,4.88e+00,
436,3.60e+00,5.12e+00,
437,3.36e+00,4.88e+00,
438,3.52e+00,5.12e+00,
439,3.20e+00,4.88e+00,
440,3.28e+00,5.12e+00,
441,3.04e+00,4.88e+00,
442,3.12e+00,4.88e+00,
443,2.88e+00,5.12e+00,
444,3.04e+00,5.12e+00,
445,2.80e+00,4.88e+00,
446,2.88e+00,4.88e+00,
447,2.64e+00,5.20e+00,
448,2.72e+00,5.12e+00,
449,2.48e+00,4.88e+00,
450,2.56e+00,4.88e+00,
451,2.32e+00,5.12e+00,
452,2.32e+00,5.20e+00,
453,2.16e+00,4.88e+00,
454,2.16e+00,4.88e+00,
455,2.00e+00,5.12e+00,
456,2.08e+00,4.88e+00,
457,1.84e+00,5.20e+00,
458,1.92e+00,4.88e+00,
459,1.68e+00,5.12e+00,
460,1.76e+00,5.12e+00,
461,1.52e+00,4.88e+00,
462,1.60e+00,4.88e+00,
463,1.44e+00,5.12e+00,
464,1.44e+00,5.12e+00,
465,1.20e+00,4.88e+00,
466,1.28e+00,4.88e+00,
467,1.12e+00,5.12e+00,
468,1.20e+00,5.12e+00,
469,9.60e-01,4.88e+00,
470,1.04e+00,5.12e+00,
471,8.00e-01,4.88e+00,
472,9.60e-01,5.12e+00,
473,7.20e-01,4.88e+00,
474,8.00e-01,5.12e+00,
475,6.40e-01,4.88e+00,
476,7.20e-01,5.12e+00,
477,5.60e-01,4.88e+00,
478,6.40e-01,4.88e+00,
479,4.00e-01,5.20e+00,
480,4.80e-01,5.20e+00,
481,3.20e-01,4.88e+00,
482,4.00e-01,5.12e+00,
483,1.60e-01,4.88e+00,
484,1.60e-01,5.12e+00,
485,3.20e-01,2.80e+00,
486,2.40e-01,2.64e+00,
487,8.00e-02,1.60e-01,
488,1.60e-01,2.40e-01,
489,0.00e+00,8.00e-02,
490,8.00e-02,2.40e-01,
491,-8.00e-02,8.00e-02,
492,-8.00e-02,2.40e-01,
493,8.00e-02,8.00e-02,
494,0.00e+00,2.40e-01,
495,-8.00e-02,8.00e-02,
496,0.00e+00,2.40e-01,
497,-1.60e-01,8.00e-02,
498,-1.60e-01,2.40e-01,
499,0.00e+00,8.00e-02,
500,0.00e+00,2.40e-01,
501,-1.60e-01,8.00e-02,
502,-1.60e-01,8.00e-02,
503,0.00e+00,2.40e-01,
504,-1.60e-01,2.40e-01,
505,0.00e+00,8.00e-02,
506,-8.00e-02,2.40e-01,
507,0.00e+00,8.00e-02,
508,-8.00e-02,2.40e-01,
509,8.00e-02,8.00e-02,
510,8.00e-02,8.00e-02,
511,0.00e+00,2.40e-01,
512,0.00e+00,2.40e-01,
513,1.60e-01,8.00e-02,
514,8.00e-02,2.40e-01,
515,2.40e-01,8.00e-02,
516,1.60e-01,2.40e-01,
517,3.20e-01,8.00e-02,
518,1.60e-01,2.40e-01,
519,4.00e-01,8.00e-02,
520,3.20e-01,2.40e-01,
521,5.60e-01,8.00e-02,
522,4.80e-01,2.40e-01,
523,5.60e-01,8.00e-02,
524,5.60e-01,2.40e-01,
525,7.20e-01,8.00e-02,
526,6.40e-01,8.00e-02,
527,8.00e-01,2.40e-01,
528,7.20e-01,8.00e-02,
529,9.60e-01,5.60e-01,
530,8.80e-01,5.60e-01,
531,1.04e+00,4.64e+00,
532,9.60e-01,4.64e+00,
533,1.20e+00,5.04e+00,
534,1.12e+00,5.04e+00,
535,1.28e+00,4.88e+00,
536,1.28e+00,4.88e+00,
537,1.52e+00,5.12e+00,
538,1.44e+00,4.88e+00,
539,1.68e+00,5.12e+00,
540,1.52e+00,5.12e+00,
541,1.76e+00,4.88e+00,
542,1.68e+00,4.88e+00,
543,1.92e+00,5.20e+00,
544,1.84e+00,5.12e+00,
545,2.08e+00,4.88e+00,
546,2.00e+00,4.88e+00,
547,2.24e+00,5.12e+00,
548,2.16e+00,4.88e+00,
549,2.40e+00,5.12e+00,
550,2.32e+00,4.88e+00,
551,2.56e+00,5.12e+00,
552,2.48e+00,5.12e+00,
553,2.72e+00,4.88e+00,
554,2.64e+00,5.12e+00,
555,2.88e+00,4.88e+00,
556,2.80e+00,5.12e+00,
557,3.04e+00,4.88e+00,
558,2.88e+00,4.88e+00,
559,3.12e+00,5.12e+00,
560,3.12e+00,5.12e+00,
561,3.28e+00,4.88e+00,
562,3.28e+00,5.12e+00,
563,3.52e+00,4.88e+00,
564,3.36e+00,5.12e+00,
565,3.60e+00,4.88e+00,
566,3.52e+00,4.88e+00,
567,3.76e+00,5.12e+00,
568,3.68e+00,5.12e+00,
569,3.92e+00,4.88e+00,
570,3.76e+00,4.88e+00,
571,4.00e+00,5.12e+00,
572,3.92e+00,5.12e+00,
573,4.16e+00,4.88e+00,
574,4.00e+00,4.88e+00,
575,4.24e+00,5.12e+00,
576,4.16e+00,5.20e+00,
577,4.32e+00,4.88e+00,
578,4.32e+00,4.88e+00,
579,4.48e+00,5.12e+00,
580,4.32e+00,4.88e+00,
581,4.56e+00,5.20e+00,
582,4.48e+00,4.88e+00,
583,4.64e+00,5.20e+00,
584,4.48e+00,4.88e+00,
585,4.72e+00,5.12e+00,
586,4.56e+00,4.88e+00,
587,4.80e+00,5.12e+00,
588,4.80e+00,5.12e+00,
589,4.64e+00,4.88e+00,
590,4.72e+00,4.88e+00,
591,4.88e+00,5.12e+00,
592,4.72e+00,4.88e+00,
593,4.96e+00,5.20e+00,
594,4.80e+00,4.88e+00,
595,4.96e+00,5.12e+00,
596,4.96e+00,4.88e+00,
597,4.80e+00,5.12e+00,
598,4.96e+00,4.88e+00,
599,4.80e+00,5.12e+00,
600,4.80e+00,4.88e+00,
601,4.96e+00,5.12e+00,
602,4.96e+00,5.12e+00,
603,4.80e+00,4.88e+00,
604,4.96e+00,5.12e+00,
605,4.80e+00,4.88e+00,
606,4.96e+00,4.88e+00,
607,4.80e+00,5.20e+00,
608,4.96e+00,4.88e+00,
609,4.72e+00,5.12e+00,
610,4.72e+00,5.20e+00,
611,4.88e+00,4.88e+00,
612,4.88e+00,5.12e+00,
613,4.64e+00,4.88e+00,
614,4.80e+00,4.88e+00,
615,4.56e+00,5.12e+00,
616,4.72e+00,4.88e+00,
617,4.48e+00,5.12e+00,
618,4.64e+00,4.88e+00,
619,4.40e+00,5.12e+00,
620,4.56e+00,5.20e+00,
621,4.32e+00,4.88e+00,
622,4.48e+00,5.12e+00,
623,4.24e+00,4.88e+00,
624,4.40e+00,5.12e+00,
625,4.08e+00,4.88e+00,
626,4.24e+00,5.12e+00,
627,4.00e+00,4.88e+00,
628,4.08e+00,5.12e+00,
629,3.92e+00,4.88e+00,
630,4.00e+00,4.88e+00,
631,3.76e+00,5.20e+00,
632,3.92e+00,5.20e+00,
633,3.60e+00,4.88e+00,
634,3.76e+00,5.12e+00,
635,3.52e+00,4.88e+00,
636,3.60e+00,5.12e+00,
637,3.36e+00,4.88e+00,
638,3.44e+00,4.88e+00,
639,3.20e+00,5.20e+00,
640,3.28e+00,5.12e+00,
641,3.04e+00,4.88e+00,
642,3.12e+00,4.88e+00,
643,2.88e+00,5.12e+00,
644,3.04e+00,4.88e+00,
645,2.72e+00,5.12e+00,
646,2.88e+00,4.88e+00,
647,2.64e+00,5.12e+00,
648,2.72e+00,5.12e+00,
649,2.48e+00,4.88e+00,
650,2.48e+00,4.88e+00,
651,2.32e+00,5.12e+00,
652,2.32e+00,4.88e+00,
653,2.08e+00,5.12e+00,
654,2.24e+00,4.88e+00,
655,2.00e+00,5.12e+00,
656,2.08e+00,5.20e+00,
657,1.84e+00,4.88e+00,
658,1.92e+00,5.12e+00,
659,1.68e+00,4.88e+00,
660,1.76e+00,5.12e+00,
661,1.52e+00,4.88e+00,
662,1.60e+00,5.12e+00,
663,1.44e+00,4.88e+00,
664,1.44e+00,5.12e+00,
665,1.28e+00,4.88e+00,
666,1.28e+00,4.88e+00,
667,1.12e+00,5.12e+00,
668,1.20e+00,4.88e+00,
669,9.60e-01,5.20e+00,
670,1.04e+00,4.88e+00,
671,8.80e-01,5.20e+00,
672,9.60e-01,5.20e+00,
673,7.20e-01,4.88e+00,
674,8.00e-01,4.88e+00,
675,6.40e-01,5.12e+00,
676,7.20e-01,4.88e+00,
677,5.60e-01,5.12e+00,
678,6.40e-01,4.88e+00,
679,4.00e-01,5.12e+00,
680,4.80e-01,5.12e+00,
681,3.20e-01,4.88e+00,
682,4.00e-01,4.88e+00,
683,1.60e-01,5.20e+00,
684,3.20e-01,5.12e+00,
685,1.60e-01,2.88e+00,
686,2.40e-01,2.64e+00,
687,8.00e-02,8.00e-02,
688,1.60e-01,2.40e-01,
689,0.00e+00,8.00e-02,
690,8.00e-02,2.40e-01,
691,-8.00e-02,8.00e-02,
692,-8.00e-02,2.40e-01,
693,8.00e-02,8.00e-02,
694,0.00e+00,2.40e-01,
695,-8.00e-02,8.00e-02,
696,0.00e+00,2.40e-01,
697,-1.60e-01,8.00e-02,
698,-1.60e-01,8.00e-02,
699,0.00e+00,2.40e-01,
700,-1.60e-01,2.40e-01,
701,0.00e+00,8.00e-02,
702,-1.60e-01,2.40e-01,
703,0.00e+00,8.00e-02,
704,-1.60e-01,8.00e-02,
705,0.00e+00,2.40e-01,
706,-8.00e-02,2.40e-01,
707,0.00e+00,8.00e-02,
708,-8.00e-02,2.40e-01,
709,8.00e-02,8.00e-02,
710,-8.00e-02,2.40e-01,
711,8.00e-02,8.00e-02,
712,0.00e+00,2.40e-01,
713,1.60e-01,8.00e-02,
714,8.00e-02,2.40e-01,
715,2.40e-01,8.00e-02,
716,1.60e-01,8.00e-02,
717,3.20e-01,2.40e-01,
718,2.40e-01,2.40e-01,
719,4.00e-01,8.00e-02,
720,3.20e-01,2.40e-01,
721,5.60e-01,8.00e-02,
722,4.00e-01,2.40e-01,
723,6.40e-01,8.00e-02,
724,5.60e-01,2.40e-01,
725,7.20e-01,8.00e-02,
726,6.40e-01,8.00e-02,
727,8.00e-01,2.40e-01,
728,7.20e-01,1.60e-01,
729,9.60e-01,4.80e-01,
730,8.80e-01,5.60e-01,
731,1.04e+00,4.72e+00,
732,9.60e-01,4.72e+00,
733,1.20e+00,5.04e+00,
734,1.12e+00,5.04e+00,
735,1.28e+00,4.88e+00,
736,1.20e+00,5.04e+00,
737,1.44e+00,4.88e+00,
738,1.44e+00,4.88e+00,
739,1.60e+00,5.12e+00,
740,1.52e+00,5.12e+00,
741,1.76e+00,4.88e+00,
742,1.68e+00,4.88e+00,
743,1.92e+00,5.12e+00,
744,1.84e+00,5.12e+00,
745,2.08e+00,4.88e+00,
746,2.00e+00,4.88e+00,
747,2.24e+00,5.12e+00,
748,2.16e+00,5.12e+00,
749,2.40e+00,4.88e+00,
750,2.32e+00,4.88e+00,
751,2.56e+00,5.12e+00,
752,2.48e+00,4.88e+00,
753,2.72e+00,5.12e+00,
754,2.64e+00,4.88e+00,
755,2.88e+00,5.12e+00,
756,2.80e+00,5.12e+00,
757,3.04e+00,4.88e+00,
758,2.88e+00,4.88e+00,
759,3.12e+00,5.12e+00,
760,3.04e+00,4.88e+00,
761,3.28e+00,5.12e+00,
762,3.28e+00,4.88e+00,
763,3.52e+00,5.12e+00,
764,3.36e+00,5.12e+00,
765,3.60e+00,4.88e+00,
766,3.52e+00,4.88e+00,
767,3.76e+00,5.12e+00,
768,3.68e+00,5.12e+00,
769,3.92e+00,4.88e+00,
770,3.76e+00,4.88e+00,
771,4.00e+00,5.12e+00,
772,3.84e+00,4.88e+00,
773,4.08e+00,5.12e+00,
774,4.00e+00,4.88e+00,
775,4.24e+00,5.12e+00,
776,4.08e+00,5.12e+00,
777,4.40e+00,4.88e+00,
778,4.32e+00,4.88e+00,
779,4.48e+00,5.12e+00,
780,4.32e+00,5.20e+00,
781,4.56e+00,4.88e+00,
782,4.48e+00,4.88e+00,
783,4.64e+00,5.12e+00,
784,4.48e+00,4.88e+00,
785,4.72e+00,5.12e+00,
786,4.64e+00,4.88e+00,
787,4.80e+00,5.12e+00,
788,4.64e+00,5.12e+00,
789,4.88e+00,4.88e+00,
790,4.72e+00,4.88e+00,
791,4.88e+00,5.12e+00,
792,4.72e+00,5.12e+00,
793,4.96e+00,4.88e+00,
794,4.80e+00,4.88e+00,
795,4.96e+00,5.12e+00,
796,4.96e+00,4.88e+00,
797,4.80e+00,5.12e+00,
798,4.80e+00,4.88e+00,
799,4.96e+00,5.12e+00,
800,4.80e+00,4.88e+00,
801,4.96e+00,5.12e+00,
802,4.96e+00,4.88e+00,
803,4.80e+00,5.12e+00,
804,4.96e+00,5.20e+00,
805,4.80e+00,4.88e+00,
806,4.96e+00,4.88e+00,
807,4.80e+00,5.12e+00,
808,4.96e+00,5.12e+00,
809,4.72e+00,4.88e+00,
810,4.88e+00,5.12e+00,
811,4.72e+00,4.88e+00,
812,4.80e+00,5.20e+00,
813,4.64e+00,4.88e+00,
814,4.80e+00,5.12e+00,
815,4.56e+00,4.88e+00,
816,4.72e+00,5.12e+00,
817,4.48e+00,4.88e+00,
818,4.48e+00,5.12e+00,
819,4.64e+00,4.88e+00,
820,4.56e+00,5.12e+00,
821,4.32e+00,4.88e+00,
822,4.48e+00,4.88e+00,
823,4.24e+00,5.12e+00,
824,4.40e+00,5.12e+00,
825,4.08e+00,4.88e+00,
826,4.24e+00,5.12e+00,
827,4.00e+00,4.88e+00,
828,4.16e+00,4.88e+00,
829,3.84e+00,5.12e+00,
830,4.00e+00,4.88e+00,
831,3.76e+00,5.12e+00,
832,3.92e+00,5.12e+00,
833,3.68e+00,4.88e+00,
834,3.76e+00,5.20e+00,
835,3.52e+00,4.88e+00,
836,3.60e+00,5.12e+00,
837,3.36e+00,4.88e+00,
838,3.44e+00,4.88e+00,
839,3.20e+00,5.12e+00,
840,3.28e+00,5.12e+00,
841,3.04e+00,4.88e+00,
842,3.12e+00,5.12e+00,
843,2.88e+00,4.88e+00,
844,3.04e+00,5.12e+00,
845,2.72e+00,4.88e+00,
846,2.88e+00,4.88e+00,
847,2.64e+00,5.12e+00,
848,2.72e+00,5.20e+00,
849,2.48e+00,4.88e+00,
850,2.56e+00,4.88e+00,
851,2.32e+00,5.12e+00,
852,2.32e+00,4.88e+00,
853,2.08e+00,5.12e+00,
854,2.24e+00,4.96e+00,
855,2.00e+00,5.12e+00,
856,2.08e+00,5.20e+00,
857,1.84e+00,4.88e+00,
858,1.92e+00,5.12e+00,
859,1.68e+00,4.88e+00,
860,1.76e+00,4.88e+00,
861,1.52e+00,5.12e+00,
862,1.60e+00,4.88e+00,
863,1.44e+00,5.12e+00,
864,1.44e+00,5.12e+00,
865,1.20e+00,4.88e+00,
866,1.28e+00,5.12e+00,
867,1.12e+00,4.88e+00,
868,1.20e+00,5.12e+00,
