project/matlab/project_exp3/3 kHz/NewFile1.csv

X,CH1,CH2,Start,Increment,
Sequence,Volt,Volt,1.200000e-04,1.000000e-06
0,3.92e+00,5.12e+00,
1,3.68e+00,4.88e+00,
2,3.84e+00,5.12e+00,
3,3.60e+00,4.88e+00,
4,3.76e+00,5.12e+00,
5,3.52e+00,4.88e+00,
6,3.68e+00,4.88e+00,
7,3.44e+00,5.12e+00,
8,3.60e+00,5.12e+00,
9,3.36e+00,4.88e+00,
10,3.52e+00,4.88e+00,
11,3.28e+00,5.12e+00,
12,3.44e+00,5.12e+00,
13,3.12e+00,4.88e+00,
14,3.28e+00,4.88e+00,
15,3.04e+00,5.20e+00,
16,3.20e+00,5.12e+00,
17,2.96e+00,4.88e+00,
18,3.12e+00,5.20e+00,
19,2.88e+00,4.88e+00,
20,3.04e+00,4.88e+00,
21,2.80e+00,5.20e+00,
22,2.96e+00,4.88e+00,
23,2.72e+00,5.20e+00,
24,2.88e+00,4.88e+00,
25,2.64e+00,5.12e+00,
26,2.72e+00,5.12e+00,
27,2.56e+00,4.88e+00,
28,2.64e+00,5.12e+00,
29,2.48e+00,4.88e+00,
30,2.56e+00,4.88e+00,
31,2.40e+00,5.20e+00,
32,2.48e+00,4.88e+00,
33,2.32e+00,5.20e+00,
34,2.32e+00,4.88e+00,
35,2.16e+00,5.12e+00,
36,2.24e+00,4.88e+00,
37,2.08e+00,5.20e+00,
38,2.16e+00,4.88e+00,
39,2.00e+00,5.12e+00,
40,1.92e+00,5.20e+00,
41,2.08e+00,4.88e+00,
42,2.00e+00,4.88e+00,
43,1.84e+00,5.20e+00,
44,1.92e+00,5.12e+00,
45,1.68e+00,4.88e+00,
46,1.84e+00,4.88e+00,
47,1.60e+00,5.20e+00,
48,1.76e+00,5.12e+00,
49,1.52e+00,4.88e+00,
50,1.68e+00,5.12e+00,
51,1.44e+00,4.88e+00,
52,1.60e+00,5.12e+00,
53,1.36e+00,4.88e+00,
54,1.44e+00,4.88e+00,
55,1.28e+00,5.12e+00,
56,1.36e+00,4.88e+00,
57,1.20e+00,5.12e+00,
58,1.12e+00,4.88e+00,
59,1.28e+00,5.12e+00,
60,1.20e+00,5.12e+00,
61,1.04e+00,4.88e+00,
62,1.12e+00,5.20e+00,
63,9.60e-01,4.88e+00,
64,1.04e+00,4.88e+00,
65,8.80e-01,5.20e+00,
66,9.60e-01,4.88e+00,
67,8.00e-01,5.20e+00,
68,8.80e-01,4.88e+00,
69,7.20e-01,5.20e+00,
70,8.00e-01,4.88e+00,
71,6.40e-01,5.20e+00,
72,8.00e-01,5.12e+00,
73,6.40e-01,4.88e+00,
74,7.20e-01,5.12e+00,
75,5.60e-01,4.88e+00,
76,6.40e-01,4.96e+00,
77,4.80e-01,5.12e+00,
78,4.80e-01,4.88e+00,
79,5.60e-01,5.20e+00,
80,4.80e-01,5.12e+00,
81,4.00e-01,4.88e+00,
82,4.00e-01,4.96e+00,
83,2.40e-01,5.20e+00,
84,2.40e-01,4.88e+00,
85,4.00e-01,5.20e+00,
86,3.20e-01,5.12e+00,
87,1.60e-01,1.60e-01,
88,2.40e-01,2.40e-01,
89,1.60e-01,8.00e-02,
90,2.40e-01,2.40e-01,
91,8.00e-02,8.00e-02,
92,1.60e-01,2.40e-01,
93,8.00e-02,8.00e-02,
94,1.60e-01,2.40e-01,
95,0.00e+00,8.00e-02,
96,1.60e-01,2.40e-01,
97,0.00e+00,8.00e-02,
98,8.00e-02,2.40e-01,
99,0.00e+00,8.00e-02,
100,8.00e-02,2.40e-01,
101,-8.00e-02,8.00e-02,
102,-8.00e-02,2.40e-01,
103,8.00e-02,8.00e-02,
104,0.00e+00,2.40e-01,
105,-8.00e-02,8.00e-02,
106,-8.00e-02,2.40e-01,
107,0.00e+00,8.00e-02,
108,0.00e+00,2.40e-01,
109,-1.60e-01,8.00e-02,
110,0.00e+00,2.40e-01,
111,-1.60e-01,8.00e-02,
112,-1.60e-01,2.40e-01,
113,0.00e+00,8.00e-02,
114,0.00e+00,2.40e-01,
115,-1.60e-01,8.00e-02,
116,0.00e+00,8.00e-02,
117,-1.60e-01,2.40e-01,
118,-1.60e-01,8.00e-02,
119,0.00e+00,2.40e-01,
120,0.00e+00,8.00e-02,
121,-1.60e-01,2.40e-01,
122,-8.00e-02,2.40e-01,
123,0.00e+00,8.00e-02,
124,0.00e+00,2.40e-01,
125,-8.00e-02,8.00e-02,
126,-8.00e-02,2.40e-01,
127,8.00e-02,8.00e-02,
128,-8.00e-02,8.00e-02,
129,8.00e-02,2.40e-01,
130,0.00e+00,8.00e-02,
131,8.00e-02,2.40e-01,
132,0.00e+00,2.40e-01,
133,1.60e-01,8.00e-02,
134,1.60e-01,8.00e-02,
135,0.00e+00,2.40e-01,
136,1.60e-01,8.00e-02,
137,8.00e-02,2.40e-01,
138,8.00e-02,8.00e-02,
139,2.40e-01,2.40e-01,
140,1.60e-01,8.00e-02,
141,2.40e-01,2.40e-01,
142,1.60e-01,8.00e-02,
143,3.20e-01,2.40e-01,
144,3.20e-01,8.00e-02,
145,2.40e-01,2.40e-01,
146,4.00e-01,8.00e-02,
147,2.40e-01,2.40e-01,
148,4.00e-01,8.00e-02,
149,5.60e-01,2.40e-01,
150,4.80e-01,8.00e-02,
151,5.60e-01,1.60e-01,
152,4.80e-01,8.00e-02,
153,6.40e-01,1.60e-01,
154,5.60e-01,1.60e-01,
155,7.20e-01,8.00e-02,
156,6.40e-01,8.00e-02,
157,8.00e-01,2.40e-01,
158,6.40e-01,2.40e-01,
159,8.00e-01,8.00e-02,
160,7.20e-01,1.60e-01,
161,8.80e-01,3.76e+00,
162,8.00e-01,3.84e+00,
163,9.60e-01,5.04e+00,
164,8.80e-01,5.04e+00,
165,1.04e+00,4.88e+00,
166,9.60e-01,4.88e+00,
167,1.12e+00,5.12e+00,
168,1.04e+00,4.88e+00,
169,1.20e+00,5.12e+00,
170,1.12e+00,4.88e+00,
171,1.28e+00,5.12e+00,
172,1.20e+00,5.12e+00,
173,1.36e+00,4.88e+00,
174,1.36e+00,5.12e+00,
175,1.52e+00,4.88e+00,
176,1.44e+00,4.88e+00,
177,1.60e+00,5.12e+00,
178,1.52e+00,5.04e+00,
179,1.68e+00,4.88e+00,
180,1.52e+00,4.88e+00,
181,1.76e+00,5.12e+00,
182,1.68e+00,4.88e+00,
183,1.84e+00,5.20e+00,
184,1.76e+00,5.12e+00,
185,1.92e+00,4.88e+00,
186,1.84e+00,5.12e+00,
187,2.00e+00,4.88e+00,
188,1.92e+00,5.12e+00,
189,2.08e+00,4.88e+00,
190,2.00e+00,5.12e+00,
191,2.16e+00,4.88e+00,
192,2.08e+00,5.12e+00,
193,2.24e+00,4.88e+00,
194,2.16e+00,4.88e+00,
195,2.32e+00,5.12e+00,
196,2.32e+00,4.88e+00,
197,2.48e+00,5.20e+00,
198,2.40e+00,4.88e+00,
199,2.56e+00,5.20e+00,
200,2.48e+00,5.12e+00,
201,2.64e+00,4.88e+00,
202,2.56e+00,4.88e+00,
203,2.72e+00,5.12e+00,
204,2.64e+00,4.88e+00,
205,2.88e+00,5.12e+00,
206,2.72e+00,5.12e+00,
207,2.96e+00,4.88e+00,
208,2.80e+00,4.88e+00,
209,3.04e+00,5.12e+00,
210,2.88e+00,4.88e+00,
211,3.12e+00,5.12e+00,
212,2.96e+00,4.88e+00,
213,3.20e+00,5.12e+00,
214,3.12e+00,5.12e+00,
215,3.28e+00,4.88e+00,
216,3.12e+00,5.12e+00,
217,3.44e+00,4.88e+00,
218,3.28e+00,5.12e+00,
219,3.52e+00,4.88e+00,
220,3.36e+00,5.12e+00,
221,3.60e+00,4.88e+00,
222,3.44e+00,4.88e+00,
223,3.68e+00,5.20e+00,
224,3.52e+00,5.12e+00,
225,3.76e+00,4.88e+00,
226,3.60e+00,4.88e+00,
227,3.84e+00,5.20e+00,
228,3.68e+00,5.12e+00,
229,3.92e+00,4.88e+00,
230,3.76e+00,5.20e+00,
231,3.92e+00,4.88e+00,
232,4.00e+00,5.12e+00,
233,3.84e+00,4.88e+00,
234,3.92e+00,4.88e+00,
235,4.08e+00,5.12e+00,
236,3.92e+00,5.12e+00,
237,4.16e+00,4.88e+00,
238,4.08e+00,5.12e+00,
239,4.24e+00,4.88e+00,
240,4.08e+00,5.20e+00,
241,4.32e+00,4.88e+00,
242,4.16e+00,5.20e+00,
243,4.40e+00,4.88e+00,
244,4.24e+00,5.12e+00,
245,4.48e+00,4.88e+00,
246,4.32e+00,5.12e+00,
247,4.48e+00,4.88e+00,
248,4.40e+00,5.12e+00,
249,4.56e+00,4.88e+00,
250,4.40e+00,5.12e+00,
251,4.64e+00,4.88e+00,
252,4.64e+00,4.88e+00,
253,4.48e+00,5.20e+00,
254,4.48e+00,5.12e+00,
255,4.72e+00,4.88e+00,
256,4.72e+00,4.88e+00,
257,4.56e+00,5.20e+00,
258,4.56e+00,5.12e+00,
259,4.80e+00,4.88e+00,
260,4.80e+00,4.88e+00,
261,4.64e+00,5.20e+00,
262,4.80e+00,5.12e+00,
263,4.64e+00,4.88e+00,
264,4.72e+00,5.20e+00,
265,4.88e+00,4.88e+00,
266,4.88e+00,5.12e+00,
267,4.72e+00,4.88e+00,
268,4.72e+00,5.12e+00,
269,4.96e+00,4.88e+00,
270,4.80e+00,4.88e+00,
271,4.96e+00,5.20e+00,
272,4.80e+00,5.20e+00,
273,4.96e+00,4.88e+00,
274,4.96e+00,5.12e+00,
275,4.80e+00,4.88e+00,
276,4.96e+00,5.12e+00,
277,4.80e+00,4.88e+00,
278,4.80e+00,4.88e+00,
279,4.96e+00,5.20e+00,
280,4.96e+00,5.12e+00,
281,4.80e+00,4.88e+00,
282,4.96e+00,5.12e+00,
283,4.80e+00,4.88e+00,
284,4.96e+00,5.12e+00,
285,4.80e+00,4.88e+00,
286,4.96e+00,4.88e+00,
287,4.80e+00,5.20e+00,
288,4.96e+00,5.20e+00,
289,4.80e+00,4.88e+00,
290,4.80e+00,5.12e+00,
291,4.96e+00,4.88e+00,
292,4.96e+00,5.12e+00,
293,4.72e+00,4.88e+00,
294,4.88e+00,5.12e+00,
295,4.72e+00,4.88e+00,
296,4.88e+00,5.12e+00,
297,4.72e+00,4.88e+00,
298,4.88e+00,4.88e+00,
299,4.72e+00,5.20e+00,
300,4.88e+00,5.12e+00,
301,4.64e+00,4.88e+00,
302,4.80e+00,4.88e+00,
303,4.64e+00,5.20e+00,
304,4.80e+00,5.12e+00,
305,4.56e+00,4.88e+00,
306,4.72e+00,4.88e+00,
307,4.56e+00,5.12e+00,
308,4.72e+00,4.88e+00,
309,4.48e+00,5.12e+00,
310,4.48e+00,4.88e+00,
311,4.64e+00,5.12e+00,
312,4.56e+00,4.88e+00,
313,4.40e+00,5.20e+00,
314,4.40e+00,4.88e+00,
315,4.56e+00,5.12e+00,
316,4.32e+00,5.12e+00,
317,4.48e+00,4.88e+00,
318,4.48e+00,4.88e+00,
319,4.16e+00,5.20e+00,
320,4.40e+00,5.12e+00,
321,4.16e+00,4.88e+00,
322,4.24e+00,5.12e+00,
323,4.08e+00,4.88e+00,
324,4.24e+00,5.12e+00,
325,4.00e+00,4.88e+00,
326,4.16e+00,4.88e+00,
327,3.92e+00,5.20e+00,
328,4.08e+00,5.12e+00,
329,3.84e+00,4.88e+00,
330,3.84e+00,5.12e+00,
331,4.00e+00,4.88e+00,
332,3.76e+00,4.88e+00,
333,3.92e+00,5.12e+00,
334,3.84e+00,4.88e+00,
335,3.68e+00,5.12e+00,
336,3.76e+00,5.12e+00,
337,3.60e+00,4.88e+00,
338,3.68e+00,5.12e+00,
339,3.52e+00,4.88e+00,
340,3.60e+00,5.20e+00,
341,3.44e+00,4.88e+00,
342,3.52e+00,5.12e+00,
343,3.36e+00,4.88e+00,
344,3.44e+00,4.88e+00,
345,3.20e+00,5.20e+00,
346,3.28e+00,4.88e+00,
347,3.12e+00,5.12e+00,
348,3.20e+00,4.88e+00,
349,3.04e+00,5.12e+00,
350,3.12e+00,4.88e+00,
351,2.96e+00,5.20e+00,
352,3.04e+00,5.12e+00,
353,2.88e+00,4.88e+00,
354,2.96e+00,5.12e+00,
355,2.80e+00,4.88e+00,
356,2.88e+00,4.88e+00,
357,2.72e+00,5.12e+00,
358,2.80e+00,5.12e+00,
359,2.64e+00,4.88e+00,
360,2.72e+00,4.88e+00,
361,2.56e+00,5.20e+00,
362,2.48e+00,5.12e+00,
363,2.64e+00,4.88e+00,
364,2.56e+00,5.12e+00,
365,2.32e+00,4.88e+00,
366,2.48e+00,4.88e+00,
367,2.24e+00,5.12e+00,
368,2.32e+00,4.88e+00,
369,2.08e+00,5.20e+00,
370,2.24e+00,5.12e+00,
371,2.00e+00,4.88e+00,
372,2.16e+00,4.88e+00,
373,1.92e+00,5.12e+00,
374,2.00e+00,5.20e+00,
375,1.84e+00,4.88e+00,
376,1.92e+00,4.88e+00,
377,1.76e+00,5.12e+00,
378,1.84e+00,4.88e+00,
379,1.68e+00,5.12e+00,
380,1.76e+00,4.88e+00,
381,1.60e+00,5.20e+00,
382,1.68e+00,5.12e+00,
383,1.52e+00,4.88e+00,
384,1.60e+00,4.88e+00,
385,1.44e+00,5.12e+00,
386,1.52e+00,4.88e+00,
387,1.28e+00,5.12e+00,
388,1.36e+00,5.12e+00,
389,1.20e+00,4.88e+00,
390,1.28e+00,5.12e+00,
391,1.12e+00,4.88e+00,
392,1.20e+00,4.88e+00,
393,1.04e+00,5.20e+00,
394,1.12e+00,4.88e+00,
395,9.60e-01,5.12e+00,
396,1.04e+00,5.12e+00,
397,8.80e-01,4.88e+00,
398,1.04e+00,4.88e+00,
399,8.80e-01,5.12e+00,
400,9.60e-01,4.88e+00,
401,8.00e-01,5.20e+00,
402,8.80e-01,5.12e+00,
403,7.20e-01,4.88e+00,
404,8.00e-01,4.88e+00,
405,6.40e-01,5.20e+00,
406,7.20e-01,4.88e+00,
407,5.60e-01,5.20e+00,
408,5.60e-01,5.12e+00,
409,7.20e-01,4.88e+00,
410,6.40e-01,4.88e+00,
411,4.80e-01,5.12e+00,
412,5.60e-01,5.12e+00,
413,4.00e-01,4.88e+00,
414,4.00e-01,5.12e+00,
415,3.20e-01,4.88e+00,
416,4.00e-01,5.20e+00,
417,2.40e-01,4.88e+00,
418,3.20e-01,5.20e+00,
419,2.40e-01,4.48e+00,
420,3.20e-01,4.48e+00,
421,1.60e-01,1.60e-01,
422,2.40e-01,2.40e-01,
423,8.00e-02,8.00e-02,
424,8.00e-02,2.40e-01,
425,2.40e-01,8.00e-02,
426,1.60e-01,8.00e-02,
427,8.00e-02,2.40e-01,
428,1.60e-01,2.40e-01,
429,0.00e+00,8.00e-02,
430,8.00e-02,8.00e-02,
431,0.00e+00,2.40e-01,
432,8.00e-02,2.40e-01,
433,-8.00e-02,8.00e-02,
434,8.00e-02,2.40e-01,
435,-8.00e-02,8.00e-02,
436,0.00e+00,2.40e-01,
437,-8.00e-02,8.00e-02,
438,-8.00e-02,2.40e-01,
439,0.00e+00,8.00e-02,
440,-8.00e-02,2.40e-01,
441,0.00e+00,8.00e-02,
442,0.00e+00,2.40e-01,
443,-1.60e-01,8.00e-02,
444,-1.60e-01,8.00e-02,
445,0.00e+00,2.40e-01,
446,0.00e+00,2.40e-01,
447,-1.60e-01,8.00e-02,
448,0.00e+00,2.40e-01,
449,-1.60e-01,8.00e-02,
450,-1.60e-01,8.00e-02,
451,0.00e+00,2.40e-01,
452,-1.60e-01,2.40e-01,
453,0.00e+00,8.00e-02,
454,-8.00e-02,2.40e-01,
455,0.00e+00,8.00e-02,
456,0.00e+00,8.00e-02,
457,-8.00e-02,2.40e-01,
458,-8.00e-02,2.40e-01,
459,0.00e+00,8.00e-02,
460,-8.00e-02,2.40e-01,
461,8.00e-02,8.00e-02,
462,8.00e-02,2.40e-01,
463,-8.00e-02,8.00e-02,
464,0.00e+00,2.40e-01,
465,8.00e-02,8.00e-02,
466,0.00e+00,8.00e-02,
467,1.60e-01,2.40e-01,
468,1.60e-01,8.00e-02,
469,0.00e+00,2.40e-01,
470,8.00e-02,8.00e-02,
471,1.60e-01,2.40e-01,
472,8.00e-02,8.00e-02,
473,2.40e-01,2.40e-01,
474,1.60e-01,8.00e-02,
475,3.20e-01,2.40e-01,
476,3.20e-01,1.60e-01,
477,1.60e-01,8.00e-02,
478,2.40e-01,1.60e-01,
479,4.00e-01,8.00e-02,
480,2.40e-01,1.60e-01,
481,4.00e-01,8.00e-02,
482,3.20e-01,1.60e-01,
483,5.60e-01,8.00e-02,
484,4.80e-01,8.00e-02,
485,6.40e-01,2.40e-01,
486,4.80e-01,1.60e-01,
487,6.40e-01,8.00e-02,
488,5.60e-01,1.60e-01,
489,7.20e-01,8.00e-02,
490,6.40e-01,8.00e-02,
491,8.00e-01,2.40e-01,
492,7.20e-01,2.40e-01,
493,8.80e-01,8.00e-02,
494,8.00e-01,1.60e-01,
495,9.60e-01,5.04e+00,
496,9.60e-01,5.04e+00,
497,8.00e-01,4.88e+00,
498,8.80e-01,5.04e+00,
499,1.04e+00,4.88e+00,
500,9.60e-01,5.04e+00,
501,1.12e+00,4.88e+00,
502,1.04e+00,5.04e+00,
503,1.20e+00,4.88e+00,
504,1.12e+00,5.04e+00,
505,1.28e+00,4.88e+00,
506,1.20e+00,5.12e+00,
507,1.36e+00,4.88e+00,
508,1.28e+00,5.04e+00,
509,1.52e+00,4.88e+00,
510,1.44e+00,4.88e+00,
511,1.60e+00,5.12e+00,
512,1.52e+00,5.04e+00,
513,1.68e+00,4.88e+00,
514,1.60e+00,5.04e+00,
515,1.76e+00,4.88e+00,
516,1.68e+00,5.04e+00,
517,1.84e+00,4.88e+00,
518,1.76e+00,5.04e+00,
519,1.92e+00,4.88e+00,
520,1.84e+00,5.04e+00,
521,2.00e+00,4.88e+00,
522,1.92e+00,5.04e+00,
523,2.08e+00,4.88e+00,
524,2.00e+00,5.04e+00,
525,2.16e+00,4.88e+00,
526,2.08e+00,5.04e+00,
527,2.24e+00,4.88e+00,
528,2.16e+00,4.88e+00,
529,2.48e+00,5.12e+00,
530,2.24e+00,5.04e+00,
531,2.56e+00,4.88e+00,
532,2.40e+00,4.88e+00,
533,2.64e+00,5.04e+00,
534,2.48e+00,5.04e+00,
535,2.72e+00,4.88e+00,
536,2.56e+00,5.20e+00,
537,2.80e+00,4.88e+00,
538,2.64e+00,4.88e+00,
539,2.88e+00,5.12e+00,
540,2.80e+00,5.12e+00,
541,2.96e+00,4.88e+00,
542,2.88e+00,5.04e+00,
543,3.04e+00,4.88e+00,
544,2.96e+00,5.04e+00,
545,3.12e+00,4.88e+00,
546,3.04e+00,4.88e+00,
547,3.20e+00,5.12e+00,
548,3.12e+00,4.88e+00,
549,3.28e+00,5.12e+00,
550,3.20e+00,4.88e+00,
551,3.44e+00,5.12e+00,
552,3.36e+00,4.88e+00,
553,3.52e+00,5.20e+00,
554,3.44e+00,5.12e+00,
555,3.60e+00,4.88e+00,
556,3.52e+00,4.88e+00,
557,3.68e+00,5.12e+00,
558,3.60e+00,5.12e+00,
559,3.76e+00,4.88e+00,
560,3.68e+00,5.12e+00,
561,3.84e+00,4.88e+00,
562,3.68e+00,5.12e+00,
563,3.92e+00,4.88e+00,
564,3.76e+00,5.12e+00,
565,4.00e+00,4.88e+00,
566,3.84e+00,5.12e+00,
567,4.08e+00,4.88e+00,
568,3.92e+00,5.12e+00,
569,4.08e+00,4.88e+00,
570,4.00e+00,5.12e+00,
571,4.16e+00,4.88e+00,
572,4.08e+00,5.12e+00,
573,4.24e+00,4.88e+00,
574,4.08e+00,4.88e+00,
575,4.40e+00,5.12e+00,
576,4.40e+00,5.12e+00,
577,4.16e+00,4.88e+00,
578,4.32e+00,4.88e+00,
579,4.48e+00,5.12e+00,
580,4.32e+00,4.88e+00,
581,4.56e+00,5.12e+00,
582,4.40e+00,4.88e+00,
583,4.64e+00,5.12e+00,
584,4.40e+00,5.12e+00,
585,4.64e+00,4.88e+00,
586,4.48e+00,4.88e+00,
587,4.64e+00,5.12e+00,
588,4.72e+00,5.12e+00,
589,4.56e+00,4.88e+00,
590,4.56e+00,5.12e+00,
591,4.72e+00,4.88e+00,
592,4.64e+00,5.12e+00,
593,4.80e+00,4.88e+00,
594,4.80e+00,5.12e+00,
595,4.64e+00,4.88e+00,
596,4.64e+00,5.12e+00,
597,4.88e+00,4.88e+00,
598,4.72e+00,5.12e+00,
599,4.88e+00,4.88e+00,
600,4.88e+00,4.88e+00,
601,4.72e+00,5.20e+00,
602,4.72e+00,5.12e+00,
603,4.96e+00,4.88e+00,
604,4.96e+00,4.88e+00,
605,4.80e+00,5.20e+00,
606,4.96e+00,5.12e+00,
607,4.80e+00,4.88e+00,
608,4.96e+00,4.88e+00,
609,4.80e+00,5.20e+00,
610,4.96e+00,5.12e+00,
611,4.80e+00,4.88e+00,
612,4.96e+00,4.88e+00,
613,4.80e+00,5.20e+00,
614,4.80e+00,4.88e+00,
615,4.96e+00,5.20e+00,
616,4.80e+00,4.88e+00,
617,4.96e+00,5.20e+00,
618,4.80e+00,4.88e+00,
619,4.96e+00,5.12e+00,
620,4.96e+00,4.88e+00,
621,4.80e+00,5.12e+00,
622,4.96e+00,4.88e+00,
623,4.80e+00,5.20e+00,
624,4.96e+00,4.88e+00,
625,4.80e+00,5.12e+00,
626,4.96e+00,5.20e+00,
627,4.72e+00,4.88e+00,
628,4.72e+00,4.88e+00,
629,4.88e+00,5.12e+00,
630,4.72e+00,4.88e+00,
631,4.88e+00,5.12e+00,
632,4.88e+00,5.12e+00,
633,4.64e+00,4.88e+00,
634,4.80e+00,5.12e+00,
635,4.64e+00,4.88e+00,
636,4.80e+00,4.88e+00,
637,4.64e+00,5.20e+00,
638,4.56e+00,5.12e+00,
639,4.72e+00,4.88e+00,
640,4.56e+00,4.88e+00,
641,4.72e+00,5.20e+00,
642,4.72e+00,5.12e+00,
643,4.48e+00,4.88e+00,
644,4.64e+00,4.88e+00,
645,4.48e+00,5.20e+00,
646,4.40e+00,5.12e+00,
647,4.56e+00,4.88e+00,
648,4.56e+00,4.88e+00,
649,4.32e+00,5.20e+00,
650,4.32e+00,4.88e+00,
651,4.48e+00,5.20e+00,
652,4.40e+00,4.88e+00,
653,4.24e+00,5.12e+00,
654,4.32e+00,4.88e+00,
655,4.08e+00,5.12e+00,
656,4.24e+00,4.96e+00,
657,4.08e+00,5.20e+00,
658,4.16e+00,5.20e+00,
659,4.00e+00,4.88e+00,
660,4.08e+00,4.88e+00,
661,3.92e+00,5.12e+00,
662,4.08e+00,5.12e+00,
663,3.84e+00,4.88e+00,
664,4.00e+00,4.88e+00,
665,3.76e+00,5.12e+00,
666,3.92e+00,4.88e+00,
667,3.68e+00,5.12e+00,
668,3.84e+00,5.20e+00,
669,3.60e+00,4.88e+00,
670,3.76e+00,4.88e+00,
671,3.52e+00,5.12e+00,
672,3.52e+00,4.88e+00,
673,3.68e+00,5.20e+00,
674,3.44e+00,5.12e+00,
675,3.60e+00,4.88e+00,
676,3.36e+00,4.88e+00,
677,3.52e+00,5.12e+00,
678,3.44e+00,5.12e+00,
679,3.20e+00,4.88e+00,
680,3.28e+00,5.12e+00,
681,3.12e+00,4.88e+00,
682,3.20e+00,4.88e+00,
683,3.04e+00,5.20e+00,
684,3.12e+00,5.12e+00,
685,2.96e+00,4.88e+00,
686,3.04e+00,4.88e+00,
687,2.80e+00,5.12e+00,
688,2.96e+00,4.88e+00,
689,2.72e+00,5.20e+00,
690,2.88e+00,4.88e+00,
691,2.64e+00,5.20e+00,
692,2.80e+00,4.88e+00,
693,2.56e+00,5.12e+00,
694,2.72e+00,4.88e+00,
695,2.48e+00,5.20e+00,
696,2.56e+00,4.88e+00,
697,2.40e+00,5.20e+00,
698,2.48e+00,4.88e+00,
699,2.32e+00,5.20e+00,
700,2.32e+00,4.88e+00,
701,2.16e+00,5.20e+00,
702,2.24e+00,4.88e+00,
703,2.08e+00,5.12e+00,
704,2.16e+00,5.20e+00,
705,2.00e+00,4.88e+00,
706,2.08e+00,4.88e+00,
707,1.92e+00,5.12e+00,
708,2.00e+00,4.88e+00,
709,1.84e+00,5.12e+00,
710,1.92e+00,4.88e+00,
711,1.76e+00,5.12e+00,
712,1.84e+00,4.88e+00,
713,1.68e+00,5.12e+00,
714,1.76e+00,4.88e+00,
715,1.60e+00,5.12e+00,
716,1.68e+00,4.88e+00,
717,1.52e+00,5.20e+00,
718,1.60e+00,4.88e+00,
719,1.44e+00,5.20e+00,
720,1.52e+00,4.88e+00,
721,1.36e+00,5.12e+00,
722,1.36e+00,4.88e+00,
723,1.20e+00,5.12e+00,
724,1.28e+00,4.88e+00,
725,1.12e+00,5.20e+00,
726,1.20e+00,4.88e+00,
727,1.04e+00,5.20e+00,
728,1.12e+00,4.88e+00,
729,9.60e-01,5.12e+00,
730,1.04e+00,4.88e+00,
731,8.80e-01,5.20e+00,
732,9.60e-01,4.88e+00,
733,8.00e-01,5.12e+00,
734,8.80e-01,5.12e+00,
735,7.20e-01,4.88e+00,
736,8.80e-01,4.88e+00,
737,7.20e-01,5.20e+00,
738,8.00e-01,4.88e+00,
739,6.40e-01,5.12e+00,
740,7.20e-01,4.88e+00,
741,5.60e-01,5.12e+00,
742,6.40e-01,4.88e+00,
743,4.80e-01,5.12e+00,
744,4.80e-01,4.88e+00,
745,6.40e-01,5.12e+00,
746,5.60e-01,4.88e+00,
747,4.00e-01,5.12e+00,
748,4.00e-01,4.88e+00,
749,3.20e-01,5.20e+00,
750,4.00e-01,4.88e+00,
751,2.40e-01,5.20e+00,
752,3.20e-01,5.12e+00,
753,1.60e-01,1.60e-01,
754,2.40e-01,2.40e-01,
755,1.60e-01,8.00e-02,
756,2.40e-01,2.40e-01,
757,8.00e-02,8.00e-02,
758,8.00e-02,8.00e-02,
759,2.40e-01,2.40e-01,
760,1.60e-01,2.40e-01,
761,0.00e+00,8.00e-02,
762,0.00e+00,2.40e-01,
763,1.60e-01,8.00e-02,
764,0.00e+00,2.40e-01,
765,8.00e-02,8.00e-02,
766,8.00e-02,2.40e-01,
767,-8.00e-02,8.00e-02,
768,-8.00e-02,2.40e-01,
769,8.00e-02,8.00e-02,
770,0.00e+00,2.40e-01,
771,-8.00e-02,8.00e-02,
772,-8.00e-02,2.40e-01,
773,0.00e+00,8.00e-02,
774,0.00e+00,2.40e-01,
775,-8.00e-02,8.00e-02,
776,0.00e+00,8.00e-02,
777,-1.60e-01,2.40e-01,
778,-1.60e-01,2.40e-01,
779,0.00e+00,8.00e-02,
780,-1.60e-01,2.40e-01,
781,0.00e+00,8.00e-02,
782,-1.60e-01,2.40e-01,
783,0.00e+00,8.00e-02,
784,-1.60e-01,2.40e-01,
785,0.00e+00,8.00e-02,
786,-1.60e-01,2.40e-01,
787,0.00e+00,8.00e-02,
788,-8.00e-02,2.40e-01,
789,0.00e+00,8.00e-02,
790,0.00e+00,8.00e-02,
791,-8.00e-02,2.40e-01,
792,-8.00e-02,8.00e-02,
793,0.00e+00,2.40e-01,
794,-8.00e-02,8.00e-02,
795,8.00e-02,2.40e-01,
796,8.00e-02,8.00e-02,
797,-8.00e-02,2.40e-01,
798,8.00e-02,8.00e-02,
799,0.00e+00,2.40e-01,
800,0.00e+00,8.00e-02,
801,1.60e-01,2.40e-01,
802,1.60e-01,8.00e-02,
803,8.00e-02,2.40e-01,
804,8.00e-02,8.00e-02,
805,2.40e-01,2.40e-01,
806,2.40e-01,8.00e-02,
807,8.00e-02,1.60e-01,
808,1.60e-01,1.60e-01,
809,3.20e-01,8.00e-02,
810,3.20e-01,1.60e-01,
811,1.60e-01,8.00e-02,
812,2.40e-01,1.60e-01,
813,4.00e-01,8.00e-02,
814,4.00e-01,8.00e-02,
815,5.60e-01,2.40e-01,
816,4.00e-01,8.00e-02,
817,5.60e-01,2.40e-01,
818,4.80e-01,8.00e-02,
819,6.40e-01,2.40e-01,
820,5.60e-01,1.60e-01,
821,7.20e-01,8.00e-02,
822,5.60e-01,1.60e-01,
823,7.20e-01,8.00e-02,
824,6.40e-01,8.00e-02,
825,8.00e-01,2.40e-01,
826,7.20e-01,8.00e-02,
827,8.80e-01,7.20e-01,
828,8.00e-01,7.20e-01,
829,9.60e-01,5.04e+00,
830,8.80e-01,4.88e+00,
831,1.04e+00,5.04e+00,
832,9.60e-01,4.88e+00,
833,1.12e+00,5.12e+00,
834,9.60e-01,5.12e+00,
835,1.12e+00,4.88e+00,
836,1.04e+00,4.88e+00,
837,1.20e+00,5.12e+00,
838,1.12e+00,5.12e+00,
839,1.28e+00,4.88e+00,
840,1.20e+00,5.12e+00,
841,1.36e+00,4.88e+00,
842,1.36e+00,4.88e+00,
843,1.52e+00,5.20e+00,
844,1.44e+00,5.12e+00,
845,1.60e+00,4.88e+00,
846,1.52e+00,4.88e+00,
847,1.68e+00,5.20e+00,
848,1.60e+00,5.12e+00,
849,1.76e+00,4.88e+00,
850,1.68e+00,4.88e+00,
851,1.84e+00,5.20e+00,
852,1.76e+00,5.12e+00,
853,2.00e+00,4.88e+00,
854,1.84e+00,4.88e+00,
855,2.08e+00,5.20e+00,
856,1.92e+00,4.88e+00,
857,2.16e+00,5.20e+00,
858,2.00e+00,5.12e+00,
859,2.24e+00,4.88e+00,
860,2.08e+00,4.88e+00,
861,2.32e+00,5.20e+00,
862,2.32e+00,4.88e+00,
863,2.48e+00,5.20e+00,
864,2.32e+00,4.88e+00,
865,2.56e+00,5.20e+00,
866,2.48e+00,5.12e+00,
867,2.64e+00,4.88e+00,
868,2.56e+00,4.88e+00,
