project/matlab/project_exp2/sine_500Hz/NewFile1.csv

X,CH1,CH2,Start,Increment,
Sequence,Volt,Volt,-6.000000e-03,1.000000e-05
0,1.68e+00,5.04e+00,
1,1.92e+00,4.88e+00,
2,1.84e+00,5.04e+00,
3,2.08e+00,4.88e+00,
4,2.00e+00,5.04e+00,
5,2.24e+00,4.88e+00,
6,2.08e+00,5.04e+00,
7,2.40e+00,4.88e+00,
8,2.32e+00,5.04e+00,
9,2.56e+00,4.88e+00,
10,2.48e+00,5.04e+00,
11,2.72e+00,4.88e+00,
12,2.64e+00,5.04e+00,
13,2.88e+00,4.88e+00,
14,2.72e+00,5.04e+00,
15,3.04e+00,4.88e+00,
16,2.88e+00,5.04e+00,
17,3.12e+00,4.88e+00,
18,3.04e+00,5.04e+00,
19,3.28e+00,4.88e+00,
20,3.20e+00,5.04e+00,
21,3.52e+00,4.88e+00,
22,3.36e+00,5.04e+00,
23,3.60e+00,4.96e+00,
24,3.52e+00,5.04e+00,
25,3.76e+00,4.96e+00,
26,3.60e+00,5.04e+00,
27,3.84e+00,4.96e+00,
28,3.76e+00,5.04e+00,
29,4.00e+00,4.96e+00,
30,3.84e+00,5.04e+00,
31,4.08e+00,5.04e+00,
32,4.00e+00,5.04e+00,
33,4.24e+00,4.96e+00,
34,4.08e+00,5.04e+00,
35,4.40e+00,4.96e+00,
36,4.24e+00,5.04e+00,
37,4.48e+00,4.96e+00,
38,4.32e+00,5.04e+00,
39,4.56e+00,4.88e+00,
40,4.40e+00,5.04e+00,
41,4.64e+00,4.88e+00,
42,4.48e+00,5.04e+00,
43,4.72e+00,4.88e+00,
44,4.72e+00,5.04e+00,
45,4.56e+00,4.88e+00,
46,4.64e+00,5.04e+00,
47,4.80e+00,4.88e+00,
48,4.64e+00,5.04e+00,
49,4.88e+00,4.88e+00,
50,4.88e+00,5.04e+00,
51,4.72e+00,4.88e+00,
52,4.72e+00,5.04e+00,
53,4.96e+00,4.88e+00,
54,4.96e+00,5.04e+00,
55,4.80e+00,4.88e+00,
56,4.96e+00,5.04e+00,
57,4.88e+00,4.88e+00,
58,4.96e+00,5.04e+00,
59,4.80e+00,4.88e+00,
60,4.96e+00,5.04e+00,
61,4.80e+00,4.88e+00,
62,4.80e+00,5.04e+00,
63,4.96e+00,5.04e+00,
64,4.96e+00,5.04e+00,
65,4.72e+00,4.96e+00,
66,4.72e+00,5.04e+00,
67,4.88e+00,4.96e+00,
68,4.88e+00,5.04e+00,
69,4.64e+00,4.96e+00,
70,4.80e+00,5.04e+00,
71,4.64e+00,4.96e+00,
72,4.80e+00,5.04e+00,
73,4.56e+00,5.04e+00,
74,4.72e+00,5.04e+00,
75,4.48e+00,4.96e+00,
76,4.64e+00,5.04e+00,
77,4.40e+00,4.96e+00,
78,4.56e+00,5.04e+00,
79,4.32e+00,4.88e+00,
80,4.48e+00,5.04e+00,
81,4.24e+00,4.88e+00,
82,4.40e+00,5.04e+00,
83,4.08e+00,4.88e+00,
84,4.24e+00,5.04e+00,
85,4.00e+00,4.88e+00,
86,4.08e+00,5.04e+00,
87,3.84e+00,4.88e+00,
88,4.00e+00,5.04e+00,
89,3.76e+00,4.88e+00,
90,3.84e+00,5.04e+00,
91,3.60e+00,4.88e+00,
92,3.76e+00,5.04e+00,
93,3.52e+00,4.88e+00,
94,3.60e+00,5.04e+00,
95,3.36e+00,4.88e+00,
96,3.52e+00,5.04e+00,
97,3.20e+00,4.88e+00,
98,3.28e+00,5.04e+00,
99,3.04e+00,4.88e+00,
100,3.12e+00,5.04e+00,
101,2.88e+00,4.88e+00,
102,3.04e+00,5.04e+00,
103,2.80e+00,4.96e+00,
104,2.88e+00,5.04e+00,
105,2.64e+00,5.04e+00,
106,2.72e+00,5.04e+00,
107,2.48e+00,4.96e+00,
108,2.56e+00,5.04e+00,
109,2.32e+00,4.96e+00,
110,2.40e+00,5.04e+00,
111,2.16e+00,4.96e+00,
112,2.24e+00,5.04e+00,
113,2.00e+00,4.96e+00,
114,2.08e+00,5.04e+00,
115,1.84e+00,5.04e+00,
116,1.92e+00,5.04e+00,
117,1.68e+00,4.96e+00,
118,1.76e+00,5.04e+00,
119,1.60e+00,4.96e+00,
120,1.68e+00,5.04e+00,
121,1.44e+00,4.88e+00,
122,1.52e+00,5.04e+00,
123,1.28e+00,4.88e+00,
124,1.36e+00,5.04e+00,
125,1.12e+00,4.88e+00,
126,1.20e+00,5.04e+00,
127,9.60e-01,4.88e+00,
128,1.04e+00,5.04e+00,
129,8.80e-01,4.88e+00,
130,9.60e-01,5.04e+00,
131,8.00e-01,4.88e+00,
132,8.80e-01,5.04e+00,
133,6.40e-01,4.88e+00,
134,7.20e-01,5.04e+00,
135,5.60e-01,4.88e+00,
136,6.40e-01,5.04e+00,
137,4.80e-01,4.88e+00,
138,5.60e-01,5.04e+00,
139,3.20e-01,4.88e+00,
140,4.00e-01,5.04e+00,
141,2.40e-01,1.60e-01,
142,3.20e-01,2.40e-01,
143,1.60e-01,1.60e-01,
144,2.40e-01,2.40e-01,
145,8.00e-02,8.00e-02,
146,1.60e-01,2.40e-01,
147,0.00e+00,8.00e-02,
148,0.00e+00,2.40e-01,
149,1.60e-01,8.00e-02,
150,8.00e-02,2.40e-01,
151,-8.00e-02,8.00e-02,
152,8.00e-02,2.40e-01,
153,-8.00e-02,8.00e-02,
154,0.00e+00,2.40e-01,
155,-8.00e-02,8.00e-02,
156,-8.00e-02,1.60e-01,
157,0.00e+00,8.00e-02,
158,0.00e+00,1.60e-01,
159,-8.00e-02,8.00e-02,
160,-8.00e-02,8.00e-02,
161,0.00e+00,1.60e-01,
162,-8.00e-02,8.00e-02,
163,0.00e+00,1.60e-01,
164,-8.00e-02,1.60e-01,
165,8.00e-02,8.00e-02,
166,-8.00e-02,1.60e-01,
167,8.00e-02,8.00e-02,
168,0.00e+00,8.00e-02,
169,1.60e-01,1.60e-01,
170,1.60e-01,8.00e-02,
171,0.00e+00,1.60e-01,
172,8.00e-02,1.60e-01,
173,2.40e-01,8.00e-02,
174,1.60e-01,1.60e-01,
175,3.20e-01,8.00e-02,
176,2.40e-01,1.60e-01,
177,4.00e-01,8.00e-02,
178,4.00e-01,1.60e-01,
179,5.60e-01,8.00e-02,
180,4.80e-01,1.60e-01,
181,6.40e-01,8.00e-02,
182,5.60e-01,1.60e-01,
183,7.20e-01,8.00e-02,
184,6.40e-01,8.00e-02,
185,8.80e-01,4.96e+00,
186,7.20e-01,4.96e+00,
187,9.60e-01,4.80e+00,
188,8.80e-01,4.96e+00,
189,1.04e+00,4.80e+00,
190,9.60e-01,4.96e+00,
191,1.20e+00,4.80e+00,
192,1.12e+00,4.80e+00,
193,1.36e+00,5.04e+00,
194,1.20e+00,4.88e+00,
195,1.52e+00,5.04e+00,
196,1.44e+00,5.04e+00,
197,1.68e+00,4.96e+00,
198,1.60e+00,5.04e+00,
199,1.76e+00,4.88e+00,
200,1.68e+00,5.04e+00,
201,1.92e+00,4.88e+00,
202,1.84e+00,5.04e+00,
203,2.08e+00,4.88e+00,
204,2.00e+00,5.04e+00,
205,2.24e+00,4.88e+00,
206,2.08e+00,5.04e+00,
207,2.40e+00,4.88e+00,
208,2.32e+00,5.04e+00,
209,2.56e+00,4.88e+00,
210,2.48e+00,5.04e+00,
211,2.72e+00,4.88e+00,
212,2.64e+00,5.04e+00,
213,2.88e+00,4.88e+00,
214,2.72e+00,5.04e+00,
215,3.04e+00,4.88e+00,
216,2.88e+00,5.04e+00,
217,3.12e+00,4.88e+00,
218,3.04e+00,5.04e+00,
219,3.28e+00,4.88e+00,
220,3.28e+00,5.04e+00,
221,3.52e+00,4.88e+00,
222,3.36e+00,5.04e+00,
223,3.60e+00,4.96e+00,
224,3.52e+00,5.04e+00,
225,3.76e+00,4.96e+00,
226,3.60e+00,5.04e+00,
227,3.84e+00,4.96e+00,
228,3.76e+00,5.04e+00,
229,4.00e+00,4.96e+00,
230,3.84e+00,5.04e+00,
231,4.08e+00,4.96e+00,
232,4.00e+00,5.04e+00,
233,4.24e+00,4.96e+00,
234,4.08e+00,5.04e+00,
235,4.40e+00,4.96e+00,
236,4.24e+00,5.04e+00,
237,4.48e+00,4.96e+00,
238,4.32e+00,5.04e+00,
239,4.56e+00,4.88e+00,
240,4.40e+00,5.04e+00,
241,4.64e+00,4.88e+00,
242,4.48e+00,5.04e+00,
243,4.72e+00,4.88e+00,
244,4.72e+00,5.04e+00,
245,4.56e+00,4.88e+00,
246,4.64e+00,5.04e+00,
247,4.80e+00,4.88e+00,
248,4.64e+00,5.04e+00,
249,4.88e+00,4.88e+00,
250,4.88e+00,5.04e+00,
251,4.72e+00,4.88e+00,
252,4.72e+00,5.04e+00,
253,4.96e+00,4.88e+00,
254,4.80e+00,5.04e+00,
255,4.96e+00,4.88e+00,
256,4.96e+00,5.04e+00,
257,4.88e+00,4.88e+00,
258,4.96e+00,5.04e+00,
259,4.80e+00,4.88e+00,
260,4.96e+00,5.04e+00,
261,4.80e+00,4.88e+00,
262,4.96e+00,5.04e+00,
263,4.80e+00,4.96e+00,
264,4.96e+00,5.04e+00,
265,4.72e+00,4.96e+00,
266,4.72e+00,5.04e+00,
267,4.88e+00,4.96e+00,
268,4.88e+00,5.04e+00,
269,4.64e+00,4.96e+00,
270,4.80e+00,5.04e+00,
271,4.64e+00,4.96e+00,
272,4.72e+00,5.04e+00,
273,4.56e+00,4.96e+00,
274,4.72e+00,5.04e+00,
275,4.48e+00,4.96e+00,
276,4.64e+00,5.04e+00,
277,4.40e+00,4.96e+00,
278,4.56e+00,5.04e+00,
279,4.32e+00,4.88e+00,
280,4.48e+00,5.04e+00,
281,4.16e+00,4.88e+00,
282,4.40e+00,5.04e+00,
283,4.08e+00,4.88e+00,
284,4.24e+00,5.04e+00,
285,4.00e+00,4.88e+00,
286,4.08e+00,5.04e+00,
287,3.84e+00,4.88e+00,
288,4.00e+00,5.04e+00,
289,3.76e+00,4.88e+00,
290,3.84e+00,5.04e+00,
291,3.60e+00,4.88e+00,
292,3.76e+00,5.04e+00,
293,3.52e+00,4.88e+00,
294,3.60e+00,5.04e+00,
295,3.36e+00,4.88e+00,
296,3.44e+00,5.04e+00,
297,3.20e+00,4.88e+00,
298,3.28e+00,5.04e+00,
299,3.04e+00,4.88e+00,
300,3.12e+00,5.04e+00,
301,2.88e+00,4.88e+00,
302,3.04e+00,5.04e+00,
303,2.80e+00,4.96e+00,
304,2.88e+00,5.04e+00,
305,2.64e+00,4.96e+00,
306,2.72e+00,5.04e+00,
307,2.48e+00,4.96e+00,
308,2.56e+00,5.04e+00,
309,2.32e+00,4.96e+00,
310,2.40e+00,5.04e+00,
311,2.16e+00,4.96e+00,
312,2.24e+00,5.04e+00,
313,2.00e+00,4.96e+00,
314,2.08e+00,5.04e+00,
315,1.84e+00,4.96e+00,
316,1.92e+00,5.04e+00,
317,1.68e+00,4.96e+00,
318,1.76e+00,5.04e+00,
319,1.60e+00,4.88e+00,
320,1.68e+00,5.04e+00,
321,1.44e+00,4.88e+00,
322,1.52e+00,5.04e+00,
323,1.28e+00,4.88e+00,
324,1.36e+00,5.04e+00,
325,1.12e+00,4.88e+00,
326,1.20e+00,5.04e+00,
327,9.60e-01,4.88e+00,
328,1.04e+00,4.88e+00,
329,8.80e-01,5.04e+00,
330,9.60e-01,5.04e+00,
331,8.00e-01,4.88e+00,
332,8.80e-01,5.04e+00,
333,6.40e-01,4.88e+00,
334,7.20e-01,5.04e+00,
335,5.60e-01,4.88e+00,
336,6.40e-01,5.04e+00,
337,4.80e-01,4.88e+00,
338,5.60e-01,5.04e+00,
339,3.20e-01,4.88e+00,
340,4.00e-01,5.04e+00,
341,2.40e-01,1.60e-01,
342,3.20e-01,2.40e-01,
343,1.60e-01,1.60e-01,
344,2.40e-01,2.40e-01,
345,8.00e-02,8.00e-02,
346,1.60e-01,2.40e-01,
347,8.00e-02,8.00e-02,
348,1.60e-01,8.00e-02,
349,0.00e+00,2.40e-01,
350,8.00e-02,2.40e-01,
351,-8.00e-02,8.00e-02,
352,-8.00e-02,2.40e-01,
353,8.00e-02,8.00e-02,
354,-8.00e-02,2.40e-01,
355,0.00e+00,8.00e-02,
356,0.00e+00,8.00e-02,
357,-8.00e-02,2.40e-01,
358,-8.00e-02,8.00e-02,
359,0.00e+00,1.60e-01,
360,-8.00e-02,8.00e-02,
361,0.00e+00,1.60e-01,
362,-8.00e-02,1.60e-01,
363,0.00e+00,8.00e-02,
364,-8.00e-02,1.60e-01,
365,8.00e-02,8.00e-02,
366,-8.00e-02,1.60e-01,
367,8.00e-02,8.00e-02,
368,0.00e+00,1.60e-01,
369,1.60e-01,8.00e-02,
370,1.60e-01,1.60e-01,
371,8.00e-02,8.00e-02,
372,8.00e-02,1.60e-01,
373,2.40e-01,8.00e-02,
374,1.60e-01,1.60e-01,
375,3.20e-01,8.00e-02,
376,2.40e-01,8.00e-02,
377,4.00e-01,1.60e-01,
378,3.20e-01,1.60e-01,
379,5.60e-01,8.00e-02,
380,4.80e-01,1.60e-01,
381,6.40e-01,8.00e-02,
382,5.60e-01,1.60e-01,
383,7.20e-01,8.00e-02,
384,6.40e-01,8.00e-02,
385,8.80e-01,4.96e+00,
386,7.20e-01,4.96e+00,
387,9.60e-01,4.88e+00,
388,8.80e-01,4.96e+00,
389,1.04e+00,4.80e+00,
390,9.60e-01,4.80e+00,
391,1.20e+00,4.96e+00,
392,1.12e+00,4.80e+00,
393,1.36e+00,5.04e+00,
394,1.20e+00,5.04e+00,
395,1.52e+00,4.88e+00,
396,1.44e+00,5.04e+00,
397,1.68e+00,4.96e+00,
398,1.60e+00,5.04e+00,
399,1.84e+00,4.88e+00,
400,1.68e+00,5.04e+00,
401,1.92e+00,4.88e+00,
402,1.84e+00,5.04e+00,
403,2.08e+00,4.88e+00,
404,2.00e+00,5.04e+00,
405,2.24e+00,4.88e+00,
406,2.16e+00,5.04e+00,
407,2.40e+00,4.88e+00,
408,2.32e+00,5.04e+00,
409,2.56e+00,4.88e+00,
410,2.48e+00,5.04e+00,
411,2.72e+00,4.88e+00,
412,2.64e+00,5.04e+00,
413,2.88e+00,4.88e+00,
414,2.72e+00,5.04e+00,
415,3.04e+00,4.88e+00,
416,2.88e+00,5.04e+00,
417,3.12e+00,4.88e+00,
418,3.04e+00,5.04e+00,
419,3.28e+00,4.88e+00,
420,3.28e+00,5.04e+00,
421,3.52e+00,4.88e+00,
422,3.36e+00,4.96e+00,
423,3.60e+00,5.04e+00,
424,3.52e+00,5.04e+00,
425,3.76e+00,4.96e+00,
426,3.60e+00,5.04e+00,
427,3.84e+00,5.04e+00,
428,3.76e+00,5.04e+00,
429,4.00e+00,4.96e+00,
430,3.84e+00,5.04e+00,
431,4.08e+00,4.96e+00,
432,4.00e+00,5.04e+00,
433,4.24e+00,4.96e+00,
434,4.08e+00,5.04e+00,
435,4.40e+00,4.96e+00,
436,4.24e+00,5.04e+00,
437,4.48e+00,4.96e+00,
438,4.32e+00,5.04e+00,
439,4.56e+00,4.88e+00,
440,4.40e+00,5.04e+00,
441,4.64e+00,4.88e+00,
442,4.48e+00,5.04e+00,
443,4.72e+00,4.88e+00,
444,4.56e+00,5.04e+00,
445,4.80e+00,4.88e+00,
446,4.64e+00,5.04e+00,
447,4.80e+00,4.88e+00,
448,4.64e+00,5.04e+00,
449,4.88e+00,4.88e+00,
450,4.88e+00,5.04e+00,
451,4.72e+00,4.88e+00,
452,4.72e+00,5.04e+00,
453,4.96e+00,4.88e+00,
454,4.80e+00,5.04e+00,
455,4.96e+00,4.88e+00,
456,4.88e+00,5.04e+00,
457,4.96e+00,4.88e+00,
458,4.96e+00,5.04e+00,
459,4.80e+00,4.88e+00,
460,4.96e+00,5.04e+00,
461,4.80e+00,4.88e+00,
462,4.96e+00,5.04e+00,
463,4.80e+00,4.96e+00,
464,4.96e+00,5.04e+00,
465,4.72e+00,4.96e+00,
466,4.72e+00,5.04e+00,
467,4.88e+00,4.96e+00,
468,4.88e+00,5.04e+00,
469,4.64e+00,5.04e+00,
470,4.80e+00,5.04e+00,
471,4.64e+00,4.96e+00,
472,4.80e+00,5.04e+00,
473,4.56e+00,4.96e+00,
474,4.72e+00,5.04e+00,
475,4.48e+00,4.96e+00,
476,4.64e+00,5.04e+00,
477,4.40e+00,4.96e+00,
478,4.56e+00,5.04e+00,
479,4.32e+00,4.88e+00,
480,4.48e+00,5.04e+00,
481,4.24e+00,4.88e+00,
482,4.40e+00,5.04e+00,
483,4.08e+00,4.88e+00,
484,4.24e+00,5.04e+00,
485,4.00e+00,4.88e+00,
486,4.08e+00,5.04e+00,
487,3.84e+00,4.88e+00,
488,4.00e+00,5.04e+00,
489,3.76e+00,4.88e+00,
490,3.84e+00,5.04e+00,
491,3.60e+00,4.88e+00,
492,3.76e+00,5.04e+00,
493,3.52e+00,4.88e+00,
494,3.60e+00,5.04e+00,
495,3.36e+00,4.88e+00,
496,3.52e+00,5.04e+00,
497,3.28e+00,4.88e+00,
498,3.28e+00,5.04e+00,
499,3.04e+00,4.88e+00,
500,3.12e+00,5.04e+00,
501,2.88e+00,4.88e+00,
502,3.04e+00,5.04e+00,
503,2.72e+00,5.04e+00,
504,2.88e+00,5.04e+00,
505,2.64e+00,4.96e+00,
506,2.72e+00,5.04e+00,
507,2.48e+00,4.96e+00,
508,2.56e+00,5.04e+00,
509,2.32e+00,4.96e+00,
510,2.40e+00,5.04e+00,
511,2.16e+00,4.96e+00,
512,2.24e+00,5.04e+00,
513,2.00e+00,5.04e+00,
514,2.08e+00,5.04e+00,
515,1.84e+00,4.96e+00,
516,1.92e+00,5.04e+00,
517,1.68e+00,4.96e+00,
518,1.76e+00,5.04e+00,
519,1.60e+00,4.88e+00,
520,1.68e+00,5.04e+00,
521,1.44e+00,4.88e+00,
522,1.52e+00,5.04e+00,
523,1.28e+00,4.88e+00,
524,1.36e+00,5.04e+00,
525,1.12e+00,4.88e+00,
526,1.20e+00,5.04e+00,
527,9.60e-01,4.88e+00,
528,1.04e+00,5.04e+00,
529,8.80e-01,4.88e+00,
530,9.60e-01,5.04e+00,
531,7.20e-01,4.88e+00,
532,8.80e-01,5.04e+00,
533,6.40e-01,4.88e+00,
534,7.20e-01,5.04e+00,
535,5.60e-01,4.88e+00,
536,6.40e-01,4.88e+00,
537,4.80e-01,5.04e+00,
538,5.60e-01,5.04e+00,
539,4.00e-01,4.88e+00,
540,4.00e-01,5.04e+00,
541,2.40e-01,1.60e-01,
542,3.20e-01,2.40e-01,
543,1.60e-01,1.60e-01,
544,2.40e-01,2.40e-01,
545,8.00e-02,8.00e-02,
546,8.00e-02,2.40e-01,
547,1.60e-01,8.00e-02,
548,1.60e-01,8.00e-02,
549,0.00e+00,2.40e-01,
550,8.00e-02,2.40e-01,
551,-8.00e-02,8.00e-02,
552,8.00e-02,2.40e-01,
553,-8.00e-02,8.00e-02,
554,-8.00e-02,8.00e-02,
555,0.00e+00,2.40e-01,
556,0.00e+00,1.60e-01,
557,-8.00e-02,8.00e-02,
558,-8.00e-02,8.00e-02,
559,0.00e+00,1.60e-01,
560,0.00e+00,1.60e-01,
561,-8.00e-02,8.00e-02,
562,-8.00e-02,1.60e-01,
563,0.00e+00,8.00e-02,
564,-8.00e-02,1.60e-01,
565,8.00e-02,8.00e-02,
566,-8.00e-02,1.60e-01,
567,8.00e-02,8.00e-02,
568,0.00e+00,1.60e-01,
569,1.60e-01,8.00e-02,
570,1.60e-01,1.60e-01,
571,8.00e-02,8.00e-02,
572,8.00e-02,1.60e-01,
573,2.40e-01,8.00e-02,
574,1.60e-01,1.60e-01,
575,3.20e-01,8.00e-02,
576,2.40e-01,1.60e-01,
577,4.00e-01,8.00e-02,
578,3.20e-01,1.60e-01,
579,5.60e-01,8.00e-02,
580,4.80e-01,8.00e-02,
581,6.40e-01,1.60e-01,
582,5.60e-01,8.00e-02,
583,7.20e-01,1.60e-01,
584,6.40e-01,8.00e-02,
585,8.80e-01,4.96e+00,
586,8.00e-01,4.96e+00,
587,9.60e-01,4.88e+00,
588,8.80e-01,4.96e+00,
589,1.04e+00,4.80e+00,
590,9.60e-01,4.96e+00,
591,1.20e+00,4.80e+00,
592,1.12e+00,4.80e+00,
593,1.36e+00,5.04e+00,
594,1.28e+00,5.04e+00,
595,1.52e+00,4.80e+00,
596,1.44e+00,5.04e+00,
597,1.68e+00,5.04e+00,
598,1.60e+00,5.04e+00,
599,1.76e+00,4.88e+00,
600,1.68e+00,5.04e+00,
601,1.92e+00,4.88e+00,
602,1.84e+00,5.04e+00,
603,2.08e+00,4.88e+00,
604,2.00e+00,5.04e+00,
605,2.24e+00,4.88e+00,
606,2.16e+00,5.04e+00,
607,2.40e+00,4.88e+00,
608,2.32e+00,5.04e+00,
609,2.56e+00,4.88e+00,
610,2.48e+00,5.04e+00,
611,2.72e+00,4.88e+00,
612,2.64e+00,5.04e+00,
613,2.88e+00,4.88e+00,
614,2.72e+00,5.04e+00,
615,3.04e+00,4.88e+00,
616,2.88e+00,5.04e+00,
617,3.12e+00,4.88e+00,
618,3.04e+00,5.04e+00,
619,3.28e+00,4.88e+00,
620,3.28e+00,5.04e+00,
621,3.44e+00,4.88e+00,
622,3.36e+00,4.96e+00,
623,3.60e+00,5.04e+00,
624,3.52e+00,5.04e+00,
625,3.76e+00,4.96e+00,
626,3.60e+00,5.04e+00,
627,3.84e+00,4.96e+00,
628,3.76e+00,5.04e+00,
629,4.00e+00,5.04e+00,
630,3.84e+00,5.04e+00,
631,4.08e+00,4.96e+00,
632,4.00e+00,5.04e+00,
633,4.24e+00,4.96e+00,
634,4.08e+00,5.04e+00,
635,4.32e+00,4.96e+00,
636,4.24e+00,5.04e+00,
637,4.48e+00,4.96e+00,
638,4.32e+00,5.04e+00,
639,4.56e+00,4.88e+00,
640,4.40e+00,5.04e+00,
641,4.64e+00,4.88e+00,
642,4.48e+00,5.04e+00,
643,4.72e+00,4.88e+00,
644,4.72e+00,5.04e+00,
645,4.56e+00,4.88e+00,
646,4.64e+00,5.04e+00,
647,4.80e+00,4.88e+00,
648,4.64e+00,5.04e+00,
649,4.88e+00,4.88e+00,
650,4.88e+00,5.04e+00,
651,4.72e+00,4.88e+00,
652,4.72e+00,5.04e+00,
653,4.96e+00,4.88e+00,
654,4.80e+00,5.04e+00,
655,4.96e+00,4.88e+00,
656,4.96e+00,5.04e+00,
657,4.88e+00,4.88e+00,
658,4.96e+00,5.04e+00,
659,4.80e+00,4.88e+00,
660,4.96e+00,5.04e+00,
661,4.80e+00,4.88e+00,
662,4.96e+00,5.04e+00,
663,4.80e+00,4.96e+00,
664,4.96e+00,5.04e+00,
665,4.72e+00,4.96e+00,
666,4.72e+00,5.04e+00,
667,4.88e+00,4.96e+00,
668,4.88e+00,5.04e+00,
669,4.64e+00,4.96e+00,
670,4.64e+00,5.04e+00,
671,4.80e+00,4.96e+00,
672,4.80e+00,5.04e+00,
673,4.56e+00,4.96e+00,
674,4.72e+00,5.04e+00,
675,4.48e+00,4.96e+00,
676,4.64e+00,5.04e+00,
677,4.40e+00,4.96e+00,
678,4.56e+00,5.04e+00,
679,4.32e+00,4.88e+00,
680,4.48e+00,5.04e+00,
681,4.24e+00,4.88e+00,
682,4.40e+00,5.04e+00,
683,4.08e+00,4.88e+00,
684,4.24e+00,5.04e+00,
685,4.00e+00,4.88e+00,
686,4.08e+00,5.04e+00,
687,3.84e+00,4.88e+00,
688,4.00e+00,5.04e+00,
689,3.76e+00,4.88e+00,
690,3.84e+00,5.04e+00,
691,3.60e+00,4.88e+00,
692,3.76e+00,5.04e+00,
693,3.52e+00,4.88e+00,
694,3.60e+00,4.88e+00,
695,3.36e+00,5.04e+00,
696,3.52e+00,5.04e+00,
697,3.20e+00,4.88e+00,
698,3.28e+00,5.04e+00,
699,3.04e+00,4.88e+00,
700,3.12e+00,5.04e+00,
701,2.88e+00,4.88e+00,
702,3.04e+00,5.04e+00,
703,2.80e+00,4.96e+00,
704,2.88e+00,5.04e+00,
705,2.64e+00,4.96e+00,
706,2.72e+00,5.04e+00,
707,2.48e+00,4.96e+00,
708,2.56e+00,5.04e+00,
709,2.32e+00,4.96e+00,
710,2.40e+00,5.04e+00,
711,2.16e+00,4.96e+00,
712,2.24e+00,5.04e+00,
713,2.00e+00,4.96e+00,
714,2.08e+00,5.04e+00,
715,1.84e+00,4.96e+00,
716,1.92e+00,5.04e+00,
717,1.68e+00,4.96e+00,
718,1.76e+00,5.04e+00,
719,1.60e+00,4.88e+00,
720,1.68e+00,5.04e+00,
721,1.44e+00,4.88e+00,
722,1.52e+00,5.04e+00,
723,1.28e+00,4.88e+00,
724,1.36e+00,5.04e+00,
725,1.12e+00,4.88e+00,
726,1.20e+00,5.04e+00,
727,9.60e-01,4.88e+00,
728,1.04e+00,5.04e+00,
729,8.80e-01,4.88e+00,
730,9.60e-01,5.04e+00,
731,7.20e-01,4.88e+00,
732,8.80e-01,5.04e+00,
733,6.40e-01,4.88e+00,
734,7.20e-01,5.04e+00,
735,5.60e-01,4.88e+00,
736,6.40e-01,5.04e+00,
737,4.80e-01,4.88e+00,
738,5.60e-01,5.04e+00,
739,4.00e-01,4.88e+00,
740,4.00e-01,5.04e+00,
741,2.40e-01,1.60e-01,
742,3.20e-01,2.40e-01,
743,1.60e-01,1.60e-01,
744,2.40e-01,2.40e-01,
745,8.00e-02,8.00e-02,
746,1.60e-01,2.40e-01,
747,8.00e-02,8.00e-02,
748,0.00e+00,8.00e-02,
749,1.60e-01,2.40e-01,
750,0.00e+00,2.40e-01,
751,8.00e-02,8.00e-02,
752,-8.00e-02,2.40e-01,
753,8.00e-02,8.00e-02,
754,0.00e+00,2.40e-01,
755,-8.00e-02,8.00e-02,
756,0.00e+00,1.60e-01,
757,-8.00e-02,8.00e-02,
758,0.00e+00,8.00e-02,
759,-8.00e-02,1.60e-01,
760,-8.00e-02,1.60e-01,
761,0.00e+00,8.00e-02,
762,0.00e+00,1.60e-01,
763,-8.00e-02,8.00e-02,
764,-8.00e-02,1.60e-01,
765,8.00e-02,8.00e-02,
766,-8.00e-02,1.60e-01,
767,8.00e-02,8.00e-02,
768,0.00e+00,1.60e-01,
769,1.60e-01,8.00e-02,
770,0.00e+00,1.60e-01,
771,1.60e-01,8.00e-02,
772,8.00e-02,1.60e-01,
773,2.40e-01,8.00e-02,
774,1.60e-01,1.60e-01,
775,3.20e-01,8.00e-02,
776,2.40e-01,1.60e-01,
777,4.00e-01,8.00e-02,
778,3.20e-01,8.00e-02,
779,5.60e-01,1.60e-01,
780,4.80e-01,1.60e-01,
781,6.40e-01,8.00e-02,
782,5.60e-01,1.60e-01,
783,7.20e-01,8.00e-02,
784,6.40e-01,8.00e-02,
785,8.80e-01,4.96e+00,
786,8.00e-01,4.96e+00,
787,9.60e-01,4.88e+00,
788,8.80e-01,4.96e+00,
789,1.04e+00,4.80e+00,
790,9.60e-01,4.96e+00,
791,1.20e+00,4.80e+00,
792,1.12e+00,4.80e+00,
793,1.36e+00,5.04e+00,
794,1.28e+00,5.04e+00,
795,1.44e+00,4.80e+00,
796,1.44e+00,5.04e+00,
797,1.68e+00,4.96e+00,
798,1.60e+00,5.04e+00,
799,1.76e+00,4.88e+00,
800,1.68e+00,5.04e+00,
801,1.92e+00,4.88e+00,
802,1.84e+00,5.04e+00,
803,2.08e+00,4.88e+00,
804,2.00e+00,5.04e+00,
805,2.24e+00,4.88e+00,
806,2.08e+00,5.04e+00,
807,2.40e+00,4.88e+00,
808,2.32e+00,5.04e+00,
809,2.56e+00,4.88e+00,
810,2.48e+00,5.04e+00,
811,2.72e+00,4.88e+00,
812,2.64e+00,5.04e+00,
813,2.88e+00,4.88e+00,
814,2.72e+00,5.04e+00,
815,3.04e+00,4.88e+00,
816,2.88e+00,5.04e+00,
817,3.12e+00,4.88e+00,
818,3.04e+00,5.04e+00,
819,3.28e+00,4.88e+00,
820,3.20e+00,5.04e+00,
821,3.52e+00,4.88e+00,
822,3.36e+00,5.04e+00,
823,3.60e+00,4.96e+00,
824,3.52e+00,5.04e+00,
825,3.76e+00,4.96e+00,
826,3.60e+00,5.04e+00,
827,3.84e+00,4.96e+00,
828,3.76e+00,5.04e+00,
829,4.00e+00,4.96e+00,
830,3.84e+00,5.04e+00,
831,4.08e+00,4.96e+00,
832,4.00e+00,5.04e+00,
833,4.24e+00,4.96e+00,
834,4.08e+00,5.04e+00,
835,4.40e+00,4.96e+00,
836,4.24e+00,5.04e+00,
837,4.48e+00,4.96e+00,
838,4.32e+00,5.04e+00,
839,4.56e+00,4.88e+00,
840,4.40e+00,5.04e+00,
841,4.64e+00,4.88e+00,
842,4.48e+00,5.04e+00,
843,4.72e+00,4.88e+00,
844,4.56e+00,5.04e+00,
845,4.80e+00,4.88e+00,
846,4.64e+00,5.04e+00,
847,4.80e+00,4.88e+00,
848,4.64e+00,5.04e+00,
849,4.88e+00,4.88e+00,
850,4.88e+00,5.04e+00,
851,4.72e+00,4.88e+00,
852,4.72e+00,5.04e+00,
853,4.96e+00,4.88e+00,
854,4.80e+00,5.04e+00,
855,4.96e+00,4.88e+00,
856,4.96e+00,5.04e+00,
857,4.88e+00,4.88e+00,
858,4.96e+00,5.04e+00,
859,4.80e+00,4.88e+00,
860,4.80e+00,5.04e+00,
861,4.96e+00,4.88e+00,
862,4.80e+00,5.04e+00,
863,4.96e+00,4.96e+00,
864,4.96e+00,5.04e+00,
865,4.72e+00,4.96e+00,
866,4.72e+00,5.04e+00,
867,4.88e+00,4.96e+00,
868,4.88e+00,5.04e+00,
