project/matlab/project_exp3/35 kHz/NewFile1.csv

X,CH1,CH2,Start,Increment,
Sequence,Volt,Volt,6.600000e-04,1.000000e-07
0,4.48e+00,5.04e+00,
1,4.64e+00,4.88e+00,
2,4.64e+00,5.12e+00,
3,4.48e+00,4.88e+00,
4,4.56e+00,5.04e+00,
5,4.72e+00,4.88e+00,
6,4.56e+00,5.12e+00,
7,4.80e+00,4.88e+00,
8,4.64e+00,5.04e+00,
9,4.80e+00,4.88e+00,
10,4.72e+00,5.12e+00,
11,4.88e+00,4.88e+00,
12,4.88e+00,4.96e+00,
13,4.72e+00,5.12e+00,
14,4.88e+00,5.12e+00,
15,4.80e+00,4.88e+00,
16,4.80e+00,5.04e+00,
17,4.96e+00,4.96e+00,
18,4.96e+00,5.12e+00,
19,4.80e+00,4.88e+00,
20,4.96e+00,5.04e+00,
21,4.88e+00,4.88e+00,
22,4.88e+00,4.88e+00,
23,5.04e+00,5.12e+00,
24,5.04e+00,5.04e+00,
25,4.88e+00,4.96e+00,
26,5.04e+00,5.12e+00,
27,4.88e+00,4.88e+00,
28,5.04e+00,4.88e+00,
29,4.88e+00,5.12e+00,
30,5.04e+00,5.12e+00,
31,4.88e+00,4.88e+00,
32,4.88e+00,5.04e+00,
33,5.04e+00,4.88e+00,
34,4.88e+00,5.04e+00,
35,5.04e+00,4.96e+00,
36,4.96e+00,5.04e+00,
37,4.88e+00,4.96e+00,
38,4.96e+00,5.12e+00,
39,4.80e+00,4.88e+00,
40,4.96e+00,5.04e+00,
41,4.80e+00,4.88e+00,
42,4.80e+00,5.12e+00,
43,4.96e+00,4.88e+00,
44,4.88e+00,5.04e+00,
45,4.72e+00,4.88e+00,
46,4.88e+00,5.12e+00,
47,4.72e+00,4.88e+00,
48,4.80e+00,5.04e+00,
49,4.64e+00,4.96e+00,
50,4.80e+00,5.12e+00,
51,4.64e+00,4.96e+00,
52,4.72e+00,5.04e+00,
53,4.56e+00,4.88e+00,
54,4.64e+00,5.12e+00,
55,4.48e+00,4.88e+00,
56,4.64e+00,5.04e+00,
57,4.40e+00,4.88e+00,
58,4.40e+00,4.96e+00,
59,4.56e+00,5.12e+00,
60,4.48e+00,5.04e+00,
61,4.32e+00,4.88e+00,
62,4.40e+00,5.12e+00,
63,4.16e+00,4.88e+00,
64,4.32e+00,4.88e+00,
65,4.08e+00,5.12e+00,
66,4.24e+00,5.12e+00,
67,4.00e+00,4.88e+00,
68,4.16e+00,5.04e+00,
69,3.92e+00,4.88e+00,
70,4.08e+00,5.12e+00,
71,3.84e+00,4.88e+00,
72,4.00e+00,5.04e+00,
73,3.76e+00,4.88e+00,
74,3.92e+00,5.12e+00,
75,3.68e+00,4.88e+00,
76,3.76e+00,5.04e+00,
77,3.60e+00,4.88e+00,
78,3.76e+00,5.12e+00,
79,3.52e+00,4.88e+00,
80,3.60e+00,5.04e+00,
81,3.44e+00,4.88e+00,
82,3.52e+00,5.12e+00,
83,3.36e+00,4.88e+00,
84,3.36e+00,5.04e+00,
85,3.20e+00,4.88e+00,
86,3.28e+00,5.12e+00,
87,3.04e+00,4.88e+00,
88,3.12e+00,5.04e+00,
89,2.96e+00,4.88e+00,
90,3.04e+00,5.12e+00,
91,2.88e+00,4.88e+00,
92,2.96e+00,5.04e+00,
93,2.80e+00,4.88e+00,
94,2.88e+00,5.20e+00,
95,2.64e+00,4.88e+00,
96,2.80e+00,5.04e+00,
97,2.56e+00,4.88e+00,
98,2.64e+00,5.12e+00,
99,2.48e+00,4.88e+00,
100,2.56e+00,5.04e+00,
101,2.40e+00,4.88e+00,
102,2.40e+00,4.88e+00,
103,2.16e+00,5.12e+00,
104,2.32e+00,5.04e+00,
105,2.08e+00,4.88e+00,
106,2.16e+00,5.12e+00,
107,2.00e+00,4.88e+00,
108,2.08e+00,5.04e+00,
109,1.92e+00,4.88e+00,
110,2.00e+00,5.12e+00,
111,1.76e+00,4.88e+00,
112,1.92e+00,5.04e+00,
113,1.68e+00,4.88e+00,
114,1.76e+00,4.88e+00,
115,1.60e+00,5.12e+00,
116,1.68e+00,5.04e+00,
117,1.52e+00,4.88e+00,
118,1.60e+00,4.96e+00,
119,1.44e+00,5.12e+00,
120,1.44e+00,5.04e+00,
121,1.28e+00,4.88e+00,
122,1.36e+00,5.12e+00,
123,1.20e+00,4.88e+00,
124,1.20e+00,5.04e+00,
125,1.04e+00,4.88e+00,
126,1.12e+00,5.12e+00,
127,9.60e-01,4.88e+00,
128,1.04e+00,4.88e+00,
129,8.80e-01,5.04e+00,
130,9.60e-01,5.12e+00,
131,8.00e-01,4.88e+00,
132,8.80e-01,5.04e+00,
133,7.20e-01,4.88e+00,
134,8.00e-01,4.96e+00,
135,6.40e-01,5.12e+00,
136,6.40e-01,5.04e+00,
137,7.20e-01,4.88e+00,
138,6.40e-01,4.88e+00,
139,5.60e-01,5.12e+00,
140,4.80e-01,5.04e+00,
141,6.40e-01,4.96e+00,
142,4.80e-01,4.96e+00,
143,3.20e-01,5.12e+00,
144,4.00e-01,5.04e+00,
145,2.40e-01,4.96e+00,
146,2.40e-01,5.12e+00,
147,4.00e-01,4.88e+00,
148,3.20e-01,5.04e+00,
149,1.60e-01,4.88e+00,
150,1.60e-01,5.12e+00,
151,2.40e-01,4.88e+00,
152,2.40e-01,5.04e+00,
153,8.00e-02,4.96e+00,
154,1.60e-01,5.12e+00,
155,8.00e-02,4.48e+00,
156,1.60e-01,4.48e+00,
157,0.00e+00,1.76e+00,
158,0.00e+00,1.76e+00,
159,8.00e-02,1.60e-01,
160,8.00e-02,2.40e-01,
161,-8.00e-02,1.60e-01,
162,-8.00e-02,2.40e-01,
163,8.00e-02,1.60e-01,
164,0.00e+00,2.40e-01,
165,-8.00e-02,1.60e-01,
166,-8.00e-02,2.40e-01,
167,0.00e+00,1.60e-01,
168,-8.00e-02,2.40e-01,
169,0.00e+00,8.00e-02,
170,-8.00e-02,2.40e-01,
171,0.00e+00,1.60e-01,
172,-8.00e-02,2.40e-01,
173,0.00e+00,1.60e-01,
174,-8.00e-02,2.40e-01,
175,0.00e+00,1.60e-01,
176,0.00e+00,2.40e-01,
177,-8.00e-02,8.00e-02,
178,-8.00e-02,2.40e-01,
179,0.00e+00,8.00e-02,
180,-8.00e-02,2.40e-01,
181,8.00e-02,8.00e-02,
182,8.00e-02,2.40e-01,
183,0.00e+00,8.00e-02,
184,0.00e+00,2.40e-01,
185,8.00e-02,8.00e-02,
186,0.00e+00,2.40e-01,
187,1.60e-01,8.00e-02,
188,8.00e-02,2.40e-01,
189,1.60e-01,8.00e-02,
190,8.00e-02,2.40e-01,
191,2.40e-01,8.00e-02,
192,2.40e-01,2.40e-01,
193,1.60e-01,8.00e-02,
194,1.60e-01,2.40e-01,
195,3.20e-01,8.00e-02,
196,2.40e-01,2.40e-01,
197,4.00e-01,8.00e-02,
198,4.00e-01,8.00e-02,
199,3.20e-01,2.40e-01,
200,4.80e-01,2.40e-01,
201,3.20e-01,8.00e-02,
202,4.80e-01,8.00e-02,
203,6.40e-01,2.40e-01,
204,5.60e-01,8.00e-02,
205,7.20e-01,2.40e-01,
206,6.40e-01,2.40e-01,
207,8.00e-01,8.00e-02,
208,7.20e-01,2.40e-01,
209,8.80e-01,8.00e-02,
210,8.00e-01,2.40e-01,
211,9.60e-01,8.00e-02,
212,8.80e-01,2.40e-01,
213,1.04e+00,8.00e-02,
214,9.60e-01,2.40e-01,
215,1.12e+00,1.60e-01,
216,1.04e+00,1.60e-01,
217,1.20e+00,3.20e-01,
218,1.12e+00,3.20e-01,
219,1.28e+00,1.12e+00,
220,1.20e+00,1.04e+00,
221,1.36e+00,2.16e+00,
222,1.28e+00,2.16e+00,
223,1.44e+00,3.12e+00,
224,1.44e+00,3.12e+00,
225,1.60e+00,3.92e+00,
226,1.52e+00,3.84e+00,
227,1.68e+00,4.56e+00,
228,1.60e+00,4.48e+00,
229,1.84e+00,4.96e+00,
230,1.68e+00,4.80e+00,
231,1.92e+00,5.04e+00,
232,1.84e+00,5.04e+00,
233,2.00e+00,4.88e+00,
234,1.92e+00,5.12e+00,
235,2.08e+00,4.88e+00,
236,2.00e+00,4.88e+00,
237,2.24e+00,5.04e+00,
238,2.16e+00,5.04e+00,
239,2.32e+00,4.88e+00,
240,2.24e+00,5.04e+00,
241,2.40e+00,4.88e+00,
242,2.40e+00,4.88e+00,
243,2.48e+00,5.12e+00,
244,2.48e+00,5.04e+00,
245,2.72e+00,4.88e+00,
246,2.56e+00,5.04e+00,
247,2.80e+00,4.88e+00,
248,2.72e+00,5.04e+00,
249,2.88e+00,4.88e+00,
250,2.80e+00,4.88e+00,
251,2.96e+00,5.12e+00,
252,2.88e+00,5.04e+00,
253,3.12e+00,4.88e+00,
254,2.96e+00,5.12e+00,
255,3.20e+00,4.88e+00,
256,3.12e+00,5.04e+00,
257,3.28e+00,4.88e+00,
258,3.20e+00,5.12e+00,
259,3.36e+00,4.88e+00,
260,3.36e+00,5.04e+00,
261,3.52e+00,4.88e+00,
262,3.44e+00,5.12e+00,
263,3.68e+00,4.88e+00,
264,3.52e+00,5.04e+00,
265,3.76e+00,4.88e+00,
266,3.60e+00,5.12e+00,
267,3.84e+00,4.88e+00,
268,3.76e+00,5.04e+00,
269,3.92e+00,4.88e+00,
270,3.84e+00,5.12e+00,
271,4.00e+00,4.88e+00,
272,3.92e+00,4.88e+00,
273,4.08e+00,5.04e+00,
274,4.00e+00,5.12e+00,
275,4.16e+00,4.88e+00,
276,4.08e+00,5.04e+00,
277,4.24e+00,4.88e+00,
278,4.16e+00,5.12e+00,
279,4.32e+00,4.88e+00,
280,4.24e+00,4.88e+00,
281,4.40e+00,5.04e+00,
282,4.32e+00,5.12e+00,
283,4.48e+00,4.88e+00,
284,4.40e+00,5.04e+00,
285,4.56e+00,4.88e+00,
286,4.48e+00,5.12e+00,
287,4.64e+00,4.88e+00,
288,4.64e+00,5.04e+00,
289,4.48e+00,4.88e+00,
290,4.56e+00,5.12e+00,
291,4.72e+00,4.88e+00,
292,4.64e+00,5.04e+00,
293,4.80e+00,4.88e+00,
294,4.80e+00,5.12e+00,
295,4.64e+00,4.88e+00,
296,4.72e+00,5.04e+00,
297,4.88e+00,4.88e+00,
298,4.72e+00,5.12e+00,
299,4.88e+00,4.88e+00,
300,4.80e+00,5.04e+00,
301,4.96e+00,4.88e+00,
302,4.80e+00,5.12e+00,
303,4.96e+00,4.88e+00,
304,4.80e+00,5.04e+00,
305,4.96e+00,4.88e+00,
306,4.96e+00,5.12e+00,
307,4.80e+00,4.96e+00,
308,4.88e+00,5.04e+00,
309,5.04e+00,4.88e+00,
310,4.88e+00,5.12e+00,
311,5.04e+00,4.88e+00,
312,4.88e+00,5.04e+00,
313,5.04e+00,4.88e+00,
314,5.04e+00,5.12e+00,
315,4.88e+00,4.88e+00,
316,5.04e+00,5.04e+00,
317,4.88e+00,4.88e+00,
318,5.04e+00,5.12e+00,
319,4.88e+00,4.88e+00,
320,4.96e+00,5.04e+00,
321,4.88e+00,4.88e+00,
322,5.04e+00,4.88e+00,
323,4.80e+00,5.12e+00,
324,4.96e+00,5.04e+00,
325,4.80e+00,4.88e+00,
326,4.80e+00,4.96e+00,
327,4.96e+00,5.12e+00,
328,4.88e+00,5.04e+00,
329,4.80e+00,4.96e+00,
330,4.88e+00,4.96e+00,
331,4.72e+00,5.12e+00,
332,4.80e+00,5.04e+00,
333,4.64e+00,4.88e+00,
334,4.80e+00,5.12e+00,
335,4.64e+00,4.88e+00,
336,4.72e+00,5.04e+00,
337,4.56e+00,4.88e+00,
338,4.72e+00,5.12e+00,
339,4.56e+00,4.88e+00,
340,4.64e+00,5.04e+00,
341,4.48e+00,4.88e+00,
342,4.56e+00,5.12e+00,
343,4.40e+00,4.88e+00,
344,4.40e+00,5.04e+00,
345,4.56e+00,4.88e+00,
346,4.48e+00,4.96e+00,
347,4.32e+00,5.12e+00,
348,4.32e+00,5.04e+00,
349,4.16e+00,4.88e+00,
350,4.32e+00,5.12e+00,
351,4.08e+00,4.88e+00,
352,4.16e+00,5.04e+00,
353,4.00e+00,4.88e+00,
354,4.16e+00,4.88e+00,
355,3.92e+00,5.12e+00,
356,4.00e+00,5.04e+00,
357,3.84e+00,4.88e+00,
358,4.00e+00,5.04e+00,
359,3.76e+00,4.88e+00,
360,3.84e+00,5.04e+00,
361,3.68e+00,4.88e+00,
362,3.84e+00,5.12e+00,
363,3.60e+00,4.88e+00,
364,3.68e+00,5.04e+00,
365,3.52e+00,4.88e+00,
366,3.60e+00,5.12e+00,
367,3.44e+00,4.88e+00,
368,3.52e+00,5.04e+00,
369,3.20e+00,4.88e+00,
370,3.36e+00,4.96e+00,
371,3.12e+00,5.12e+00,
372,3.28e+00,5.04e+00,
373,3.04e+00,4.88e+00,
374,3.12e+00,5.12e+00,
375,2.96e+00,4.88e+00,
376,3.04e+00,5.04e+00,
377,2.88e+00,4.88e+00,
378,2.96e+00,4.88e+00,
379,2.80e+00,5.12e+00,
380,2.88e+00,5.04e+00,
381,2.64e+00,4.88e+00,
382,2.72e+00,5.12e+00,
383,2.56e+00,4.88e+00,
384,2.64e+00,5.04e+00,
385,2.48e+00,4.88e+00,
386,2.48e+00,4.88e+00,
387,2.24e+00,5.12e+00,
388,2.40e+00,5.04e+00,
389,2.24e+00,4.88e+00,
390,2.24e+00,4.96e+00,
391,2.08e+00,5.12e+00,
392,2.16e+00,5.04e+00,
393,2.00e+00,4.88e+00,
394,2.08e+00,5.12e+00,
395,1.84e+00,4.88e+00,
396,2.00e+00,5.04e+00,
397,1.76e+00,4.88e+00,
398,1.84e+00,5.12e+00,
399,1.68e+00,4.88e+00,
400,1.76e+00,5.04e+00,
401,1.60e+00,4.88e+00,
402,1.68e+00,5.12e+00,
403,1.52e+00,4.88e+00,
404,1.60e+00,5.04e+00,
405,1.36e+00,4.88e+00,
406,1.44e+00,5.12e+00,
407,1.20e+00,4.88e+00,
408,1.28e+00,5.04e+00,
409,1.12e+00,4.88e+00,
410,1.20e+00,5.12e+00,
411,1.04e+00,4.88e+00,
412,1.12e+00,5.04e+00,
413,9.60e-01,4.88e+00,
414,1.04e+00,5.12e+00,
415,8.80e-01,4.88e+00,
416,9.60e-01,5.04e+00,
417,8.00e-01,4.88e+00,
418,8.80e-01,5.12e+00,
419,7.20e-01,4.88e+00,
420,8.00e-01,5.04e+00,
421,6.40e-01,4.88e+00,
422,7.20e-01,5.12e+00,
423,5.60e-01,4.88e+00,
424,5.60e-01,5.04e+00,
425,6.40e-01,4.88e+00,
426,4.80e-01,5.12e+00,
427,6.40e-01,4.88e+00,
428,4.80e-01,5.04e+00,
429,3.20e-01,4.88e+00,
430,4.00e-01,5.12e+00,
431,2.40e-01,4.88e+00,
432,3.20e-01,5.04e+00,
433,2.40e-01,4.88e+00,
434,3.20e-01,5.12e+00,
435,1.60e-01,4.88e+00,
436,2.40e-01,4.88e+00,
437,8.00e-02,5.04e+00,
438,2.40e-01,5.12e+00,
439,8.00e-02,4.88e+00,
440,8.00e-02,5.04e+00,
441,1.60e-01,4.16e+00,
442,1.60e-01,4.16e+00,
443,0.00e+00,1.36e+00,
444,0.00e+00,1.36e+00,
445,8.00e-02,1.60e-01,
446,8.00e-02,2.40e-01,
447,-8.00e-02,1.60e-01,
448,-8.00e-02,2.40e-01,
449,8.00e-02,1.60e-01,
450,-8.00e-02,2.40e-01,
451,0.00e+00,1.60e-01,
452,-8.00e-02,2.40e-01,
453,0.00e+00,1.60e-01,
454,-8.00e-02,2.40e-01,
455,0.00e+00,1.60e-01,
456,-8.00e-02,2.40e-01,
457,0.00e+00,8.00e-02,
458,-8.00e-02,2.40e-01,
459,0.00e+00,8.00e-02,
460,-8.00e-02,2.40e-01,
461,0.00e+00,1.60e-01,
462,0.00e+00,2.40e-01,
463,-8.00e-02,8.00e-02,
464,-8.00e-02,2.40e-01,
465,8.00e-02,8.00e-02,
466,-8.00e-02,2.40e-01,
467,8.00e-02,8.00e-02,
468,0.00e+00,2.40e-01,
469,8.00e-02,8.00e-02,
470,0.00e+00,2.40e-01,
471,1.60e-01,8.00e-02,
472,0.00e+00,2.40e-01,
473,1.60e-01,8.00e-02,
474,1.60e-01,2.40e-01,
475,8.00e-02,8.00e-02,
476,8.00e-02,2.40e-01,
477,2.40e-01,8.00e-02,
478,1.60e-01,2.40e-01,
479,2.40e-01,8.00e-02,
480,3.20e-01,2.40e-01,
481,1.60e-01,8.00e-02,
482,2.40e-01,2.40e-01,
483,4.00e-01,8.00e-02,
484,3.20e-01,2.40e-01,
485,4.80e-01,8.00e-02,
486,4.00e-01,8.00e-02,
487,4.80e-01,2.40e-01,
488,4.80e-01,2.40e-01,
489,6.40e-01,8.00e-02,
490,5.60e-01,2.40e-01,
491,7.20e-01,8.00e-02,
492,6.40e-01,2.40e-01,
493,8.00e-01,8.00e-02,
494,7.20e-01,2.40e-01,
495,8.80e-01,8.00e-02,
496,8.00e-01,2.40e-01,
497,9.60e-01,8.00e-02,
498,8.80e-01,2.40e-01,
499,1.04e+00,8.00e-02,
500,9.60e-01,2.40e-01,
501,1.12e+00,1.60e-01,
502,1.04e+00,1.60e-01,
503,1.20e+00,3.20e-01,
504,1.12e+00,3.20e-01,
505,1.28e+00,1.28e+00,
506,1.20e+00,1.28e+00,
507,1.36e+00,2.32e+00,
508,1.28e+00,2.32e+00,
509,1.44e+00,3.20e+00,
510,1.44e+00,3.20e+00,
511,1.60e+00,4.00e+00,
512,1.52e+00,4.00e+00,
513,1.68e+00,4.64e+00,
514,1.68e+00,4.48e+00,
515,1.84e+00,4.96e+00,
516,1.76e+00,4.80e+00,
517,1.92e+00,5.04e+00,
518,1.84e+00,5.04e+00,
519,2.00e+00,4.88e+00,
520,1.92e+00,5.04e+00,
521,2.16e+00,4.88e+00,
522,2.00e+00,5.04e+00,
523,2.24e+00,4.88e+00,
524,2.16e+00,5.04e+00,
525,2.32e+00,4.88e+00,
526,2.24e+00,4.88e+00,
527,2.40e+00,5.04e+00,
528,2.40e+00,5.04e+00,
529,2.56e+00,4.88e+00,
530,2.48e+00,5.04e+00,
531,2.72e+00,4.88e+00,
532,2.64e+00,5.04e+00,
533,2.80e+00,4.88e+00,
534,2.72e+00,5.20e+00,
535,2.88e+00,4.88e+00,
536,2.80e+00,5.04e+00,
537,3.04e+00,4.88e+00,
538,2.88e+00,5.12e+00,
539,3.12e+00,4.88e+00,
540,3.04e+00,5.04e+00,
541,3.20e+00,4.88e+00,
542,3.12e+00,5.12e+00,
543,3.28e+00,4.88e+00,
544,3.20e+00,4.88e+00,
545,3.36e+00,5.04e+00,
546,3.36e+00,5.20e+00,
547,3.52e+00,4.88e+00,
548,3.44e+00,5.04e+00,
549,3.68e+00,4.88e+00,
550,3.52e+00,5.12e+00,
551,3.76e+00,4.88e+00,
552,3.68e+00,5.04e+00,
553,3.84e+00,4.88e+00,
554,3.68e+00,5.12e+00,
555,3.92e+00,4.88e+00,
556,3.84e+00,5.04e+00,
557,4.00e+00,4.88e+00,
558,3.92e+00,4.96e+00,
559,4.08e+00,5.12e+00,
560,4.00e+00,5.04e+00,
561,4.16e+00,4.88e+00,
562,4.08e+00,5.12e+00,
563,4.24e+00,4.88e+00,
564,4.16e+00,5.04e+00,
565,4.32e+00,4.88e+00,
566,4.24e+00,4.88e+00,
567,4.40e+00,5.12e+00,
568,4.48e+00,5.04e+00,
569,4.24e+00,4.88e+00,
570,4.40e+00,5.12e+00,
571,4.56e+00,4.88e+00,
572,4.48e+00,5.04e+00,
573,4.64e+00,4.88e+00,
574,4.48e+00,4.88e+00,
575,4.72e+00,5.12e+00,
576,4.56e+00,4.88e+00,
577,4.72e+00,5.04e+00,
578,4.64e+00,5.12e+00,
579,4.80e+00,4.88e+00,
580,4.80e+00,5.04e+00,
581,4.64e+00,4.88e+00,
582,4.72e+00,4.88e+00,
583,4.88e+00,5.12e+00,
584,4.88e+00,5.04e+00,
585,4.72e+00,4.88e+00,
586,4.80e+00,4.88e+00,
587,4.96e+00,5.12e+00,
588,4.80e+00,4.88e+00,
589,4.96e+00,5.04e+00,
590,4.96e+00,4.88e+00,
591,4.80e+00,5.12e+00,
592,4.96e+00,5.04e+00,
593,4.88e+00,4.88e+00,
594,4.88e+00,4.88e+00,
595,5.04e+00,5.12e+00,
596,4.88e+00,5.04e+00,
597,5.04e+00,4.88e+00,
598,4.88e+00,5.12e+00,
599,5.04e+00,4.88e+00,
600,5.04e+00,5.04e+00,
601,4.88e+00,4.88e+00,
602,5.04e+00,5.12e+00,
603,4.88e+00,4.88e+00,
604,4.88e+00,5.04e+00,
605,5.04e+00,4.88e+00,
606,5.04e+00,5.12e+00,
607,4.88e+00,4.88e+00,
608,4.96e+00,5.04e+00,
609,4.88e+00,4.88e+00,
610,4.96e+00,5.12e+00,
611,4.80e+00,4.88e+00,
612,4.96e+00,5.04e+00,
613,4.80e+00,4.88e+00,
614,4.80e+00,4.88e+00,
615,4.96e+00,5.12e+00,
616,4.88e+00,5.04e+00,
617,4.72e+00,4.88e+00,
618,4.72e+00,5.12e+00,
619,4.80e+00,4.88e+00,
620,4.64e+00,5.04e+00,
621,4.80e+00,4.88e+00,
622,4.80e+00,5.12e+00,
623,4.56e+00,4.88e+00,
624,4.72e+00,5.04e+00,
625,4.56e+00,4.88e+00,
626,4.64e+00,4.88e+00,
627,4.48e+00,5.12e+00,
628,4.56e+00,5.04e+00,
629,4.40e+00,4.88e+00,
630,4.56e+00,4.88e+00,
631,4.32e+00,5.12e+00,
632,4.32e+00,5.04e+00,
633,4.48e+00,4.88e+00,
634,4.32e+00,5.12e+00,
635,4.16e+00,4.88e+00,
636,4.24e+00,5.04e+00,
637,4.08e+00,4.88e+00,
638,4.24e+00,5.12e+00,
639,4.00e+00,4.88e+00,
640,4.08e+00,5.04e+00,
641,3.92e+00,4.96e+00,
642,4.08e+00,5.04e+00,
643,3.84e+00,4.88e+00,
644,3.92e+00,5.04e+00,
645,3.76e+00,4.88e+00,
646,3.84e+00,5.12e+00,
647,3.68e+00,4.88e+00,
648,3.76e+00,5.04e+00,
649,3.60e+00,4.88e+00,
650,3.68e+00,5.12e+00,
651,3.52e+00,4.88e+00,
652,3.60e+00,5.04e+00,
653,3.36e+00,4.88e+00,
654,3.52e+00,5.12e+00,
655,3.20e+00,4.88e+00,
656,3.36e+00,5.04e+00,
657,3.12e+00,4.88e+00,
658,3.28e+00,4.88e+00,
659,3.04e+00,5.12e+00,
660,3.12e+00,5.04e+00,
661,2.96e+00,4.88e+00,
662,3.04e+00,4.96e+00,
663,2.88e+00,5.12e+00,
664,2.96e+00,5.04e+00,
665,2.72e+00,4.88e+00,
666,2.88e+00,5.12e+00,
667,2.64e+00,4.88e+00,
668,2.72e+00,5.04e+00,
669,2.56e+00,4.88e+00,
670,2.64e+00,4.88e+00,
671,2.48e+00,5.12e+00,
672,2.48e+00,5.04e+00,
673,2.24e+00,4.88e+00,
674,2.32e+00,5.04e+00,
675,2.16e+00,4.88e+00,
676,2.24e+00,5.04e+00,
677,2.08e+00,4.88e+00,
678,2.16e+00,5.12e+00,
679,2.00e+00,4.88e+00,
680,2.08e+00,5.04e+00,
681,1.84e+00,4.88e+00,
682,1.92e+00,5.12e+00,
683,1.76e+00,4.88e+00,
684,1.84e+00,5.04e+00,
685,1.68e+00,4.88e+00,
686,1.76e+00,4.88e+00,
687,1.60e+00,5.12e+00,
688,1.60e+00,5.04e+00,
689,1.52e+00,4.88e+00,
690,1.52e+00,5.12e+00,
691,1.28e+00,4.88e+00,
692,1.28e+00,5.04e+00,
693,1.36e+00,4.88e+00,
694,1.28e+00,4.88e+00,
695,1.12e+00,5.12e+00,
696,1.20e+00,5.04e+00,
697,1.04e+00,4.88e+00,
698,1.12e+00,5.12e+00,
699,9.60e-01,4.88e+00,
700,1.04e+00,5.04e+00,
701,8.80e-01,4.88e+00,
702,9.60e-01,4.96e+00,
703,8.00e-01,5.04e+00,
704,8.80e-01,5.04e+00,
705,7.20e-01,4.88e+00,
706,8.00e-01,5.12e+00,
707,6.40e-01,4.88e+00,
708,7.20e-01,5.04e+00,
709,5.60e-01,4.88e+00,
710,6.40e-01,5.12e+00,
711,4.80e-01,4.88e+00,
712,4.80e-01,5.04e+00,
713,5.60e-01,4.88e+00,
714,4.80e-01,5.12e+00,
715,3.20e-01,4.88e+00,
716,4.00e-01,5.04e+00,
717,2.40e-01,4.88e+00,
718,2.40e-01,5.12e+00,
719,3.20e-01,4.88e+00,
720,3.20e-01,5.04e+00,
721,1.60e-01,4.88e+00,
722,2.40e-01,5.12e+00,
723,8.00e-02,4.88e+00,
724,2.40e-01,5.04e+00,
725,8.00e-02,4.96e+00,
726,1.60e-01,5.04e+00,
727,8.00e-02,3.84e+00,
728,1.60e-01,3.92e+00,
729,0.00e+00,9.60e-01,
730,0.00e+00,9.60e-01,
731,8.00e-02,1.60e-01,
732,8.00e-02,2.40e-01,
733,-8.00e-02,1.60e-01,
734,8.00e-02,2.40e-01,
735,-8.00e-02,1.60e-01,
736,0.00e+00,2.40e-01,
737,-8.00e-02,1.60e-01,
738,-8.00e-02,2.40e-01,
739,0.00e+00,1.60e-01,
740,-8.00e-02,1.60e-01,
741,0.00e+00,2.40e-01,
742,0.00e+00,2.40e-01,
743,-8.00e-02,1.60e-01,
744,-8.00e-02,2.40e-01,
745,0.00e+00,1.60e-01,
746,-8.00e-02,2.40e-01,
747,0.00e+00,8.00e-02,
748,0.00e+00,2.40e-01,
749,-8.00e-02,8.00e-02,
750,-8.00e-02,2.40e-01,
751,8.00e-02,8.00e-02,
752,-8.00e-02,2.40e-01,
753,8.00e-02,8.00e-02,
754,0.00e+00,2.40e-01,
755,8.00e-02,8.00e-02,
756,0.00e+00,2.40e-01,
757,1.60e-01,8.00e-02,
758,1.60e-01,2.40e-01,
759,0.00e+00,8.00e-02,
760,1.60e-01,2.40e-01,
761,8.00e-02,8.00e-02,
762,8.00e-02,2.40e-01,
763,2.40e-01,8.00e-02,
764,1.60e-01,8.00e-02,
765,3.20e-01,2.40e-01,
766,1.60e-01,2.40e-01,
767,3.20e-01,8.00e-02,
768,2.40e-01,2.40e-01,
769,4.00e-01,8.00e-02,
770,3.20e-01,2.40e-01,
771,4.80e-01,8.00e-02,
772,4.80e-01,8.00e-02,
773,4.00e-01,2.40e-01,
774,4.00e-01,2.40e-01,
775,6.40e-01,8.00e-02,
776,5.60e-01,2.40e-01,
777,7.20e-01,8.00e-02,
778,6.40e-01,2.40e-01,
779,8.00e-01,8.00e-02,
780,7.20e-01,8.00e-02,
781,8.80e-01,2.40e-01,
782,8.00e-01,2.40e-01,
783,9.60e-01,8.00e-02,
784,8.80e-01,2.40e-01,
785,1.04e+00,1.60e-01,
786,9.60e-01,1.60e-01,
787,1.12e+00,2.40e-01,
788,1.04e+00,2.40e-01,
789,1.20e+00,4.80e-01,
790,1.12e+00,4.00e-01,
791,1.28e+00,1.36e+00,
792,1.20e+00,1.36e+00,
793,1.36e+00,2.48e+00,
794,1.44e+00,2.40e+00,
795,1.28e+00,3.36e+00,
796,1.44e+00,3.28e+00,
797,1.60e+00,4.08e+00,
798,1.60e+00,4.08e+00,
799,1.76e+00,4.64e+00,
800,1.68e+00,4.56e+00,
801,1.84e+00,4.96e+00,
802,1.76e+00,5.04e+00,
803,1.92e+00,4.80e+00,
804,1.84e+00,5.04e+00,
805,2.00e+00,4.88e+00,
806,1.92e+00,5.04e+00,
807,2.16e+00,4.88e+00,
808,2.08e+00,4.88e+00,
809,2.24e+00,5.04e+00,
810,2.16e+00,5.04e+00,
811,2.32e+00,4.88e+00,
812,2.24e+00,5.04e+00,
813,2.48e+00,4.88e+00,
814,2.40e+00,5.04e+00,
815,2.56e+00,4.88e+00,
816,2.56e+00,5.04e+00,
817,2.72e+00,4.88e+00,
818,2.64e+00,5.12e+00,
819,2.80e+00,4.88e+00,
820,2.72e+00,5.04e+00,
821,2.96e+00,4.88e+00,
822,2.80e+00,5.04e+00,
823,3.04e+00,4.88e+00,
824,2.96e+00,5.04e+00,
825,3.12e+00,4.88e+00,
826,3.04e+00,4.88e+00,
827,3.20e+00,5.04e+00,
828,3.20e+00,5.04e+00,
829,3.36e+00,4.88e+00,
830,3.28e+00,5.12e+00,
831,3.52e+00,4.88e+00,
832,3.36e+00,5.04e+00,
833,3.60e+00,4.88e+00,
834,3.44e+00,5.12e+00,
835,3.68e+00,4.88e+00,
836,3.60e+00,5.04e+00,
837,3.76e+00,4.88e+00,
838,3.68e+00,5.12e+00,
839,3.84e+00,4.88e+00,
840,3.76e+00,5.04e+00,
841,3.92e+00,4.88e+00,
842,3.84e+00,4.96e+00,
843,4.00e+00,5.12e+00,
844,3.92e+00,5.04e+00,
845,4.08e+00,4.88e+00,
846,4.00e+00,5.12e+00,
847,4.16e+00,4.88e+00,
848,4.08e+00,5.04e+00,
849,4.24e+00,4.88e+00,
850,4.16e+00,5.12e+00,
851,4.32e+00,4.88e+00,
852,4.48e+00,5.04e+00,
853,4.24e+00,4.88e+00,
854,4.32e+00,5.12e+00,
855,4.56e+00,4.88e+00,
856,4.40e+00,5.04e+00,
857,4.56e+00,4.88e+00,
858,4.48e+00,5.12e+00,
859,4.64e+00,4.88e+00,
860,4.56e+00,5.04e+00,
861,4.72e+00,4.88e+00,
862,4.56e+00,5.12e+00,
863,4.72e+00,4.88e+00,
864,4.64e+00,5.04e+00,
865,4.80e+00,4.88e+00,
866,4.80e+00,5.12e+00,
867,4.64e+00,4.88e+00,
868,4.72e+00,5.04e+00,
