project/matlab/project_exp3/4 kHz/NewFile1.csv

X,CH1,CH2,Start,Increment,
Sequence,Volt,Volt,4.200000e-04,5.000000e-07
0,0.00e+00,2.40e-01,
1,-8.00e-02,8.00e-02,
2,0.00e+00,2.40e-01,
3,-1.60e-01,8.00e-02,
4,0.00e+00,2.40e-01,
5,-1.60e-01,8.00e-02,
6,-1.60e-01,2.40e-01,
7,0.00e+00,8.00e-02,
8,0.00e+00,2.40e-01,
9,-1.60e-01,8.00e-02,
10,-1.60e-01,2.40e-01,
11,0.00e+00,1.60e-01,
12,-1.60e-01,2.40e-01,
13,0.00e+00,1.60e-01,
14,0.00e+00,2.40e-01,
15,-1.60e-01,8.00e-02,
16,0.00e+00,2.40e-01,
17,-1.60e-01,8.00e-02,
18,-1.60e-01,2.40e-01,
19,0.00e+00,8.00e-02,
20,0.00e+00,2.40e-01,
21,-1.60e-01,8.00e-02,
22,-8.00e-02,2.40e-01,
23,0.00e+00,8.00e-02,
24,0.00e+00,2.40e-01,
25,-8.00e-02,8.00e-02,
26,0.00e+00,2.40e-01,
27,-8.00e-02,8.00e-02,
28,0.00e+00,8.00e-02,
29,-8.00e-02,2.40e-01,
30,-8.00e-02,8.00e-02,
31,0.00e+00,2.40e-01,
32,-8.00e-02,2.40e-01,
33,8.00e-02,8.00e-02,
34,-8.00e-02,2.40e-01,
35,8.00e-02,8.00e-02,
36,0.00e+00,2.40e-01,
37,8.00e-02,8.00e-02,
38,0.00e+00,8.00e-02,
39,8.00e-02,2.40e-01,
40,0.00e+00,8.00e-02,
41,1.60e-01,2.40e-01,
42,0.00e+00,2.40e-01,
43,1.60e-01,8.00e-02,
44,1.60e-01,2.40e-01,
45,8.00e-02,8.00e-02,
46,8.00e-02,2.40e-01,
47,2.40e-01,8.00e-02,
48,8.00e-02,2.40e-01,
49,2.40e-01,8.00e-02,
50,2.40e-01,8.00e-02,
51,1.60e-01,2.40e-01,
52,1.60e-01,8.00e-02,
53,3.20e-01,2.40e-01,
54,3.20e-01,8.00e-02,
55,1.60e-01,2.40e-01,
56,3.20e-01,8.00e-02,
57,2.40e-01,2.40e-01,
58,2.40e-01,8.00e-02,
59,4.00e-01,2.40e-01,
60,3.20e-01,2.40e-01,
61,4.00e-01,8.00e-02,
62,3.20e-01,8.00e-02,
63,4.80e-01,2.40e-01,
64,4.00e-01,1.60e-01,
65,5.60e-01,8.00e-02,
66,4.80e-01,1.60e-01,
67,5.60e-01,8.00e-02,
68,4.80e-01,8.00e-02,
69,6.40e-01,2.40e-01,
70,5.60e-01,1.60e-01,
71,6.40e-01,8.00e-02,
72,5.60e-01,1.60e-01,
73,7.20e-01,8.00e-02,
74,7.20e-01,8.00e-02,
75,6.40e-01,2.40e-01,
76,6.40e-01,2.40e-01,
77,8.00e-01,8.00e-02,
78,7.20e-01,2.40e-01,
79,8.00e-01,8.00e-02,
80,7.20e-01,1.60e-01,
81,8.80e-01,3.20e-01,
82,8.00e-01,3.20e-01,
83,9.60e-01,4.32e+00,
84,8.00e-01,4.32e+00,
85,9.60e-01,5.04e+00,
86,8.80e-01,5.04e+00,
87,1.04e+00,4.88e+00,
88,9.60e-01,5.04e+00,
89,1.04e+00,4.88e+00,
90,9.60e-01,5.04e+00,
91,1.12e+00,4.88e+00,
92,1.04e+00,5.04e+00,
93,1.20e+00,4.88e+00,
94,1.20e+00,4.88e+00,
95,1.04e+00,5.20e+00,
96,1.12e+00,5.12e+00,
97,1.28e+00,4.88e+00,
98,1.28e+00,4.88e+00,
99,1.20e+00,5.20e+00,
100,1.28e+00,4.88e+00,
101,1.36e+00,5.12e+00,
102,1.36e+00,4.88e+00,
103,1.52e+00,5.12e+00,
104,1.52e+00,4.88e+00,
105,1.36e+00,5.12e+00,
106,1.44e+00,4.88e+00,
107,1.60e+00,5.12e+00,
108,1.52e+00,4.88e+00,
109,1.68e+00,5.12e+00,
110,1.60e+00,4.88e+00,
111,1.68e+00,5.20e+00,
112,1.60e+00,4.88e+00,
113,1.76e+00,5.20e+00,
114,1.68e+00,4.88e+00,
115,1.84e+00,5.12e+00,
116,1.76e+00,5.12e+00,
117,1.92e+00,4.88e+00,
118,1.76e+00,5.12e+00,
119,1.92e+00,4.88e+00,
120,1.84e+00,5.12e+00,
121,2.00e+00,4.88e+00,
122,1.92e+00,4.88e+00,
123,2.08e+00,5.12e+00,
124,2.08e+00,5.20e+00,
125,1.92e+00,4.88e+00,
126,2.00e+00,4.88e+00,
127,2.16e+00,5.12e+00,
128,2.08e+00,5.12e+00,
129,2.24e+00,4.88e+00,
130,2.08e+00,4.88e+00,
131,2.24e+00,5.12e+00,
132,2.32e+00,5.12e+00,
133,2.24e+00,4.88e+00,
134,2.32e+00,4.88e+00,
135,2.48e+00,5.12e+00,
136,2.40e+00,4.88e+00,
137,2.48e+00,5.12e+00,
138,2.40e+00,4.88e+00,
139,2.56e+00,5.12e+00,
140,2.48e+00,5.12e+00,
141,2.64e+00,4.88e+00,
142,2.56e+00,5.12e+00,
143,2.72e+00,4.88e+00,
144,2.56e+00,5.12e+00,
145,2.72e+00,4.88e+00,
146,2.64e+00,5.12e+00,
147,2.80e+00,4.88e+00,
148,2.72e+00,5.12e+00,
149,2.88e+00,4.88e+00,
150,2.80e+00,4.88e+00,
151,2.96e+00,5.12e+00,
152,2.80e+00,5.12e+00,
153,2.96e+00,4.88e+00,
154,2.88e+00,5.12e+00,
155,3.04e+00,4.88e+00,
156,2.96e+00,4.88e+00,
157,3.12e+00,5.20e+00,
158,3.12e+00,4.88e+00,
159,2.96e+00,5.12e+00,
160,3.20e+00,5.12e+00,
161,3.04e+00,4.88e+00,
162,3.28e+00,4.88e+00,
163,3.12e+00,5.20e+00,
164,3.20e+00,4.88e+00,
165,3.36e+00,5.20e+00,
166,3.44e+00,4.88e+00,
167,3.20e+00,5.12e+00,
168,3.36e+00,4.88e+00,
169,3.52e+00,5.12e+00,
170,3.36e+00,4.88e+00,
171,3.52e+00,5.12e+00,
172,3.44e+00,4.88e+00,
173,3.60e+00,5.12e+00,
174,3.52e+00,5.20e+00,
175,3.68e+00,4.88e+00,
176,3.68e+00,5.12e+00,
177,3.52e+00,4.88e+00,
178,3.60e+00,5.12e+00,
179,3.76e+00,4.88e+00,
180,3.60e+00,5.12e+00,
181,3.84e+00,4.88e+00,
182,3.84e+00,4.88e+00,
183,3.68e+00,5.12e+00,
184,3.92e+00,4.88e+00,
185,3.76e+00,5.20e+00,
186,3.76e+00,4.88e+00,
187,3.92e+00,5.12e+00,
188,4.00e+00,4.88e+00,
189,3.84e+00,5.20e+00,
190,3.92e+00,5.12e+00,
191,4.08e+00,4.88e+00,
192,4.08e+00,5.12e+00,
193,3.92e+00,4.88e+00,
194,4.00e+00,4.88e+00,
195,4.16e+00,5.12e+00,
196,4.16e+00,5.12e+00,
197,4.00e+00,4.88e+00,
198,4.08e+00,4.88e+00,
199,4.24e+00,5.12e+00,
200,4.24e+00,5.12e+00,
201,4.08e+00,4.88e+00,
202,4.24e+00,4.88e+00,
203,4.40e+00,5.12e+00,
204,4.24e+00,5.12e+00,
205,4.40e+00,4.88e+00,
206,4.32e+00,5.12e+00,
207,4.48e+00,4.88e+00,
208,4.48e+00,5.12e+00,
209,4.32e+00,4.88e+00,
210,4.32e+00,4.88e+00,
211,4.48e+00,5.12e+00,
212,4.40e+00,4.88e+00,
213,4.56e+00,5.20e+00,
214,4.56e+00,4.88e+00,
215,4.40e+00,5.12e+00,
216,4.48e+00,5.12e+00,
217,4.64e+00,4.88e+00,
218,4.64e+00,4.88e+00,
219,4.48e+00,5.12e+00,
220,4.64e+00,4.88e+00,
221,4.48e+00,5.20e+00,
222,4.56e+00,4.88e+00,
223,4.72e+00,5.12e+00,
224,4.72e+00,5.12e+00,
225,4.56e+00,4.88e+00,
226,4.64e+00,5.12e+00,
227,4.72e+00,4.88e+00,
228,4.80e+00,5.20e+00,
229,4.64e+00,4.88e+00,
230,4.64e+00,5.12e+00,
231,4.80e+00,4.88e+00,
232,4.80e+00,4.88e+00,
233,4.64e+00,5.12e+00,
234,4.72e+00,4.88e+00,
235,4.88e+00,5.12e+00,
236,4.72e+00,4.88e+00,
237,4.88e+00,5.20e+00,
238,4.72e+00,4.88e+00,
239,4.88e+00,5.12e+00,
240,4.88e+00,4.88e+00,
241,4.72e+00,5.12e+00,
242,4.72e+00,4.88e+00,
243,4.88e+00,5.12e+00,
244,4.96e+00,5.12e+00,
245,4.72e+00,4.88e+00,
246,4.80e+00,5.12e+00,
247,4.96e+00,4.88e+00,
248,4.96e+00,5.20e+00,
249,4.80e+00,4.88e+00,
250,4.96e+00,4.88e+00,
251,4.80e+00,5.20e+00,
252,4.80e+00,5.20e+00,
253,4.96e+00,4.88e+00,
254,4.96e+00,4.88e+00,
255,4.80e+00,5.12e+00,
256,4.96e+00,5.12e+00,
257,4.80e+00,4.88e+00,
258,4.80e+00,4.88e+00,
259,4.96e+00,5.12e+00,
260,4.96e+00,5.12e+00,
261,4.80e+00,4.88e+00,
262,4.80e+00,5.12e+00,
263,4.96e+00,4.88e+00,
264,4.96e+00,5.12e+00,
265,4.80e+00,4.88e+00,
266,4.96e+00,4.88e+00,
267,4.80e+00,5.12e+00,
268,4.96e+00,5.12e+00,
269,4.80e+00,4.88e+00,
270,4.96e+00,4.88e+00,
271,4.80e+00,5.12e+00,
272,4.96e+00,5.12e+00,
273,4.80e+00,4.88e+00,
274,4.80e+00,5.12e+00,
275,4.96e+00,4.88e+00,
276,4.96e+00,4.88e+00,
277,4.80e+00,5.12e+00,
278,4.96e+00,5.12e+00,
279,4.72e+00,4.88e+00,
280,4.88e+00,5.12e+00,
281,4.72e+00,4.88e+00,
282,4.88e+00,4.88e+00,
283,4.72e+00,5.20e+00,
284,4.88e+00,5.20e+00,
285,4.72e+00,4.88e+00,
286,4.88e+00,4.88e+00,
287,4.72e+00,5.12e+00,
288,4.88e+00,5.12e+00,
289,4.72e+00,4.88e+00,
290,4.80e+00,4.88e+00,
291,4.64e+00,5.12e+00,
292,4.80e+00,5.12e+00,
293,4.64e+00,4.88e+00,
294,4.80e+00,4.88e+00,
295,4.64e+00,5.12e+00,
296,4.80e+00,4.88e+00,
297,4.56e+00,5.12e+00,
298,4.72e+00,4.88e+00,
299,4.56e+00,5.20e+00,
300,4.72e+00,5.12e+00,
301,4.56e+00,4.88e+00,
302,4.72e+00,4.88e+00,
303,4.48e+00,5.12e+00,
304,4.64e+00,4.88e+00,
305,4.48e+00,5.20e+00,
306,4.64e+00,4.88e+00,
307,4.48e+00,5.12e+00,
308,4.64e+00,5.12e+00,
309,4.40e+00,4.88e+00,
310,4.40e+00,5.12e+00,
311,4.56e+00,4.88e+00,
312,4.56e+00,5.12e+00,
313,4.32e+00,4.88e+00,
314,4.48e+00,5.04e+00,
315,4.32e+00,4.88e+00,
316,4.32e+00,5.12e+00,
317,4.48e+00,4.88e+00,
318,4.40e+00,4.88e+00,
319,4.24e+00,5.20e+00,
320,4.40e+00,5.12e+00,
321,4.16e+00,4.88e+00,
322,4.32e+00,4.88e+00,
323,4.08e+00,5.12e+00,
324,4.24e+00,5.12e+00,
325,4.08e+00,4.88e+00,
326,4.16e+00,5.12e+00,
327,4.00e+00,4.88e+00,
328,4.16e+00,5.12e+00,
329,4.00e+00,4.88e+00,
330,4.08e+00,5.20e+00,
331,3.92e+00,4.88e+00,
332,4.08e+00,5.12e+00,
333,3.92e+00,4.88e+00,
334,4.00e+00,5.12e+00,
335,3.84e+00,4.88e+00,
336,3.84e+00,4.88e+00,
337,4.00e+00,5.12e+00,
338,3.92e+00,5.12e+00,
339,3.76e+00,4.88e+00,
340,3.92e+00,5.12e+00,
341,3.68e+00,4.88e+00,
342,3.68e+00,4.88e+00,
343,3.84e+00,5.12e+00,
344,3.76e+00,5.12e+00,
345,3.60e+00,4.88e+00,
346,3.76e+00,5.12e+00,
347,3.52e+00,4.88e+00,
348,3.68e+00,5.12e+00,
349,3.52e+00,4.88e+00,
350,3.60e+00,4.88e+00,
351,3.44e+00,5.12e+00,
352,3.44e+00,4.88e+00,
353,3.60e+00,5.20e+00,
354,3.52e+00,5.12e+00,
355,3.36e+00,4.88e+00,
356,3.44e+00,5.12e+00,
357,3.20e+00,4.88e+00,
358,3.44e+00,4.88e+00,
359,3.20e+00,5.12e+00,
360,3.28e+00,4.88e+00,
361,3.12e+00,5.12e+00,
362,3.20e+00,4.88e+00,
363,3.04e+00,5.12e+00,
364,3.04e+00,5.12e+00,
365,3.20e+00,4.88e+00,
366,3.12e+00,5.12e+00,
367,2.96e+00,4.88e+00,
368,3.04e+00,4.88e+00,
369,2.88e+00,5.12e+00,
370,2.96e+00,5.12e+00,
371,2.80e+00,4.88e+00,
372,2.96e+00,4.88e+00,
373,2.80e+00,5.12e+00,
374,2.88e+00,4.88e+00,
375,2.72e+00,5.12e+00,
376,2.80e+00,5.12e+00,
377,2.64e+00,4.88e+00,
378,2.64e+00,4.88e+00,
379,2.80e+00,5.12e+00,
380,2.72e+00,4.88e+00,
381,2.56e+00,5.12e+00,
382,2.64e+00,4.88e+00,
383,2.48e+00,5.12e+00,
384,2.56e+00,4.88e+00,
385,2.40e+00,5.20e+00,
386,2.40e+00,4.88e+00,
387,2.56e+00,5.12e+00,
388,2.48e+00,4.88e+00,
389,2.32e+00,5.20e+00,
390,2.32e+00,5.12e+00,
391,2.16e+00,4.88e+00,
392,2.32e+00,5.12e+00,
393,2.16e+00,4.88e+00,
394,2.24e+00,5.12e+00,
395,2.08e+00,4.88e+00,
396,2.16e+00,4.88e+00,
397,2.00e+00,5.20e+00,
398,2.16e+00,4.88e+00,
399,1.92e+00,5.12e+00,
400,2.08e+00,5.12e+00,
401,1.92e+00,4.88e+00,
402,2.00e+00,5.12e+00,
403,1.84e+00,4.88e+00,
404,1.84e+00,4.88e+00,
405,1.92e+00,5.12e+00,
406,1.92e+00,5.12e+00,
407,1.76e+00,4.88e+00,
408,1.84e+00,5.12e+00,
409,1.68e+00,4.88e+00,
410,1.76e+00,4.88e+00,
411,1.60e+00,5.12e+00,
412,1.60e+00,5.12e+00,
413,1.68e+00,4.88e+00,
414,1.68e+00,5.20e+00,
415,1.52e+00,4.88e+00,
416,1.60e+00,5.20e+00,
417,1.44e+00,4.88e+00,
418,1.44e+00,4.88e+00,
419,1.52e+00,5.12e+00,
420,1.52e+00,4.88e+00,
421,1.28e+00,5.12e+00,
422,1.36e+00,5.12e+00,
423,1.20e+00,4.88e+00,
424,1.36e+00,5.12e+00,
425,1.20e+00,4.88e+00,
426,1.28e+00,4.96e+00,
427,1.12e+00,5.12e+00,
428,1.20e+00,5.12e+00,
429,1.12e+00,4.88e+00,
430,1.20e+00,5.12e+00,
431,1.04e+00,4.88e+00,
432,1.12e+00,5.12e+00,
433,9.60e-01,4.88e+00,
434,1.04e+00,5.12e+00,
435,9.60e-01,4.88e+00,
436,1.04e+00,4.88e+00,
437,8.80e-01,5.20e+00,
438,8.80e-01,5.12e+00,
439,9.60e-01,4.88e+00,
440,9.60e-01,5.12e+00,
441,8.00e-01,4.88e+00,
442,8.80e-01,4.88e+00,
443,7.20e-01,5.12e+00,
444,7.20e-01,5.12e+00,
445,8.80e-01,4.88e+00,
446,8.00e-01,4.88e+00,
447,6.40e-01,5.20e+00,
448,7.20e-01,5.12e+00,
449,6.40e-01,4.88e+00,
450,7.20e-01,4.88e+00,
451,5.60e-01,5.12e+00,
452,5.60e-01,5.12e+00,
453,6.40e-01,4.88e+00,
454,6.40e-01,4.88e+00,
455,4.80e-01,5.12e+00,
456,4.80e-01,4.88e+00,
457,6.40e-01,5.20e+00,
458,5.60e-01,4.88e+00,
459,4.00e-01,5.12e+00,
460,4.80e-01,5.20e+00,
461,3.20e-01,4.88e+00,
462,4.00e-01,5.12e+00,
463,3.20e-01,4.88e+00,
464,4.00e-01,5.12e+00,
465,2.40e-01,4.88e+00,
466,3.20e-01,5.12e+00,
467,2.40e-01,4.88e+00,
468,3.20e-01,4.96e+00,
469,1.60e-01,5.12e+00,
470,3.20e-01,5.04e+00,
471,1.60e-01,2.40e-01,
472,1.60e-01,2.40e-01,
473,2.40e-01,1.60e-01,
474,2.40e-01,2.40e-01,
475,8.00e-02,8.00e-02,
476,2.40e-01,2.40e-01,
477,8.00e-02,8.00e-02,
478,1.60e-01,8.00e-02,
479,8.00e-02,2.40e-01,
480,1.60e-01,2.40e-01,
481,0.00e+00,8.00e-02,
482,0.00e+00,2.40e-01,
483,1.60e-01,8.00e-02,
484,0.00e+00,2.40e-01,
485,8.00e-02,8.00e-02,
486,8.00e-02,2.40e-01,
487,0.00e+00,8.00e-02,
488,8.00e-02,8.00e-02,
489,-8.00e-02,2.40e-01,
490,-8.00e-02,2.40e-01,
491,8.00e-02,8.00e-02,
492,-8.00e-02,2.40e-01,
493,8.00e-02,8.00e-02,
494,0.00e+00,2.40e-01,
495,-8.00e-02,8.00e-02,
496,-8.00e-02,2.40e-01,
497,0.00e+00,8.00e-02,
498,-8.00e-02,2.40e-01,
499,0.00e+00,8.00e-02,
500,0.00e+00,2.40e-01,
501,-8.00e-02,8.00e-02,
502,-8.00e-02,8.00e-02,
503,0.00e+00,2.40e-01,
504,0.00e+00,2.40e-01,
505,-1.60e-01,8.00e-02,
506,-1.60e-01,2.40e-01,
507,0.00e+00,8.00e-02,
508,-1.60e-01,2.40e-01,
509,0.00e+00,8.00e-02,
510,0.00e+00,8.00e-02,
511,-1.60e-01,2.40e-01,
512,-1.60e-01,2.40e-01,
513,0.00e+00,8.00e-02,
514,-1.60e-01,2.40e-01,
515,0.00e+00,8.00e-02,
516,0.00e+00,2.40e-01,
517,-1.60e-01,8.00e-02,
518,-1.60e-01,2.40e-01,
519,0.00e+00,8.00e-02,
520,-1.60e-01,2.40e-01,
521,0.00e+00,8.00e-02,
522,0.00e+00,2.40e-01,
523,-1.60e-01,8.00e-02,
524,0.00e+00,2.40e-01,
525,-8.00e-02,8.00e-02,
526,0.00e+00,8.00e-02,
527,-8.00e-02,2.40e-01,
528,-8.00e-02,2.40e-01,
529,0.00e+00,8.00e-02,
530,-8.00e-02,8.00e-02,
531,8.00e-02,2.40e-01,
532,-8.00e-02,2.40e-01,
533,8.00e-02,8.00e-02,
534,8.00e-02,2.40e-01,
535,-8.00e-02,8.00e-02,
536,0.00e+00,8.00e-02,
537,8.00e-02,2.40e-01,
538,8.00e-02,8.00e-02,
539,0.00e+00,2.40e-01,
540,0.00e+00,2.40e-01,
541,1.60e-01,8.00e-02,
542,0.00e+00,2.40e-01,
543,1.60e-01,8.00e-02,
544,8.00e-02,2.40e-01,
545,1.60e-01,8.00e-02,
546,8.00e-02,2.40e-01,
547,2.40e-01,8.00e-02,
548,8.00e-02,8.00e-02,
549,2.40e-01,2.40e-01,
550,2.40e-01,8.00e-02,
551,1.60e-01,2.40e-01,
552,1.60e-01,8.00e-02,
553,3.20e-01,2.40e-01,
554,1.60e-01,1.60e-01,
555,3.20e-01,8.00e-02,
556,3.20e-01,8.00e-02,
557,2.40e-01,2.40e-01,
558,2.40e-01,1.60e-01,
559,4.00e-01,8.00e-02,
560,3.20e-01,8.00e-02,
561,4.00e-01,2.40e-01,
562,4.00e-01,1.60e-01,
563,4.80e-01,8.00e-02,
564,5.60e-01,1.60e-01,
565,4.00e-01,8.00e-02,
566,4.80e-01,8.00e-02,
567,5.60e-01,2.40e-01,
568,4.80e-01,2.40e-01,
569,6.40e-01,8.00e-02,
570,5.60e-01,8.00e-02,
571,6.40e-01,2.40e-01,
572,5.60e-01,2.40e-01,
573,7.20e-01,8.00e-02,
574,6.40e-01,2.40e-01,
575,7.20e-01,8.00e-02,
576,6.40e-01,2.40e-01,
577,8.00e-01,8.00e-02,
578,7.20e-01,2.40e-01,
579,8.00e-01,8.00e-02,
580,7.20e-01,1.60e-01,
581,8.80e-01,3.20e-01,
582,8.00e-01,3.20e-01,
583,9.60e-01,4.40e+00,
584,8.00e-01,4.32e+00,
585,9.60e-01,5.04e+00,
586,8.80e-01,5.04e+00,
587,1.04e+00,4.88e+00,
588,1.04e+00,5.04e+00,
589,9.60e-01,4.88e+00,
590,9.60e-01,4.88e+00,
591,1.12e+00,5.04e+00,
592,1.04e+00,5.04e+00,
593,1.20e+00,4.88e+00,
594,1.20e+00,4.88e+00,
595,1.04e+00,5.12e+00,
596,1.12e+00,4.88e+00,
597,1.28e+00,5.12e+00,
598,1.28e+00,4.88e+00,
599,1.20e+00,5.12e+00,
600,1.20e+00,4.88e+00,
601,1.36e+00,5.12e+00,
602,1.36e+00,5.12e+00,
603,1.52e+00,4.88e+00,
604,1.44e+00,5.12e+00,
605,1.52e+00,4.88e+00,
606,1.44e+00,4.88e+00,
607,1.60e+00,5.20e+00,
608,1.52e+00,4.88e+00,
609,1.68e+00,5.12e+00,
610,1.60e+00,5.20e+00,
611,1.68e+00,4.88e+00,
612,1.60e+00,5.12e+00,
613,1.76e+00,4.88e+00,
614,1.68e+00,4.88e+00,
615,1.84e+00,5.12e+00,
616,1.76e+00,4.88e+00,
617,1.92e+00,5.12e+00,
618,1.76e+00,4.88e+00,
619,1.92e+00,5.12e+00,
620,1.84e+00,5.12e+00,
621,2.00e+00,4.88e+00,
622,1.92e+00,5.12e+00,
623,2.08e+00,4.88e+00,
624,2.08e+00,5.12e+00,
625,1.92e+00,4.88e+00,
626,2.00e+00,5.12e+00,
627,2.16e+00,4.88e+00,
628,2.08e+00,5.12e+00,
629,2.24e+00,4.88e+00,
630,2.16e+00,4.88e+00,
631,2.32e+00,5.04e+00,
632,2.32e+00,5.20e+00,
633,2.16e+00,4.88e+00,
634,2.24e+00,5.12e+00,
635,2.48e+00,4.88e+00,
636,2.40e+00,5.12e+00,
637,2.48e+00,4.88e+00,
638,2.40e+00,4.88e+00,
639,2.56e+00,5.20e+00,
640,2.48e+00,5.12e+00,
641,2.64e+00,4.88e+00,
642,2.56e+00,4.88e+00,
643,2.72e+00,5.12e+00,
644,2.56e+00,5.12e+00,
645,2.80e+00,4.88e+00,
646,2.80e+00,4.88e+00,
647,2.64e+00,5.12e+00,
648,2.72e+00,5.12e+00,
649,2.88e+00,4.88e+00,
650,2.80e+00,4.88e+00,
651,2.96e+00,5.12e+00,
652,2.96e+00,4.88e+00,
653,2.80e+00,5.12e+00,
654,2.88e+00,4.88e+00,
655,3.04e+00,5.12e+00,
656,2.96e+00,5.20e+00,
657,3.12e+00,4.88e+00,
658,3.12e+00,4.88e+00,
659,2.96e+00,5.12e+00,
660,3.04e+00,5.12e+00,
661,3.20e+00,4.88e+00,
662,3.12e+00,5.12e+00,
663,3.28e+00,4.88e+00,
664,3.20e+00,5.12e+00,
665,3.36e+00,4.88e+00,
666,3.28e+00,4.88e+00,
667,3.44e+00,5.20e+00,
668,3.36e+00,4.88e+00,
669,3.52e+00,5.20e+00,
670,3.36e+00,4.88e+00,
671,3.52e+00,5.20e+00,
672,3.44e+00,5.20e+00,
673,3.60e+00,4.88e+00,
674,3.52e+00,5.12e+00,
675,3.68e+00,4.88e+00,
676,3.68e+00,4.88e+00,
677,3.52e+00,5.12e+00,
678,3.60e+00,4.88e+00,
679,3.76e+00,5.20e+00,
680,3.60e+00,5.12e+00,
681,3.84e+00,4.88e+00,
682,3.68e+00,4.88e+00,
683,3.84e+00,5.20e+00,
684,3.76e+00,5.12e+00,
685,3.92e+00,4.88e+00,
686,3.76e+00,4.88e+00,
687,3.92e+00,5.12e+00,
688,3.84e+00,5.12e+00,
689,4.00e+00,4.88e+00,
690,3.92e+00,4.88e+00,
691,4.08e+00,5.12e+00,
692,4.08e+00,4.88e+00,
693,3.92e+00,5.12e+00,
694,4.00e+00,4.88e+00,
695,4.16e+00,5.20e+00,
696,4.16e+00,5.12e+00,
697,4.00e+00,4.88e+00,
698,4.08e+00,4.88e+00,
699,4.24e+00,5.12e+00,
700,4.24e+00,4.88e+00,
701,4.08e+00,5.20e+00,
702,4.32e+00,5.20e+00,
703,4.16e+00,4.88e+00,
704,4.24e+00,4.88e+00,
705,4.40e+00,5.12e+00,
706,4.32e+00,5.12e+00,
707,4.48e+00,4.88e+00,
708,4.48e+00,5.12e+00,
709,4.32e+00,4.88e+00,
710,4.40e+00,4.88e+00,
711,4.56e+00,5.12e+00,
712,4.40e+00,5.12e+00,
713,4.56e+00,4.88e+00,
714,4.40e+00,4.88e+00,
715,4.56e+00,5.12e+00,
716,4.48e+00,5.12e+00,
717,4.64e+00,4.88e+00,
718,4.64e+00,4.88e+00,
719,4.48e+00,5.20e+00,
720,4.48e+00,5.12e+00,
721,4.72e+00,4.88e+00,
722,4.56e+00,4.88e+00,
723,4.72e+00,5.12e+00,
724,4.56e+00,4.88e+00,
725,4.72e+00,5.12e+00,
726,4.56e+00,4.88e+00,
727,4.72e+00,5.12e+00,
728,4.64e+00,5.12e+00,
729,4.80e+00,4.88e+00,
730,4.64e+00,5.12e+00,
731,4.80e+00,4.88e+00,
732,4.80e+00,5.20e+00,
733,4.64e+00,4.88e+00,
734,4.64e+00,4.88e+00,
735,4.88e+00,5.12e+00,
736,4.72e+00,5.12e+00,
737,4.88e+00,4.88e+00,
738,4.88e+00,4.88e+00,
739,4.72e+00,5.12e+00,
740,4.88e+00,5.12e+00,
741,4.72e+00,4.88e+00,
742,4.88e+00,4.88e+00,
743,4.72e+00,5.12e+00,
744,4.96e+00,5.12e+00,
745,4.72e+00,4.88e+00,
746,4.80e+00,4.88e+00,
747,4.96e+00,5.12e+00,
748,4.96e+00,5.12e+00,
749,4.80e+00,4.88e+00,
750,4.96e+00,4.88e+00,
751,4.80e+00,5.12e+00,
752,4.96e+00,5.12e+00,
753,4.80e+00,4.88e+00,
754,4.80e+00,4.88e+00,
755,4.96e+00,5.12e+00,
756,4.96e+00,5.12e+00,
757,4.80e+00,4.88e+00,
758,4.96e+00,5.12e+00,
759,4.80e+00,4.88e+00,
760,4.96e+00,4.88e+00,
761,4.80e+00,5.12e+00,
762,4.96e+00,4.88e+00,
763,4.80e+00,5.12e+00,
764,4.96e+00,5.12e+00,
765,4.80e+00,4.88e+00,
766,4.96e+00,4.88e+00,
767,4.80e+00,5.12e+00,
768,4.96e+00,5.12e+00,
769,4.80e+00,4.88e+00,
770,4.96e+00,4.88e+00,
771,4.80e+00,5.12e+00,
772,4.96e+00,4.88e+00,
773,4.80e+00,5.12e+00,
774,4.96e+00,4.88e+00,
775,4.80e+00,5.12e+00,
776,4.96e+00,5.12e+00,
777,4.80e+00,4.88e+00,
778,4.80e+00,4.88e+00,
779,4.96e+00,5.12e+00,
780,4.96e+00,5.12e+00,
781,4.72e+00,4.88e+00,
782,4.88e+00,4.88e+00,
783,4.72e+00,5.12e+00,
784,4.88e+00,4.88e+00,
785,4.72e+00,5.12e+00,
786,4.88e+00,4.88e+00,
787,4.72e+00,5.12e+00,
788,4.88e+00,5.12e+00,
789,4.72e+00,4.88e+00,
790,4.88e+00,5.12e+00,
791,4.64e+00,4.88e+00,
792,4.80e+00,5.12e+00,
793,4.64e+00,4.88e+00,
794,4.80e+00,4.88e+00,
795,4.64e+00,5.20e+00,
796,4.80e+00,5.12e+00,
797,4.64e+00,4.88e+00,
798,4.56e+00,4.88e+00,
799,4.72e+00,5.12e+00,
800,4.72e+00,5.12e+00,
801,4.56e+00,4.88e+00,
802,4.56e+00,4.88e+00,
803,4.72e+00,5.12e+00,
804,4.48e+00,4.88e+00,
805,4.64e+00,5.12e+00,
806,4.64e+00,4.88e+00,
807,4.48e+00,5.20e+00,
808,4.56e+00,5.12e+00,
809,4.40e+00,4.88e+00,
810,4.40e+00,5.12e+00,
811,4.56e+00,4.88e+00,
812,4.56e+00,5.20e+00,
813,4.32e+00,4.88e+00,
814,4.48e+00,5.12e+00,
815,4.32e+00,4.88e+00,
816,4.32e+00,5.12e+00,
817,4.48e+00,4.88e+00,
818,4.40e+00,5.12e+00,
819,4.24e+00,4.88e+00,
820,4.16e+00,5.12e+00,
821,4.40e+00,4.88e+00,
822,4.32e+00,4.88e+00,
823,4.08e+00,5.12e+00,
824,4.24e+00,5.12e+00,
825,4.08e+00,4.88e+00,
826,4.24e+00,5.12e+00,
827,4.00e+00,4.88e+00,
828,4.16e+00,4.88e+00,
829,4.00e+00,5.12e+00,
830,4.08e+00,4.96e+00,
831,3.92e+00,5.12e+00,
832,4.08e+00,4.96e+00,
833,3.92e+00,5.20e+00,
834,4.00e+00,4.88e+00,
835,3.84e+00,5.20e+00,
836,4.00e+00,5.12e+00,
837,3.76e+00,4.88e+00,
838,3.92e+00,4.88e+00,
839,3.76e+00,5.12e+00,
840,3.92e+00,5.12e+00,
841,3.68e+00,4.88e+00,
842,3.84e+00,5.12e+00,
843,3.68e+00,4.88e+00,
844,3.76e+00,5.12e+00,
845,3.60e+00,4.88e+00,
846,3.76e+00,4.88e+00,
847,3.52e+00,5.12e+00,
848,3.52e+00,5.12e+00,
849,3.68e+00,4.88e+00,
850,3.60e+00,4.88e+00,
851,3.44e+00,5.12e+00,
852,3.60e+00,4.88e+00,
853,3.36e+00,5.12e+00,
854,3.36e+00,5.12e+00,
855,3.52e+00,4.88e+00,
856,3.44e+00,4.88e+00,
857,3.28e+00,5.20e+00,
858,3.36e+00,5.12e+00,
859,3.20e+00,4.88e+00,
860,3.28e+00,4.88e+00,
861,3.12e+00,5.12e+00,
862,3.20e+00,4.88e+00,
863,3.04e+00,5.12e+00,
864,3.20e+00,5.12e+00,
865,3.04e+00,4.88e+00,
866,3.12e+00,5.12e+00,
867,2.96e+00,4.88e+00,
868,3.04e+00,5.12e+00,
