project/matlab/project_exp3/3.5 kHz/NewFile1.csv

X,CH1,CH2,Start,Increment,
Sequence,Volt,Volt,1.200000e-04,1.000000e-06
0,3.04e+00,4.88e+00,
1,2.80e+00,5.12e+00,
2,2.88e+00,4.88e+00,
3,2.72e+00,5.12e+00,
4,2.80e+00,4.88e+00,
5,2.56e+00,5.12e+00,
6,2.72e+00,4.88e+00,
7,2.48e+00,5.12e+00,
8,2.64e+00,4.88e+00,
9,2.40e+00,5.12e+00,
10,2.48e+00,4.88e+00,
11,2.24e+00,5.20e+00,
12,2.32e+00,5.12e+00,
13,2.16e+00,4.88e+00,
14,2.24e+00,5.12e+00,
15,2.00e+00,4.88e+00,
16,2.16e+00,5.12e+00,
17,1.92e+00,4.88e+00,
18,2.00e+00,4.88e+00,
19,1.84e+00,5.20e+00,
20,1.92e+00,4.88e+00,
21,1.76e+00,5.20e+00,
22,1.84e+00,5.12e+00,
23,1.60e+00,4.88e+00,
24,1.76e+00,5.12e+00,
25,1.52e+00,4.88e+00,
26,1.60e+00,4.88e+00,
27,1.44e+00,5.12e+00,
28,1.52e+00,5.12e+00,
29,1.36e+00,4.88e+00,
30,1.36e+00,4.88e+00,
31,1.20e+00,5.20e+00,
32,1.28e+00,4.88e+00,
33,1.12e+00,5.20e+00,
34,1.20e+00,4.88e+00,
35,1.04e+00,5.12e+00,
36,1.12e+00,4.88e+00,
37,9.60e-01,5.20e+00,
38,1.04e+00,4.88e+00,
39,8.80e-01,5.12e+00,
40,9.60e-01,5.20e+00,
41,8.00e-01,4.88e+00,
42,8.80e-01,4.88e+00,
43,7.20e-01,5.20e+00,
44,8.00e-01,4.88e+00,
45,6.40e-01,5.12e+00,
46,7.20e-01,4.88e+00,
47,5.60e-01,5.20e+00,
48,6.40e-01,5.12e+00,
49,4.80e-01,4.88e+00,
50,5.60e-01,5.12e+00,
51,3.20e-01,4.88e+00,
52,4.80e-01,4.88e+00,
53,3.20e-01,5.12e+00,
54,4.00e-01,5.12e+00,
55,2.40e-01,4.96e+00,
56,3.20e-01,5.12e+00,
57,1.60e-01,2.40e-01,
58,2.40e-01,2.40e-01,
59,1.60e-01,1.60e-01,
60,2.40e-01,2.40e-01,
61,8.00e-02,8.00e-02,
62,1.60e-01,2.40e-01,
63,8.00e-02,8.00e-02,
64,0.00e+00,2.40e-01,
65,1.60e-01,8.00e-02,
66,8.00e-02,2.40e-01,
67,0.00e+00,8.00e-02,
68,8.00e-02,2.40e-01,
69,-8.00e-02,8.00e-02,
70,8.00e-02,2.40e-01,
71,-8.00e-02,8.00e-02,
72,0.00e+00,2.40e-01,
73,-8.00e-02,8.00e-02,
74,0.00e+00,2.40e-01,
75,-8.00e-02,8.00e-02,
76,0.00e+00,2.40e-01,
77,-1.60e-01,8.00e-02,
78,-1.60e-01,2.40e-01,
79,0.00e+00,8.00e-02,
80,-1.60e-01,2.40e-01,
81,0.00e+00,8.00e-02,
82,-1.60e-01,2.40e-01,
83,0.00e+00,8.00e-02,
84,-1.60e-01,2.40e-01,
85,0.00e+00,8.00e-02,
86,-8.00e-02,2.40e-01,
87,0.00e+00,8.00e-02,
88,-8.00e-02,2.40e-01,
89,0.00e+00,8.00e-02,
90,-8.00e-02,2.40e-01,
91,0.00e+00,8.00e-02,
92,8.00e-02,2.40e-01,
93,-8.00e-02,8.00e-02,
94,8.00e-02,8.00e-02,
95,-8.00e-02,2.40e-01,
96,0.00e+00,8.00e-02,
97,1.60e-01,2.40e-01,
98,1.60e-01,8.00e-02,
99,0.00e+00,2.40e-01,
100,8.00e-02,8.00e-02,
101,2.40e-01,2.40e-01,
102,8.00e-02,2.40e-01,
103,2.40e-01,8.00e-02,
104,1.60e-01,2.40e-01,
105,3.20e-01,8.00e-02,
106,2.40e-01,2.40e-01,
107,4.00e-01,8.00e-02,
108,4.00e-01,2.40e-01,
109,2.40e-01,8.00e-02,
110,3.20e-01,1.60e-01,
111,5.60e-01,8.00e-02,
112,4.80e-01,1.60e-01,
113,6.40e-01,8.00e-02,
114,5.60e-01,8.00e-02,
115,7.20e-01,2.40e-01,
116,5.60e-01,8.00e-02,
117,8.00e-01,2.40e-01,
118,6.40e-01,2.40e-01,
119,8.00e-01,8.00e-02,
120,7.20e-01,1.60e-01,
121,8.80e-01,4.08e+00,
122,8.00e-01,4.08e+00,
123,9.60e-01,5.04e+00,
124,8.80e-01,5.04e+00,
125,1.04e+00,4.88e+00,
126,9.60e-01,5.04e+00,
127,1.12e+00,4.88e+00,
128,1.04e+00,5.04e+00,
129,1.28e+00,4.88e+00,
130,1.12e+00,5.04e+00,
131,1.36e+00,4.88e+00,
132,1.28e+00,5.04e+00,
133,1.52e+00,4.88e+00,
134,1.44e+00,4.88e+00,
135,1.60e+00,5.12e+00,
136,1.52e+00,5.04e+00,
137,1.68e+00,4.88e+00,
138,1.60e+00,5.12e+00,
139,1.76e+00,4.88e+00,
140,1.68e+00,5.12e+00,
141,1.92e+00,4.88e+00,
142,1.76e+00,5.12e+00,
143,2.00e+00,4.88e+00,
144,1.92e+00,5.12e+00,
145,2.08e+00,4.88e+00,
146,2.00e+00,5.04e+00,
147,2.16e+00,4.88e+00,
148,2.08e+00,4.88e+00,
149,2.32e+00,5.04e+00,
150,2.16e+00,4.88e+00,
151,2.48e+00,5.12e+00,
152,2.40e+00,4.88e+00,
153,2.56e+00,5.12e+00,
154,2.48e+00,5.12e+00,
155,2.64e+00,4.88e+00,
156,2.56e+00,5.12e+00,
157,2.80e+00,4.88e+00,
158,2.64e+00,5.12e+00,
159,2.88e+00,4.88e+00,
160,2.80e+00,5.12e+00,
161,2.96e+00,4.88e+00,
162,2.88e+00,5.04e+00,
163,3.04e+00,4.88e+00,
164,2.96e+00,5.04e+00,
165,3.20e+00,4.88e+00,
166,3.04e+00,4.88e+00,
167,3.28e+00,5.12e+00,
168,3.12e+00,4.88e+00,
169,3.44e+00,5.12e+00,
170,3.28e+00,5.12e+00,
171,3.52e+00,4.88e+00,
172,3.44e+00,5.12e+00,
173,3.60e+00,4.88e+00,
174,3.52e+00,5.12e+00,
175,3.68e+00,4.88e+00,
176,3.60e+00,4.88e+00,
177,3.76e+00,5.20e+00,
178,3.68e+00,5.12e+00,
179,3.92e+00,4.88e+00,
180,3.76e+00,5.12e+00,
181,4.00e+00,4.88e+00,
182,3.84e+00,4.88e+00,
183,4.08e+00,5.20e+00,
184,3.92e+00,5.12e+00,
185,4.16e+00,4.88e+00,
186,4.16e+00,5.12e+00,
187,4.00e+00,4.88e+00,
188,4.24e+00,5.12e+00,
189,4.08e+00,4.88e+00,
190,4.16e+00,4.88e+00,
191,4.40e+00,5.20e+00,
192,4.24e+00,5.12e+00,
193,4.48e+00,4.88e+00,
194,4.32e+00,5.12e+00,
195,4.56e+00,4.88e+00,
196,4.40e+00,4.88e+00,
197,4.64e+00,5.20e+00,
198,4.48e+00,4.88e+00,
199,4.64e+00,5.20e+00,
200,4.48e+00,5.12e+00,
201,4.72e+00,4.88e+00,
202,4.56e+00,5.12e+00,
203,4.72e+00,4.88e+00,
204,4.56e+00,4.88e+00,
205,4.80e+00,5.12e+00,
206,4.80e+00,4.88e+00,
207,4.64e+00,5.20e+00,
208,4.72e+00,4.88e+00,
209,4.88e+00,5.20e+00,
210,4.72e+00,5.12e+00,
211,4.88e+00,4.88e+00,
212,4.72e+00,5.12e+00,
213,4.88e+00,4.88e+00,
214,4.96e+00,5.12e+00,
215,4.72e+00,4.88e+00,
216,4.96e+00,5.12e+00,
217,4.80e+00,4.88e+00,
218,4.96e+00,5.12e+00,
219,4.80e+00,4.88e+00,
220,4.80e+00,5.12e+00,
221,4.96e+00,4.88e+00,
222,4.80e+00,4.88e+00,
223,4.96e+00,5.20e+00,
224,4.96e+00,4.88e+00,
225,4.80e+00,5.12e+00,
226,4.80e+00,4.88e+00,
227,4.96e+00,5.20e+00,
228,4.96e+00,4.88e+00,
229,4.80e+00,5.12e+00,
230,4.80e+00,5.20e+00,
231,4.96e+00,4.88e+00,
232,4.96e+00,4.88e+00,
233,4.80e+00,5.12e+00,
234,4.96e+00,5.12e+00,
235,4.72e+00,4.88e+00,
236,4.72e+00,4.88e+00,
237,4.88e+00,5.20e+00,
238,4.88e+00,4.88e+00,
239,4.72e+00,5.20e+00,
240,4.88e+00,4.88e+00,
241,4.64e+00,5.12e+00,
242,4.64e+00,5.12e+00,
243,4.80e+00,4.88e+00,
244,4.80e+00,4.88e+00,
245,4.56e+00,5.12e+00,
246,4.56e+00,4.88e+00,
247,4.72e+00,5.20e+00,
248,4.48e+00,5.12e+00,
249,4.64e+00,4.88e+00,
250,4.64e+00,4.88e+00,
251,4.40e+00,5.12e+00,
252,4.56e+00,4.88e+00,
253,4.32e+00,5.20e+00,
254,4.32e+00,4.88e+00,
255,4.48e+00,5.20e+00,
256,4.48e+00,5.12e+00,
257,4.24e+00,4.88e+00,
258,4.32e+00,5.20e+00,
259,4.08e+00,4.88e+00,
260,4.24e+00,5.12e+00,
261,4.00e+00,4.88e+00,
262,4.16e+00,4.88e+00,
263,3.92e+00,5.20e+00,
264,4.08e+00,5.12e+00,
265,3.84e+00,4.88e+00,
266,4.00e+00,5.12e+00,
267,3.76e+00,4.88e+00,
268,3.92e+00,4.88e+00,
269,3.68e+00,5.20e+00,
270,3.84e+00,4.88e+00,
271,3.60e+00,5.20e+00,
272,3.68e+00,4.88e+00,
273,3.52e+00,5.20e+00,
274,3.60e+00,4.88e+00,
275,3.44e+00,5.12e+00,
276,3.52e+00,5.12e+00,
277,3.36e+00,4.88e+00,
278,3.44e+00,4.88e+00,
279,3.12e+00,5.20e+00,
280,3.28e+00,5.12e+00,
281,3.04e+00,4.88e+00,
282,3.20e+00,5.12e+00,
283,2.96e+00,4.88e+00,
284,3.12e+00,4.88e+00,
285,2.88e+00,5.12e+00,
286,3.04e+00,4.88e+00,
287,2.80e+00,5.20e+00,
288,2.88e+00,5.20e+00,
289,2.72e+00,4.88e+00,
290,2.80e+00,4.88e+00,
291,2.56e+00,5.12e+00,
292,2.72e+00,4.88e+00,
293,2.48e+00,5.12e+00,
294,2.56e+00,5.12e+00,
295,2.40e+00,4.88e+00,
296,2.48e+00,5.12e+00,
297,2.32e+00,4.88e+00,
298,2.32e+00,5.12e+00,
299,2.08e+00,4.88e+00,
300,2.24e+00,4.88e+00,
301,2.00e+00,5.20e+00,
302,2.08e+00,5.12e+00,
303,1.92e+00,4.88e+00,
304,2.00e+00,4.88e+00,
305,1.84e+00,5.20e+00,
306,1.92e+00,4.88e+00,
307,1.68e+00,5.20e+00,
308,1.84e+00,4.88e+00,
309,1.60e+00,5.12e+00,
310,1.68e+00,5.20e+00,
311,1.52e+00,4.88e+00,
312,1.60e+00,4.88e+00,
313,1.44e+00,5.20e+00,
314,1.52e+00,5.12e+00,
315,1.28e+00,4.88e+00,
316,1.36e+00,5.12e+00,
317,1.20e+00,4.88e+00,
318,1.28e+00,4.88e+00,
319,1.12e+00,5.20e+00,
320,1.20e+00,5.12e+00,
321,1.04e+00,4.88e+00,
322,1.12e+00,5.12e+00,
323,9.60e-01,4.88e+00,
324,1.04e+00,5.12e+00,
325,8.00e-01,4.88e+00,
326,9.60e-01,4.88e+00,
327,7.20e-01,5.20e+00,
328,7.20e-01,5.12e+00,
329,8.80e-01,4.88e+00,
330,6.40e-01,5.12e+00,
331,8.00e-01,4.88e+00,
332,7.20e-01,5.12e+00,
333,5.60e-01,4.88e+00,
334,6.40e-01,5.12e+00,
335,4.80e-01,4.88e+00,
336,5.60e-01,4.88e+00,
337,4.00e-01,5.20e+00,
338,4.00e-01,4.88e+00,
339,3.20e-01,5.20e+00,
340,4.00e-01,4.88e+00,
341,2.40e-01,5.12e+00,
342,3.20e-01,5.12e+00,
343,1.60e-01,1.60e-01,
344,1.60e-01,2.40e-01,
345,2.40e-01,8.00e-02,
346,2.40e-01,8.00e-02,
347,8.00e-02,2.40e-01,
348,1.60e-01,2.40e-01,
349,0.00e+00,8.00e-02,
350,0.00e+00,2.40e-01,
351,1.60e-01,8.00e-02,
352,0.00e+00,8.00e-02,
353,8.00e-02,2.40e-01,
354,8.00e-02,2.40e-01,
355,-8.00e-02,8.00e-02,
356,-8.00e-02,2.40e-01,
357,8.00e-02,8.00e-02,
358,0.00e+00,2.40e-01,
359,-8.00e-02,8.00e-02,
360,0.00e+00,2.40e-01,
361,-8.00e-02,8.00e-02,
362,0.00e+00,2.40e-01,
363,-1.60e-01,8.00e-02,
364,-1.60e-01,2.40e-01,
365,0.00e+00,8.00e-02,
366,0.00e+00,2.40e-01,
367,-1.60e-01,8.00e-02,
368,-1.60e-01,2.40e-01,
369,0.00e+00,8.00e-02,
370,-1.60e-01,2.40e-01,
371,0.00e+00,8.00e-02,
372,0.00e+00,2.40e-01,
373,-1.60e-01,8.00e-02,
374,0.00e+00,2.40e-01,
375,-8.00e-02,8.00e-02,
376,-8.00e-02,2.40e-01,
377,8.00e-02,8.00e-02,
378,-8.00e-02,2.40e-01,
379,8.00e-02,8.00e-02,
380,8.00e-02,8.00e-02,
381,-8.00e-02,2.40e-01,
382,0.00e+00,8.00e-02,
383,1.60e-01,2.40e-01,
384,1.60e-01,8.00e-02,
385,0.00e+00,2.40e-01,
386,8.00e-02,8.00e-02,
387,2.40e-01,2.40e-01,
388,8.00e-02,8.00e-02,
389,2.40e-01,2.40e-01,
390,1.60e-01,2.40e-01,
391,3.20e-01,8.00e-02,
392,2.40e-01,8.00e-02,
393,4.00e-01,2.40e-01,
394,4.00e-01,8.00e-02,
395,2.40e-01,2.40e-01,
396,4.00e-01,1.60e-01,
397,5.60e-01,8.00e-02,
398,4.80e-01,8.00e-02,
399,6.40e-01,1.60e-01,
400,5.60e-01,8.00e-02,
401,7.20e-01,2.40e-01,
402,6.40e-01,8.00e-02,
403,8.00e-01,2.40e-01,
404,7.20e-01,2.40e-01,
405,8.80e-01,8.00e-02,
406,7.20e-01,1.60e-01,
407,9.60e-01,4.80e+00,
408,8.00e-01,4.80e+00,
409,1.04e+00,5.04e+00,
410,8.80e-01,5.04e+00,
411,1.12e+00,4.88e+00,
412,9.60e-01,4.88e+00,
413,1.20e+00,5.12e+00,
414,1.04e+00,4.88e+00,
415,1.28e+00,5.12e+00,
416,1.20e+00,5.04e+00,
417,1.36e+00,4.88e+00,
418,1.28e+00,5.04e+00,
419,1.52e+00,4.88e+00,
420,1.44e+00,4.88e+00,
421,1.60e+00,5.12e+00,
422,1.52e+00,5.12e+00,
423,1.68e+00,4.88e+00,
424,1.60e+00,5.20e+00,
425,1.84e+00,4.88e+00,
426,1.68e+00,5.12e+00,
427,1.92e+00,4.88e+00,
428,1.84e+00,4.88e+00,
429,2.00e+00,5.20e+00,
430,1.92e+00,4.88e+00,
431,2.08e+00,5.04e+00,
432,2.00e+00,4.88e+00,
433,2.24e+00,5.12e+00,
434,2.08e+00,5.12e+00,
435,2.32e+00,4.88e+00,
436,2.32e+00,4.88e+00,
437,2.48e+00,5.20e+00,
438,2.40e+00,4.88e+00,
439,2.56e+00,5.20e+00,
440,2.48e+00,5.12e+00,
441,2.72e+00,4.88e+00,
442,2.56e+00,5.12e+00,
443,2.80e+00,4.88e+00,
444,2.64e+00,5.12e+00,
445,2.88e+00,4.88e+00,
446,2.80e+00,5.12e+00,
447,2.96e+00,4.88e+00,
448,2.88e+00,4.88e+00,
449,3.12e+00,5.20e+00,
450,2.96e+00,4.88e+00,
451,3.20e+00,5.20e+00,
452,3.04e+00,5.12e+00,
453,3.28e+00,4.88e+00,
454,3.20e+00,5.12e+00,
455,3.44e+00,4.88e+00,
456,3.36e+00,4.88e+00,
457,3.52e+00,5.12e+00,
458,3.44e+00,5.12e+00,
459,3.60e+00,4.88e+00,
460,3.52e+00,5.12e+00,
461,3.76e+00,4.88e+00,
462,3.60e+00,4.88e+00,
463,3.84e+00,5.20e+00,
464,3.68e+00,5.12e+00,
465,3.92e+00,4.88e+00,
466,3.76e+00,5.12e+00,
467,4.00e+00,4.88e+00,
468,3.84e+00,5.12e+00,
469,4.08e+00,4.88e+00,
470,3.92e+00,4.88e+00,
471,4.16e+00,5.20e+00,
472,4.00e+00,4.88e+00,
473,4.24e+00,5.20e+00,
474,4.08e+00,5.12e+00,
475,4.40e+00,4.88e+00,
476,4.24e+00,5.12e+00,
477,4.40e+00,4.88e+00,
478,4.32e+00,5.12e+00,
479,4.48e+00,4.88e+00,
480,4.32e+00,4.88e+00,
481,4.56e+00,5.20e+00,
482,4.40e+00,4.88e+00,
483,4.64e+00,5.20e+00,
484,4.48e+00,5.12e+00,
485,4.64e+00,4.88e+00,
486,4.48e+00,4.88e+00,
487,4.72e+00,5.20e+00,
488,4.72e+00,5.12e+00,
489,4.56e+00,4.88e+00,
490,4.64e+00,5.12e+00,
491,4.80e+00,4.88e+00,
492,4.80e+00,4.88e+00,
493,4.64e+00,5.20e+00,
494,4.64e+00,5.12e+00,
495,4.88e+00,4.88e+00,
496,4.88e+00,4.88e+00,
497,4.72e+00,5.20e+00,
498,4.72e+00,5.12e+00,
499,4.96e+00,4.88e+00,
500,4.96e+00,4.88e+00,
501,4.80e+00,5.12e+00,
502,4.96e+00,5.12e+00,
503,4.80e+00,4.88e+00,
504,4.80e+00,5.12e+00,
505,4.96e+00,4.88e+00,
506,4.80e+00,4.88e+00,
507,4.96e+00,5.12e+00,
508,4.96e+00,4.88e+00,
509,4.80e+00,5.12e+00,
510,4.80e+00,5.20e+00,
511,4.96e+00,4.88e+00,
512,4.96e+00,4.88e+00,
513,4.80e+00,5.20e+00,
514,4.96e+00,5.12e+00,
515,4.80e+00,4.88e+00,
516,4.96e+00,4.88e+00,
517,4.80e+00,5.20e+00,
518,4.96e+00,4.88e+00,
519,4.72e+00,5.12e+00,
520,4.72e+00,4.88e+00,
521,4.88e+00,5.20e+00,
522,4.72e+00,5.12e+00,
523,4.88e+00,4.88e+00,
524,4.72e+00,4.88e+00,
525,4.88e+00,5.20e+00,
526,4.64e+00,5.12e+00,
527,4.80e+00,4.88e+00,
528,4.80e+00,5.12e+00,
529,4.64e+00,4.88e+00,
530,4.56e+00,4.88e+00,
531,4.72e+00,5.12e+00,
532,4.72e+00,4.88e+00,
533,4.48e+00,5.12e+00,
534,4.48e+00,4.88e+00,
535,4.64e+00,5.12e+00,
536,4.56e+00,5.12e+00,
537,4.40e+00,4.88e+00,
538,4.56e+00,5.20e+00,
539,4.32e+00,4.88e+00,
540,4.32e+00,4.88e+00,
541,4.48e+00,5.20e+00,
542,4.40e+00,4.88e+00,
543,4.16e+00,5.20e+00,
544,4.32e+00,4.88e+00,
545,4.08e+00,5.12e+00,
546,4.24e+00,4.88e+00,
547,4.00e+00,5.12e+00,
548,4.16e+00,4.88e+00,
549,3.92e+00,5.20e+00,
550,4.08e+00,4.88e+00,
551,3.84e+00,5.12e+00,
552,4.00e+00,4.88e+00,
553,3.76e+00,5.20e+00,
554,3.92e+00,4.88e+00,
555,3.68e+00,5.20e+00,
556,3.84e+00,5.20e+00,
557,3.60e+00,4.88e+00,
558,3.76e+00,4.96e+00,
559,3.52e+00,5.20e+00,
560,3.60e+00,5.20e+00,
561,3.44e+00,4.88e+00,
562,3.52e+00,5.20e+00,
563,3.36e+00,4.88e+00,
564,3.44e+00,5.12e+00,
565,3.12e+00,4.88e+00,
566,3.28e+00,4.88e+00,
567,3.04e+00,5.12e+00,
568,3.20e+00,4.88e+00,
569,2.96e+00,5.20e+00,
570,3.12e+00,4.88e+00,
571,2.88e+00,5.12e+00,
572,2.96e+00,5.12e+00,
573,2.80e+00,4.88e+00,
574,2.88e+00,5.12e+00,
575,2.64e+00,4.88e+00,
576,2.80e+00,4.88e+00,
577,2.56e+00,5.20e+00,
578,2.64e+00,5.20e+00,
579,2.48e+00,4.88e+00,
580,2.56e+00,5.12e+00,
581,2.40e+00,4.88e+00,
582,2.40e+00,5.12e+00,
583,2.24e+00,4.88e+00,
584,2.32e+00,4.88e+00,
585,2.08e+00,5.20e+00,
586,2.16e+00,4.88e+00,
587,2.00e+00,5.12e+00,
588,2.08e+00,4.88e+00,
589,1.92e+00,5.12e+00,
590,2.00e+00,5.12e+00,
591,1.84e+00,4.88e+00,
592,1.92e+00,5.12e+00,
593,1.68e+00,4.88e+00,
594,1.76e+00,4.88e+00,
595,1.60e+00,5.12e+00,
596,1.68e+00,4.88e+00,
597,1.52e+00,5.12e+00,
598,1.60e+00,5.12e+00,
599,1.44e+00,4.88e+00,
600,1.52e+00,4.88e+00,
601,1.36e+00,5.20e+00,
602,1.36e+00,4.88e+00,
603,1.12e+00,5.12e+00,
604,1.28e+00,5.12e+00,
605,1.04e+00,4.88e+00,
606,1.20e+00,5.12e+00,
607,9.60e-01,4.88e+00,
608,1.12e+00,4.88e+00,
609,8.80e-01,5.20e+00,
610,1.04e+00,4.88e+00,
611,8.00e-01,5.12e+00,
612,8.80e-01,4.88e+00,
613,7.20e-01,5.20e+00,
614,8.80e-01,4.88e+00,
615,6.40e-01,5.12e+00,
616,7.20e-01,4.88e+00,
617,5.60e-01,5.20e+00,
618,5.60e-01,5.12e+00,
619,7.20e-01,4.88e+00,
620,6.40e-01,5.12e+00,
621,4.80e-01,4.88e+00,
622,5.60e-01,5.12e+00,
623,3.20e-01,4.88e+00,
624,4.00e-01,5.12e+00,
625,2.40e-01,4.88e+00,
626,4.00e-01,5.12e+00,
627,2.40e-01,4.88e+00,
628,3.20e-01,5.12e+00,
629,1.60e-01,1.60e-01,
630,2.40e-01,2.40e-01,
631,8.00e-02,8.00e-02,
632,8.00e-02,2.40e-01,
633,2.40e-01,8.00e-02,
634,1.60e-01,8.00e-02,
635,0.00e+00,2.40e-01,
636,0.00e+00,2.40e-01,
637,1.60e-01,8.00e-02,
638,8.00e-02,8.00e-02,
639,0.00e+00,2.40e-01,
640,-8.00e-02,2.40e-01,
641,8.00e-02,8.00e-02,
642,8.00e-02,2.40e-01,
643,-8.00e-02,8.00e-02,
644,0.00e+00,2.40e-01,
645,-8.00e-02,8.00e-02,
646,0.00e+00,2.40e-01,
647,-8.00e-02,8.00e-02,
648,0.00e+00,2.40e-01,
649,-1.60e-01,8.00e-02,
650,0.00e+00,2.40e-01,
651,-1.60e-01,8.00e-02,
652,-1.60e-01,8.00e-02,
653,0.00e+00,2.40e-01,
654,-1.60e-01,2.40e-01,
655,0.00e+00,8.00e-02,
656,-1.60e-01,2.40e-01,
657,0.00e+00,8.00e-02,
658,-8.00e-02,2.40e-01,
659,0.00e+00,8.00e-02,
660,-8.00e-02,2.40e-01,
661,0.00e+00,8.00e-02,
662,-8.00e-02,2.40e-01,
663,8.00e-02,8.00e-02,
664,8.00e-02,2.40e-01,
665,-8.00e-02,8.00e-02,
666,0.00e+00,8.00e-02,
667,8.00e-02,2.40e-01,
668,0.00e+00,2.40e-01,
669,1.60e-01,8.00e-02,
670,0.00e+00,2.40e-01,
671,1.60e-01,8.00e-02,
672,8.00e-02,2.40e-01,
673,2.40e-01,8.00e-02,
674,2.40e-01,2.40e-01,
675,1.60e-01,8.00e-02,
676,1.60e-01,2.40e-01,
677,3.20e-01,8.00e-02,
678,2.40e-01,2.40e-01,
679,4.00e-01,8.00e-02,
680,4.00e-01,2.40e-01,
681,2.40e-01,8.00e-02,
682,3.20e-01,1.60e-01,
683,5.60e-01,8.00e-02,
684,4.80e-01,1.60e-01,
685,6.40e-01,8.00e-02,
686,5.60e-01,1.60e-01,
687,7.20e-01,8.00e-02,
688,6.40e-01,8.00e-02,
689,8.00e-01,2.40e-01,
690,7.20e-01,2.40e-01,
691,8.80e-01,8.00e-02,
692,8.00e-01,1.60e-01,
693,9.60e-01,5.04e+00,
694,8.80e-01,4.88e+00,
695,1.04e+00,5.04e+00,
696,9.60e-01,5.04e+00,
697,1.12e+00,4.88e+00,
698,1.04e+00,4.88e+00,
699,1.20e+00,5.12e+00,
700,1.12e+00,5.12e+00,
701,1.28e+00,4.88e+00,
702,1.20e+00,5.12e+00,
703,1.36e+00,4.88e+00,
704,1.36e+00,4.88e+00,
705,1.52e+00,5.20e+00,
706,1.44e+00,5.12e+00,
707,1.60e+00,4.88e+00,
708,1.52e+00,5.12e+00,
709,1.68e+00,4.88e+00,
710,1.60e+00,5.12e+00,
711,1.84e+00,4.88e+00,
712,1.76e+00,5.12e+00,
713,1.92e+00,4.88e+00,
714,1.84e+00,5.20e+00,
715,2.00e+00,4.88e+00,
716,1.92e+00,5.12e+00,
717,2.08e+00,4.88e+00,
718,2.00e+00,5.12e+00,
719,2.24e+00,4.88e+00,
720,2.16e+00,4.88e+00,
721,2.32e+00,5.20e+00,
722,2.24e+00,4.88e+00,
723,2.48e+00,5.20e+00,
724,2.40e+00,4.88e+00,
725,2.56e+00,5.12e+00,
726,2.48e+00,5.12e+00,
727,2.72e+00,4.88e+00,
728,2.56e+00,4.88e+00,
729,2.80e+00,5.20e+00,
730,2.72e+00,4.88e+00,
731,2.88e+00,5.20e+00,
732,2.80e+00,4.88e+00,
733,2.96e+00,5.12e+00,
734,2.88e+00,5.12e+00,
735,3.12e+00,4.88e+00,
736,2.96e+00,4.88e+00,
737,3.20e+00,5.20e+00,
738,3.12e+00,4.88e+00,
739,3.28e+00,5.12e+00,
740,3.28e+00,5.12e+00,
741,3.44e+00,4.88e+00,
742,3.36e+00,5.12e+00,
743,3.52e+00,4.88e+00,
744,3.44e+00,5.12e+00,
745,3.68e+00,4.88e+00,
746,3.52e+00,5.12e+00,
747,3.76e+00,4.88e+00,
748,3.60e+00,4.88e+00,
749,3.84e+00,5.20e+00,
750,3.68e+00,4.88e+00,
751,3.92e+00,5.20e+00,
752,3.76e+00,5.12e+00,
753,4.00e+00,4.88e+00,
754,3.84e+00,5.12e+00,
755,4.08e+00,4.88e+00,
756,3.92e+00,4.88e+00,
757,4.16e+00,5.12e+00,
758,4.00e+00,5.12e+00,
759,4.24e+00,4.88e+00,
760,4.08e+00,5.20e+00,
761,4.40e+00,4.88e+00,
762,4.24e+00,4.88e+00,
763,4.40e+00,5.20e+00,
764,4.32e+00,5.12e+00,
765,4.48e+00,4.88e+00,
766,4.32e+00,5.12e+00,
767,4.56e+00,4.88e+00,
768,4.40e+00,4.88e+00,
769,4.64e+00,5.20e+00,
770,4.64e+00,5.12e+00,
771,4.48e+00,4.88e+00,
772,4.48e+00,5.12e+00,
773,4.72e+00,4.88e+00,
774,4.56e+00,4.88e+00,
775,4.80e+00,5.12e+00,
776,4.64e+00,4.88e+00,
777,4.80e+00,5.12e+00,
778,4.64e+00,5.12e+00,
779,4.88e+00,4.88e+00,
780,4.72e+00,4.88e+00,
781,4.88e+00,5.20e+00,
782,4.88e+00,4.88e+00,
783,4.72e+00,5.20e+00,
784,4.72e+00,5.12e+00,
785,4.96e+00,4.88e+00,
786,4.72e+00,5.12e+00,
787,4.96e+00,4.88e+00,
788,4.96e+00,4.88e+00,
789,4.80e+00,5.20e+00,
790,4.96e+00,4.88e+00,
791,4.80e+00,5.12e+00,
792,4.96e+00,5.12e+00,
793,4.80e+00,4.88e+00,
794,4.80e+00,4.88e+00,
795,4.96e+00,5.20e+00,
796,4.96e+00,4.88e+00,
797,4.80e+00,5.12e+00,
798,4.80e+00,4.88e+00,
799,4.96e+00,5.12e+00,
800,4.96e+00,4.88e+00,
801,4.80e+00,5.12e+00,
802,4.96e+00,5.12e+00,
803,4.80e+00,4.88e+00,
804,4.80e+00,5.12e+00,
805,4.96e+00,4.88e+00,
806,4.88e+00,4.88e+00,
807,4.72e+00,5.12e+00,
808,4.72e+00,4.88e+00,
809,4.88e+00,5.12e+00,
810,4.88e+00,4.88e+00,
811,4.72e+00,5.20e+00,
812,4.64e+00,5.12e+00,
813,4.80e+00,4.88e+00,
814,4.80e+00,4.88e+00,
815,4.56e+00,5.20e+00,
816,4.72e+00,5.12e+00,
817,4.56e+00,4.88e+00,
818,4.72e+00,4.88e+00,
819,4.48e+00,5.20e+00,
820,4.48e+00,4.88e+00,
821,4.64e+00,5.20e+00,
822,4.56e+00,5.12e+00,
823,4.40e+00,4.88e+00,
824,4.56e+00,4.88e+00,
825,4.32e+00,5.20e+00,
826,4.32e+00,4.88e+00,
827,4.48e+00,5.20e+00,
828,4.40e+00,4.88e+00,
829,4.16e+00,5.20e+00,
830,4.24e+00,4.88e+00,
831,4.08e+00,5.20e+00,
832,4.24e+00,4.88e+00,
833,4.00e+00,5.12e+00,
834,4.16e+00,5.12e+00,
835,3.92e+00,4.88e+00,
836,4.08e+00,5.12e+00,
837,3.84e+00,4.88e+00,
838,3.92e+00,5.12e+00,
839,3.76e+00,4.88e+00,
840,3.92e+00,5.12e+00,
841,3.68e+00,4.88e+00,
842,3.76e+00,4.88e+00,
843,3.60e+00,5.20e+00,
844,3.68e+00,5.12e+00,
845,3.52e+00,4.88e+00,
846,3.60e+00,5.12e+00,
847,3.44e+00,4.88e+00,
848,3.52e+00,4.88e+00,
849,3.28e+00,5.12e+00,
850,3.44e+00,4.88e+00,
851,3.12e+00,5.20e+00,
852,3.28e+00,4.88e+00,
853,3.04e+00,5.12e+00,
854,3.20e+00,4.88e+00,
855,2.96e+00,5.20e+00,
856,3.04e+00,4.88e+00,
857,2.88e+00,5.20e+00,
858,2.96e+00,5.12e+00,
859,2.80e+00,4.88e+00,
860,2.88e+00,5.12e+00,
861,2.64e+00,4.88e+00,
862,2.80e+00,5.12e+00,
863,2.56e+00,4.88e+00,
864,2.64e+00,4.88e+00,
865,2.48e+00,5.12e+00,
866,2.56e+00,5.12e+00,
867,2.32e+00,4.88e+00,
868,2.48e+00,5.12e+00,
