project/matlab/project_exp3/75 kHz/NewFile1.csv

X,CH1,CH2,Start,Increment,
Sequence,Volt,Volt,6.900000e-04,5.000000e-08
0,0.00e+00,2.40e-01,
1,1.60e-01,1.60e-01,
2,1.60e-01,2.40e-01,
3,0.00e+00,1.60e-01,
4,8.00e-02,2.40e-01,
5,2.40e-01,1.60e-01,
6,1.60e-01,1.60e-01,
7,3.20e-01,2.40e-01,
8,3.20e-01,2.40e-01,
9,1.60e-01,1.60e-01,
10,2.40e-01,2.40e-01,
11,4.00e-01,1.60e-01,
12,3.20e-01,2.40e-01,
13,4.80e-01,8.00e-02,
14,4.80e-01,2.40e-01,
15,4.80e-01,1.60e-01,
16,4.80e-01,2.40e-01,
17,6.40e-01,1.60e-01,
18,5.60e-01,2.40e-01,
19,7.20e-01,1.60e-01,
20,6.40e-01,2.40e-01,
21,8.00e-01,8.00e-02,
22,7.20e-01,2.40e-01,
23,8.80e-01,1.60e-01,
24,8.00e-01,2.40e-01,
25,9.60e-01,1.60e-01,
26,8.80e-01,2.40e-01,
27,1.04e+00,1.60e-01,
28,9.60e-01,2.40e-01,
29,1.20e+00,2.40e-01,
30,1.12e+00,2.40e-01,
31,1.28e+00,1.60e-01,
32,1.20e+00,2.40e-01,
33,1.36e+00,2.40e-01,
34,1.28e+00,1.60e-01,
35,1.44e+00,4.00e-01,
36,1.44e+00,3.20e-01,
37,1.60e+00,5.60e-01,
38,1.52e+00,5.60e-01,
39,1.76e+00,1.04e+00,
40,1.68e+00,9.60e-01,
41,1.84e+00,1.60e+00,
42,1.76e+00,1.60e+00,
43,1.92e+00,2.16e+00,
44,1.84e+00,2.08e+00,
45,2.08e+00,2.64e+00,
46,2.00e+00,2.56e+00,
47,2.16e+00,3.12e+00,
48,2.08e+00,3.12e+00,
49,2.24e+00,3.52e+00,
50,2.16e+00,3.52e+00,
51,2.40e+00,3.92e+00,
52,2.40e+00,3.92e+00,
53,2.56e+00,4.24e+00,
54,2.48e+00,4.16e+00,
55,2.64e+00,4.56e+00,
56,2.56e+00,4.48e+00,
57,2.80e+00,4.80e+00,
58,2.72e+00,4.64e+00,
59,2.88e+00,4.96e+00,
60,2.80e+00,4.80e+00,
61,2.96e+00,5.04e+00,
62,2.88e+00,5.04e+00,
63,3.12e+00,4.88e+00,
64,3.04e+00,5.04e+00,
65,3.20e+00,4.88e+00,
66,3.12e+00,5.04e+00,
67,3.28e+00,4.88e+00,
68,3.28e+00,5.04e+00,
69,3.52e+00,4.88e+00,
70,3.36e+00,5.12e+00,
71,3.60e+00,4.88e+00,
72,3.52e+00,5.04e+00,
73,3.68e+00,4.88e+00,
74,3.60e+00,4.96e+00,
75,3.76e+00,5.04e+00,
76,3.68e+00,5.04e+00,
77,3.84e+00,4.88e+00,
78,3.76e+00,5.04e+00,
79,3.92e+00,4.88e+00,
80,3.92e+00,4.96e+00,
81,4.08e+00,5.04e+00,
82,4.00e+00,4.88e+00,
83,4.16e+00,5.04e+00,
84,4.00e+00,5.04e+00,
85,4.24e+00,4.88e+00,
86,4.16e+00,4.88e+00,
87,4.32e+00,5.12e+00,
88,4.24e+00,5.04e+00,
89,4.40e+00,4.88e+00,
90,4.32e+00,5.04e+00,
91,4.48e+00,4.88e+00,
92,4.40e+00,5.04e+00,
93,4.56e+00,4.88e+00,
94,4.48e+00,4.88e+00,
95,4.64e+00,5.12e+00,
96,4.56e+00,5.04e+00,
97,4.72e+00,4.88e+00,
98,4.72e+00,4.88e+00,
99,4.56e+00,5.04e+00,
100,4.64e+00,4.88e+00,
101,4.80e+00,5.04e+00,
102,4.72e+00,4.88e+00,
103,4.88e+00,5.12e+00,
104,4.72e+00,5.04e+00,
105,4.88e+00,4.88e+00,
106,4.88e+00,5.04e+00,
107,4.80e+00,4.88e+00,
108,4.80e+00,5.04e+00,
109,4.96e+00,4.88e+00,
110,4.80e+00,5.12e+00,
111,4.96e+00,4.88e+00,
112,4.96e+00,5.04e+00,
113,4.88e+00,4.88e+00,
114,4.88e+00,5.04e+00,
115,5.04e+00,4.88e+00,
116,5.04e+00,4.96e+00,
117,4.88e+00,5.04e+00,
118,4.88e+00,4.88e+00,
119,5.04e+00,5.12e+00,
120,5.04e+00,5.04e+00,
121,4.88e+00,4.88e+00,
122,5.04e+00,5.04e+00,
123,4.88e+00,4.88e+00,
124,4.88e+00,5.04e+00,
125,5.04e+00,4.88e+00,
126,4.88e+00,4.88e+00,
127,5.04e+00,5.12e+00,
128,4.88e+00,5.04e+00,
129,4.96e+00,4.88e+00,
130,4.96e+00,5.04e+00,
131,4.80e+00,4.88e+00,
132,4.80e+00,5.04e+00,
133,4.88e+00,4.88e+00,
134,4.88e+00,4.88e+00,
135,4.72e+00,5.12e+00,
136,4.88e+00,5.04e+00,
137,4.72e+00,4.88e+00,
138,4.80e+00,5.04e+00,
139,4.64e+00,4.88e+00,
140,4.64e+00,5.04e+00,
141,4.80e+00,4.88e+00,
142,4.72e+00,4.88e+00,
143,4.56e+00,5.12e+00,
144,4.64e+00,4.88e+00,
145,4.48e+00,5.04e+00,
146,4.56e+00,5.04e+00,
147,4.40e+00,4.88e+00,
148,4.40e+00,5.04e+00,
149,4.56e+00,4.96e+00,
150,4.32e+00,4.88e+00,
151,4.40e+00,5.12e+00,
152,4.32e+00,5.04e+00,
153,4.24e+00,4.88e+00,
154,4.24e+00,5.04e+00,
155,4.08e+00,4.96e+00,
156,4.16e+00,5.04e+00,
157,4.00e+00,4.88e+00,
158,4.08e+00,4.88e+00,
159,3.92e+00,5.12e+00,
160,4.00e+00,5.04e+00,
161,3.84e+00,4.88e+00,
162,3.92e+00,5.04e+00,
163,3.68e+00,4.88e+00,
164,3.84e+00,5.04e+00,
165,3.60e+00,4.88e+00,
166,3.76e+00,4.88e+00,
167,3.52e+00,5.12e+00,
168,3.52e+00,5.04e+00,
169,3.44e+00,4.88e+00,
170,3.52e+00,4.88e+00,
171,3.28e+00,5.04e+00,
172,3.36e+00,5.04e+00,
173,3.20e+00,4.88e+00,
174,3.28e+00,4.96e+00,
175,3.04e+00,5.12e+00,
176,3.12e+00,5.04e+00,
177,2.96e+00,4.88e+00,
178,3.04e+00,5.04e+00,
179,2.88e+00,4.88e+00,
180,2.96e+00,5.04e+00,
181,2.72e+00,4.88e+00,
182,2.80e+00,5.04e+00,
183,2.64e+00,4.88e+00,
184,2.72e+00,4.96e+00,
185,2.56e+00,5.04e+00,
186,2.56e+00,5.04e+00,
187,2.40e+00,4.88e+00,
188,2.40e+00,5.04e+00,
189,2.32e+00,4.88e+00,
190,2.32e+00,4.96e+00,
191,2.08e+00,5.12e+00,
192,2.24e+00,5.04e+00,
193,2.00e+00,4.88e+00,
194,2.08e+00,5.04e+00,
195,1.92e+00,4.88e+00,
196,2.00e+00,5.04e+00,
197,1.76e+00,4.88e+00,
198,1.84e+00,4.96e+00,
199,1.68e+00,5.12e+00,
200,1.76e+00,5.04e+00,
201,1.60e+00,4.88e+00,
202,1.68e+00,4.88e+00,
203,1.52e+00,5.04e+00,
204,1.52e+00,5.04e+00,
205,1.36e+00,4.88e+00,
206,1.36e+00,5.12e+00,
207,1.20e+00,4.88e+00,
208,1.28e+00,5.04e+00,
209,1.12e+00,4.88e+00,
210,1.20e+00,5.04e+00,
211,1.04e+00,4.88e+00,
212,1.12e+00,5.04e+00,
213,9.60e-01,4.88e+00,
214,1.04e+00,5.12e+00,
215,8.80e-01,4.88e+00,
216,9.60e-01,5.04e+00,
217,7.20e-01,4.88e+00,
218,8.80e-01,5.04e+00,
219,6.40e-01,4.88e+00,
220,7.20e-01,5.04e+00,
221,6.40e-01,4.88e+00,
222,6.40e-01,4.88e+00,
223,5.60e-01,5.12e+00,
224,5.60e-01,5.04e+00,
225,4.80e-01,4.88e+00,
226,4.80e-01,5.04e+00,
227,3.20e-01,4.88e+00,
228,4.00e-01,5.04e+00,
229,2.40e-01,4.88e+00,
230,3.20e-01,4.88e+00,
231,2.40e-01,5.12e+00,
232,3.20e-01,5.04e+00,
233,1.60e-01,4.88e+00,
234,2.40e-01,4.96e+00,
235,8.00e-02,5.04e+00,
236,1.60e-01,4.96e+00,
237,8.00e-02,5.04e+00,
238,1.60e-01,4.88e+00,
239,0.00e+00,5.12e+00,
240,0.00e+00,5.04e+00,
241,8.00e-02,4.88e+00,
242,8.00e-02,5.04e+00,
243,0.00e+00,4.96e+00,
244,8.00e-02,5.04e+00,
245,-8.00e-02,4.72e+00,
246,-8.00e-02,4.80e+00,
247,0.00e+00,3.52e+00,
248,-8.00e-02,3.52e+00,
249,0.00e+00,1.92e+00,
250,-8.00e-02,1.84e+00,
251,0.00e+00,5.60e-01,
252,0.00e+00,5.60e-01,
253,-8.00e-02,1.60e-01,
254,0.00e+00,2.40e-01,
255,-8.00e-02,1.60e-01,
256,-8.00e-02,2.40e-01,
257,0.00e+00,1.60e-01,
258,-8.00e-02,2.40e-01,
259,0.00e+00,8.00e-02,
260,-8.00e-02,2.40e-01,
261,8.00e-02,1.60e-01,
262,-8.00e-02,2.40e-01,
263,8.00e-02,1.60e-01,
264,8.00e-02,2.40e-01,
265,0.00e+00,1.60e-01,
266,0.00e+00,2.40e-01,
267,1.60e-01,1.60e-01,
268,1.60e-01,2.40e-01,
269,0.00e+00,1.60e-01,
270,8.00e-02,2.40e-01,
271,2.40e-01,1.60e-01,
272,8.00e-02,2.40e-01,
273,2.40e-01,1.60e-01,
274,1.60e-01,2.40e-01,
275,3.20e-01,1.60e-01,
276,2.40e-01,2.40e-01,
277,4.00e-01,1.60e-01,
278,3.20e-01,2.40e-01,
279,4.00e-01,8.00e-02,
280,3.20e-01,2.40e-01,
281,4.80e-01,8.00e-02,
282,4.80e-01,2.40e-01,
283,5.60e-01,1.60e-01,
284,5.60e-01,2.40e-01,
285,7.20e-01,8.00e-02,
286,6.40e-01,2.40e-01,
287,8.00e-01,1.60e-01,
288,7.20e-01,2.40e-01,
289,8.80e-01,8.00e-02,
290,8.00e-01,1.60e-01,
291,9.60e-01,2.40e-01,
292,8.80e-01,2.40e-01,
293,1.04e+00,1.60e-01,
294,9.60e-01,2.40e-01,
295,1.12e+00,1.60e-01,
296,1.04e+00,2.40e-01,
297,1.20e+00,1.60e-01,
298,1.12e+00,2.40e-01,
299,1.36e+00,1.60e-01,
300,1.20e+00,1.60e-01,
301,1.44e+00,3.20e-01,
302,1.44e+00,3.20e-01,
303,1.52e+00,4.80e-01,
304,1.52e+00,4.00e-01,
305,1.68e+00,8.80e-01,
306,1.60e+00,8.80e-01,
307,1.76e+00,1.36e+00,
308,1.68e+00,1.44e+00,
309,1.92e+00,2.00e+00,
310,1.84e+00,1.92e+00,
311,2.00e+00,2.56e+00,
312,1.92e+00,2.48e+00,
313,2.08e+00,2.96e+00,
314,2.08e+00,2.96e+00,
315,2.24e+00,3.44e+00,
316,2.16e+00,3.36e+00,
317,2.32e+00,3.84e+00,
318,2.32e+00,3.76e+00,
319,2.48e+00,4.16e+00,
320,2.40e+00,4.08e+00,
321,2.64e+00,4.48e+00,
322,2.56e+00,4.40e+00,
323,2.72e+00,4.72e+00,
324,2.64e+00,4.56e+00,
325,2.88e+00,4.88e+00,
326,2.80e+00,4.80e+00,
327,2.96e+00,5.04e+00,
328,2.88e+00,4.96e+00,
329,3.04e+00,5.04e+00,
330,2.96e+00,5.04e+00,
331,3.20e+00,4.88e+00,
332,3.04e+00,5.04e+00,
333,3.28e+00,4.88e+00,
334,3.20e+00,5.04e+00,
335,3.36e+00,4.88e+00,
336,3.36e+00,5.04e+00,
337,3.52e+00,4.88e+00,
338,3.44e+00,5.04e+00,
339,3.68e+00,4.88e+00,
340,3.52e+00,5.04e+00,
341,3.76e+00,4.88e+00,
342,3.68e+00,5.04e+00,
343,3.84e+00,4.88e+00,
344,3.76e+00,5.04e+00,
345,3.92e+00,4.88e+00,
346,3.84e+00,5.04e+00,
347,4.00e+00,4.88e+00,
348,3.92e+00,5.04e+00,
349,4.08e+00,4.88e+00,
350,4.00e+00,4.88e+00,
351,4.16e+00,5.12e+00,
352,4.24e+00,5.04e+00,
353,4.08e+00,4.88e+00,
354,4.32e+00,5.04e+00,
355,4.16e+00,4.88e+00,
356,4.32e+00,5.04e+00,
357,4.48e+00,4.88e+00,
358,4.40e+00,4.88e+00,
359,4.56e+00,5.04e+00,
360,4.48e+00,5.04e+00,
361,4.64e+00,4.88e+00,
362,4.56e+00,5.04e+00,
363,4.72e+00,4.88e+00,
364,4.72e+00,5.04e+00,
365,4.56e+00,4.88e+00,
366,4.64e+00,5.12e+00,
367,4.80e+00,4.88e+00,
368,4.72e+00,5.04e+00,
369,4.80e+00,4.88e+00,
370,4.72e+00,5.04e+00,
371,4.88e+00,4.88e+00,
372,4.80e+00,4.96e+00,
373,4.88e+00,5.04e+00,
374,4.80e+00,4.88e+00,
375,4.96e+00,5.12e+00,
376,4.80e+00,5.04e+00,
377,4.96e+00,4.88e+00,
378,4.88e+00,5.04e+00,
379,4.96e+00,4.88e+00,
380,4.88e+00,5.04e+00,
381,5.04e+00,4.88e+00,
382,4.88e+00,4.88e+00,
383,5.04e+00,5.12e+00,
384,5.04e+00,5.04e+00,
385,4.88e+00,4.88e+00,
386,5.04e+00,5.04e+00,
387,4.88e+00,4.88e+00,
388,5.04e+00,4.96e+00,
389,4.88e+00,5.04e+00,
390,5.04e+00,4.88e+00,
391,4.88e+00,5.12e+00,
392,4.88e+00,5.04e+00,
393,5.04e+00,4.88e+00,
394,4.88e+00,5.04e+00,
395,4.96e+00,4.88e+00,
396,4.96e+00,5.04e+00,
397,4.80e+00,4.88e+00,
398,4.80e+00,4.88e+00,
399,4.96e+00,5.12e+00,
400,4.88e+00,5.04e+00,
401,4.80e+00,4.88e+00,
402,4.88e+00,5.04e+00,
403,4.72e+00,4.88e+00,
404,4.88e+00,5.04e+00,
405,4.64e+00,4.88e+00,
406,4.64e+00,4.96e+00,
407,4.80e+00,5.12e+00,
408,4.72e+00,4.88e+00,
409,4.56e+00,5.04e+00,
410,4.72e+00,5.04e+00,
411,4.48e+00,4.88e+00,
412,4.48e+00,5.04e+00,
413,4.64e+00,4.88e+00,
414,4.56e+00,5.20e+00,
415,4.40e+00,4.88e+00,
416,4.40e+00,4.96e+00,
417,4.32e+00,5.04e+00,
418,4.32e+00,5.04e+00,
419,4.16e+00,4.88e+00,
420,4.24e+00,5.04e+00,
421,4.08e+00,4.88e+00,
422,4.16e+00,4.96e+00,
423,4.00e+00,5.20e+00,
424,4.08e+00,4.96e+00,
425,3.92e+00,5.04e+00,
426,4.00e+00,5.04e+00,
427,3.84e+00,4.88e+00,
428,3.92e+00,5.04e+00,
429,3.76e+00,4.88e+00,
430,3.84e+00,4.88e+00,
431,3.68e+00,5.12e+00,
432,3.76e+00,5.04e+00,
433,3.60e+00,4.88e+00,
434,3.68e+00,5.04e+00,
435,3.44e+00,4.88e+00,
436,3.52e+00,5.04e+00,
437,3.36e+00,4.88e+00,
438,3.36e+00,4.88e+00,
439,3.20e+00,5.12e+00,
440,3.28e+00,4.96e+00,
441,3.12e+00,5.04e+00,
442,3.20e+00,5.04e+00,
443,2.96e+00,4.88e+00,
444,3.04e+00,4.96e+00,
445,2.88e+00,5.04e+00,
446,2.96e+00,4.96e+00,
447,2.80e+00,5.12e+00,
448,2.88e+00,5.04e+00,
449,2.64e+00,4.88e+00,
450,2.72e+00,4.96e+00,
451,2.56e+00,5.04e+00,
452,2.64e+00,4.88e+00,
453,2.48e+00,5.04e+00,
454,2.48e+00,5.12e+00,
455,2.32e+00,4.88e+00,
456,2.32e+00,5.04e+00,
457,2.16e+00,4.88e+00,
458,2.24e+00,5.04e+00,
459,2.08e+00,4.88e+00,
460,2.16e+00,4.96e+00,
461,1.92e+00,5.04e+00,
462,2.00e+00,4.88e+00,
463,1.84e+00,5.12e+00,
464,1.92e+00,5.04e+00,
465,1.76e+00,4.88e+00,
466,1.76e+00,4.96e+00,
467,1.60e+00,5.04e+00,
468,1.68e+00,4.96e+00,
469,1.52e+00,5.04e+00,
470,1.52e+00,4.88e+00,
471,1.44e+00,5.12e+00,
472,1.44e+00,4.88e+00,
473,1.28e+00,5.04e+00,
474,1.36e+00,5.04e+00,
475,1.12e+00,4.88e+00,
476,1.20e+00,5.04e+00,
477,1.04e+00,4.88e+00,
478,1.12e+00,5.12e+00,
479,9.60e-01,4.88e+00,
480,1.04e+00,5.04e+00,
481,8.80e-01,4.88e+00,
482,9.60e-01,5.04e+00,
483,8.00e-01,4.88e+00,
484,8.80e-01,5.04e+00,
485,7.20e-01,4.88e+00,
486,8.00e-01,4.88e+00,
487,6.40e-01,5.12e+00,
488,7.20e-01,5.04e+00,
489,5.60e-01,4.88e+00,
490,6.40e-01,4.96e+00,
491,4.80e-01,5.04e+00,
492,4.80e-01,5.04e+00,
493,4.00e-01,4.88e+00,
494,4.00e-01,4.96e+00,
495,3.20e-01,5.04e+00,
496,2.40e-01,5.04e+00,
497,4.00e-01,4.88e+00,
498,3.20e-01,5.04e+00,
499,1.60e-01,4.88e+00,
500,2.40e-01,4.88e+00,
501,1.60e-01,5.04e+00,
502,8.00e-02,4.88e+00,
503,2.40e-01,5.12e+00,
504,1.60e-01,5.04e+00,
505,0.00e+00,4.88e+00,
506,0.00e+00,5.04e+00,
507,1.60e-01,4.88e+00,
508,0.00e+00,5.04e+00,
509,8.00e-02,4.88e+00,
510,8.00e-02,4.96e+00,
511,-8.00e-02,5.12e+00,
512,-8.00e-02,5.04e+00,
513,8.00e-02,4.08e+00,
514,-8.00e-02,4.00e+00,
515,0.00e+00,2.40e+00,
516,-8.00e-02,2.40e+00,
517,0.00e+00,9.60e-01,
518,0.00e+00,9.60e-01,
519,-8.00e-02,2.40e-01,
520,0.00e+00,2.40e-01,
521,-8.00e-02,1.60e-01,
522,-8.00e-02,2.40e-01,
523,0.00e+00,1.60e-01,
524,0.00e+00,2.40e-01,
525,-8.00e-02,1.60e-01,
526,0.00e+00,2.40e-01,
527,-8.00e-02,8.00e-02,
528,-8.00e-02,2.40e-01,
529,8.00e-02,1.60e-01,
530,8.00e-02,2.40e-01,
531,-8.00e-02,1.60e-01,
532,8.00e-02,2.40e-01,
533,0.00e+00,1.60e-01,
534,0.00e+00,2.40e-01,
535,1.60e-01,1.60e-01,
536,1.60e-01,2.40e-01,
537,8.00e-02,1.60e-01,
538,8.00e-02,2.40e-01,
539,2.40e-01,1.60e-01,
540,1.60e-01,2.40e-01,
541,3.20e-01,8.00e-02,
542,3.20e-01,2.40e-01,
543,2.40e-01,8.00e-02,
544,2.40e-01,2.40e-01,
545,4.00e-01,8.00e-02,
546,3.20e-01,2.40e-01,
547,4.80e-01,8.00e-02,
548,4.00e-01,2.40e-01,
549,6.40e-01,8.00e-02,
550,5.60e-01,2.40e-01,
551,7.20e-01,8.00e-02,
552,6.40e-01,2.40e-01,
553,8.00e-01,8.00e-02,
554,8.00e-01,2.40e-01,
555,6.40e-01,8.00e-02,
556,8.00e-01,2.40e-01,
557,9.60e-01,1.60e-01,
558,8.80e-01,2.40e-01,
559,1.04e+00,8.00e-02,
560,8.80e-01,1.60e-01,
561,1.12e+00,2.40e-01,
562,1.04e+00,2.40e-01,
563,1.20e+00,1.60e-01,
564,1.12e+00,2.40e-01,
565,1.28e+00,1.60e-01,
566,1.20e+00,2.40e-01,
567,1.36e+00,1.60e-01,
568,1.36e+00,2.40e-01,
569,1.60e+00,3.20e-01,
570,1.44e+00,3.20e-01,
571,1.68e+00,7.20e-01,
572,1.60e+00,6.40e-01,
573,1.76e+00,1.20e+00,
574,1.68e+00,1.20e+00,
575,1.84e+00,1.84e+00,
576,1.76e+00,1.76e+00,
577,2.00e+00,2.32e+00,
578,1.92e+00,2.32e+00,
579,2.08e+00,2.80e+00,
580,2.00e+00,2.72e+00,
581,2.16e+00,3.36e+00,
582,2.16e+00,3.20e+00,
583,2.32e+00,3.68e+00,
584,2.24e+00,3.60e+00,
585,2.40e+00,4.08e+00,
586,2.32e+00,4.00e+00,
587,2.48e+00,4.40e+00,
588,2.48e+00,4.32e+00,
589,2.64e+00,4.64e+00,
590,2.64e+00,4.56e+00,
591,2.80e+00,4.88e+00,
592,2.72e+00,4.72e+00,
593,2.96e+00,4.96e+00,
594,2.80e+00,4.80e+00,
595,3.04e+00,5.04e+00,
596,2.96e+00,5.04e+00,
597,3.12e+00,4.88e+00,
598,3.04e+00,5.04e+00,
599,3.20e+00,4.88e+00,
600,3.12e+00,5.04e+00,
601,3.36e+00,4.88e+00,
602,3.36e+00,5.04e+00,
603,3.44e+00,4.88e+00,
604,3.44e+00,5.04e+00,
605,3.60e+00,4.88e+00,
606,3.52e+00,5.04e+00,
607,3.68e+00,4.88e+00,
608,3.60e+00,5.04e+00,
609,3.84e+00,4.88e+00,
610,3.68e+00,5.04e+00,
611,3.92e+00,4.88e+00,
612,3.84e+00,4.88e+00,
613,4.00e+00,5.04e+00,
614,3.92e+00,5.04e+00,
615,4.08e+00,4.88e+00,
616,4.00e+00,4.96e+00,
617,4.16e+00,5.04e+00,
618,4.08e+00,5.04e+00,
619,4.24e+00,4.88e+00,
620,4.16e+00,5.04e+00,
621,4.32e+00,4.88e+00,
622,4.32e+00,5.04e+00,
623,4.48e+00,4.88e+00,
624,4.40e+00,5.04e+00,
625,4.48e+00,4.88e+00,
626,4.40e+00,5.04e+00,
627,4.56e+00,4.88e+00,
628,4.48e+00,5.04e+00,
629,4.64e+00,4.88e+00,
630,4.56e+00,5.12e+00,
631,4.72e+00,4.88e+00,
632,4.64e+00,5.04e+00,
633,4.80e+00,4.88e+00,
634,4.80e+00,5.04e+00,
635,4.64e+00,4.88e+00,
636,4.72e+00,4.88e+00,
637,4.88e+00,5.04e+00,
638,4.88e+00,4.88e+00,
639,4.72e+00,5.12e+00,
640,4.80e+00,5.04e+00,
641,4.96e+00,4.88e+00,
642,4.96e+00,5.04e+00,
643,4.80e+00,4.88e+00,
644,4.96e+00,5.04e+00,
645,4.88e+00,4.88e+00,
646,4.88e+00,4.88e+00,
647,5.04e+00,5.12e+00,
648,4.88e+00,5.04e+00,
649,5.04e+00,4.88e+00,
650,4.88e+00,5.04e+00,
651,5.04e+00,4.88e+00,
652,5.04e+00,5.04e+00,
653,4.88e+00,4.88e+00,
654,4.88e+00,4.96e+00,
655,5.04e+00,5.12e+00,
656,5.04e+00,5.04e+00,
657,4.88e+00,4.88e+00,
658,4.88e+00,4.96e+00,
659,5.04e+00,5.04e+00,
660,4.96e+00,5.04e+00,
661,4.88e+00,4.88e+00,
662,4.96e+00,4.96e+00,
663,4.80e+00,5.12e+00,
664,4.96e+00,4.88e+00,
665,4.80e+00,5.04e+00,
666,4.88e+00,5.04e+00,
667,4.80e+00,4.88e+00,
668,4.88e+00,5.04e+00,
669,4.72e+00,4.88e+00,
670,4.72e+00,4.88e+00,
671,4.88e+00,5.12e+00,
672,4.80e+00,5.04e+00,
673,4.64e+00,4.88e+00,
674,4.72e+00,5.04e+00,
675,4.56e+00,4.88e+00,
676,4.72e+00,5.04e+00,
677,4.56e+00,4.88e+00,
678,4.64e+00,4.88e+00,
679,4.48e+00,5.12e+00,
680,4.56e+00,4.88e+00,
681,4.40e+00,5.04e+00,
682,4.48e+00,4.88e+00,
683,4.32e+00,5.04e+00,
684,4.40e+00,5.04e+00,
685,4.24e+00,4.88e+00,
686,4.32e+00,5.12e+00,
687,4.16e+00,4.88e+00,
688,4.24e+00,5.04e+00,
689,4.08e+00,4.88e+00,
690,4.16e+00,5.04e+00,
691,3.92e+00,4.88e+00,
692,4.08e+00,5.04e+00,
693,3.92e+00,4.88e+00,
694,4.00e+00,4.96e+00,
695,3.76e+00,5.12e+00,
696,3.92e+00,5.04e+00,
697,3.68e+00,4.88e+00,
698,3.76e+00,5.04e+00,
699,3.60e+00,4.96e+00,
700,3.68e+00,4.96e+00,
701,3.52e+00,5.04e+00,
702,3.60e+00,4.96e+00,
703,3.36e+00,5.12e+00,
704,3.44e+00,5.04e+00,
705,3.28e+00,4.88e+00,
706,3.28e+00,5.04e+00,
707,3.12e+00,4.96e+00,
708,3.20e+00,4.88e+00,
709,3.04e+00,5.04e+00,
710,3.12e+00,4.88e+00,
711,2.88e+00,5.12e+00,
712,3.04e+00,5.04e+00,
713,2.80e+00,4.88e+00,
714,2.88e+00,5.04e+00,
715,2.72e+00,4.96e+00,
716,2.80e+00,5.04e+00,
717,2.56e+00,4.88e+00,
718,2.64e+00,5.12e+00,
719,2.48e+00,4.88e+00,
720,2.40e+00,5.04e+00,
721,2.56e+00,4.88e+00,
722,2.40e+00,5.04e+00,
723,2.16e+00,4.88e+00,
724,2.24e+00,5.04e+00,
725,2.08e+00,4.88e+00,
726,2.16e+00,4.88e+00,
727,2.00e+00,5.12e+00,
728,2.08e+00,4.88e+00,
729,1.84e+00,5.04e+00,
730,1.92e+00,5.04e+00,
731,1.76e+00,4.88e+00,
732,1.84e+00,5.04e+00,
733,1.68e+00,4.88e+00,
734,1.76e+00,5.12e+00,
735,1.52e+00,4.88e+00,
736,1.60e+00,5.04e+00,
737,1.44e+00,4.88e+00,
738,1.44e+00,5.04e+00,
739,1.28e+00,4.96e+00,
740,1.36e+00,5.04e+00,
741,1.20e+00,4.96e+00,
742,1.28e+00,4.96e+00,
743,1.12e+00,5.20e+00,
744,1.20e+00,4.96e+00,
745,9.60e-01,5.04e+00,
746,1.04e+00,4.96e+00,
747,8.80e-01,5.04e+00,
748,9.60e-01,5.04e+00,
749,8.00e-01,4.88e+00,
750,8.80e-01,5.12e+00,
751,7.20e-01,4.88e+00,
752,8.00e-01,4.88e+00,
753,6.40e-01,5.04e+00,
754,7.20e-01,5.04e+00,
755,5.60e-01,4.96e+00,
756,6.40e-01,5.04e+00,
757,4.80e-01,4.88e+00,
758,4.80e-01,5.12e+00,
759,5.60e-01,4.88e+00,
760,4.80e-01,5.04e+00,
761,3.20e-01,4.88e+00,
762,4.00e-01,5.04e+00,
763,2.40e-01,4.88e+00,
764,3.20e-01,5.04e+00,
765,2.40e-01,4.88e+00,
766,1.60e-01,5.12e+00,
767,2.40e-01,4.88e+00,
768,2.40e-01,4.96e+00,
769,8.00e-02,5.04e+00,
770,1.60e-01,5.04e+00,
771,8.00e-02,4.88e+00,
772,1.60e-01,5.04e+00,
773,0.00e+00,4.88e+00,
774,8.00e-02,4.96e+00,
775,0.00e+00,5.12e+00,
776,8.00e-02,5.04e+00,
777,0.00e+00,4.96e+00,
778,8.00e-02,5.04e+00,
779,-8.00e-02,4.48e+00,
780,-8.00e-02,4.56e+00,
781,0.00e+00,3.12e+00,
782,0.00e+00,3.04e+00,
783,-8.00e-02,1.52e+00,
784,-8.00e-02,1.52e+00,
785,0.00e+00,3.20e-01,
786,0.00e+00,3.20e-01,
787,-8.00e-02,1.60e-01,
788,0.00e+00,2.40e-01,
789,-8.00e-02,1.60e-01,
790,-8.00e-02,2.40e-01,
791,0.00e+00,1.60e-01,
792,0.00e+00,2.40e-01,
793,-8.00e-02,1.60e-01,
794,-8.00e-02,8.00e-02,
795,8.00e-02,2.40e-01,
796,-8.00e-02,2.40e-01,
797,8.00e-02,1.60e-01,
798,0.00e+00,2.40e-01,
799,8.00e-02,1.60e-01,
800,0.00e+00,2.40e-01,
801,1.60e-01,1.60e-01,
802,8.00e-02,2.40e-01,
803,1.60e-01,1.60e-01,
804,8.00e-02,2.40e-01,
805,2.40e-01,1.60e-01,
806,2.40e-01,2.40e-01,
807,1.60e-01,1.60e-01,
808,1.60e-01,2.40e-01,
809,3.20e-01,1.60e-01,
810,2.40e-01,2.40e-01,
811,4.00e-01,8.00e-02,
812,3.20e-01,2.40e-01,
813,4.80e-01,1.60e-01,
814,4.80e-01,2.40e-01,
815,4.80e-01,8.00e-02,
816,4.80e-01,2.40e-01,
817,6.40e-01,8.00e-02,
818,5.60e-01,2.40e-01,
819,7.20e-01,1.60e-01,
820,6.40e-01,2.40e-01,
821,8.00e-01,1.60e-01,
822,7.20e-01,2.40e-01,
823,8.80e-01,1.60e-01,
824,8.00e-01,2.40e-01,
825,9.60e-01,1.60e-01,
826,8.80e-01,2.40e-01,
827,1.04e+00,1.60e-01,
828,9.60e-01,1.60e-01,
829,1.12e+00,2.40e-01,
830,1.12e+00,2.40e-01,
831,1.28e+00,1.60e-01,
832,1.20e+00,2.40e-01,
833,1.36e+00,1.60e-01,
834,1.28e+00,1.60e-01,
835,1.44e+00,3.20e-01,
836,1.44e+00,3.20e-01,
837,1.60e+00,5.60e-01,
838,1.52e+00,5.60e-01,
839,1.76e+00,1.04e+00,
840,1.68e+00,1.04e+00,
841,1.84e+00,1.68e+00,
842,1.76e+00,1.60e+00,
843,1.92e+00,2.16e+00,
844,1.84e+00,2.16e+00,
845,2.08e+00,2.64e+00,
846,2.00e+00,2.56e+00,
847,2.16e+00,3.12e+00,
848,2.08e+00,3.12e+00,
849,2.24e+00,3.60e+00,
850,2.24e+00,3.52e+00,
851,2.40e+00,3.92e+00,
852,2.40e+00,3.92e+00,
853,2.56e+00,4.24e+00,
854,2.48e+00,4.16e+00,
855,2.64e+00,4.56e+00,
856,2.56e+00,4.48e+00,
857,2.80e+00,4.80e+00,
858,2.72e+00,4.64e+00,
859,2.88e+00,4.96e+00,
860,2.80e+00,4.80e+00,
861,2.96e+00,5.04e+00,
862,2.88e+00,5.04e+00,
863,3.12e+00,4.88e+00,
864,3.04e+00,5.04e+00,
865,3.20e+00,4.88e+00,
866,3.12e+00,5.04e+00,
867,3.28e+00,4.88e+00,
868,3.28e+00,5.04e+00,
